dummy,month,day,period,view,station,fgeno,mgeno,fcol,mcol,nf,nm,frame,something,sex,x,y
1,6,29,3,3,2,C,E,r,g,10,10,1,1,3,154.8986,344.3061
1,6,29,3,3,2,C,E,r,g,10,10,1001,1,1,289.9075,115.9399
1,6,29,3,3,2,C,E,r,g,10,10,1001,1,3,489.5485,477.8788
1,6,29,3,3,2,C,E,r,g,10,10,2001,1,1,502.4749,431.9183
1,6,29,3,3,2,C,E,r,g,10,10,2001,1,1,503.9111,493.6777
1,6,29,3,3,2,C,E,r,g,10,10,2001,1,3,472.3133,477.8788
1,6,29,3,3,2,C,E,r,g,10,10,3001,1,1,317.1966,143.2289
1,6,29,3,3,2,C,E,r,g,10,10,3001,1,1,442.1517,331.3797
1,6,29,3,3,2,C,E,r,g,10,10,3001,1,3,396.1912,477.8788
1,6,29,3,3,2,C,E,r,g,10,10,4001,1,1,298.5251,148.974
1,6,29,3,3,2,C,E,r,g,10,10,4001,1,3,409.1176,472.1338
1,6,29,3,3,2,C,E,r,g,10,10,5001,1,1,279.8537,141.7926
1,6,29,3,3,2,C,E,r,g,10,10,5001,1,1,354.5395,318.4533
1,6,29,3,3,2,C,E,r,g,10,10,5001,1,3,367.4659,462.0799
1,6,29,3,3,2,C,E,r,g,10,10,5001,1,1,177.8788,275.3654
1,6,29,3,3,2,C,E,r,g,10,10,6001,1,3,381.8285,441.9722
1,6,29,3,3,2,C,E,r,g,10,10,6001,1,1,414.8627,450.5898
1,6,29,3,3,2,C,E,r,g,10,10,7001,1,1,322.9417,271.0566
1,6,29,3,3,2,C,E,r,g,10,10,7001,1,3,341.6131,414.6831
1,6,29,3,3,2,C,E,r,g,10,10,7001,1,3,380.3923,480.7513
1,6,29,3,3,2,C,E,r,g,10,10,7001,1,1,393.3187,541.0745
1,6,29,3,3,2,C,E,r,g,10,10,8001,1,1,278.4174,177.6993
1,6,29,3,3,2,C,E,r,g,10,10,8001,1,3,344.4856,416.1194
1,6,29,3,3,2,C,E,r,g,10,10,8001,1,3,366.0296,449.1535
1,6,29,3,3,2,C,E,r,g,10,10,9001,1,1,231.0206,423.3007
1,6,29,3,3,2,C,E,r,g,10,10,9001,1,3,317.1966,407.5018
1,6,29,3,3,2,C,E,r,g,10,10,9001,1,3,363.1571,453.4623
1,6,29,3,3,2,C,E,r,g,10,10,9001,1,1,455.0781,454.8986
1,6,29,3,3,2,C,E,r,g,10,10,10001,1,3,305.7065,391.7029
1,6,29,3,3,2,C,E,r,g,10,10,10001,1,3,302.8339,469.2612
1,6,29,3,3,2,C,E,r,g,10,10,10001,1,1,350.2307,443.4084
1,6,29,3,3,2,C,E,r,g,10,10,10001,1,1,350.2307,492.2415
1,6,29,3,3,2,C,E,r,g,10,10,11001,1,3,261.1822,404.6293
1,6,29,3,3,2,C,E,r,g,10,10,11001,1,3,185.0601,295.4731
1,6,29,3,3,2,C,E,r,g,10,10,11001,1,1,249.6921,250.9488
1,6,29,3,3,2,C,E,r,g,10,10,11001,1,1,295.6526,212.1697
1,6,29,3,3,2,C,E,r,g,10,10,12001,1,3,219.5305,352.9237
1,6,29,3,3,2,C,E,r,g,10,10,12001,1,3,298.5251,275.3654
1,6,29,3,3,2,C,E,r,g,10,10,12001,1,1,358.8483,306.9632
1,6,29,3,3,2,C,E,r,g,10,10,12001,1,1,360.2846,338.561
1,6,29,3,3,2,C,E,r,g,10,10,13001,1,3,281.2899,311.272
1,6,29,3,3,2,C,E,r,g,10,10,13001,1,3,291.3438,253.8214
1,6,29,3,3,2,C,E,r,g,10,10,13001,1,1,370.3384,272.4928
1,6,29,3,3,2,C,E,r,g,10,10,13001,1,1,374.6472,131.7388
1,6,29,3,3,2,C,E,r,g,10,10,13001,1,1,506.7837,59.9255
1,6,29,3,3,2,C,E,r,g,10,10,14001,1,3,292.7801,314.1445
1,6,29,3,3,2,C,E,r,g,10,10,14001,1,3,299.9614,174.8268
1,6,29,3,3,2,C,E,r,g,10,10,14001,1,1,440.7154,236.5862
1,6,29,3,3,2,C,E,r,g,10,10,14001,1,1,551.3079,170.518
1,6,29,3,3,2,C,E,r,g,10,10,14001,1,1,143.4084,325.6346
1,6,29,3,3,2,C,E,r,g,10,10,15001,1,3,305.7065,189.1894
1,6,29,3,3,2,C,E,r,g,10,10,15001,1,3,287.035,298.3456
1,6,29,3,3,2,C,E,r,g,10,10,15001,1,1,288.4713,341.4336
1,6,29,3,3,2,C,E,r,g,10,10,15001,1,1,363.1571,335.6885
1,6,29,3,3,2,C,E,r,g,10,10,15001,1,1,285.5987,525.2756
1,6,29,3,3,2,C,E,r,g,10,10,16001,1,3,272.6724,220.7873
1,6,29,3,3,2,C,E,r,g,10,10,16001,1,3,350.2307,318.4533
1,6,29,3,3,2,C,E,r,g,10,10,16001,1,1,311.4515,273.9291
1,6,29,3,3,2,C,E,r,g,10,10,16001,1,1,377.5197,105.886
1,6,29,3,3,2,C,E,r,g,10,10,16001,1,1,584.342,470.6975
1,6,29,3,3,2,C,E,r,g,10,10,17001,1,1,331.5592,226.5323
1,6,29,3,3,2,C,E,r,g,10,10,17001,1,1,264.0548,215.0422
1,6,29,3,3,2,C,E,r,g,10,10,17001,1,1,268.3636,255.2576
1,6,29,3,3,2,C,E,r,g,10,10,17001,1,3,297.0889,272.4928
1,6,29,3,3,2,C,E,r,g,10,10,17001,1,3,391.8824,319.8896
1,6,29,3,3,2,C,E,r,g,10,10,18001,1,1,249.6921,118.8124
1,6,29,3,3,2,C,E,r,g,10,10,18001,1,3,430.6616,308.3995
1,6,29,3,3,2,C,E,r,g,10,10,18001,1,1,363.1571,397.4479
1,6,29,3,3,2,C,E,r,g,10,10,18001,1,3,368.9022,454.8986
1,6,29,3,3,2,C,E,r,g,10,10,19001,1,3,430.6616,315.5808
1,6,29,3,3,2,C,E,r,g,10,10,19001,1,3,347.3582,408.9381
1,6,29,3,3,2,C,E,r,g,10,10,19001,1,1,347.3582,466.3887
1,6,29,3,3,2,C,E,r,g,10,10,20001,1,1,399.0637,182.0081
1,6,29,3,3,2,C,E,r,g,10,10,20001,1,3,442.1517,302.6544
1,6,29,3,3,2,C,E,r,g,10,10,20001,1,3,343.0494,390.2666
1,6,29,3,3,2,C,E,r,g,10,10,21001,1,1,295.6526,410.3743
1,6,29,3,3,2,C,E,r,g,10,10,21001,1,3,348.7944,403.193
1,6,29,3,3,2,C,E,r,g,10,10,21001,1,3,457.9506,292.6005
1,6,29,3,3,2,C,E,r,g,10,10,21001,1,3,508.2199,365.8501
1,6,29,3,3,2,C,E,r,g,10,10,22001,1,1,259.746,365.8501
1,6,29,3,3,2,C,E,r,g,10,10,22001,1,3,226.7118,383.0853
1,6,29,3,3,2,C,E,r,g,10,10,22001,1,3,350.2307,327.0709
1,6,29,3,3,2,C,E,r,g,10,10,22001,1,3,440.7154,250.9488
1,6,29,3,3,2,C,E,r,g,10,10,23001,1,1,327.2504,143.2289
1,6,29,3,3,2,C,E,r,g,10,10,23001,1,3,437.8429,230.8411
1,6,29,3,3,2,C,E,r,g,10,10,23001,1,3,380.3923,430.482
1,6,29,3,3,2,C,E,r,g,10,10,24001,1,1,381.8285,418.9919
1,6,29,3,3,2,C,E,r,g,10,10,24001,1,3,364.5934,430.482
1,6,29,3,3,2,C,E,r,g,10,10,24001,1,3,447.8968,245.2038
1,6,29,3,3,2,C,E,r,g,10,10,25001,1,1,404.8088,202.1158
1,6,29,3,3,2,C,E,r,g,10,10,25001,1,3,456.5144,242.3312
1,6,29,3,3,2,C,E,r,g,10,10,25001,1,3,266.9273,217.9147
1,6,29,3,3,2,C,E,r,g,10,10,26001,1,3,449.333,229.4048
1,6,29,3,3,2,C,E,r,g,10,10,26001,1,3,289.9075,173.3905
1,6,29,3,3,2,C,E,r,g,10,10,26001,1,1,265.491,213.6059
1,6,29,3,3,2,C,E,r,g,10,10,27001,1,3,317.1966,156.1553
1,6,29,3,3,2,C,E,r,g,10,10,27001,1,3,321.5054,104.4497
1,6,29,3,3,2,C,E,r,g,10,10,27001,1,3,433.5341,179.1355
1,6,29,3,3,2,C,E,r,g,10,10,27001,1,1,452.2056,225.0961
1,6,29,3,3,2,C,E,r,g,10,10,28001,1,1,215.2217,390.2666
1,6,29,3,3,2,C,E,r,g,10,10,28001,1,3,285.5987,150.4102
1,6,29,3,3,2,C,E,r,g,10,10,28001,1,3,429.2253,197.807
1,6,29,3,3,2,C,E,r,g,10,10,28001,1,3,617.3761,156.1553
1,6,29,3,3,2,C,E,r,g,10,10,29001,1,1,315.7603,190.6257
1,6,29,3,3,2,C,E,r,g,10,10,29001,1,3,255.4372,192.0619
1,6,29,3,3,2,C,E,r,g,10,10,29001,1,3,436.4066,146.1014
1,6,29,3,3,2,C,E,r,g,10,10,29001,1,3,628.8662,150.4102
1,6,29,3,3,2,C,E,r,g,10,10,30001,1,3,278.4174,259.5664
1,6,29,3,3,2,C,E,r,g,10,10,30001,1,3,455.0781,157.5916
1,6,29,3,3,2,C,E,r,g,10,10,30001,1,3,607.3223,151.8465
1,6,29,3,3,2,C,E,r,g,10,10,30001,1,1,258.3097,210.7334
1,6,29,3,3,2,C,E,r,g,10,10,31001,1,3,255.4372,426.1732
1,6,29,3,3,2,C,E,r,g,10,10,31001,1,1,223.8393,370.1589
1,6,29,3,3,2,C,E,r,g,10,10,31001,1,3,427.789,192.0619
1,6,29,3,3,2,C,E,r,g,10,10,31001,1,1,472.3133,163.3366
1,6,29,3,3,2,C,E,r,g,10,10,32001,1,3,445.0242,232.2774
1,6,29,3,3,2,C,E,r,g,10,10,32001,1,1,353.1032,173.3905
1,6,29,3,3,2,C,E,r,g,10,10,33001,1,3,453.6418,230.8411
1,6,29,3,3,2,C,E,r,g,10,10,33001,1,1,370.3384,200.6795
1,6,29,3,3,2,C,E,r,g,10,10,33001,1,1,307.1427,110.1948
1,6,29,3,3,2,C,E,r,g,10,10,34001,1,3,434.9704,253.8214
1,6,29,3,3,2,C,E,r,g,10,10,34001,1,1,542.6903,242.3312
1,6,29,3,3,2,C,E,r,g,10,10,34001,1,1,434.9704,207.8609
1,6,29,3,3,2,C,E,r,g,10,10,34001,1,1,196.5503,101.5772
1,6,29,3,3,2,C,E,r,g,10,10,35001,1,3,443.588,305.5269
1,6,29,3,3,2,C,E,r,g,10,10,35001,1,1,360.2846,108.7585
1,6,29,3,3,2,C,E,r,g,10,10,36001,1,3,432.0978,315.5808
1,6,29,3,3,2,C,E,r,g,10,10,36001,1,1,223.8393,167.6454
1,6,29,3,3,2,C,E,r,g,10,10,36001,1,2,410.5539,29.7639
1,6,29,3,3,2,C,E,r,g,10,10,37001,1,3,354.5395,390.2666
1,6,29,3,3,2,C,E,r,g,10,10,37001,1,1,305.7065,91.5233
1,6,29,3,3,2,C,E,r,g,10,10,38001,1,3,446.4605,421.8645
1,6,29,3,3,2,C,E,r,g,10,10,38001,1,3,330.123,133.175
1,6,29,3,3,2,C,E,r,g,10,10,38001,1,1,445.0242,36.9452
1,6,29,3,3,2,C,E,r,g,10,10,39001,1,3,447.8968,414.6831
1,6,29,3,3,2,C,E,r,g,10,10,39001,1,3,289.9075,193.4982
1,6,29,3,3,2,C,E,r,g,10,10,40001,1,3,459.3869,423.3007
1,6,29,3,3,2,C,E,r,g,10,10,40001,1,3,289.9075,227.9686
1,6,29,3,3,2,C,E,r,g,10,10,40001,1,1,386.1373,436.2271
1,6,29,3,3,2,C,E,r,g,10,10,41001,1,3,449.333,427.6095
1,6,29,3,3,2,C,E,r,g,10,10,41001,1,3,284.1625,238.0224
1,6,29,3,3,2,C,E,r,g,10,10,41001,1,1,262.6185,170.518
1,6,29,3,3,2,C,E,r,g,10,10,42001,1,3,432.0978,417.5557
1,6,29,3,3,2,C,E,r,g,10,10,42001,1,3,274.1086,242.3312
1,6,29,3,3,2,C,E,r,g,10,10,42001,1,1,355.9758,187.7531
1,6,29,3,3,2,C,E,r,g,10,10,43001,1,3,485.2397,393.1391
1,6,29,3,3,2,C,E,r,g,10,10,43001,1,3,275.5449,248.0763
1,6,29,3,3,2,C,E,r,g,10,10,43001,1,1,236.7657,240.895
1,6,29,3,3,2,C,E,r,g,10,10,44001,1,3,496.7298,404.6293
1,6,29,3,3,2,C,E,r,g,10,10,44001,1,3,298.5251,146.1014
1,6,29,3,3,2,C,E,r,g,10,10,44001,1,1,416.2989,411.8106
1,6,29,3,3,2,C,E,r,g,10,10,45001,1,3,485.2397,407.5018
1,6,29,3,3,2,C,E,r,g,10,10,45001,1,3,391.8824,252.3851
1,6,29,3,3,2,C,E,r,g,10,10,45001,1,3,304.2702,200.6795
1,6,29,3,3,2,C,E,r,g,10,10,45001,1,1,252.5646,180.5718
1,6,29,3,3,2,C,E,r,g,10,10,45001,1,1,396.1912,289.728
1,6,29,3,3,2,C,E,r,g,10,10,46001,1,3,502.4749,377.3402
1,6,29,3,3,2,C,E,r,g,10,10,46001,1,3,288.4713,219.351
1,6,29,3,3,2,C,E,r,g,10,10,46001,1,3,268.3636,179.1355
1,6,29,3,3,2,C,E,r,g,10,10,47001,1,3,501.0386,378.7765
1,6,29,3,3,2,C,E,r,g,10,10,47001,1,3,289.9075,230.8411
1,6,29,3,3,2,C,E,r,g,10,10,47001,1,3,380.3923,520.9668
1,6,29,3,3,2,C,E,r,g,10,10,47001,1,1,492.421,335.6885
1,6,29,3,3,2,C,E,r,g,10,10,48001,1,1,318.6329,246.64
1,6,29,3,3,2,C,E,r,g,10,10,48001,1,3,276.9811,242.3312
1,6,29,3,3,2,C,E,r,g,10,10,48001,1,3,489.5485,339.9973
1,6,29,3,3,2,C,E,r,g,10,10,49001,1,3,436.4066,311.272
1,6,29,3,3,2,C,E,r,g,10,10,49001,1,3,281.2899,230.8411
1,6,29,3,3,2,C,E,r,g,10,10,49001,1,1,420.6077,203.5521
1,6,29,3,3,2,C,E,r,g,10,10,50001,1,3,460.8232,174.8268
1,6,29,3,3,2,C,E,r,g,10,10,50001,1,3,311.4515,169.0817
1,6,29,3,3,2,C,E,r,g,10,10,50001,1,1,377.5197,163.3366
1,6,29,3,3,2,C,E,r,g,10,10,51001,1,3,278.4174,194.9345
1,6,29,3,3,2,C,E,r,g,10,10,51001,1,3,413.4264,133.175
1,6,29,3,3,2,C,E,r,g,10,10,51001,1,1,613.0673,194.9345
1,6,29,3,3,2,C,E,r,g,10,10,52001,1,3,275.5449,194.9345
1,6,29,3,3,2,C,E,r,g,10,10,52001,1,3,397.6275,143.2289
1,6,29,3,3,2,C,E,r,g,10,10,52001,1,1,292.7801,167.6454
1,6,29,3,3,2,C,E,r,g,10,10,53001,1,1,248.2558,337.1248
1,6,29,3,3,2,C,E,r,g,10,10,53001,1,3,275.5449,200.6795
1,6,29,3,3,2,C,E,r,g,10,10,53001,1,3,384.7011,150.4102
1,6,29,3,3,2,C,E,r,g,10,10,54001,1,3,218.0943,328.5072
1,6,29,3,3,2,C,E,r,g,10,10,54001,1,3,268.3636,229.4048
1,6,29,3,3,2,C,E,r,g,10,10,54001,1,3,343.0494,113.0673
1,6,29,3,3,2,C,E,r,g,10,10,54001,1,1,205.1679,133.175
1,6,29,3,3,2,C,E,r,g,10,10,55001,1,3,262.6185,243.7675
1,6,29,3,3,2,C,E,r,g,10,10,55001,1,3,236.7657,190.6257
1,6,29,3,3,2,C,E,r,g,10,10,55001,1,3,320.0691,213.6059
1,6,29,3,3,2,C,E,r,g,10,10,56001,1,3,251.1284,275.3654
1,6,29,3,3,2,C,E,r,g,10,10,56001,1,3,266.9273,223.6598
1,6,29,3,3,2,C,E,r,g,10,10,56001,1,3,301.3977,167.6454
1,6,29,3,3,2,C,E,r,g,10,10,56001,1,1,327.2504,207.8609
1,6,29,3,3,2,C,E,r,g,10,10,57001,1,3,318.6329,250.9488
1,6,29,3,3,2,C,E,r,g,10,10,57001,1,3,325.8142,159.0278
1,6,29,3,3,2,C,E,r,g,10,10,57001,1,3,274.1086,138.9201
1,6,29,3,3,2,C,E,r,g,10,10,57001,1,1,486.6759,304.0907
1,6,29,3,3,2,C,E,r,g,10,10,58001,1,3,341.6131,268.184
1,6,29,3,3,2,C,E,r,g,10,10,58001,1,3,347.3582,146.1014
1,6,29,3,3,2,C,E,r,g,10,10,58001,1,3,376.0835,113.0673
1,6,29,3,3,2,C,E,r,g,10,10,58001,1,1,321.5054,236.5862
1,6,29,3,3,2,C,E,r,g,10,10,59001,1,3,416.2989,289.728
1,6,29,3,3,2,C,E,r,g,10,10,59001,1,3,422.044,186.3169
1,6,29,3,3,2,C,E,r,g,10,10,59001,1,3,335.868,130.3025
1,6,29,3,3,2,C,E,r,g,10,10,59001,1,1,348.7944,154.719
1,6,29,3,3,2,C,E,r,g,10,10,60001,1,3,459.3869,317.0171
1,6,29,3,3,2,C,E,r,g,10,10,60001,1,3,327.2504,137.4838
1,6,29,3,3,2,C,E,r,g,10,10,60001,1,3,288.4713,113.0673
1,6,29,3,3,2,C,E,r,g,10,10,61001,1,3,529.7639,345.7424
1,6,29,3,3,2,C,E,r,g,10,10,61001,1,3,255.4372,252.3851
1,6,29,3,3,2,C,E,r,g,10,10,61001,1,3,284.1625,143.2289
1,6,29,3,3,2,C,E,r,g,10,10,61001,1,1,535.509,306.9632
1,6,29,3,3,2,C,E,r,g,10,10,62001,1,3,512.5287,397.4479
1,6,29,3,3,2,C,E,r,g,10,10,62001,1,3,297.0889,250.9488
1,6,29,3,3,2,C,E,r,g,10,10,62001,1,3,278.4174,183.4443
1,6,29,3,3,2,C,E,r,g,10,10,62001,1,1,391.8824,266.7478
1,6,29,3,3,2,C,E,r,g,10,10,63001,1,3,389.0099,479.3151
1,6,29,3,3,2,C,E,r,g,10,10,63001,1,3,419.1715,317.0171
1,6,29,3,3,2,C,E,r,g,10,10,63001,1,3,291.3438,220.7873
1,6,29,3,3,2,C,E,r,g,10,10,63001,1,1,259.746,143.2289
1,6,29,3,3,2,C,E,r,g,10,10,64001,1,3,327.2504,482.1876
1,6,29,3,3,2,C,E,r,g,10,10,64001,1,3,410.5539,278.2379
1,6,29,3,3,2,C,E,r,g,10,10,64001,1,3,271.2361,242.3312
1,6,29,3,3,2,C,E,r,g,10,10,64001,1,1,587.2145,437.6634
1,6,29,3,3,2,C,E,r,g,10,10,65001,1,3,340.1768,466.3887
1,6,29,3,3,2,C,E,r,g,10,10,65001,1,3,419.1715,289.728
1,6,29,3,3,2,C,E,r,g,10,10,65001,1,3,269.7998,223.6598
1,6,29,3,3,2,C,E,r,g,10,10,65001,1,1,370.3384,416.1194
1,6,29,3,3,2,C,E,r,g,10,10,66001,1,3,312.8878,462.0799
1,6,29,3,3,2,C,E,r,g,10,10,66001,1,3,417.7352,279.6741
1,6,29,3,3,2,C,E,r,g,10,10,66001,1,3,281.2899,183.4443
1,6,29,3,3,2,C,E,r,g,10,10,66001,1,1,439.2792,202.1158
1,6,29,3,3,2,C,E,r,g,10,10,67001,1,3,377.5197,193.4982
1,6,29,3,3,2,C,E,r,g,10,10,67001,1,3,285.5987,249.5126
1,6,29,3,3,2,C,E,r,g,10,10,67001,1,3,308.579,148.974
1,6,29,3,3,2,C,E,r,g,10,10,67001,1,1,197.9865,248.0763
1,6,29,3,3,2,C,E,r,g,10,10,68001,1,1,209.4767,245.2038
1,6,29,3,3,2,C,E,r,g,10,10,68001,1,3,295.6526,159.0278
1,6,29,3,3,2,C,E,r,g,10,10,68001,1,3,376.0835,134.6113
1,6,29,3,3,2,C,E,r,g,10,10,68001,1,3,420.6077,322.7621
1,6,29,3,3,2,C,E,r,g,10,10,69001,1,3,407.6813,315.5808
1,6,29,3,3,2,C,E,r,g,10,10,69001,1,3,483.8034,169.0817
1,6,29,3,3,2,C,E,r,g,10,10,69001,1,3,317.1966,146.1014
1,6,29,3,3,2,C,E,r,g,10,10,70001,1,3,410.5539,317.0171
1,6,29,3,3,2,C,E,r,g,10,10,70001,1,3,541.254,199.2433
1,6,29,3,3,2,C,E,r,g,10,10,70001,1,3,367.4659,123.1212
1,6,29,3,3,2,C,E,r,g,10,10,70001,1,1,389.0099,199.2433
1,6,29,3,3,2,C,E,r,g,10,10,71001,1,3,404.8088,314.1445
1,6,29,3,3,2,C,E,r,g,10,10,71001,1,3,363.1571,124.5575
1,6,29,3,3,2,C,E,r,g,10,10,71001,1,3,338.7406,88.6508
1,6,29,3,3,2,C,E,r,g,10,10,71001,1,1,282.7262,153.2828
1,6,29,3,3,2,C,E,r,g,10,10,72001,1,3,430.6616,321.3259
1,6,29,3,3,2,C,E,r,g,10,10,72001,1,3,307.1427,203.5521
1,6,29,3,3,2,C,E,r,g,10,10,72001,1,1,334.4318,161.9004
1,6,29,3,3,2,C,E,r,g,10,10,72001,1,3,364.5934,125.9937
1,6,29,3,3,2,C,E,r,g,10,10,72001,1,3,311.4515,462.0799
1,6,29,3,3,2,C,E,r,g,10,10,73001,1,3,502.4749,105.886
1,6,29,3,3,2,C,E,r,g,10,10,73001,1,3,536.9452,268.184
1,6,29,3,3,2,C,E,r,g,10,10,73001,1,1,416.2989,302.6544
1,6,29,3,3,2,C,E,r,g,10,10,73001,1,3,393.3187,332.816
1,6,29,3,3,2,C,E,r,g,10,10,73001,1,3,266.9273,199.2433
1,6,29,3,3,2,C,E,r,g,10,10,73001,1,3,337.3043,466.3887
1,6,29,3,3,2,C,E,r,g,10,10,74001,1,3,577.1607,332.816
1,6,29,3,3,2,C,E,r,g,10,10,74001,1,1,542.6903,352.9237
1,6,29,3,3,2,C,E,r,g,10,10,74001,1,3,378.956,408.9381
1,6,29,3,3,2,C,E,r,g,10,10,74001,1,3,343.0494,400.3205
1,6,29,3,3,2,C,E,r,g,10,10,74001,1,1,357.412,334.2522
1,6,29,3,3,2,C,E,r,g,10,10,75001,1,3,578.5969,305.5269
1,6,29,3,3,2,C,E,r,g,10,10,75001,1,3,449.333,85.7783
1,6,29,3,3,2,C,E,r,g,10,10,75001,1,3,297.0889,324.1984
1,6,29,3,3,2,C,E,r,g,10,10,75001,1,3,219.5305,295.4731
1,6,29,3,3,2,C,E,r,g,10,10,75001,1,1,243.947,263.8752
1,6,29,3,3,2,C,E,r,g,10,10,76001,1,3,582.9057,306.9632
1,6,29,3,3,2,C,E,r,g,10,10,76001,1,3,462.2594,26.8914
1,6,29,3,3,2,C,E,r,g,10,10,76001,1,3,275.5449,192.0619
1,6,29,3,3,2,C,E,r,g,10,10,76001,1,3,307.1427,308.3995
1,6,29,3,3,2,C,E,r,g,10,10,76001,1,1,262.6185,319.8896
1,6,29,3,3,2,C,E,r,g,10,10,77001,1,3,584.342,273.9291
1,6,29,3,3,2,C,E,r,g,10,10,77001,1,3,334.4318,255.2576
1,6,29,3,3,2,C,E,r,g,10,10,77001,1,3,330.123,167.6454
1,6,29,3,3,2,C,E,r,g,10,10,77001,1,1,373.211,113.0673
1,6,29,3,3,2,C,E,r,g,10,10,77001,1,3,423.4803,32.6364
1,6,29,3,3,2,C,E,r,g,10,10,78001,1,3,459.3869,354.36
1,6,29,3,3,2,C,E,r,g,10,10,78001,1,1,592.9596,299.7819
1,6,29,3,3,2,C,E,r,g,10,10,78001,1,1,416.2989,225.0961
1,6,29,3,3,2,C,E,r,g,10,10,78001,1,3,327.2504,236.5862
1,6,29,3,3,2,C,E,r,g,10,10,78001,1,3,367.4659,64.2343
1,6,29,3,3,2,C,E,r,g,10,10,79001,1,3,417.7352,301.2181
1,6,29,3,3,2,C,E,r,g,10,10,79001,1,3,299.9614,204.9883
1,6,29,3,3,2,C,E,r,g,10,10,79001,1,3,272.6724,146.1014
1,6,29,3,3,2,C,E,r,g,10,10,79001,1,1,175.0063,177.6993
1,6,29,3,3,2,C,E,r,g,10,10,80001,1,3,404.8088,305.5269
1,6,29,3,3,2,C,E,r,g,10,10,80001,1,1,305.7065,216.4785
1,6,29,3,3,2,C,E,r,g,10,10,80001,1,3,275.5449,170.518
1,6,29,3,3,2,C,E,r,g,10,10,80001,1,3,358.8483,110.1948
1,6,29,3,3,2,C,E,r,g,10,10,81001,1,3,292.7801,256.6939
1,6,29,3,3,2,C,E,r,g,10,10,81001,1,3,301.3977,301.2181
1,6,29,3,3,2,C,E,r,g,10,10,81001,1,3,305.7065,150.4102
1,6,29,3,3,2,C,E,r,g,10,10,81001,1,1,345.9219,261.0027
1,6,29,3,3,2,C,E,r,g,10,10,82001,1,3,366.0296,317.0171
1,6,29,3,3,2,C,E,r,g,10,10,82001,1,3,258.3097,265.3115
1,6,29,3,3,2,C,E,r,g,10,10,82001,1,1,337.3043,186.3169
1,6,29,3,3,2,C,E,r,g,10,10,82001,1,3,358.8483,133.175
1,6,29,3,3,2,C,E,r,g,10,10,83001,1,3,374.6472,443.4084
1,6,29,3,3,2,C,E,r,g,10,10,83001,1,3,197.9865,309.8357
1,6,29,3,3,2,C,E,r,g,10,10,83001,1,3,281.2899,212.1697
1,6,29,3,3,2,C,E,r,g,10,10,83001,1,1,304.2702,136.0476
1,6,29,3,3,2,C,E,r,g,10,10,84001,1,3,187.9327,299.7819
1,6,29,3,3,2,C,E,r,g,10,10,84001,1,3,363.1571,183.4443
1,6,29,3,3,2,C,E,r,g,10,10,85001,1,3,409.1176,414.6831
1,6,29,3,3,2,C,E,r,g,10,10,85001,1,3,173.57,311.272
1,6,29,3,3,2,C,E,r,g,10,10,85001,1,1,232.4569,222.2235
1,6,29,3,3,2,C,E,r,g,10,10,86001,1,1,162.0799,325.6346
1,6,29,3,3,2,C,E,r,g,10,10,86001,1,3,190.8052,263.8752
1,6,29,3,3,2,C,E,r,g,10,10,86001,1,1,209.4767,196.3707
1,6,29,3,3,2,C,E,r,g,10,10,86001,1,3,199.4228,141.7926
1,6,29,3,3,2,C,E,r,g,10,10,87001,1,3,317.1966,390.2666
1,6,29,3,3,2,C,E,r,g,10,10,87001,1,1,297.0889,121.6849
1,6,29,3,3,2,C,E,r,g,10,10,88001,1,1,411.9901,90.0871
1,6,29,3,3,2,C,E,r,g,10,10,88001,1,3,455.0781,121.6849
1,6,29,3,3,2,C,E,r,g,10,10,89001,1,3,486.6759,170.518
1,6,29,3,3,2,C,E,r,g,10,10,89001,1,1,368.9022,207.8609
1,6,29,3,3,2,C,E,r,g,10,10,90001,1,1,498.1661,215.0422
1,6,29,3,3,2,C,E,r,g,10,10,90001,1,3,478.0583,253.8214
1,6,29,3,3,2,C,E,r,g,10,10,91001,1,3,519.7101,339.9973
1,6,29,3,3,2,C,E,r,g,10,10,91001,1,1,631.7388,380.2127
1,6,29,3,3,2,C,E,r,g,10,10,92001,1,1,546.9991,362.9776
1,6,29,3,3,2,C,E,r,g,10,10,92001,1,3,443.588,416.1194
1,6,29,3,3,2,C,E,r,g,10,10,93001,1,1,195.114,347.1786
1,6,29,3,3,2,C,E,r,g,10,10,93001,1,3,163.5162,306.9632
1,6,29,3,3,2,C,E,r,g,10,10,94001,1,1,265.491,215.0422
1,6,29,3,3,2,C,E,r,g,10,10,94001,1,3,297.0889,285.4192
1,6,29,3,3,2,C,E,r,g,10,10,95001,1,3,498.1661,29.7639
1,6,29,3,3,2,C,E,r,g,10,10,95001,1,1,483.8034,486.4964
1,6,29,3,3,2,C,E,r,g,10,10,96001,1,3,539.8178,390.2666
1,6,29,3,3,2,C,E,r,g,10,10,96001,1,1,608.7585,193.4982
1,6,29,3,3,2,C,E,r,g,10,10,96001,1,1,429.2253,13.965
1,6,29,3,3,2,C,E,r,g,10,10,97001,1,1,445.0242,418.9919
1,6,29,3,3,2,C,E,r,g,10,10,97001,1,3,440.7154,381.649
1,6,29,3,3,2,C,E,r,g,10,10,98001,1,1,366.0296,421.8645
1,6,29,3,3,2,C,E,r,g,10,10,98001,1,3,383.2648,368.7226
1,6,29,3,3,2,C,E,r,g,10,10,99001,1,1,364.5934,294.0368
1,6,29,3,3,2,C,E,r,g,10,10,99001,1,3,397.6275,245.2038
1,6,29,3,3,2,C,E,r,g,10,10,99001,1,3,299.9614,268.184
1,6,29,3,3,2,C,E,r,g,10,10,100001,1,3,442.1517,182.0081
1,6,29,3,3,2,C,E,r,g,10,10,100001,1,1,470.877,72.8519
1,6,29,3,3,2,C,E,r,g,10,10,100001,1,3,499.6023,48.4354
1,6,29,3,3,2,C,E,r,g,10,10,101001,1,3,521.1463,271.0566
1,6,29,3,3,2,C,E,r,g,10,10,101001,1,3,262.6185,71.4156
1,6,29,3,3,2,C,E,r,g,10,10,101001,1,3,123.3007,318.4533
1,6,29,3,3,2,C,E,r,g,10,10,102001,1,3,496.7298,118.8124
1,6,29,3,3,2,C,E,r,g,10,10,102001,1,3,427.789,81.4695
1,6,29,3,3,2,C,E,r,g,10,10,102001,1,3,114.6831,240.895
1,6,29,3,3,2,C,E,r,g,10,10,103001,1,3,453.6418,94.3959
1,6,29,3,3,2,C,E,r,g,10,10,103001,1,3,417.7352,26.8914
1,6,29,3,3,2,C,E,r,g,10,10,104001,1,3,449.333,100.1409
1,6,29,3,3,2,C,E,r,g,10,10,104001,1,1,383.2648,413.2469
1,6,29,3,3,2,C,E,r,g,10,10,104001,1,3,170.6975,136.0476
1,6,29,3,3,2,C,E,r,g,10,10,105001,1,3,413.4264,82.9057
1,6,29,3,3,2,C,E,r,g,10,10,105001,1,1,380.3923,108.7585
1,6,29,3,3,2,C,E,r,g,10,10,106001,1,3,374.6472,77.1607
1,6,29,3,3,2,C,E,r,g,10,10,106001,1,1,413.4264,49.8716
1,6,29,3,3,2,C,E,r,g,10,10,107001,1,3,386.1373,67.1068
1,6,29,3,3,2,C,E,r,g,10,10,107001,1,3,508.2199,245.2038
1,6,29,3,3,2,C,E,r,g,10,10,107001,1,1,534.0727,219.351
