dummy,month,day,period,view,station,fgeno,mgeno,fcol,mcol,nf,nm,frame,something,sex,x,y
1,9,24,2,0,2,A,F,b,y,5,15,1,1,1,425.0161,490.1774
1,9,24,2,0,2,A,F,b,y,5,15,2001,1,1,601.7903,193.4032
1,9,24,2,0,2,A,F,b,y,5,15,3001,1,1,484.371,43.7258
1,9,24,2,0,2,A,F,b,y,5,15,4001,1,1,574.6935,450.1774
1,9,24,2,0,2,A,F,b,y,5,15,5001,1,1,477.9194,384.371
1,9,24,2,0,2,A,F,b,y,5,15,5001,1,1,412.1129,349.5323
1,9,24,2,0,2,A,F,b,y,5,15,5001,1,1,610.8226,374.0484
1,9,24,2,0,2,A,F,b,y,5,15,6001,1,1,354.0484,239.8548
1,9,24,2,0,2,A,F,b,y,5,15,6001,1,1,328.2419,206.3065
1,9,24,2,0,2,A,F,b,y,5,15,7001,1,1,231.4677,117.2742
1,9,24,2,0,2,A,F,b,y,5,15,8001,1,1,317.9194,554.6935
1,9,24,2,0,2,A,F,b,y,5,15,9001,1,1,373.4032,172.7581
1,9,24,2,0,2,A,F,b,y,5,15,10001,1,2,210.8226,122.4355
1,9,24,2,0,2,A,F,b,y,5,15,11001,1,1,554.0484,64.371
1,9,24,2,0,2,A,F,b,y,5,15,12001,1,1,206.9516,477.2742
1,9,24,2,0,2,A,F,b,y,5,15,13001,1,1,617.2742,199.8548
1,9,24,2,0,2,A,F,b,y,5,15,14001,1,1,618.5645,175.3387
1,9,24,2,0,2,A,F,b,y,5,15,15001,1,1,405.6613,63.0806
1,9,24,2,0,2,A,F,b,y,5,15,16001,1,1,426.3065,43.7258
1,9,24,2,0,2,A,F,b,y,5,15,17001,1,1,356.629,92.7581
1,9,24,2,0,2,A,F,b,y,5,15,18001,1,1,606.9516,198.5645
1,9,24,2,0,2,A,F,b,y,5,15,19001,1,1,239.2097,183.0806
1,9,24,2,0,2,A,F,b,y,5,15,20001,1,1,346.3065,64.371
1,9,24,2,0,2,A,F,b,y,5,15,21001,1,1,163.0806,344.371
1,9,24,2,0,2,A,F,b,y,5,15,21001,1,1,262.4355,517.2742
1,9,24,2,0,2,A,F,b,y,5,15,21001,1,1,667.5968,441.1452
1,9,24,2,0,2,A,F,b,y,5,15,22001,1,1,459.8548,59.2097
1,9,24,2,0,2,A,F,b,y,5,15,22001,1,1,523.0806,74.6935
1,9,24,2,0,2,A,F,b,y,5,15,22001,1,1,597.9194,90.1774
1,9,24,2,0,2,A,F,b,y,5,15,23001,1,1,552.7581,57.9194
1,9,24,2,0,2,A,F,b,y,5,15,24001,1,1,275.3387,239.8548
1,9,24,2,0,2,A,F,b,y,5,15,24001,1,1,225.0161,274.6935
1,9,24,2,0,2,A,F,b,y,5,15,25001,1,1,547.5968,521.1452
1,9,24,2,0,2,A,F,b,y,5,15,25001,1,1,610.8226,512.1129
1,9,24,2,0,2,A,F,b,y,5,15,26001,1,1,270.1774,118.5645
1,9,24,2,0,2,A,F,b,y,5,15,27001,1,1,150.1774,394.6935
1,9,24,2,0,2,A,F,b,y,5,15,28001,1,1,554.0484,259.2097
1,9,24,2,0,2,A,F,b,y,5,15,30001,1,1,281.7903,195.9839
1,9,24,2,0,2,A,F,b,y,5,15,30001,1,1,243.0806,223.0806
1,9,24,2,0,2,A,F,b,y,5,15,32001,1,1,444.371,159.8548
1,9,24,2,0,2,A,F,b,y,5,15,32001,1,1,217.2742,395.9839
1,9,24,2,0,2,A,F,b,y,5,15,32001,1,3,378.5645,401.1452
1,9,24,2,0,2,A,F,b,y,5,15,32001,1,1,590.1774,439.8548
1,9,24,2,0,2,A,F,b,y,5,15,32001,1,1,649.5323,423.0806
1,9,24,2,0,2,A,F,b,y,5,15,33001,1,1,368.2419,314.6935
1,9,24,2,0,2,A,F,b,y,5,15,33001,1,1,415.9839,344.371
1,9,24,2,0,2,A,F,b,y,5,15,33001,1,3,483.0806,334.0484
1,9,24,2,0,2,A,F,b,y,5,15,34001,1,1,323.0806,139.2097
1,9,24,2,0,2,A,F,b,y,5,15,34001,1,1,329.5323,65.6613
1,9,24,2,0,2,A,F,b,y,5,15,34001,1,3,519.2097,571.4677
1,9,24,2,0,2,A,F,b,y,5,15,35001,1,1,253.4032,408.8871
1,9,24,2,0,2,A,F,b,y,5,15,35001,1,3,186.3065,381.7903
1,9,24,2,0,2,A,F,b,y,5,15,36001,1,1,294.6935,103.0806
1,9,24,2,0,2,A,F,b,y,5,15,36001,1,3,337.2742,37.2742
1,9,24,2,0,2,A,F,b,y,5,15,37001,1,1,565.6613,96.629
1,9,24,2,0,2,A,F,b,y,5,15,37001,1,3,594.0484,81.1452
1,9,24,2,0,2,A,F,b,y,5,15,38001,1,1,681.7903,328.8871
1,9,24,2,0,2,A,F,b,y,5,15,38001,1,1,680.5,255.3387
1,9,24,2,0,2,A,F,b,y,5,15,39001,1,1,222.4355,215.3387
1,9,24,2,0,2,A,F,b,y,5,15,39001,1,1,228.8871,174.0484
1,9,24,2,0,2,A,F,b,y,5,15,39001,1,3,570.8226,534.0484
1,9,24,2,0,2,A,F,b,y,5,15,40001,1,1,276.629,540.5
1,9,24,2,0,2,A,F,b,y,5,15,40001,1,3,230.1774,508.2419
1,9,24,2,0,2,A,F,b,y,5,15,41001,1,1,265.0161,243.7258
1,9,24,2,0,2,A,F,b,y,5,15,41001,1,3,284.371,174.0484
1,9,24,2,0,2,A,F,b,y,5,15,42001,1,1,276.629,139.2097
1,9,24,2,0,2,A,F,b,y,5,15,42001,1,3,443.0806,61.7903
1,9,24,2,0,2,A,F,b,y,5,15,43001,1,1,190.1774,217.9194
1,9,24,2,0,2,A,F,b,y,5,15,43001,1,1,396.629,530.1774
1,9,24,2,0,2,A,F,b,y,5,15,43001,1,3,595.3387,126.3065
1,9,24,2,0,2,A,F,b,y,5,15,43001,1,1,601.7903,75.9839
1,9,24,2,0,2,A,F,b,y,5,15,44001,1,1,432.7581,190.8226
1,9,24,2,0,2,A,F,b,y,5,15,44001,1,1,680.5,278.5645
1,9,24,2,0,2,A,F,b,y,5,15,44001,1,3,701.1452,304.371
1,9,24,2,0,2,A,F,b,y,5,15,45001,1,3,604.371,145.6613
1,9,24,2,0,2,A,F,b,y,5,15,45001,1,1,485.6613,557.2742
1,9,24,2,0,2,A,F,b,y,5,15,45001,1,1,440.5,589.5323
1,9,24,2,0,2,A,F,b,y,5,15,46001,1,1,303.7258,91.4677
1,9,24,2,0,2,A,F,b,y,5,15,46001,1,3,239.2097,105.6613
1,9,24,2,0,2,A,F,b,y,5,15,47001,1,1,408.2419,237.2742
1,9,24,2,0,2,A,F,b,y,5,15,47001,1,1,365.6613,473.4032
1,9,24,2,0,2,A,F,b,y,5,15,47001,1,3,459.8548,299.2097
1,9,24,2,0,2,A,F,b,y,5,15,48001,1,1,463.7258,337.9194
1,9,24,2,0,2,A,F,b,y,5,15,48001,1,3,547.5968,346.9516
1,9,24,2,0,2,A,F,b,y,5,15,49001,1,1,294.6935,370.1774
1,9,24,2,0,2,A,F,b,y,5,15,49001,1,3,510.1774,294.0484
1,9,24,2,0,2,A,F,b,y,5,15,50001,1,1,374.6935,335.3387
1,9,24,2,0,2,A,F,b,y,5,15,50001,1,1,342.4355,312.1129
1,9,24,2,0,2,A,F,b,y,5,15,50001,1,3,505.0161,322.4355
1,9,24,2,0,2,A,F,b,y,5,15,51001,1,1,470.1774,357.2742
1,9,24,2,0,2,A,F,b,y,5,15,51001,1,1,506.3065,318.5645
1,9,24,2,0,2,A,F,b,y,5,15,51001,1,3,448.2419,381.7903
1,9,24,2,0,2,A,F,b,y,5,15,52001,1,1,461.1452,415.3387
1,9,24,2,0,2,A,F,b,y,5,15,52001,1,3,426.3065,457.9194
1,9,24,2,0,2,A,F,b,y,5,15,52001,1,1,161.7903,415.3387
1,9,24,2,0,2,A,F,b,y,5,15,53001,1,1,489.5323,526.3065
1,9,24,2,0,2,A,F,b,y,5,15,53001,1,1,555.3387,530.1774
1,9,24,2,0,2,A,F,b,y,5,15,53001,1,3,579.8548,537.9194
1,9,24,2,0,2,A,F,b,y,5,15,54001,1,1,587.5968,95.3387
1,9,24,2,0,2,A,F,b,y,5,15,54001,1,3,676.629,379.2097
1,9,24,2,0,2,A,F,b,y,5,15,55001,1,1,557.9194,319.8548
1,9,24,2,0,2,A,F,b,y,5,15,55001,1,1,595.3387,310.8226
1,9,24,2,0,2,A,F,b,y,5,15,55001,1,3,657.2742,306.9516
1,9,24,2,0,2,A,F,b,y,5,15,56001,1,1,200.5,145.6613
1,9,24,2,0,2,A,F,b,y,5,15,56001,1,1,330.8226,499.2097
1,9,24,2,0,2,A,F,b,y,5,15,56001,1,2,301.1452,545.6613
1,9,24,2,0,2,A,F,b,y,5,15,57001,1,1,272.7581,114.6935
1,9,24,2,0,2,A,F,b,y,5,15,57001,1,1,441.7903,304.371
1,9,24,2,0,2,A,F,b,y,5,15,57001,1,2,399.2097,309.5323
1,9,24,2,0,2,A,F,b,y,5,15,58001,1,1,346.3065,375.3387
1,9,24,2,0,2,A,F,b,y,5,15,58001,1,2,397.9194,359.8548
1,9,24,2,0,2,A,F,b,y,5,15,59001,1,1,396.629,423.0806
1,9,24,2,0,2,A,F,b,y,5,15,60001,1,1,472.7581,203.7258
1,9,24,2,0,2,A,F,b,y,5,15,60001,1,2,223.7258,294.0484
1,9,24,2,0,2,A,F,b,y,5,15,61001,1,1,196.629,159.8548
1,9,24,2,0,2,A,F,b,y,5,15,61001,1,2,579.8548,543.0806
1,9,24,2,0,2,A,F,b,y,5,15,62001,1,1,396.629,123.7258
1,9,24,2,0,2,A,F,b,y,5,15,62001,1,1,575.9839,247.5968
1,9,24,2,0,2,A,F,b,y,5,15,62001,1,2,648.2419,304.371
1,9,24,2,0,2,A,F,b,y,5,15,63001,1,1,374.6935,51.4677
1,9,24,2,0,2,A,F,b,y,5,15,63001,1,1,652.1129,232.1129
1,9,24,2,0,2,A,F,b,y,5,15,63001,1,2,697.2742,233.4032
1,9,24,2,0,2,A,F,b,y,5,15,64001,1,1,200.5,283.7258
1,9,24,2,0,2,A,F,b,y,5,15,64001,1,2,565.6613,479.8548
1,9,24,2,0,2,A,F,b,y,5,15,65001,1,1,595.3387,229.5323
1,9,24,2,0,2,A,F,b,y,5,15,65001,1,2,670.1774,426.9516
1,9,24,2,0,2,A,F,b,y,5,15,66001,1,1,484.371,277.2742
1,9,24,2,0,2,A,F,b,y,5,15,66001,1,2,675.3387,281.1452
1,9,24,2,0,2,A,F,b,y,5,15,67001,1,2,521.7903,335.3387
1,9,24,2,0,2,A,F,b,y,5,15,67001,1,1,586.3065,283.7258
1,9,24,2,0,2,A,F,b,y,5,15,68001,1,1,390.1774,264.371
1,9,24,2,0,2,A,F,b,y,5,15,68001,1,1,412.1129,250.1774
1,9,24,2,0,2,A,F,b,y,5,15,68001,1,1,191.4677,152.1129
1,9,24,2,0,2,A,F,b,y,5,15,68001,1,2,450.8226,407.5968
1,9,24,2,0,2,A,F,b,y,5,15,69001,1,1,222.4355,455.3387
1,9,24,2,0,2,A,F,b,y,5,15,69001,1,2,235.3387,499.2097
1,9,24,2,0,2,A,F,b,y,5,15,69001,1,1,529.5323,143.0806
1,9,24,2,0,2,A,F,b,y,5,15,70001,1,1,240.5,522.4355
1,9,24,2,0,2,A,F,b,y,5,15,70001,1,2,268.8871,386.9516
1,9,24,2,0,2,A,F,b,y,5,15,70001,1,1,537.2742,85.0161
1,9,24,2,0,2,A,F,b,y,5,15,71001,1,2,514.0484,238.5645
1,9,24,2,0,2,A,F,b,y,5,15,72001,1,2,579.8548,318.5645
1,9,24,2,0,2,A,F,b,y,5,15,73001,1,2,427.5968,394.6935
1,9,24,2,0,2,A,F,b,y,5,15,74001,1,2,323.0806,215.3387
1,9,24,2,0,2,A,F,b,y,5,15,75001,1,2,572.1129,171.4677
1,9,24,2,0,2,A,F,b,y,5,15,76001,1,2,586.3065,250.1774
1,9,24,2,0,2,A,F,b,y,5,15,77001,1,2,555.3387,465.6613
1,9,24,2,0,2,A,F,b,y,5,15,78001,1,2,415.9839,353.4032
1,9,24,2,0,2,A,F,b,y,5,15,79001,1,2,535.9839,286.3065
1,9,24,2,0,2,A,F,b,y,5,15,79001,1,1,489.5323,310.8226
1,9,24,2,0,2,A,F,b,y,5,15,80001,1,2,600.5,126.3065
1,9,24,2,0,2,A,F,b,y,5,15,81001,1,2,312.7581,168.8871
1,9,24,2,0,2,A,F,b,y,5,15,81001,1,1,386.3065,60.5
1,9,24,2,0,2,A,F,b,y,5,15,82001,1,1,151.4677,217.9194
1,9,24,2,0,2,A,F,b,y,5,15,82001,1,2,686.9516,376.629
1,9,24,2,0,2,A,F,b,y,5,15,83001,1,1,391.4677,261.7903
1,9,24,2,0,2,A,F,b,y,5,15,83001,1,1,388.8871,308.2419
1,9,24,2,0,2,A,F,b,y,5,15,83001,1,2,548.8871,368.8871
1,9,24,2,0,2,A,F,b,y,5,15,84001,1,1,592.7581,168.8871
1,9,24,2,0,2,A,F,b,y,5,15,84001,1,2,199.2097,189.5323
1,9,24,2,0,2,A,F,b,y,5,15,85001,1,1,434.0484,137.9194
1,9,24,2,0,2,A,F,b,y,5,15,85001,1,2,375.9839,278.5645
1,9,24,2,0,2,A,F,b,y,5,15,85001,1,1,395.3387,510.8226
1,9,24,2,0,2,A,F,b,y,5,15,86001,1,1,366.9516,186.9516
1,9,24,2,0,2,A,F,b,y,5,15,86001,1,1,454.6935,192.1129
1,9,24,2,0,2,A,F,b,y,5,15,86001,1,2,490.8226,343.0806
1,9,24,2,0,2,A,F,b,y,5,15,87001,1,1,465.0161,306.9516
1,9,24,2,0,2,A,F,b,y,5,15,87001,1,2,597.9194,283.7258
1,9,24,2,0,2,A,F,b,y,5,15,87001,1,1,641.7903,254.0484
1,9,24,2,0,2,A,F,b,y,5,15,87001,1,1,665.0161,376.629
1,9,24,2,0,2,A,F,b,y,5,15,87001,1,3,221.1452,490.1774
1,9,24,2,0,2,A,F,b,y,5,15,88001,1,3,466.3065,403.7258
1,9,24,2,0,2,A,F,b,y,5,15,88001,1,1,524.371,234.6935
1,9,24,2,0,2,A,F,b,y,5,15,88001,1,1,542.4355,184.371
1,9,24,2,0,2,A,F,b,y,5,15,88001,1,1,543.7258,166.3065
1,9,24,2,0,2,A,F,b,y,5,15,88001,1,2,585.0161,131.4677
1,9,24,2,0,2,A,F,b,y,5,15,89001,1,1,377.2742,393.4032
1,9,24,2,0,2,A,F,b,y,5,15,89001,1,3,430.1774,423.0806
1,9,24,2,0,2,A,F,b,y,5,15,90001,1,1,399.2097,61.7903
1,9,24,2,0,2,A,F,b,y,5,15,90001,1,1,561.7903,122.4355
1,9,24,2,0,2,A,F,b,y,5,15,90001,1,3,594.0484,193.4032
1,9,24,2,0,2,A,F,b,y,5,15,91001,1,1,337.2742,94.0484
1,9,24,2,0,2,A,F,b,y,5,15,91001,1,1,422.4355,423.0806
1,9,24,2,0,2,A,F,b,y,5,15,91001,1,3,449.5323,494.0484
1,9,24,2,0,2,A,F,b,y,5,15,92001,1,1,214.6935,198.5645
1,9,24,2,0,2,A,F,b,y,5,15,92001,1,3,234.0484,170.1774
1,9,24,2,0,2,A,F,b,y,5,15,93001,1,3,519.2097,82.4355
1,9,24,2,0,2,A,F,b,y,5,15,93001,1,1,226.3065,510.8226
1,9,24,2,0,2,A,F,b,y,5,15,94001,1,1,529.5323,59.2097
1,9,24,2,0,2,A,F,b,y,5,15,94001,1,3,583.7258,106.9516
1,9,24,2,0,2,A,F,b,y,5,15,95001,1,1,306.3065,131.4677
1,9,24,2,0,2,A,F,b,y,5,15,95001,1,1,541.1452,114.6935
1,9,24,2,0,2,A,F,b,y,5,15,95001,1,3,650.8226,206.3065
1,9,24,2,0,2,A,F,b,y,5,15,96001,1,3,630.1774,166.3065
1,9,24,2,0,2,A,F,b,y,5,15,97001,1,1,524.371,123.7258
1,9,24,2,0,2,A,F,b,y,5,15,97001,1,3,488.2419,141.7903
1,9,24,2,0,2,A,F,b,y,5,15,97001,1,1,141.1452,361.1452
1,9,24,2,0,2,A,F,b,y,5,15,98001,1,1,370.8226,162.4355
1,9,24,2,0,2,A,F,b,y,5,15,98001,1,1,294.6935,180.5
1,9,24,2,0,2,A,F,b,y,5,15,98001,1,3,316.629,198.5645
1,9,24,2,0,2,A,F,b,y,5,15,99001,1,1,303.7258,134.0484
1,9,24,2,0,2,A,F,b,y,5,15,99001,1,1,448.2419,26.9516
1,9,24,2,0,2,A,F,b,y,5,15,99001,1,3,326.9516,354.6935
1,9,24,2,0,2,A,F,b,y,5,15,100001,1,1,528.2419,37.2742
1,9,24,2,0,2,A,F,b,y,5,15,100001,1,3,490.8226,469.5323
1,9,24,2,0,2,A,F,b,y,5,15,101001,1,1,587.5968,497.9194
1,9,24,2,0,2,A,F,b,y,5,15,101001,1,3,614.6935,443.7258
1,9,24,2,0,2,A,F,b,y,5,15,102001,1,1,280.5,197.2742
1,9,24,2,0,2,A,F,b,y,5,15,102001,1,2,263.7258,252.7581
1,9,24,2,0,2,A,F,b,y,5,15,102001,1,3,671.4677,325.0161
1,9,24,2,0,2,A,F,b,y,5,15,103001,1,3,568.2419,285.0161
1,9,24,2,0,2,A,F,b,y,5,15,104001,1,1,519.2097,321.1452
1,9,24,2,0,2,A,F,b,y,5,15,104001,1,1,485.6613,332.7581
1,9,24,2,0,2,A,F,b,y,5,15,104001,1,3,466.3065,366.3065
1,9,24,2,0,2,A,F,b,y,5,15,105001,1,1,577.2742,437.2742
1,9,24,2,0,2,A,F,b,y,5,15,105001,1,3,601.7903,495.3387
1,9,24,2,0,2,A,F,b,y,5,15,106001,1,1,471.4677,108.2419
1,9,24,2,0,2,A,F,b,y,5,15,106001,1,3,705.0161,318.5645
1,9,24,2,0,2,A,F,b,y,5,15,107001,1,1,699.8548,310.8226
1,9,24,2,0,2,A,F,b,y,5,15,107001,1,3,535.9839,256.629
