dummy,month,day,period,view,station,fgeno,mgeno,fcol,mcol,nf,nm,frame,something,sex,x,y
1,9,24,2,3,2,A,F,b,y,5,15,1001,1,1,225.0161,255.3387
1,9,24,2,3,2,A,F,b,y,5,15,1001,1,1,595.3387,517.2742
1,9,24,2,3,2,A,F,b,y,5,15,2001,1,1,695.9839,117.2742
1,9,24,2,3,2,A,F,b,y,5,15,3001,1,1,230.1774,322.4355
1,9,24,2,3,2,A,F,b,y,5,15,4001,1,1,519.2097,103.0806
1,9,24,2,3,2,A,F,b,y,5,15,5001,1,1,307.5968,184.371
1,9,24,2,3,2,A,F,b,y,5,15,6001,1,1,492.1129,517.2742
1,9,24,2,3,2,A,F,b,y,5,15,6001,1,1,432.7581,535.3387
1,9,24,2,3,2,A,F,b,y,5,15,6001,1,1,732.1129,214.0484
1,9,24,2,3,2,A,F,b,y,5,15,7001,1,1,573.4032,38.5645
1,9,24,2,3,2,A,F,b,y,5,15,8001,1,1,406.9516,472.1129
1,9,24,2,3,2,A,F,b,y,5,15,9001,1,1,526.9516,176.629
1,9,24,2,3,2,A,F,b,y,5,15,10001,1,1,246.9516,419.2097
1,9,24,2,3,2,A,F,b,y,5,15,10001,1,1,417.2742,48.8871
1,9,24,2,3,2,A,F,b,y,5,15,11001,1,1,468.8871,371.4677
1,9,24,2,3,2,A,F,b,y,5,15,11001,1,1,472.7581,455.3387
1,9,24,2,3,2,A,F,b,y,5,15,11001,1,1,337.2742,555.9839
1,9,24,2,3,2,A,F,b,y,5,15,11001,1,1,510.1774,553.4032
1,9,24,2,3,2,A,F,b,y,5,15,11001,1,1,596.629,536.629
1,9,24,2,3,2,A,F,b,y,5,15,12001,1,1,267.5968,157.2742
1,9,24,2,3,2,A,F,b,y,5,15,12001,1,1,280.5,228.2419
1,9,24,2,3,2,A,F,b,y,5,15,12001,1,1,236.629,286.3065
1,9,24,2,3,2,A,F,b,y,5,15,12001,1,1,281.7903,328.8871
1,9,24,2,3,2,A,F,b,y,5,15,12001,1,1,391.4677,505.6613
1,9,24,2,3,2,A,F,b,y,5,15,13001,1,1,431.4677,268.2419
1,9,24,2,3,2,A,F,b,y,5,15,13001,1,1,348.8871,481.1452
1,9,24,2,3,2,A,F,b,y,5,15,13001,1,1,373.4032,488.8871
1,9,24,2,3,2,A,F,b,y,5,15,13001,1,1,426.3065,508.2419
1,9,24,2,3,2,A,F,b,y,5,15,13001,1,1,729.5323,318.5645
1,9,24,2,3,2,A,F,b,y,5,15,14001,1,1,379.8548,131.4677
1,9,24,2,3,2,A,F,b,y,5,15,14001,1,1,684.371,432.1129
1,9,24,2,3,2,A,F,b,y,5,15,14001,1,1,674.0484,486.3065
1,9,24,2,3,2,A,F,b,y,5,15,15001,1,1,502.4355,38.5645
1,9,24,2,3,2,A,F,b,y,5,15,15001,1,1,263.7258,135.3387
1,9,24,2,3,2,A,F,b,y,5,15,15001,1,1,343.7258,395.9839
1,9,24,2,3,2,A,F,b,y,5,15,16001,1,1,281.7903,490.1774
1,9,24,2,3,2,A,F,b,y,5,15,17001,1,1,592.7581,75.9839
1,9,24,2,3,2,A,F,b,y,5,15,18001,1,1,481.7903,229.5323
1,9,24,2,3,2,A,F,b,y,5,15,18001,1,2,397.9194,121.1452
1,9,24,2,3,2,A,F,b,y,5,15,19001,1,1,459.8548,401.1452
1,9,24,2,3,2,A,F,b,y,5,15,19001,1,1,529.5323,55.3387
1,9,24,2,3,2,A,F,b,y,5,15,20001,1,1,328.2419,103.0806
1,9,24,2,3,2,A,F,b,y,5,15,21001,1,1,279.2097,256.629
1,9,24,2,3,2,A,F,b,y,5,15,21001,1,1,225.0161,323.7258
1,9,24,2,3,2,A,F,b,y,5,15,21001,1,3,280.5,81.1452
1,9,24,2,3,2,A,F,b,y,5,15,22001,1,3,474.0484,283.7258
1,9,24,2,3,2,A,F,b,y,5,15,22001,1,1,404.371,563.7258
1,9,24,2,3,2,A,F,b,y,5,15,22001,1,2,603.0806,532.7581
1,9,24,2,3,2,A,F,b,y,5,15,22001,1,1,621.1452,535.3387
1,9,24,2,3,2,A,F,b,y,5,15,23001,1,1,472.7581,455.3387
1,9,24,2,3,2,A,F,b,y,5,15,23001,1,1,270.1774,246.3065
1,9,24,2,3,2,A,F,b,y,5,15,23001,1,1,228.8871,220.5
1,9,24,2,3,2,A,F,b,y,5,15,23001,1,3,263.7258,195.9839
1,9,24,2,3,2,A,F,b,y,5,15,24001,1,1,514.0484,219.2097
1,9,24,2,3,2,A,F,b,y,5,15,24001,1,3,524.371,194.6935
1,9,24,2,3,2,A,F,b,y,5,15,25001,1,1,306.3065,487.5968
1,9,24,2,3,2,A,F,b,y,5,15,25001,1,3,621.1452,270.8226
1,9,24,2,3,2,A,F,b,y,5,15,26001,1,1,458.5645,394.6935
1,9,24,2,3,2,A,F,b,y,5,15,26001,1,3,439.2097,359.8548
1,9,24,2,3,2,A,F,b,y,5,15,27001,1,1,288.2419,181.7903
1,9,24,2,3,2,A,F,b,y,5,15,27001,1,3,226.3065,181.7903
1,9,24,2,3,2,A,F,b,y,5,15,28001,1,1,577.2742,510.8226
1,9,24,2,3,2,A,F,b,y,5,15,29001,1,1,391.4677,558.5645
1,9,24,2,3,2,A,F,b,y,5,15,29001,1,1,418.5645,508.2419
1,9,24,2,3,2,A,F,b,y,5,15,29001,1,3,445.6613,30.8226
1,9,24,2,3,2,A,F,b,y,5,15,30001,1,1,326.9516,536.629
1,9,24,2,3,2,A,F,b,y,5,15,30001,1,1,497.2742,149.5323
1,9,24,2,3,2,A,F,b,y,5,15,30001,1,1,499.8548,112.1129
1,9,24,2,3,2,A,F,b,y,5,15,30001,1,3,458.5645,148.2419
1,9,24,2,3,2,A,F,b,y,5,15,31001,1,1,529.5323,518.5645
1,9,24,2,3,2,A,F,b,y,5,15,31001,1,1,570.8226,525.0161
1,9,24,2,3,2,A,F,b,y,5,15,31001,1,2,655.9839,478.5645
1,9,24,2,3,2,A,F,b,y,5,15,31001,1,2,717.9194,432.1129
1,9,24,2,3,2,A,F,b,y,5,15,32001,1,1,281.7903,509.5323
1,9,24,2,3,2,A,F,b,y,5,15,33001,1,1,477.9194,365.0161
1,9,24,2,3,2,A,F,b,y,5,15,34001,1,1,440.5,530.1774
1,9,24,2,3,2,A,F,b,y,5,15,34001,1,1,468.8871,513.4032
1,9,24,2,3,2,A,F,b,y,5,15,34001,1,1,712.7581,492.7581
1,9,24,2,3,2,A,F,b,y,5,15,35001,1,1,511.4677,429.5323
1,9,24,2,3,2,A,F,b,y,5,15,35001,1,1,566.9516,470.8226
1,9,24,2,3,2,A,F,b,y,5,15,35001,1,2,587.5968,503.0806
1,9,24,2,3,2,A,F,b,y,5,15,35001,1,1,421.1452,96.629
1,9,24,2,3,2,A,F,b,y,5,15,35001,1,1,423.7258,29.5323
1,9,24,2,3,2,A,F,b,y,5,15,36001,1,1,360.5,434.6935
1,9,24,2,3,2,A,F,b,y,5,15,36001,1,1,506.3065,518.5645
1,9,24,2,3,2,A,F,b,y,5,15,36001,1,1,564.371,445.0161
1,9,24,2,3,2,A,F,b,y,5,15,36001,1,2,517.9194,546.9516
1,9,24,2,3,2,A,F,b,y,5,15,37001,1,2,359.2097,398.5645
1,9,24,2,3,2,A,F,b,y,5,15,37001,1,1,378.5645,561.1452
1,9,24,2,3,2,A,F,b,y,5,15,38001,1,2,395.3387,540.5
1,9,24,2,3,2,A,F,b,y,5,15,38001,1,1,205.6613,294.0484
1,9,24,2,3,2,A,F,b,y,5,15,39001,1,2,422.4355,555.9839
1,9,24,2,3,2,A,F,b,y,5,15,39001,1,1,499.8548,115.9839
1,9,24,2,3,2,A,F,b,y,5,15,40001,1,1,314.0484,353.4032
1,9,24,2,3,2,A,F,b,y,5,15,40001,1,2,249.5323,357.2742
1,9,24,2,3,2,A,F,b,y,5,15,41001,1,1,337.2742,177.9194
1,9,24,2,3,2,A,F,b,y,5,15,41001,1,2,374.6935,155.9839
1,9,24,2,3,2,A,F,b,y,5,15,41001,1,1,636.629,488.8871
1,9,24,2,3,2,A,F,b,y,5,15,42001,1,1,307.5968,110.8226
1,9,24,2,3,2,A,F,b,y,5,15,42001,1,1,676.629,165.0161
1,9,24,2,3,2,A,F,b,y,5,15,42001,1,1,476.629,532.7581
1,9,24,2,3,2,A,F,b,y,5,15,43001,1,1,249.5323,281.1452
1,9,24,2,3,2,A,F,b,y,5,15,44001,1,1,730.8226,255.3387
1,9,24,2,3,2,A,F,b,y,5,15,44001,1,1,750.1774,376.629
1,9,24,2,3,2,A,F,b,y,5,15,45001,1,1,406.9516,257.9194
1,9,24,2,3,2,A,F,b,y,5,15,45001,1,1,730.8226,263.0806
1,9,24,2,3,2,A,F,b,y,5,15,46001,1,1,395.3387,208.8871
1,9,24,2,3,2,A,F,b,y,5,15,47001,1,1,250.8226,216.629
1,9,24,2,3,2,A,F,b,y,5,15,48001,1,1,265.0161,230.8226
1,9,24,2,3,2,A,F,b,y,5,15,48001,1,1,363.0806,545.6613
1,9,24,2,3,2,A,F,b,y,5,15,49001,1,1,214.6935,346.9516
1,9,24,2,3,2,A,F,b,y,5,15,50001,1,1,572.1129,114.6935
1,9,24,2,3,2,A,F,b,y,5,15,51001,1,1,619.8548,503.0806
1,9,24,2,3,2,A,F,b,y,5,15,51001,1,1,217.2742,309.5323
1,9,24,2,3,2,A,F,b,y,5,15,52001,1,1,483.0806,442.4355
1,9,24,2,3,2,A,F,b,y,5,15,53001,1,1,658.5645,385.6613
1,9,24,2,3,2,A,F,b,y,5,15,54001,1,1,408.2419,184.371
1,9,24,2,3,2,A,F,b,y,5,15,55001,1,1,388.8871,473.4032
1,9,24,2,3,2,A,F,b,y,5,15,55001,1,1,388.8871,572.7581
1,9,24,2,3,2,A,F,b,y,5,15,56001,1,1,390.1774,552.1129
1,9,24,2,3,2,A,F,b,y,5,15,56001,1,1,561.7903,172.7581
1,9,24,2,3,2,A,F,b,y,5,15,57001,1,1,226.3065,380.5
1,9,24,2,3,2,A,F,b,y,5,15,57001,1,1,715.3387,340.5
1,9,24,2,3,2,A,F,b,y,5,15,58001,1,1,675.3387,491.4677
1,9,24,2,3,2,A,F,b,y,5,15,58001,1,1,277.9194,121.1452
1,9,24,2,3,2,A,F,b,y,5,15,59001,1,2,439.2097,593.4032
1,9,24,2,3,2,A,F,b,y,5,15,60001,1,1,640.5,393.4032
1,9,24,2,3,2,A,F,b,y,5,15,61001,1,1,492.1129,367.5968
1,9,24,2,3,2,A,F,b,y,5,15,61001,1,1,457.2742,379.2097
1,9,24,2,3,2,A,F,b,y,5,15,62001,1,1,234.0484,368.8871
1,9,24,2,3,2,A,F,b,y,5,15,62001,1,1,521.7903,121.1452
1,9,24,2,3,2,A,F,b,y,5,15,63001,1,1,510.1774,429.5323
1,9,24,2,3,2,A,F,b,y,5,15,63001,1,1,554.0484,408.8871
1,9,24,2,3,2,A,F,b,y,5,15,64001,1,1,210.8226,398.5645
1,9,24,2,3,2,A,F,b,y,5,15,65001,1,1,342.4355,180.5
1,9,24,2,3,2,A,F,b,y,5,15,66001,1,1,679.2097,251.4677
1,9,24,2,3,2,A,F,b,y,5,15,67001,1,1,435.3387,283.7258
1,9,24,2,3,2,A,F,b,y,5,15,67001,1,1,721.7903,186.9516
1,9,24,2,3,2,A,F,b,y,5,15,68001,1,1,586.3065,75.9839
1,9,24,2,3,2,A,F,b,y,5,15,69001,1,1,378.5645,330.1774
1,9,24,2,3,2,A,F,b,y,5,15,69001,1,1,321.7903,323.7258
1,9,24,2,3,2,A,F,b,y,5,15,70001,1,1,223.7258,241.1452
1,9,24,2,3,2,A,F,b,y,5,15,71001,1,1,485.6613,353.4032
1,9,24,2,3,2,A,F,b,y,5,15,72001,1,1,569.5323,63.0806
1,9,24,2,3,2,A,F,b,y,5,15,72001,1,1,699.8548,174.0484
1,9,24,2,3,2,A,F,b,y,5,15,73001,1,1,351.4677,61.7903
1,9,24,2,3,2,A,F,b,y,5,15,73001,1,3,324.371,221.7903
1,9,24,2,3,2,A,F,b,y,5,15,73001,1,1,288.2419,287.5968
1,9,24,2,3,2,A,F,b,y,5,15,73001,1,2,319.2097,290.1774
1,9,24,2,3,2,A,F,b,y,5,15,73001,1,1,274.0484,464.371
1,9,24,2,3,2,A,F,b,y,5,15,74001,1,1,360.5,134.0484
1,9,24,2,3,2,A,F,b,y,5,15,74001,1,3,372.1129,162.4355
1,9,24,2,3,2,A,F,b,y,5,15,74001,1,1,450.8226,403.7258
1,9,24,2,3,2,A,F,b,y,5,15,75001,1,3,332.1129,144.371
1,9,24,2,3,2,A,F,b,y,5,15,75001,1,1,404.371,315.9839
1,9,24,2,3,2,A,F,b,y,5,15,75001,1,1,676.629,303.0806
1,9,24,2,3,2,A,F,b,y,5,15,75001,1,1,596.629,473.4032
1,9,24,2,3,2,A,F,b,y,5,15,76001,1,3,317.9194,285.0161
1,9,24,2,3,2,A,F,b,y,5,15,76001,1,1,277.9194,239.8548
1,9,24,2,3,2,A,F,b,y,5,15,76001,1,1,458.5645,554.6935
1,9,24,2,3,2,A,F,b,y,5,15,77001,1,1,266.3065,266.9516
1,9,24,2,3,2,A,F,b,y,5,15,77001,1,1,249.5323,207.5968
1,9,24,2,3,2,A,F,b,y,5,15,77001,1,1,250.8226,171.4677
1,9,24,2,3,2,A,F,b,y,5,15,77001,1,1,396.629,241.1452
1,9,24,2,3,2,A,F,b,y,5,15,77001,1,3,357.9194,292.7581
1,9,24,2,3,2,A,F,b,y,5,15,77001,1,3,649.5323,260.5
1,9,24,2,3,2,A,F,b,y,5,15,77001,1,1,688.2419,243.7258
1,9,24,2,3,2,A,F,b,y,5,15,77001,1,1,618.5645,79.8548
1,9,24,2,3,2,A,F,b,y,5,15,78001,1,1,588.8871,83.7258
1,9,24,2,3,2,A,F,b,y,5,15,78001,1,1,541.1452,197.2742
1,9,24,2,3,2,A,F,b,y,5,15,78001,1,1,461.1452,299.2097
1,9,24,2,3,2,A,F,b,y,5,15,78001,1,3,507.5968,69.5323
1,9,24,2,3,2,A,F,b,y,5,15,78001,1,1,215.9839,235.9839
1,9,24,2,3,2,A,F,b,y,5,15,78001,1,3,254.6935,184.371
1,9,24,2,3,2,A,F,b,y,5,15,78001,1,1,590.1774,505.6613
1,9,24,2,3,2,A,F,b,y,5,15,78001,1,1,631.4677,499.2097
1,9,24,2,3,2,A,F,b,y,5,15,79001,1,1,252.1129,296.629
1,9,24,2,3,2,A,F,b,y,5,15,79001,1,1,225.0161,256.629
1,9,24,2,3,2,A,F,b,y,5,15,79001,1,3,246.9516,247.5968
1,9,24,2,3,2,A,F,b,y,5,15,79001,1,1,341.1452,113.4032
1,9,24,2,3,2,A,F,b,y,5,15,79001,1,3,329.5323,146.9516
1,9,24,2,3,2,A,F,b,y,5,15,80001,1,1,302.4355,219.2097
1,9,24,2,3,2,A,F,b,y,5,15,80001,1,3,248.2419,230.8226
1,9,24,2,3,2,A,F,b,y,5,15,80001,1,3,200.5,252.7581
1,9,24,2,3,2,A,F,b,y,5,15,80001,1,1,599.2097,379.2097
1,9,24,2,3,2,A,F,b,y,5,15,80001,1,1,634.0484,410.1774
1,9,24,2,3,2,A,F,b,y,5,15,80001,1,1,681.7903,461.7903
1,9,24,2,3,2,A,F,b,y,5,15,80001,1,1,717.9194,437.2742
1,9,24,2,3,2,A,F,b,y,5,15,81001,1,1,324.371,287.5968
1,9,24,2,3,2,A,F,b,y,5,15,81001,1,1,294.6935,358.5645
1,9,24,2,3,2,A,F,b,y,5,15,81001,1,1,267.5968,291.4677
1,9,24,2,3,2,A,F,b,y,5,15,81001,1,1,217.2742,352.1129
1,9,24,2,3,2,A,F,b,y,5,15,81001,1,1,219.8548,384.371
1,9,24,2,3,2,A,F,b,y,5,15,81001,1,3,271.4677,376.629
1,9,24,2,3,2,A,F,b,y,5,15,82001,1,1,339.8548,485.0161
1,9,24,2,3,2,A,F,b,y,5,15,82001,1,1,209.5323,313.4032
1,9,24,2,3,2,A,F,b,y,5,15,82001,1,1,399.2097,445.0161
1,9,24,2,3,2,A,F,b,y,5,15,82001,1,3,435.3387,448.8871
1,9,24,2,3,2,A,F,b,y,5,15,82001,1,1,477.9194,492.7581
1,9,24,2,3,2,A,F,b,y,5,15,83001,1,1,303.7258,166.3065
1,9,24,2,3,2,A,F,b,y,5,15,83001,1,1,421.1452,283.7258
1,9,24,2,3,2,A,F,b,y,5,15,83001,1,1,739.8548,232.1129
1,9,24,2,3,2,A,F,b,y,5,15,83001,1,1,454.6935,451.4677
1,9,24,2,3,2,A,F,b,y,5,15,83001,1,1,400.5,473.4032
1,9,24,2,3,2,A,F,b,y,5,15,83001,1,1,370.8226,505.6613
1,9,24,2,3,2,A,F,b,y,5,15,83001,1,3,365.6613,457.9194
1,9,24,2,3,2,A,F,b,y,5,15,84001,1,1,305.0161,221.7903
1,9,24,2,3,2,A,F,b,y,5,15,84001,1,1,595.3387,211.4677
1,9,24,2,3,2,A,F,b,y,5,15,84001,1,1,587.5968,312.1129
1,9,24,2,3,2,A,F,b,y,5,15,84001,1,1,564.371,362.4355
1,9,24,2,3,2,A,F,b,y,5,15,84001,1,3,587.5968,344.371
1,9,24,2,3,2,A,F,b,y,5,15,84001,1,1,617.2742,362.4355
1,9,24,2,3,2,A,F,b,y,5,15,85001,1,1,382.4355,66.9516
1,9,24,2,3,2,A,F,b,y,5,15,85001,1,1,566.9516,435.9839
1,9,24,2,3,2,A,F,b,y,5,15,85001,1,1,547.5968,379.2097
1,9,24,2,3,2,A,F,b,y,5,15,85001,1,1,585.0161,388.2419
1,9,24,2,3,2,A,F,b,y,5,15,85001,1,3,621.1452,358.5645
1,9,24,2,3,2,A,F,b,y,5,15,85001,1,1,637.9194,415.3387
1,9,24,2,3,2,A,F,b,y,5,15,86001,1,1,218.5645,288.8871
1,9,24,2,3,2,A,F,b,y,5,15,86001,1,1,484.371,295.3387
1,9,24,2,3,2,A,F,b,y,5,15,86001,1,3,550.1774,295.3387
1,9,24,2,3,2,A,F,b,y,5,15,86001,1,1,574.6935,292.7581
1,9,24,2,3,2,A,F,b,y,5,15,86001,1,1,568.2419,331.4677
1,9,24,2,3,2,A,F,b,y,5,15,86001,1,1,524.371,543.0806
1,9,24,2,3,2,A,F,b,y,5,15,87001,1,1,514.0484,290.1774
1,9,24,2,3,2,A,F,b,y,5,15,87001,1,3,537.2742,328.8871
1,9,24,2,3,2,A,F,b,y,5,15,87001,1,1,552.7581,283.7258
1,9,24,2,3,2,A,F,b,y,5,15,87001,1,1,583.7258,328.8871
1,9,24,2,3,2,A,F,b,y,5,15,87001,1,1,560.5,358.5645
1,9,24,2,3,2,A,F,b,y,5,15,88001,1,1,554.0484,237.2742
1,9,24,2,3,2,A,F,b,y,5,15,88001,1,1,605.6613,441.1452
1,9,24,2,3,2,A,F,b,y,5,15,88001,1,3,546.3065,487.5968
1,9,24,2,3,2,A,F,b,y,5,15,88001,1,1,608.2419,500.5
1,9,24,2,3,2,A,F,b,y,5,15,88001,1,1,524.371,534.0484
1,9,24,2,3,2,A,F,b,y,5,15,88001,1,1,489.5323,501.7903
1,9,24,2,3,2,A,F,b,y,5,15,89001,1,1,471.4677,136.629
1,9,24,2,3,2,A,F,b,y,5,15,89001,1,1,395.3387,246.3065
1,9,24,2,3,2,A,F,b,y,5,15,89001,1,1,674.0484,295.3387
1,9,24,2,3,2,A,F,b,y,5,15,89001,1,3,693.4032,348.2419
1,9,24,2,3,2,A,F,b,y,5,15,89001,1,1,729.5323,395.9839
1,9,24,2,3,2,A,F,b,y,5,15,90001,1,1,378.5645,146.9516
1,9,24,2,3,2,A,F,b,y,5,15,90001,1,1,529.5323,345.6613
1,9,24,2,3,2,A,F,b,y,5,15,90001,1,1,542.4355,417.9194
1,9,24,2,3,2,A,F,b,y,5,15,90001,1,1,551.4677,363.7258
1,9,24,2,3,2,A,F,b,y,5,15,90001,1,3,659.8548,153.4032
1,9,24,2,3,2,A,F,b,y,5,15,91001,1,1,635.3387,132.7581
1,9,24,2,3,2,A,F,b,y,5,15,91001,1,1,693.4032,405.0161
1,9,24,2,3,2,A,F,b,y,5,15,91001,1,1,706.3065,433.4032
1,9,24,2,3,2,A,F,b,y,5,15,91001,1,3,685.6613,457.9194
1,9,24,2,3,2,A,F,b,y,5,15,92001,1,1,228.8871,183.0806
1,9,24,2,3,2,A,F,b,y,5,15,92001,1,3,597.9194,451.4677
1,9,24,2,3,2,A,F,b,y,5,15,93001,1,3,373.4032,481.1452
1,9,24,2,3,2,A,F,b,y,5,15,93001,1,1,422.4355,490.1774
1,9,24,2,3,2,A,F,b,y,5,15,94001,1,3,231.4677,455.3387
1,9,24,2,3,2,A,F,b,y,5,15,94001,1,1,627.5968,281.1452
1,9,24,2,3,2,A,F,b,y,5,15,95001,1,3,516.629,335.3387
1,9,24,2,3,2,A,F,b,y,5,15,95001,1,1,506.3065,411.4677
1,9,24,2,3,2,A,F,b,y,5,15,95001,1,1,503.7258,450.1774
1,9,24,2,3,2,A,F,b,y,5,15,95001,1,1,532.1129,539.2097
1,9,24,2,3,2,A,F,b,y,5,15,96001,1,1,521.7903,281.1452
1,9,24,2,3,2,A,F,b,y,5,15,96001,1,1,556.629,248.8871
1,9,24,2,3,2,A,F,b,y,5,15,96001,1,3,609.5323,308.2419
1,9,24,2,3,2,A,F,b,y,5,15,97001,1,1,458.5645,446.3065
1,9,24,2,3,2,A,F,b,y,5,15,97001,1,1,387.5968,497.9194
1,9,24,2,3,2,A,F,b,y,5,15,97001,1,3,397.9194,456.629
1,9,24,2,3,2,A,F,b,y,5,15,98001,1,1,452.1129,435.9839
1,9,24,2,3,2,A,F,b,y,5,15,98001,1,2,659.8548,425.6613
1,9,24,2,3,2,A,F,b,y,5,15,99001,1,1,270.1774,292.7581
1,9,24,2,3,2,A,F,b,y,5,15,99001,1,2,330.8226,496.629
1,9,24,2,3,2,A,F,b,y,5,15,100001,1,1,254.6935,210.1774
1,9,24,2,3,2,A,F,b,y,5,15,100001,1,2,286.9516,188.2419
1,9,24,2,3,2,A,F,b,y,5,15,101001,1,1,604.371,149.5323
1,9,24,2,3,2,A,F,b,y,5,15,101001,1,2,635.3387,185.6613
1,9,24,2,3,2,A,F,b,y,5,15,102001,1,1,639.2097,451.4677
1,9,24,2,3,2,A,F,b,y,5,15,102001,1,2,639.2097,478.5645
1,9,24,2,3,2,A,F,b,y,5,15,103001,1,1,426.3065,456.629
1,9,24,2,3,2,A,F,b,y,5,15,103001,1,2,396.629,473.4032
1,9,24,2,3,2,A,F,b,y,5,15,104001,1,1,640.5,465.6613
1,9,24,2,3,2,A,F,b,y,5,15,104001,1,2,622.4355,512.1129
1,9,24,2,3,2,A,F,b,y,5,15,105001,1,1,370.8226,331.4677
1,9,24,2,3,2,A,F,b,y,5,15,105001,1,1,339.8548,269.5323
1,9,24,2,3,2,A,F,b,y,5,15,105001,1,2,712.7581,344.371
1,9,24,2,3,2,A,F,b,y,5,15,105001,1,2,672.7581,499.2097
1,9,24,2,3,2,A,F,b,y,5,15,106001,1,1,609.5323,318.5645
1,9,24,2,3,2,A,F,b,y,5,15,106001,1,2,634.0484,283.7258
1,9,24,2,3,2,A,F,b,y,5,15,106001,1,2,581.1452,297.9194
