dummy,month,day,period,view,station,fgeno,mgeno,fcol,mcol,nf,nm,frame,something,sex,x,y
1,6,26,4,3,2,A,F,b,y,15,5,1001,1,1,273.8467,38.3758
1,6,26,4,3,2,A,F,b,y,15,5,1001,1,1,301.1012,54.4078
1,6,26,4,3,2,A,F,b,y,15,5,1001,1,3,572.0431,232.3637
1,6,26,4,3,2,A,F,b,y,15,5,1001,1,3,576.8527,397.494
1,6,26,4,3,2,A,F,b,y,15,5,1001,1,3,416.5321,405.51
1,6,26,4,3,2,A,F,b,y,15,5,1001,1,3,331.5621,381.4619
1,6,26,4,3,2,A,F,b,y,15,5,2001,1,1,435.7705,192.2836
1,6,26,4,3,2,A,F,b,y,15,5,2001,1,3,589.6784,262.8246
1,6,26,4,3,2,A,F,b,y,15,5,2001,1,3,592.8848,314.1273
1,6,26,4,3,2,A,F,b,y,15,5,2001,1,1,570.4399,336.5721
1,6,26,4,3,2,A,F,b,y,15,5,2001,1,3,584.8687,408.7164
1,6,26,4,3,2,A,F,b,y,15,5,2001,1,3,387.6743,415.1293
1,6,26,4,3,2,A,F,b,y,15,5,2001,1,1,227.3537,495.2896
1,6,26,4,3,2,A,F,b,y,15,5,2001,1,3,123.1453,501.7024
1,6,26,4,3,2,A,F,b,y,15,5,3001,1,1,565.6303,225.9509
1,6,26,4,3,2,A,F,b,y,15,5,3001,1,3,596.0912,256.4118
1,6,26,4,3,2,A,F,b,y,15,5,3001,1,3,551.2014,355.8106
1,6,26,4,3,2,A,F,b,y,15,5,3001,1,3,573.6463,397.494
1,6,26,4,3,2,A,F,b,y,15,5,3001,1,3,378.0551,423.1453
1,6,26,4,3,2,A,F,b,y,15,5,3001,1,1,124.7485,200.2996
1,6,26,4,3,2,A,F,b,y,15,5,3001,1,3,87.8747,193.8868
1,6,26,4,3,2,A,F,b,y,15,5,3001,1,3,206.512,544.989
1,6,26,4,3,2,A,F,b,y,15,5,3001,1,1,262.6242,581.8627
1,6,26,4,3,2,A,F,b,y,15,5,4001,1,1,419.7385,51.2014
1,6,26,4,3,2,A,F,b,y,15,5,4001,1,3,575.2495,222.7445
1,6,26,4,3,2,A,F,b,y,15,5,4001,1,3,589.6784,291.6824
1,6,26,4,3,2,A,F,b,y,15,5,4001,1,3,293.0852,41.5822
1,6,26,4,3,2,A,F,b,y,15,5,4001,1,3,389.2776,419.9389
1,6,26,4,3,2,A,F,b,y,15,5,4001,1,3,572.0431,413.5261
1,6,26,4,3,2,A,F,b,y,15,5,4001,1,1,152.003,407.1132
1,6,26,4,3,2,A,F,b,y,15,5,4001,1,3,81.4619,237.1733
1,6,26,4,3,2,A,F,b,y,15,5,5001,1,1,203.3056,147.3938
1,6,26,4,3,2,A,F,b,y,15,5,5001,1,1,203.3056,211.522
1,6,26,4,3,2,A,F,b,y,15,5,5001,1,1,265.8307,245.1894
1,6,26,4,3,2,A,F,b,y,15,5,5001,1,3,296.2916,67.2335
1,6,26,4,3,2,A,F,b,y,15,5,5001,1,3,288.2756,296.492
1,6,26,4,3,2,A,F,b,y,15,5,5001,1,3,543.1854,140.981
1,6,26,4,3,2,A,F,b,y,15,5,5001,1,3,592.8848,298.0952
1,6,26,4,3,2,A,F,b,y,15,5,5001,1,3,389.2776,432.7645
1,6,26,4,3,2,A,F,b,y,15,5,5001,1,3,556.011,440.7806
1,6,26,4,3,2,A,F,b,y,15,5,6001,1,3,539.979,174.6483
1,6,26,4,3,2,A,F,b,y,15,5,6001,1,3,559.2174,214.7285
1,6,26,4,3,2,A,F,b,y,15,5,6001,1,3,583.2655,275.6503
1,6,26,4,3,2,A,F,b,y,15,5,6001,1,3,589.6784,306.1112
1,6,26,4,3,2,A,F,b,y,15,5,6001,1,1,591.2816,360.6202
1,6,26,4,3,2,A,F,b,y,15,5,6001,1,3,384.4679,426.3517
1,6,26,4,3,2,A,F,b,y,15,5,6001,1,1,254.6082,522.5441
1,6,26,4,3,2,A,F,b,y,15,5,6001,1,1,132.7645,469.6383
1,6,26,4,3,2,A,F,b,y,15,5,7001,1,3,578.4559,213.1253
1,6,26,4,3,2,A,F,b,y,15,5,7001,1,3,570.4399,282.0631
1,6,26,4,3,2,A,F,b,y,15,5,7001,1,3,414.9289,408.7164
1,6,26,4,3,2,A,F,b,y,15,5,7001,1,1,382.8647,503.3056
1,6,26,4,3,2,A,F,b,y,15,5,7001,1,1,84.6683,357.4138
1,6,26,4,3,2,A,F,b,y,15,5,7001,1,3,254.6082,187.4739
1,6,26,4,3,2,A,F,b,y,15,5,8001,1,3,482.2635,179.4579
1,6,26,4,3,2,A,F,b,y,15,5,8001,1,3,572.0431,237.1733
1,6,26,4,3,2,A,F,b,y,15,5,8001,1,3,578.4559,331.7625
1,6,26,4,3,2,A,F,b,y,15,5,8001,1,3,394.0872,349.3978
1,6,26,4,3,2,A,F,b,y,15,5,8001,1,3,307.514,246.7926
1,6,26,4,3,2,A,F,b,y,15,5,8001,1,1,265.8307,317.3337
1,6,26,4,3,2,A,F,b,y,15,5,8001,1,1,179.2575,216.3317
1,6,26,4,3,2,A,F,b,y,15,5,8001,1,1,67.0331,259.6182
1,6,26,4,3,2,A,F,b,y,15,5,9001,1,1,519.1373,256.4118
1,6,26,4,3,2,A,F,b,y,15,5,9001,1,3,568.8367,227.5541
1,6,26,4,3,2,A,F,b,y,15,5,9001,1,3,588.0752,261.2214
1,6,26,4,3,2,A,F,b,y,15,5,9001,1,3,588.0752,326.9529
1,6,26,4,3,2,A,F,b,y,15,5,9001,1,1,336.3717,81.6623
1,6,26,4,3,2,A,F,b,y,15,5,9001,1,1,299.498,134.5681
1,6,26,4,3,2,A,F,b,y,15,5,9001,1,3,216.1313,75.2495
1,6,26,4,3,2,A,F,b,y,15,5,9001,1,3,312.3236,431.1613
1,6,26,4,3,2,A,F,b,y,15,5,10001,1,3,581.6623,214.7285
1,6,26,4,3,2,A,F,b,y,15,5,10001,1,3,584.8687,243.5862
1,6,26,4,3,2,A,F,b,y,15,5,10001,1,3,600.9008,307.7144
1,6,26,4,3,2,A,F,b,y,15,5,10001,1,3,392.484,421.5421
1,6,26,4,3,2,A,F,b,y,15,5,10001,1,1,507.9148,501.7024
1,6,26,4,3,2,A,F,b,y,15,5,10001,1,1,172.8447,341.3818
1,6,26,4,3,2,A,F,b,y,15,5,10001,1,1,180.8607,288.476
1,6,26,4,3,2,A,F,b,y,15,5,10001,1,3,216.1313,80.0591
1,6,26,4,3,2,A,F,b,y,15,5,10001,1,3,280.2595,39.979
1,6,26,4,3,2,A,F,b,y,15,5,10001,1,1,329.9589,46.3918
1,6,26,4,3,2,A,F,b,y,15,5,11001,1,3,224.1473,68.8367
1,6,26,4,3,2,A,F,b,y,15,5,11001,1,3,515.9309,136.1713
1,6,26,4,3,2,A,F,b,y,15,5,11001,1,3,551.2014,177.8547
1,6,26,4,3,2,A,F,b,y,15,5,11001,1,1,562.4238,203.506
1,6,26,4,3,2,A,F,b,y,15,5,11001,1,3,576.8527,251.6022
1,6,26,4,3,2,A,F,b,y,15,5,11001,1,3,586.4719,290.0792
1,6,26,4,3,2,A,F,b,y,15,5,11001,1,3,405.3096,299.6984
1,6,26,4,3,2,A,F,b,y,15,5,11001,1,1,307.514,249.999
1,6,26,4,3,2,A,F,b,y,15,5,11001,1,1,240.1794,346.1914
1,6,26,4,3,2,A,F,b,y,15,5,11001,1,1,472.6443,490.48
1,6,26,4,3,2,A,F,b,y,15,5,12001,1,3,286.6723,38.3758
1,6,26,4,3,2,A,F,b,y,15,5,12001,1,3,527.1533,124.9489
1,6,26,4,3,2,A,F,b,y,15,5,12001,1,3,562.4238,192.2836
1,6,26,4,3,2,A,F,b,y,15,5,12001,1,1,430.9609,224.3477
1,6,26,4,3,2,A,F,b,y,15,5,12001,1,1,455.009,296.492
1,6,26,4,3,2,A,F,b,y,15,5,12001,1,3,387.6743,365.4299
1,6,26,4,3,2,A,F,b,y,15,5,12001,1,3,581.6623,387.8747
1,6,26,4,3,2,A,F,b,y,15,5,12001,1,3,543.1854,469.6383
1,6,26,4,3,2,A,F,b,y,15,5,12001,1,1,123.1453,272.4439
1,6,26,4,3,2,A,F,b,y,15,5,12001,1,1,73.4459,312.524
1,6,26,4,3,2,A,F,b,y,15,5,13001,1,3,289.8788,23.9469
1,6,26,4,3,2,A,F,b,y,15,5,13001,1,3,434.1673,76.8527
1,6,26,4,3,2,A,F,b,y,15,5,13001,1,1,219.3377,182.6643
1,6,26,4,3,2,A,F,b,y,15,5,13001,1,1,201.7024,274.0471
1,6,26,4,3,2,A,F,b,y,15,5,13001,1,3,200.0992,307.7144
1,6,26,4,3,2,A,F,b,y,15,5,13001,1,3,129.5581,157.013
1,6,26,4,3,2,A,F,b,y,15,5,13001,1,1,115.1293,249.999
1,6,26,4,3,2,A,F,b,y,15,5,13001,1,1,49.3978,216.3317
1,6,26,4,3,2,A,F,b,y,15,5,13001,1,3,55.8106,258.015
1,6,26,4,3,2,A,F,b,y,15,5,13001,1,3,453.4058,544.989
1,6,26,4,3,2,A,F,b,y,15,5,13001,1,3,531.9629,479.2575
1,6,26,4,3,2,A,F,b,y,15,5,13001,1,3,583.2655,375.0491
1,6,26,4,3,2,A,F,b,y,15,5,14001,1,1,158.4158,88.0752
1,6,26,4,3,2,A,F,b,y,15,5,14001,1,1,249.7986,269.2375
1,6,26,4,3,2,A,F,b,y,15,5,14001,1,1,461.4218,264.4279
1,6,26,4,3,2,A,F,b,y,15,5,14001,1,3,591.2816,346.1914
1,6,26,4,3,2,A,F,b,y,15,5,14001,1,3,341.1814,352.6042
1,6,26,4,3,2,A,F,b,y,15,5,14001,1,3,283.4659,395.8908
1,6,26,4,3,2,A,F,b,y,15,5,14001,1,1,381.2615,419.9389
1,6,26,4,3,2,A,F,b,y,15,5,14001,1,3,527.1533,453.6062
1,6,26,4,3,2,A,F,b,y,15,5,14001,1,3,511.1212,508.1152
1,6,26,4,3,2,A,F,b,y,15,5,14001,1,3,405.3096,573.8467
1,6,26,4,3,2,A,F,b,y,15,5,14001,1,3,285.0691,581.8627
1,6,26,4,3,2,A,F,b,y,15,5,15001,1,1,209.7184,65.6303
1,6,26,4,3,2,A,F,b,y,15,5,15001,1,1,402.1032,89.6784
1,6,26,4,3,2,A,F,b,y,15,5,15001,1,3,230.5601,173.0451
1,6,26,4,3,2,A,F,b,y,15,5,15001,1,3,565.6303,181.0611
1,6,26,4,3,2,A,F,b,y,15,5,15001,1,3,589.6784,288.476
1,6,26,4,3,2,A,F,b,y,15,5,15001,1,3,463.0251,394.2876
1,6,26,4,3,2,A,F,b,y,15,5,15001,1,1,535.1693,463.2255
1,6,26,4,3,2,A,F,b,y,15,5,15001,1,3,379.6583,442.3838
1,6,26,4,3,2,A,F,b,y,15,5,15001,1,3,440.5802,525.7505
1,6,26,4,3,2,A,F,b,y,15,5,15001,1,3,285.0691,386.2715
1,6,26,4,3,2,A,F,b,y,15,5,15001,1,3,244.989,440.7806
1,6,26,4,3,2,A,F,b,y,15,5,15001,1,1,193.6864,530.5601
1,6,26,4,3,2,A,F,b,y,15,5,15001,1,3,291.482,565.8307
1,6,26,4,3,2,A,F,b,y,15,5,16001,1,1,464.6283,78.4559
1,6,26,4,3,2,A,F,b,y,15,5,16001,1,3,581.6623,198.6964
1,6,26,4,3,2,A,F,b,y,15,5,16001,1,3,413.3257,266.0311
1,6,26,4,3,2,A,F,b,y,15,5,16001,1,1,105.51,171.4419
1,6,26,4,3,2,A,F,b,y,15,5,16001,1,3,342.7846,392.6844
1,6,26,4,3,2,A,F,b,y,15,5,16001,1,1,291.482,378.2555
1,6,26,4,3,2,A,F,b,y,15,5,16001,1,3,209.7184,368.6363
1,6,26,4,3,2,A,F,b,y,15,5,16001,1,3,270.6403,419.9389
1,6,26,4,3,2,A,F,b,y,15,5,16001,1,3,313.9269,496.8928
1,6,26,4,3,2,A,F,b,y,15,5,16001,1,3,422.9449,464.8287
1,6,26,4,3,2,A,F,b,y,15,5,16001,1,3,422.9449,392.6844
1,6,26,4,3,2,A,F,b,y,15,5,16001,1,3,467.8347,509.7184
1,6,26,4,3,2,A,F,b,y,15,5,17001,1,1,342.7846,192.2836
1,6,26,4,3,2,A,F,b,y,15,5,17001,1,3,193.6864,80.0591
1,6,26,4,3,2,A,F,b,y,15,5,17001,1,3,572.0431,182.6643
1,6,26,4,3,2,A,F,b,y,15,5,17001,1,1,616.9329,309.3176
1,6,26,4,3,2,A,F,b,y,15,5,17001,1,3,446.993,410.3196
1,6,26,4,3,2,A,F,b,y,15,5,17001,1,3,419.7385,466.4319
1,6,26,4,3,2,A,F,b,y,15,5,17001,1,3,475.8507,538.5762
1,6,26,4,3,2,A,F,b,y,15,5,17001,1,3,209.7184,375.0491
1,6,26,4,3,2,A,F,b,y,15,5,17001,1,3,108.7164,317.3337
1,6,26,4,3,2,A,F,b,y,15,5,17001,1,1,281.8627,580.2595
1,6,26,4,3,2,A,F,b,y,15,5,18001,1,1,349.1974,124.9489
1,6,26,4,3,2,A,F,b,y,15,5,18001,1,3,552.8046,168.2355
1,6,26,4,3,2,A,F,b,y,15,5,18001,1,3,344.3878,197.0932
1,6,26,4,3,2,A,F,b,y,15,5,18001,1,3,366.8327,355.8106
1,6,26,4,3,2,A,F,b,y,15,5,18001,1,3,426.1513,400.7004
1,6,26,4,3,2,A,F,b,y,15,5,18001,1,1,459.8186,469.6383
1,6,26,4,3,2,A,F,b,y,15,5,18001,1,1,533.5661,485.6703
1,6,26,4,3,2,A,F,b,y,15,5,18001,1,3,305.9108,387.8747
1,6,26,4,3,2,A,F,b,y,15,5,18001,1,3,225.7505,394.2876
1,6,26,4,3,2,A,F,b,y,15,5,18001,1,3,281.8627,565.8307
1,6,26,4,3,2,A,F,b,y,15,5,19001,1,1,432.5641,110.52
1,6,26,4,3,2,A,F,b,y,15,5,19001,1,3,549.5982,148.997
1,6,26,4,3,2,A,F,b,y,15,5,19001,1,3,307.514,39.979
1,6,26,4,3,2,A,F,b,y,15,5,19001,1,3,212.9248,80.0591
1,6,26,4,3,2,A,F,b,y,15,5,19001,1,3,400.5,315.7305
1,6,26,4,3,2,A,F,b,y,15,5,19001,1,3,313.9269,392.6844
1,6,26,4,3,2,A,F,b,y,15,5,19001,1,3,398.8968,445.5902
1,6,26,4,3,2,A,F,b,y,15,5,19001,1,1,575.2495,419.9389
1,6,26,4,3,2,A,F,b,y,15,5,19001,1,1,305.9108,554.6082
1,6,26,4,3,2,A,F,b,y,15,5,19001,1,3,65.4299,306.1112
1,6,26,4,3,2,A,F,b,y,15,5,20001,1,1,339.5782,99.2976
1,6,26,4,3,2,A,F,b,y,15,5,20001,1,3,294.6884,36.7725
1,6,26,4,3,2,A,F,b,y,15,5,20001,1,3,547.995,139.3778
1,6,26,4,3,2,A,F,b,y,15,5,20001,1,3,559.2174,181.0611
1,6,26,4,3,2,A,F,b,y,15,5,20001,1,3,395.6904,325.3497
1,6,26,4,3,2,A,F,b,y,15,5,20001,1,3,474.2475,440.7806
1,6,26,4,3,2,A,F,b,y,15,5,20001,1,1,578.4559,421.5421
1,6,26,4,3,2,A,F,b,y,15,5,20001,1,3,285.0691,386.2715
1,6,26,4,3,2,A,F,b,y,15,5,20001,1,3,67.0331,235.5701
1,6,26,4,3,2,A,F,b,y,15,5,20001,1,1,219.3377,564.2275
1,6,26,4,3,2,A,F,b,y,15,5,21001,1,3,381.2615,25.5501
1,6,26,4,3,2,A,F,b,y,15,5,21001,1,3,285.0691,33.5661
1,6,26,4,3,2,A,F,b,y,15,5,21001,1,3,554.4078,134.5681
1,6,26,4,3,2,A,F,b,y,15,5,21001,1,3,560.8206,187.4739
1,6,26,4,3,2,A,F,b,y,15,5,21001,1,1,570.4399,410.3196
1,6,26,4,3,2,A,F,b,y,15,5,21001,1,3,543.1854,456.8126
1,6,26,4,3,2,A,F,b,y,15,5,21001,1,3,402.1032,368.6363
1,6,26,4,3,2,A,F,b,y,15,5,21001,1,3,301.1012,383.0651
1,6,26,4,3,2,A,F,b,y,15,5,21001,1,1,354.007,352.6042
1,6,26,4,3,2,A,F,b,y,15,5,21001,1,1,79.8587,371.8427
1,6,26,4,3,2,A,F,b,y,15,5,21001,1,3,108.7164,347.7946
1,6,26,4,3,2,A,F,b,y,15,5,22001,1,3,294.6884,46.3918
1,6,26,4,3,2,A,F,b,y,15,5,22001,1,3,531.9629,129.7585
1,6,26,4,3,2,A,F,b,y,15,5,22001,1,3,564.0271,193.8868
1,6,26,4,3,2,A,F,b,y,15,5,22001,1,3,568.8367,238.7766
1,6,26,4,3,2,A,F,b,y,15,5,22001,1,1,576.8527,376.6523
1,6,26,4,3,2,A,F,b,y,15,5,22001,1,3,552.8046,440.7806
1,6,26,4,3,2,A,F,b,y,15,5,22001,1,3,398.8968,379.8587
1,6,26,4,3,2,A,F,b,y,15,5,22001,1,3,365.2295,378.2555
1,6,26,4,3,2,A,F,b,y,15,5,22001,1,1,400.5,419.9389
1,6,26,4,3,2,A,F,b,y,15,5,22001,1,3,236.9729,400.7004
1,6,26,4,3,2,A,F,b,y,15,5,22001,1,2,76.6523,411.9228
1,6,26,4,3,2,A,F,b,y,15,5,23001,1,3,265.8307,38.3758
1,6,26,4,3,2,A,F,b,y,15,5,23001,1,3,496.6924,97.6944
1,6,26,4,3,2,A,F,b,y,15,5,23001,1,3,552.8046,142.5842
1,6,26,4,3,2,A,F,b,y,15,5,23001,1,3,557.6142,184.2675
1,6,26,4,3,2,A,F,b,y,15,5,23001,1,3,589.6784,267.6343
1,6,26,4,3,2,A,F,b,y,15,5,23001,1,1,583.2655,376.6523
1,6,26,4,3,2,A,F,b,y,15,5,23001,1,3,552.8046,439.1774
1,6,26,4,3,2,A,F,b,y,15,5,23001,1,3,406.9128,376.6523
1,6,26,4,3,2,A,F,b,y,15,5,23001,1,3,310.7204,387.8747
1,6,26,4,3,2,A,F,b,y,15,5,23001,1,1,310.7204,468.0351
1,6,26,4,3,2,A,F,b,y,15,5,23001,1,1,54.2074,307.7144
1,6,26,4,3,2,A,F,b,y,15,5,23001,1,1,108.7164,174.6483
1,6,26,4,3,2,A,F,b,y,15,5,24001,1,1,241.7826,59.2174
1,6,26,4,3,2,A,F,b,y,15,5,24001,1,3,299.498,39.979
1,6,26,4,3,2,A,F,b,y,15,5,24001,1,3,498.2956,116.9329
1,6,26,4,3,2,A,F,b,y,15,5,24001,1,3,547.995,160.2194
1,6,26,4,3,2,A,F,b,y,15,5,24001,1,3,560.8206,205.1092
1,6,26,4,3,2,A,F,b,y,15,5,24001,1,3,594.488,318.9369
1,6,26,4,3,2,A,F,b,y,15,5,24001,1,1,581.6623,367.0331
1,6,26,4,3,2,A,F,b,y,15,5,24001,1,3,568.8367,427.9549
1,6,26,4,3,2,A,F,b,y,15,5,24001,1,3,400.5,375.0491
1,6,26,4,3,2,A,F,b,y,15,5,24001,1,3,310.7204,387.8747
1,6,26,4,3,2,A,F,b,y,15,5,24001,1,1,309.1172,461.6222
1,6,26,4,3,2,A,F,b,y,15,5,25001,1,3,302.7044,36.7725
1,6,26,4,3,2,A,F,b,y,15,5,25001,1,3,506.3116,110.52
1,6,26,4,3,2,A,F,b,y,15,5,25001,1,3,541.5822,152.2034
1,6,26,4,3,2,A,F,b,y,15,5,25001,1,3,597.6944,298.0952
1,6,26,4,3,2,A,F,b,y,15,5,25001,1,3,589.6784,346.1914
1,6,26,4,3,2,A,F,b,y,15,5,25001,1,1,583.2655,368.6363
1,6,26,4,3,2,A,F,b,y,15,5,25001,1,3,557.6142,426.3517
1,6,26,4,3,2,A,F,b,y,15,5,25001,1,3,394.0872,370.2395
1,6,26,4,3,2,A,F,b,y,15,5,25001,1,3,301.1012,407.1132
1,6,26,4,3,2,A,F,b,y,15,5,25001,1,1,212.9248,336.5721
1,6,26,4,3,2,A,F,b,y,15,5,25001,1,1,206.512,501.7024
1,6,26,4,3,2,A,F,b,y,15,5,26001,1,1,384.4679,39.979
1,6,26,4,3,2,A,F,b,y,15,5,26001,1,3,299.498,39.979
1,6,26,4,3,2,A,F,b,y,15,5,26001,1,3,509.518,118.5361
1,6,26,4,3,2,A,F,b,y,15,5,26001,1,3,559.2174,173.0451
1,6,26,4,3,2,A,F,b,y,15,5,26001,1,3,586.4719,307.7144
1,6,26,4,3,2,A,F,b,y,15,5,26001,1,1,596.0912,368.6363
1,6,26,4,3,2,A,F,b,y,15,5,26001,1,3,576.8527,413.5261
1,6,26,4,3,2,A,F,b,y,15,5,26001,1,3,400.5,349.3978
1,6,26,4,3,2,A,F,b,y,15,5,26001,1,3,379.6583,391.0812
1,6,26,4,3,2,A,F,b,y,15,5,26001,1,3,315.5301,389.478
1,6,26,4,3,2,A,F,b,y,15,5,26001,1,1,171.2415,322.1433
1,6,26,4,3,2,A,F,b,y,15,5,26001,1,1,97.494,394.2876
1,6,26,4,3,2,A,F,b,y,15,5,27001,1,3,528.7565,136.1713
1,6,26,4,3,2,A,F,b,y,15,5,27001,1,3,301.1012,39.979
1,6,26,4,3,2,A,F,b,y,15,5,27001,1,3,588.0752,201.9028
1,6,26,4,3,2,A,F,b,y,15,5,27001,1,1,541.5822,221.1413
1,6,26,4,3,2,A,F,b,y,15,5,27001,1,3,581.6623,384.6683
1,6,26,4,3,2,A,F,b,y,15,5,27001,1,1,554.4078,419.9389
1,6,26,4,3,2,A,F,b,y,15,5,27001,1,3,398.8968,375.0491
1,6,26,4,3,2,A,F,b,y,15,5,27001,1,3,299.498,376.6523
1,6,26,4,3,2,A,F,b,y,15,5,27001,1,1,313.9269,418.3357
1,6,26,4,3,2,A,F,b,y,15,5,27001,1,1,155.2094,322.1433
1,6,26,4,3,2,A,F,b,y,15,5,28001,1,3,296.2916,39.979
1,6,26,4,3,2,A,F,b,y,15,5,28001,1,3,515.9309,112.1232
1,6,26,4,3,2,A,F,b,y,15,5,28001,1,3,549.5982,139.3778
1,6,26,4,3,2,A,F,b,y,15,5,28001,1,1,539.979,179.4579
1,6,26,4,3,2,A,F,b,y,15,5,28001,1,3,570.4399,211.522
1,6,26,4,3,2,A,F,b,y,15,5,28001,1,1,512.7244,304.508
1,6,26,4,3,2,A,F,b,y,15,5,28001,1,3,568.8367,331.7625
1,6,26,4,3,2,A,F,b,y,15,5,28001,1,3,588.0752,288.476
1,6,26,4,3,2,A,F,b,y,15,5,28001,1,3,350.8006,383.0651
1,6,26,4,3,2,A,F,b,y,15,5,28001,1,1,281.8627,314.1273
1,6,26,4,3,2,A,F,b,y,15,5,28001,1,3,240.1794,410.3196
1,6,26,4,3,2,A,F,b,y,15,5,29001,1,3,294.6884,46.3918
1,6,26,4,3,2,A,F,b,y,15,5,29001,1,3,514.3277,139.3778
1,6,26,4,3,2,A,F,b,y,15,5,29001,1,3,570.4399,153.8066
1,6,26,4,3,2,A,F,b,y,15,5,29001,1,3,562.4238,192.2836
1,6,26,4,3,2,A,F,b,y,15,5,29001,1,3,589.6784,256.4118
1,6,26,4,3,2,A,F,b,y,15,5,29001,1,3,596.0912,325.3497
1,6,26,4,3,2,A,F,b,y,15,5,29001,1,1,419.7385,391.0812
1,6,26,4,3,2,A,F,b,y,15,5,29001,1,1,362.023,320.5401
1,6,26,4,3,2,A,F,b,y,15,5,29001,1,3,296.2916,309.3176
1,6,26,4,3,2,A,F,b,y,15,5,29001,1,3,299.498,394.2876
1,6,26,4,3,2,A,F,b,y,15,5,30001,1,3,291.482,35.1693
1,6,26,4,3,2,A,F,b,y,15,5,30001,1,1,448.5962,65.6303
1,6,26,4,3,2,A,F,b,y,15,5,30001,1,3,528.7565,140.981
1,6,26,4,3,2,A,F,b,y,15,5,30001,1,3,544.7886,176.2515
1,6,26,4,3,2,A,F,b,y,15,5,30001,1,1,584.8687,278.8567
1,6,26,4,3,2,A,F,b,y,15,5,30001,1,3,589.6784,386.2715
1,6,26,4,3,2,A,F,b,y,15,5,30001,1,3,416.5321,386.2715
1,6,26,4,3,2,A,F,b,y,15,5,30001,1,3,296.2916,384.6683
1,6,26,4,3,2,A,F,b,y,15,5,30001,1,3,301.1012,432.7645
1,6,26,4,3,2,A,F,b,y,15,5,30001,1,3,273.8467,291.6824
1,6,26,4,3,2,A,F,b,y,15,5,30001,1,1,187.2735,291.6824
1,6,26,4,3,2,A,F,b,y,15,5,31001,1,1,352.4038,46.3918
1,6,26,4,3,2,A,F,b,y,15,5,31001,1,3,289.8788,41.5822
1,6,26,4,3,2,A,F,b,y,15,5,31001,1,3,517.5341,115.3297
1,6,26,4,3,2,A,F,b,y,15,5,31001,1,1,326.7525,201.9028
1,6,26,4,3,2,A,F,b,y,15,5,31001,1,1,236.9729,237.1733
1,6,26,4,3,2,A,F,b,y,15,5,31001,1,3,573.6463,219.5381
1,6,26,4,3,2,A,F,b,y,15,5,31001,1,3,589.6784,266.0311
1,6,26,4,3,2,A,F,b,y,15,5,31001,1,3,493.486,347.7946
1,6,26,4,3,2,A,F,b,y,15,5,31001,1,3,345.991,373.4459
1,6,26,4,3,2,A,F,b,y,15,5,31001,1,3,344.3878,397.494
1,6,26,4,3,2,A,F,b,y,15,5,31001,1,3,374.8487,442.3838
1,6,26,4,3,2,A,F,b,y,15,5,31001,1,3,285.0691,562.6242
1,6,26,4,3,2,A,F,b,y,15,5,31001,1,1,253.005,564.2275
1,6,26,4,3,2,A,F,b,y,15,5,32001,1,3,309.1172,62.4238
1,6,26,4,3,2,A,F,b,y,15,5,32001,1,1,158.4158,113.7265
1,6,26,4,3,2,A,F,b,y,15,5,32001,1,1,370.0391,44.7886
1,6,26,4,3,2,A,F,b,y,15,5,32001,1,3,541.5822,112.1232
1,6,26,4,3,2,A,F,b,y,15,5,32001,1,3,591.2816,245.1894
1,6,26,4,3,2,A,F,b,y,15,5,32001,1,3,495.0892,360.6202
1,6,26,4,3,2,A,F,b,y,15,5,32001,1,3,414.9289,394.2876
1,6,26,4,3,2,A,F,b,y,15,5,32001,1,3,395.6904,437.5741
1,6,26,4,3,2,A,F,b,y,15,5,32001,1,3,315.5301,397.494
1,6,26,4,3,2,A,F,b,y,15,5,32001,1,1,113.5261,453.6062
1,6,26,4,3,2,A,F,b,y,15,5,33001,1,3,281.8627,33.5661
1,6,26,4,3,2,A,F,b,y,15,5,33001,1,1,373.2455,46.3918
1,6,26,4,3,2,A,F,b,y,15,5,33001,1,3,515.9309,105.7104
1,6,26,4,3,2,A,F,b,y,15,5,33001,1,3,543.1854,163.4259
1,6,26,4,3,2,A,F,b,y,15,5,33001,1,3,562.4238,407.1132
1,6,26,4,3,2,A,F,b,y,15,5,33001,1,3,357.2134,359.017
1,6,26,4,3,2,A,F,b,y,15,5,33001,1,3,328.3557,407.1132
1,6,26,4,3,2,A,F,b,y,15,5,33001,1,1,310.7204,378.2555
1,6,26,4,3,2,A,F,b,y,15,5,33001,1,3,281.8627,395.8908
1,6,26,4,3,2,A,F,b,y,15,5,33001,1,1,121.5421,299.6984
1,6,26,4,3,2,A,F,b,y,15,5,33001,1,3,81.4619,277.2535
1,6,26,4,3,2,A,F,b,y,15,5,33001,1,1,52.6042,341.3818
1,6,26,4,3,2,A,F,b,y,15,5,33001,1,3,160.019,501.7024
1,6,26,4,3,2,A,F,b,y,15,5,34001,1,3,535.1693,508.1152
1,6,26,4,3,2,A,F,b,y,15,5,34001,1,3,575.2495,266.0311
1,6,26,4,3,2,A,F,b,y,15,5,34001,1,3,503.1052,115.3297
1,6,26,4,3,2,A,F,b,y,15,5,34001,1,3,294.6884,41.5822
1,6,26,4,3,2,A,F,b,y,15,5,34001,1,3,386.0711,27.1533
1,6,26,4,3,2,A,F,b,y,15,5,34001,1,1,129.5581,181.0611
1,6,26,4,3,2,A,F,b,y,15,5,34001,1,3,283.4659,416.7325
1,6,26,4,3,2,A,F,b,y,15,5,34001,1,3,326.7525,383.0651
1,6,26,4,3,2,A,F,b,y,15,5,34001,1,3,376.4519,379.8587
1,6,26,4,3,2,A,F,b,y,15,5,34001,1,3,389.2776,453.6062
1,6,26,4,3,2,A,F,b,y,15,5,34001,1,1,350.8006,452.003
1,6,26,4,3,2,A,F,b,y,15,5,35001,1,3,506.3116,168.2355
1,6,26,4,3,2,A,F,b,y,15,5,35001,1,3,523.9469,123.3457
1,6,26,4,3,2,A,F,b,y,15,5,35001,1,3,291.482,54.4078
1,6,26,4,3,2,A,F,b,y,15,5,35001,1,3,283.4659,208.3156
1,6,26,4,3,2,A,F,b,y,15,5,35001,1,3,272.2435,261.2214
1,6,26,4,3,2,A,F,b,y,15,5,35001,1,1,589.6784,307.7144
1,6,26,4,3,2,A,F,b,y,15,5,35001,1,3,421.3417,384.6683
1,6,26,4,3,2,A,F,b,y,15,5,35001,1,3,366.8327,386.2715
1,6,26,4,3,2,A,F,b,y,15,5,35001,1,3,485.4699,492.0832
1,6,26,4,3,2,A,F,b,y,15,5,35001,1,3,297.8948,400.7004
1,6,26,4,3,2,A,F,b,y,15,5,35001,1,3,219.3377,410.3196
1,6,26,4,3,2,A,F,b,y,15,5,35001,1,1,190.48,460.019
1,6,26,4,3,2,A,F,b,y,15,5,35001,1,3,121.5421,440.7806
1,6,26,4,3,2,A,F,b,y,15,5,35001,1,1,294.6884,559.4178
1,6,26,4,3,2,A,F,b,y,15,5,36001,1,3,539.979,160.2194
1,6,26,4,3,2,A,F,b,y,15,5,36001,1,3,531.9629,124.9489
1,6,26,4,3,2,A,F,b,y,15,5,36001,1,3,511.1212,110.52
1,6,26,4,3,2,A,F,b,y,15,5,36001,1,3,281.8627,51.2014
1,6,26,4,3,2,A,F,b,y,15,5,36001,1,1,556.011,314.1273
1,6,26,4,3,2,A,F,b,y,15,5,36001,1,3,584.8687,402.3036
1,6,26,4,3,2,A,F,b,y,15,5,36001,1,3,493.486,410.3196
1,6,26,4,3,2,A,F,b,y,15,5,36001,1,3,349.1974,429.5581
1,6,26,4,3,2,A,F,b,y,15,5,36001,1,3,277.0531,391.0812
1,6,26,4,3,2,A,F,b,y,15,5,36001,1,3,220.9409,397.494
1,6,26,4,3,2,A,F,b,y,15,5,36001,1,3,211.3216,460.019
1,6,26,4,3,2,A,F,b,y,15,5,36001,1,1,76.6523,225.9509
1,6,26,4,3,2,A,F,b,y,15,5,36001,1,1,275.4499,575.4499
1,6,26,4,3,2,A,F,b,y,15,5,37001,1,1,304.3076,570.6403
1,6,26,4,3,2,A,F,b,y,15,5,37001,1,3,232.1633,403.9068
1,6,26,4,3,2,A,F,b,y,15,5,37001,1,3,363.6263,360.6202
1,6,26,4,3,2,A,F,b,y,15,5,37001,1,3,384.4679,429.5581
1,6,26,4,3,2,A,F,b,y,15,5,37001,1,3,459.8186,389.478
1,6,26,4,3,2,A,F,b,y,15,5,37001,1,3,578.4559,342.985
1,6,26,4,3,2,A,F,b,y,15,5,37001,1,3,592.8848,282.0631
1,6,26,4,3,2,A,F,b,y,15,5,37001,1,3,541.5822,126.5521
1,6,26,4,3,2,A,F,b,y,15,5,37001,1,3,466.2315,60.8206
1,6,26,4,3,2,A,F,b,y,15,5,37001,1,3,293.0852,43.1854
1,6,26,4,3,2,A,F,b,y,15,5,37001,1,1,318.7365,168.2355
1,6,26,4,3,2,A,F,b,y,15,5,38001,1,3,291.482,44.7886
1,6,26,4,3,2,A,F,b,y,15,5,38001,1,1,182.4639,237.1733
1,6,26,4,3,2,A,F,b,y,15,5,38001,1,3,201.7024,336.5721
1,6,26,4,3,2,A,F,b,y,15,5,38001,1,3,166.4319,395.8908
1,6,26,4,3,2,A,F,b,y,15,5,38001,1,3,442.1834,394.2876
1,6,26,4,3,2,A,F,b,y,15,5,38001,1,3,467.8347,346.1914
1,6,26,4,3,2,A,F,b,y,15,5,38001,1,3,538.3758,129.7585
1,6,26,4,3,2,A,F,b,y,15,5,38001,1,3,549.5982,148.997
1,6,26,4,3,2,A,F,b,y,15,5,38001,1,3,490.2796,97.6944
1,6,26,4,3,2,A,F,b,y,15,5,38001,1,1,386.0711,575.4499
1,6,26,4,3,2,A,F,b,y,15,5,39001,1,3,126.3517,490.48
1,6,26,4,3,2,A,F,b,y,15,5,39001,1,1,160.019,394.2876
1,6,26,4,3,2,A,F,b,y,15,5,39001,1,3,201.7024,365.4299
1,6,26,4,3,2,A,F,b,y,15,5,39001,1,3,262.6242,381.4619
1,6,26,4,3,2,A,F,b,y,15,5,39001,1,1,281.8627,567.4339
1,6,26,4,3,2,A,F,b,y,15,5,39001,1,3,411.7224,395.8908
1,6,26,4,3,2,A,F,b,y,15,5,39001,1,3,394.0872,341.3818
1,6,26,4,3,2,A,F,b,y,15,5,39001,1,3,578.4559,336.5721
1,6,26,4,3,2,A,F,b,y,15,5,39001,1,3,450.1994,60.8206
1,6,26,4,3,2,A,F,b,y,15,5,39001,1,3,390.8808,39.979
1,6,26,4,3,2,A,F,b,y,15,5,39001,1,3,272.2435,39.979
1,6,26,4,3,2,A,F,b,y,15,5,40001,1,3,269.0371,46.3918
1,6,26,4,3,2,A,F,b,y,15,5,40001,1,3,307.514,46.3918
1,6,26,4,3,2,A,F,b,y,15,5,40001,1,3,488.6764,112.1232
1,6,26,4,3,2,A,F,b,y,15,5,40001,1,3,552.8046,142.5842
1,6,26,4,3,2,A,F,b,y,15,5,40001,1,3,384.4679,339.7786
1,6,26,4,3,2,A,F,b,y,15,5,40001,1,3,408.516,392.6844
1,6,26,4,3,2,A,F,b,y,15,5,40001,1,3,384.4679,399.0972
1,6,26,4,3,2,A,F,b,y,15,5,40001,1,3,333.1653,402.3036
1,6,26,4,3,2,A,F,b,y,15,5,40001,1,3,269.0371,363.8267
1,6,26,4,3,2,A,F,b,y,15,5,40001,1,1,426.1513,476.0511
1,6,26,4,3,2,A,F,b,y,15,5,40001,1,1,352.4038,561.021
1,6,26,4,3,2,A,F,b,y,15,5,41001,1,3,309.1172,39.979
1,6,26,4,3,2,A,F,b,y,15,5,41001,1,3,342.7846,39.979
1,6,26,4,3,2,A,F,b,y,15,5,41001,1,1,137.5741,173.0451
1,6,26,4,3,2,A,F,b,y,15,5,41001,1,3,507.9148,200.2996
1,6,26,4,3,2,A,F,b,y,15,5,41001,1,3,570.4399,253.2054
1,6,26,4,3,2,A,F,b,y,15,5,41001,1,3,386.0711,290.0792
1,6,26,4,3,2,A,F,b,y,15,5,41001,1,3,328.3557,309.3176
1,6,26,4,3,2,A,F,b,y,15,5,41001,1,3,293.0852,326.9529
1,6,26,4,3,2,A,F,b,y,15,5,41001,1,3,272.2435,394.2876
1,6,26,4,3,2,A,F,b,y,15,5,41001,1,3,349.1974,395.8908
1,6,26,4,3,2,A,F,b,y,15,5,41001,1,3,421.3417,395.8908
1,6,26,4,3,2,A,F,b,y,15,5,41001,1,1,519.1373,482.4639
1,6,26,4,3,2,A,F,b,y,15,5,41001,1,1,246.5922,536.9729
1,6,26,4,3,2,A,F,b,y,15,5,42001,1,3,342.7846,36.7725
1,6,26,4,3,2,A,F,b,y,15,5,42001,1,1,254.6082,267.6343
1,6,26,4,3,2,A,F,b,y,15,5,42001,1,3,190.48,275.6503
1,6,26,4,3,2,A,F,b,y,15,5,42001,1,3,267.4339,387.8747
1,6,26,4,3,2,A,F,b,y,15,5,42001,1,3,302.7044,349.3978
1,6,26,4,3,2,A,F,b,y,15,5,42001,1,3,357.2134,334.9689
1,6,26,4,3,2,A,F,b,y,15,5,42001,1,3,421.3417,403.9068
1,6,26,4,3,2,A,F,b,y,15,5,42001,1,3,435.7705,443.987
1,6,26,4,3,2,A,F,b,y,15,5,42001,1,1,483.8667,514.5281
1,6,26,4,3,2,A,F,b,y,15,5,42001,1,1,507.9148,274.0471
1,6,26,4,3,2,A,F,b,y,15,5,42001,1,3,509.518,182.6643
1,6,26,4,3,2,A,F,b,y,15,5,42001,1,3,527.1533,129.7585
1,6,26,4,3,2,A,F,b,y,15,5,42001,1,3,572.0431,221.1413
1,6,26,4,3,2,A,F,b,y,15,5,43001,1,3,217.7345,52.8046
1,6,26,4,3,2,A,F,b,y,15,5,43001,1,3,320.3397,41.5822
1,6,26,4,3,2,A,F,b,y,15,5,43001,1,3,483.8667,96.0912
1,6,26,4,3,2,A,F,b,y,15,5,43001,1,1,522.3437,174.6483
1,6,26,4,3,2,A,F,b,y,15,5,43001,1,3,559.2174,174.6483
1,6,26,4,3,2,A,F,b,y,15,5,43001,1,3,543.1854,241.983
1,6,26,4,3,2,A,F,b,y,15,5,43001,1,3,269.0371,227.5541
1,6,26,4,3,2,A,F,b,y,15,5,43001,1,1,576.8527,410.3196
1,6,26,4,3,2,A,F,b,y,15,5,43001,1,1,493.486,383.0651
1,6,26,4,3,2,A,F,b,y,15,5,43001,1,3,443.7866,394.2876
1,6,26,4,3,2,A,F,b,y,15,5,43001,1,3,358.8166,397.494
1,6,26,4,3,2,A,F,b,y,15,5,43001,1,3,301.1012,395.8908
1,6,26,4,3,2,A,F,b,y,15,5,43001,1,3,289.8788,418.3357
1,6,26,4,3,2,A,F,b,y,15,5,43001,1,43,342.7846,418.3357
1,6,26,4,3,2,A,F,b,y,15,5,44001,1,3,297.8948,46.3918
1,6,26,4,3,2,A,F,b,y,15,5,44001,1,3,455.009,76.8527
1,6,26,4,3,2,A,F,b,y,15,5,44001,1,3,174.4479,179.4579
1,6,26,4,3,2,A,F,b,y,15,5,44001,1,1,75.0491,291.6824
1,6,26,4,3,2,A,F,b,y,15,5,44001,1,3,309.1172,296.492
1,6,26,4,3,2,A,F,b,y,15,5,44001,1,3,261.021,342.985
1,6,26,4,3,2,A,F,b,y,15,5,44001,1,3,238.5762,400.7004
1,6,26,4,3,2,A,F,b,y,15,5,44001,1,3,400.5,360.6202
1,6,26,4,3,2,A,F,b,y,15,5,44001,1,3,421.3417,407.1132
1,6,26,4,3,2,A,F,b,y,15,5,44001,1,1,522.3437,293.2856
1,6,26,4,3,2,A,F,b,y,15,5,44001,1,3,583.2655,415.1293
1,6,26,4,3,2,A,F,b,y,15,5,45001,1,3,446.993,73.6463
1,6,26,4,3,2,A,F,b,y,15,5,45001,1,3,313.9269,46.3918
1,6,26,4,3,2,A,F,b,y,15,5,45001,1,3,142.3838,134.5681
1,6,26,4,3,2,A,F,b,y,15,5,45001,1,3,153.6062,198.6964
1,6,26,4,3,2,A,F,b,y,15,5,45001,1,1,217.7345,315.7305
1,6,26,4,3,2,A,F,b,y,15,5,45001,1,3,232.1633,347.7946
1,6,26,4,3,2,A,F,b,y,15,5,45001,1,3,336.3717,384.6683
1,6,26,4,3,2,A,F,b,y,15,5,45001,1,3,360.4198,429.5581
1,6,26,4,3,2,A,F,b,y,15,5,45001,1,3,432.5641,411.9228
1,6,26,4,3,2,A,F,b,y,15,5,45001,1,1,586.4719,306.1112
1,6,26,4,3,2,A,F,b,y,15,5,46001,1,3,458.2154,83.2655
1,6,26,4,3,2,A,F,b,y,15,5,46001,1,3,333.1653,41.5822
1,6,26,4,3,2,A,F,b,y,15,5,46001,1,1,219.3377,163.4259
1,6,26,4,3,2,A,F,b,y,15,5,46001,1,3,176.0511,142.5842
1,6,26,4,3,2,A,F,b,y,15,5,46001,1,3,60.6202,213.1253
1,6,26,4,3,2,A,F,b,y,15,5,46001,1,3,206.512,415.1293
1,6,26,4,3,2,A,F,b,y,15,5,46001,1,3,269.0371,386.2715
1,6,26,4,3,2,A,F,b,y,15,5,46001,1,3,288.2756,397.494
1,6,26,4,3,2,A,F,b,y,15,5,46001,1,3,405.3096,363.8267
1,6,26,4,3,2,A,F,b,y,15,5,46001,1,1,448.5962,538.5762
1,6,26,4,3,2,A,F,b,y,15,5,46001,1,3,531.9629,469.6383
1,6,26,4,3,2,A,F,b,y,15,5,47001,1,3,474.2475,81.6623
1,6,26,4,3,2,A,F,b,y,15,5,47001,1,3,336.3717,20.7405
1,6,26,4,3,2,A,F,b,y,15,5,47001,1,3,139.1774,185.8707
1,6,26,4,3,2,A,F,b,y,15,5,47001,1,3,208.1152,354.2074
1,6,26,4,3,2,A,F,b,y,15,5,47001,1,3,224.1473,408.7164
1,6,26,4,3,2,A,F,b,y,15,5,47001,1,3,291.482,410.3196
1,6,26,4,3,2,A,F,b,y,15,5,47001,1,3,341.1814,387.8747
1,6,26,4,3,2,A,F,b,y,15,5,47001,1,3,386.0711,355.8106
1,6,26,4,3,2,A,F,b,y,15,5,47001,1,3,403.7064,391.0812
1,6,26,4,3,2,A,F,b,y,15,5,47001,1,1,238.5762,472.8447
1,6,26,4,3,2,A,F,b,y,15,5,48001,1,3,312.3236,73.6463
1,6,26,4,3,2,A,F,b,y,15,5,48001,1,3,398.8968,31.9629
1,6,26,4,3,2,A,F,b,y,15,5,48001,1,3,448.5962,70.4399
1,6,26,4,3,2,A,F,b,y,15,5,48001,1,3,288.2756,266.0311
1,6,26,4,3,2,A,F,b,y,15,5,48001,1,3,392.484,325.3497
1,6,26,4,3,2,A,F,b,y,15,5,48001,1,3,334.7685,370.2395
1,6,26,4,3,2,A,F,b,y,15,5,48001,1,3,281.8627,381.4619
1,6,26,4,3,2,A,F,b,y,15,5,48001,1,3,320.3397,413.5261
1,6,26,4,3,2,A,F,b,y,15,5,48001,1,3,398.8968,400.7004
1,6,26,4,3,2,A,F,b,y,15,5,49001,1,3,299.498,429.5581
1,6,26,4,3,2,A,F,b,y,15,5,49001,1,3,329.9589,363.8267
1,6,26,4,3,2,A,F,b,y,15,5,49001,1,3,277.0531,363.8267
1,6,26,4,3,2,A,F,b,y,15,5,49001,1,3,224.1473,355.8106
1,6,26,4,3,2,A,F,b,y,15,5,49001,1,3,235.3697,402.3036
1,6,26,4,3,2,A,F,b,y,15,5,49001,1,1,94.2876,285.2695
1,6,26,4,3,2,A,F,b,y,15,5,49001,1,3,288.2756,35.1693
1,6,26,4,3,2,A,F,b,y,15,5,49001,1,3,398.8968,41.5822
1,6,26,4,3,2,A,F,b,y,15,5,49001,1,3,446.993,65.6303
1,6,26,4,3,2,A,F,b,y,15,5,49001,1,3,475.8507,91.2816
1,6,26,4,3,2,A,F,b,y,15,5,50001,1,3,137.5741,120.1393
1,6,26,4,3,2,A,F,b,y,15,5,50001,1,1,95.8908,275.6503
1,6,26,4,3,2,A,F,b,y,15,5,50001,1,3,259.4178,197.0932
1,6,26,4,3,2,A,F,b,y,15,5,50001,1,3,325.1493,373.4459
1,6,26,4,3,2,A,F,b,y,15,5,50001,1,3,304.3076,392.6844
1,6,26,4,3,2,A,F,b,y,15,5,50001,1,3,294.6884,437.5741
1,6,26,4,3,2,A,F,b,y,15,5,50001,1,3,471.0411,139.3778
1,6,26,4,3,2,A,F,b,y,15,5,50001,1,3,450.1994,70.4399
1,6,26,4,3,2,A,F,b,y,15,5,50001,1,3,416.5321,51.2014
1,6,26,4,3,2,A,F,b,y,15,5,50001,1,3,334.7685,49.5982
1,6,26,4,3,2,A,F,b,y,15,5,51001,1,3,73.4459,241.983
1,6,26,4,3,2,A,F,b,y,15,5,51001,1,1,99.0972,298.0952
1,6,26,4,3,2,A,F,b,y,15,5,51001,1,1,129.5581,298.0952
1,6,26,4,3,2,A,F,b,y,15,5,51001,1,3,301.1012,283.6663
1,6,26,4,3,2,A,F,b,y,15,5,51001,1,3,285.0691,375.0491
1,6,26,4,3,2,A,F,b,y,15,5,51001,1,3,376.4519,312.524
1,6,26,4,3,2,A,F,b,y,15,5,51001,1,3,424.5481,373.4459
1,6,26,4,3,2,A,F,b,y,15,5,51001,1,3,565.6303,243.5862
1,6,26,4,3,2,A,F,b,y,15,5,51001,1,3,463.0251,70.4399
1,6,26,4,3,2,A,F,b,y,15,5,51001,1,3,419.7385,54.4078
1,6,26,4,3,2,A,F,b,y,15,5,51001,1,3,326.7525,44.7886
1,6,26,4,3,2,A,F,b,y,15,5,52001,1,1,257.8146,126.5521
1,6,26,4,3,2,A,F,b,y,15,5,52001,1,1,214.5281,123.3457
1,6,26,4,3,2,A,F,b,y,15,5,52001,1,3,171.2415,80.0591
1,6,26,4,3,2,A,F,b,y,15,5,52001,1,3,406.9128,39.979
1,6,26,4,3,2,A,F,b,y,15,5,52001,1,3,432.5641,72.0431
1,6,26,4,3,2,A,F,b,y,15,5,52001,1,1,602.504,312.524
1,6,26,4,3,2,A,F,b,y,15,5,52001,1,3,554.4078,466.4319
1,6,26,4,3,2,A,F,b,y,15,5,52001,1,3,426.1513,381.4619
1,6,26,4,3,2,A,F,b,y,15,5,52001,1,3,386.0711,411.9228
1,6,26,4,3,2,A,F,b,y,15,5,52001,1,3,328.3557,378.2555
1,6,26,4,3,2,A,F,b,y,15,5,52001,1,3,285.0691,395.8908
1,6,26,4,3,2,A,F,b,y,15,5,52001,1,3,259.4178,512.9248
1,6,26,4,3,2,A,F,b,y,15,5,53001,1,1,139.1774,108.9168
1,6,26,4,3,2,A,F,b,y,15,5,53001,1,3,394.0872,39.979
1,6,26,4,3,2,A,F,b,y,15,5,53001,1,3,426.1513,59.2174
1,6,26,4,3,2,A,F,b,y,15,5,53001,1,3,520.7405,131.3617
1,6,26,4,3,2,A,F,b,y,15,5,53001,1,1,564.0271,209.9188
1,6,26,4,3,2,A,F,b,y,15,5,53001,1,3,288.2756,264.4279
1,6,26,4,3,2,A,F,b,y,15,5,53001,1,3,315.5301,357.4138
1,6,26,4,3,2,A,F,b,y,15,5,53001,1,3,373.2455,419.9389
1,6,26,4,3,2,A,F,b,y,15,5,53001,1,3,434.1673,411.9228
1,6,26,4,3,2,A,F,b,y,15,5,53001,1,1,386.0711,496.8928
1,6,26,4,3,2,A,F,b,y,15,5,53001,1,3,355.6102,506.512
1,6,26,4,3,2,A,F,b,y,15,5,53001,1,3,291.482,487.2735
1,6,26,4,3,2,A,F,b,y,15,5,54001,1,3,382.8647,56.011
1,6,26,4,3,2,A,F,b,y,15,5,54001,1,3,325.1493,43.1854
1,6,26,4,3,2,A,F,b,y,15,5,54001,1,3,76.6523,221.1413
1,6,26,4,3,2,A,F,b,y,15,5,54001,1,3,363.6263,325.3497
1,6,26,4,3,2,A,F,b,y,15,5,54001,1,3,394.0872,334.9689
1,6,26,4,3,2,A,F,b,y,15,5,54001,1,3,424.5481,378.2555
1,6,26,4,3,2,A,F,b,y,15,5,54001,1,3,350.8006,371.8427
1,6,26,4,3,2,A,F,b,y,15,5,54001,1,3,362.023,408.7164
1,6,26,4,3,2,A,F,b,y,15,5,54001,1,3,345.991,503.3056
1,6,26,4,3,2,A,F,b,y,15,5,54001,1,1,576.8527,399.0972
1,6,26,4,3,2,A,F,b,y,15,5,55001,1,3,406.9128,47.995
1,6,26,4,3,2,A,F,b,y,15,5,55001,1,3,418.1353,64.0271
1,6,26,4,3,2,A,F,b,y,15,5,55001,1,3,277.0531,278.8567
1,6,26,4,3,2,A,F,b,y,15,5,55001,1,3,71.8427,221.1413
1,6,26,4,3,2,A,F,b,y,15,5,55001,1,3,190.48,391.0812
1,6,26,4,3,2,A,F,b,y,15,5,55001,1,3,236.9729,397.494
1,6,26,4,3,2,A,F,b,y,15,5,55001,1,3,304.3076,389.478
1,6,26,4,3,2,A,F,b,y,15,5,55001,1,1,323.5461,359.017
1,6,26,4,3,2,A,F,b,y,15,5,55001,1,1,373.2455,357.4138
1,6,26,4,3,2,A,F,b,y,15,5,55001,1,3,379.6583,403.9068
1,6,26,4,3,2,A,F,b,y,15,5,55001,1,3,365.2295,495.2896
1,6,26,4,3,2,A,F,b,y,15,5,55001,1,1,471.0411,532.1633
1,6,26,4,3,2,A,F,b,y,15,5,56001,1,1,400.5,157.013
1,6,26,4,3,2,A,F,b,y,15,5,56001,1,3,495.0892,91.2816
1,6,26,4,3,2,A,F,b,y,15,5,56001,1,3,466.2315,70.4399
1,6,26,4,3,2,A,F,b,y,15,5,56001,1,3,403.7064,378.2555
1,6,26,4,3,2,A,F,b,y,15,5,56001,1,3,403.7064,408.7164
1,6,26,4,3,2,A,F,b,y,15,5,56001,1,3,384.4679,448.7966
1,6,26,4,3,2,A,F,b,y,15,5,56001,1,3,301.1012,477.6543
1,6,26,4,3,2,A,F,b,y,15,5,56001,1,3,272.2435,400.7004
1,6,26,4,3,2,A,F,b,y,15,5,56001,1,3,220.9409,387.8747
1,6,26,4,3,2,A,F,b,y,15,5,56001,1,1,209.7184,290.0792
1,6,26,4,3,2,A,F,b,y,15,5,56001,1,3,99.0972,315.7305
1,6,26,4,3,2,A,F,b,y,15,5,56001,1,1,334.7685,569.0371
1,6,26,4,3,2,A,F,b,y,15,5,57001,1,3,520.7405,121.7425
1,6,26,4,3,2,A,F,b,y,15,5,57001,1,3,453.4058,68.8367
1,6,26,4,3,2,A,F,b,y,15,5,57001,1,1,448.5962,152.2034
1,6,26,4,3,2,A,F,b,y,15,5,57001,1,3,142.3838,126.5521
1,6,26,4,3,2,A,F,b,y,15,5,57001,1,3,581.6623,314.1273
1,6,26,4,3,2,A,F,b,y,15,5,57001,1,3,400.5,328.5561
1,6,26,4,3,2,A,F,b,y,15,5,57001,1,3,368.4359,403.9068
1,6,26,4,3,2,A,F,b,y,15,5,57001,1,3,384.4679,443.987
1,6,26,4,3,2,A,F,b,y,15,5,57001,1,3,302.7044,394.2876
1,6,26,4,3,2,A,F,b,y,15,5,57001,1,3,219.3377,387.8747
1,6,26,4,3,2,A,F,b,y,15,5,57001,1,1,129.5581,419.9389
1,6,26,4,3,2,A,F,b,y,15,5,57001,1,1,342.7846,559.4178
1,6,26,4,3,2,A,F,b,y,15,5,58001,1,3,464.6283,86.4719
1,6,26,4,3,2,A,F,b,y,15,5,58001,1,3,450.1994,68.8367
1,6,26,4,3,2,A,F,b,y,15,5,58001,1,1,376.4519,70.4399
1,6,26,4,3,2,A,F,b,y,15,5,58001,1,3,269.0371,49.5982
1,6,26,4,3,2,A,F,b,y,15,5,58001,1,1,132.7645,307.7144
1,6,26,4,3,2,A,F,b,y,15,5,58001,1,3,216.1313,403.9068
1,6,26,4,3,2,A,F,b,y,15,5,58001,1,3,253.005,384.6683
1,6,26,4,3,2,A,F,b,y,15,5,58001,1,3,302.7044,381.4619
1,6,26,4,3,2,A,F,b,y,15,5,58001,1,3,378.0551,333.3657
1,6,26,4,3,2,A,F,b,y,15,5,58001,1,3,382.8647,434.3677
1,6,26,4,3,2,A,F,b,y,15,5,58001,1,3,371.6423,498.496
1,6,26,4,3,2,A,F,b,y,15,5,58001,1,1,288.2756,562.6242
1,6,26,4,3,2,A,F,b,y,15,5,59001,1,3,418.1353,57.6142
1,6,26,4,3,2,A,F,b,y,15,5,59001,1,3,389.2776,43.1854
1,6,26,4,3,2,A,F,b,y,15,5,59001,1,3,309.1172,31.9629
1,6,26,4,3,2,A,F,b,y,15,5,59001,1,1,305.9108,91.2816
1,6,26,4,3,2,A,F,b,y,15,5,59001,1,3,277.0531,278.8567
1,6,26,4,3,2,A,F,b,y,15,5,59001,1,1,206.512,256.4118
1,6,26,4,3,2,A,F,b,y,15,5,59001,1,3,219.3377,370.2395
1,6,26,4,3,2,A,F,b,y,15,5,59001,1,3,212.9248,407.1132
1,6,26,4,3,2,A,F,b,y,15,5,59001,1,3,305.9108,384.6683
1,6,26,4,3,2,A,F,b,y,15,5,59001,1,3,357.2134,383.0651
1,6,26,4,3,2,A,F,b,y,15,5,59001,1,3,382.8647,455.2094
1,6,26,4,3,2,A,F,b,y,15,5,59001,1,1,430.9609,443.987
1,6,26,4,3,2,A,F,b,y,15,5,60001,1,3,408.516,67.2335
1,6,26,4,3,2,A,F,b,y,15,5,60001,1,3,379.6583,46.3918
1,6,26,4,3,2,A,F,b,y,15,5,60001,1,3,354.007,132.9649
1,6,26,4,3,2,A,F,b,y,15,5,60001,1,1,288.2756,41.5822
1,6,26,4,3,2,A,F,b,y,15,5,60001,1,1,265.8307,290.0792
1,6,26,4,3,2,A,F,b,y,15,5,60001,1,3,171.2415,370.2395
1,6,26,4,3,2,A,F,b,y,15,5,60001,1,3,220.9409,351.001
1,6,26,4,3,2,A,F,b,y,15,5,60001,1,3,230.5601,391.0812
1,6,26,4,3,2,A,F,b,y,15,5,60001,1,3,313.9269,383.0651
1,6,26,4,3,2,A,F,b,y,15,5,60001,1,3,371.6423,362.2234
1,6,26,4,3,2,A,F,b,y,15,5,60001,1,3,392.484,413.5261
1,6,26,4,3,2,A,F,b,y,15,5,60001,1,1,395.6904,565.8307
1,6,26,4,3,2,A,F,b,y,15,5,61001,1,3,525.5501,113.7265
1,6,26,4,3,2,A,F,b,y,15,5,61001,1,3,458.2154,89.6784
1,6,26,4,3,2,A,F,b,y,15,5,61001,1,1,411.7224,64.0271
1,6,26,4,3,2,A,F,b,y,15,5,61001,1,3,211.3216,163.4259
1,6,26,4,3,2,A,F,b,y,15,5,61001,1,1,103.9068,280.4599
1,6,26,4,3,2,A,F,b,y,15,5,61001,1,3,278.6563,330.1593
1,6,26,4,3,2,A,F,b,y,15,5,61001,1,3,309.1172,330.1593
1,6,26,4,3,2,A,F,b,y,15,5,61001,1,3,339.5782,368.6363
1,6,26,4,3,2,A,F,b,y,15,5,61001,1,3,392.484,402.3036
1,6,26,4,3,2,A,F,b,y,15,5,61001,1,3,285.0691,400.7004
1,6,26,4,3,2,A,F,b,y,15,5,61001,1,3,240.1794,416.7325
1,6,26,4,3,2,A,F,b,y,15,5,61001,1,1,331.5621,567.4339
1,6,26,4,3,2,A,F,b,y,15,5,62001,1,1,572.0431,200.2996
1,6,26,4,3,2,A,F,b,y,15,5,62001,1,3,410.1192,56.011
1,6,26,4,3,2,A,F,b,y,15,5,62001,1,3,354.007,39.979
1,6,26,4,3,2,A,F,b,y,15,5,62001,1,1,143.987,206.7124
1,6,26,4,3,2,A,F,b,y,15,5,62001,1,3,103.9068,161.8226
1,6,26,4,3,2,A,F,b,y,15,5,62001,1,3,273.8467,277.2535
1,6,26,4,3,2,A,F,b,y,15,5,62001,1,3,384.4679,326.9529
1,6,26,4,3,2,A,F,b,y,15,5,62001,1,3,373.2455,426.3517
1,6,26,4,3,2,A,F,b,y,15,5,62001,1,1,456.6122,458.4158
1,6,26,4,3,2,A,F,b,y,15,5,62001,1,3,296.2916,397.494
1,6,26,4,3,2,A,F,b,y,15,5,62001,1,3,211.3216,370.2395
1,6,26,4,3,2,A,F,b,y,15,5,62001,1,3,321.9429,490.48
1,6,26,4,3,2,A,F,b,y,15,5,63001,1,3,419.7385,65.6303
1,6,26,4,3,2,A,F,b,y,15,5,63001,1,3,357.2134,27.1533
1,6,26,4,3,2,A,F,b,y,15,5,63001,1,3,269.0371,38.3758
1,6,26,4,3,2,A,F,b,y,15,5,63001,1,1,212.9248,123.3457
1,6,26,4,3,2,A,F,b,y,15,5,63001,1,3,320.3397,330.1593
1,6,26,4,3,2,A,F,b,y,15,5,63001,1,3,323.5461,397.494
1,6,26,4,3,2,A,F,b,y,15,5,63001,1,3,358.8166,378.2555
1,6,26,4,3,2,A,F,b,y,15,5,63001,1,3,366.8327,310.9208
1,6,26,4,3,2,A,F,b,y,15,5,63001,1,3,485.4699,472.8447
1,6,26,4,3,2,A,F,b,y,15,5,63001,1,1,541.5822,482.4639
1,6,26,4,3,2,A,F,b,y,15,5,63001,1,1,572.0431,416.7325
1,6,26,4,3,2,A,F,b,y,15,5,63001,1,3,578.4559,318.9369
1,6,26,4,3,2,A,F,b,y,15,5,64001,1,3,426.1513,51.2014
1,6,26,4,3,2,A,F,b,y,15,5,64001,1,3,488.6764,96.0912
1,6,26,4,3,2,A,F,b,y,15,5,64001,1,3,511.1212,139.3778
1,6,26,4,3,2,A,F,b,y,15,5,64001,1,1,419.7385,258.015
1,6,26,4,3,2,A,F,b,y,15,5,64001,1,3,368.4359,307.7144
1,6,26,4,3,2,A,F,b,y,15,5,64001,1,3,326.7525,359.017
1,6,26,4,3,2,A,F,b,y,15,5,64001,1,3,337.9749,381.4619
1,6,26,4,3,2,A,F,b,y,15,5,64001,1,3,402.1032,379.8587
1,6,26,4,3,2,A,F,b,y,15,5,64001,1,3,413.3257,431.1613
1,6,26,4,3,2,A,F,b,y,15,5,64001,1,3,68.6363,240.3798
1,6,26,4,3,2,A,F,b,y,15,5,65001,1,3,418.1353,86.4719
1,6,26,4,3,2,A,F,b,y,15,5,65001,1,3,507.9148,229.1573
1,6,26,4,3,2,A,F,b,y,15,5,65001,1,3,565.6303,285.2695
1,6,26,4,3,2,A,F,b,y,15,5,65001,1,1,416.5321,248.3958
1,6,26,4,3,2,A,F,b,y,15,5,65001,1,3,368.4359,323.7465
1,6,26,4,3,2,A,F,b,y,15,5,65001,1,3,342.7846,371.8427
1,6,26,4,3,2,A,F,b,y,15,5,65001,1,3,280.2595,403.9068
1,6,26,4,3,2,A,F,b,y,15,5,65001,1,3,227.3537,368.6363
1,6,26,4,3,2,A,F,b,y,15,5,65001,1,3,236.9729,318.9369
1,6,26,4,3,2,A,F,b,y,15,5,65001,1,3,118.3357,411.9228
1,6,26,4,3,2,A,F,b,y,15,5,65001,1,3,68.6363,334.9689
1,6,26,4,3,2,A,F,b,y,15,5,65001,1,1,54.2074,285.2695
1,6,26,4,3,2,A,F,b,y,15,5,66001,1,3,440.5802,120.1393
1,6,26,4,3,2,A,F,b,y,15,5,66001,1,1,315.5301,126.5521
1,6,26,4,3,2,A,F,b,y,15,5,66001,1,3,352.4038,30.3597
1,6,26,4,3,2,A,F,b,y,15,5,66001,1,3,297.8948,33.5661
1,6,26,4,3,2,A,F,b,y,15,5,66001,1,1,166.4319,269.2375
1,6,26,4,3,2,A,F,b,y,15,5,66001,1,3,164.8287,347.7946
1,6,26,4,3,2,A,F,b,y,15,5,66001,1,3,174.4479,419.9389
1,6,26,4,3,2,A,F,b,y,15,5,66001,1,3,227.3537,400.7004
1,6,26,4,3,2,A,F,b,y,15,5,66001,1,3,326.7525,339.7786
1,6,26,4,3,2,A,F,b,y,15,5,66001,1,3,349.1974,365.4299
1,6,26,4,3,2,A,F,b,y,15,5,66001,1,3,368.4359,410.3196
1,6,26,4,3,2,A,F,b,y,15,5,66001,1,3,366.8327,492.0832
1,6,26,4,3,2,A,F,b,y,15,5,66001,1,1,506.3116,498.496
1,6,26,4,3,2,A,F,b,y,15,5,67001,1,3,277.0531,49.5982
1,6,26,4,3,2,A,F,b,y,15,5,67001,1,1,354.007,182.6643
1,6,26,4,3,2,A,F,b,y,15,5,67001,1,3,584.8687,310.9208
1,6,26,4,3,2,A,F,b,y,15,5,67001,1,1,584.8687,403.9068
1,6,26,4,3,2,A,F,b,y,15,5,67001,1,3,480.6603,384.6683
1,6,26,4,3,2,A,F,b,y,15,5,67001,1,3,406.9128,392.6844
1,6,26,4,3,2,A,F,b,y,15,5,67001,1,3,382.8647,413.5261
1,6,26,4,3,2,A,F,b,y,15,5,67001,1,3,352.4038,490.48
1,6,26,4,3,2,A,F,b,y,15,5,67001,1,3,320.3397,413.5261
1,6,26,4,3,2,A,F,b,y,15,5,67001,1,3,286.6723,403.9068
1,6,26,4,3,2,A,F,b,y,15,5,67001,1,1,261.021,379.8587
1,6,26,4,3,2,A,F,b,y,15,5,67001,1,3,224.1473,368.6363
1,6,26,4,3,2,A,F,b,y,15,5,68001,1,3,238.5762,44.7886
1,6,26,4,3,2,A,F,b,y,15,5,68001,1,3,297.8948,36.7725
1,6,26,4,3,2,A,F,b,y,15,5,68001,1,1,565.6303,177.8547
1,6,26,4,3,2,A,F,b,y,15,5,68001,1,1,312.3236,304.508
1,6,26,4,3,2,A,F,b,y,15,5,68001,1,3,341.1814,330.1593
1,6,26,4,3,2,A,F,b,y,15,5,68001,1,3,405.3096,357.4138
1,6,26,4,3,2,A,F,b,y,15,5,68001,1,3,334.7685,394.2876
1,6,26,4,3,2,A,F,b,y,15,5,68001,1,3,382.8647,411.9228
1,6,26,4,3,2,A,F,b,y,15,5,68001,1,3,424.5481,389.478
1,6,26,4,3,2,A,F,b,y,15,5,68001,1,3,498.2956,488.8768
1,6,26,4,3,2,A,F,b,y,15,5,68001,1,1,153.6062,431.1613
1,6,26,4,3,2,A,F,b,y,15,5,68001,1,3,289.8788,561.021
1,6,26,4,3,2,A,F,b,y,15,5,69001,1,1,461.4218,81.6623
1,6,26,4,3,2,A,F,b,y,15,5,69001,1,3,402.1032,59.2174
1,6,26,4,3,2,A,F,b,y,15,5,69001,1,3,358.8166,173.0451
1,6,26,4,3,2,A,F,b,y,15,5,69001,1,3,103.9068,142.5842
1,6,26,4,3,2,A,F,b,y,15,5,69001,1,3,299.498,298.0952
1,6,26,4,3,2,A,F,b,y,15,5,69001,1,3,341.1814,344.5882
1,6,26,4,3,2,A,F,b,y,15,5,69001,1,3,411.7224,387.8747
1,6,26,4,3,2,A,F,b,y,15,5,69001,1,3,331.5621,405.51
1,6,26,4,3,2,A,F,b,y,15,5,69001,1,3,426.1513,490.48
1,6,26,4,3,2,A,F,b,y,15,5,69001,1,3,297.8948,495.2896
1,6,26,4,3,2,A,F,b,y,15,5,69001,1,1,169.6383,434.3677
1,6,26,4,3,2,A,F,b,y,15,5,69001,1,1,156.8126,456.8126
1,6,26,4,3,2,A,F,b,y,15,5,69001,1,3,273.8467,586.6723
1,6,26,4,3,2,A,F,b,y,15,5,70001,1,3,280.2595,25.5501
1,6,26,4,3,2,A,F,b,y,15,5,70001,1,3,267.4339,266.0311
1,6,26,4,3,2,A,F,b,y,15,5,70001,1,3,288.2756,298.0952
1,6,26,4,3,2,A,F,b,y,15,5,70001,1,3,565.6303,165.0291
1,6,26,4,3,2,A,F,b,y,15,5,70001,1,1,402.1032,355.8106
1,6,26,4,3,2,A,F,b,y,15,5,70001,1,3,387.6743,389.478
1,6,26,4,3,2,A,F,b,y,15,5,70001,1,3,329.9589,381.4619
1,6,26,4,3,2,A,F,b,y,15,5,70001,1,3,371.6423,426.3517
1,6,26,4,3,2,A,F,b,y,15,5,70001,1,3,429.3577,469.6383
1,6,26,4,3,2,A,F,b,y,15,5,70001,1,1,267.4339,432.7645
1,6,26,4,3,2,A,F,b,y,15,5,70001,1,3,63.8267,347.7946
1,6,26,4,3,2,A,F,b,y,15,5,71001,1,3,463.0251,78.4559
1,6,26,4,3,2,A,F,b,y,15,5,71001,1,1,405.3096,44.7886
1,6,26,4,3,2,A,F,b,y,15,5,71001,1,3,289.8788,28.7565
1,6,26,4,3,2,A,F,b,y,15,5,71001,1,1,201.7024,200.2996
1,6,26,4,3,2,A,F,b,y,15,5,71001,1,3,71.8427,267.6343
1,6,26,4,3,2,A,F,b,y,15,5,71001,1,3,68.6363,354.2074
1,6,26,4,3,2,A,F,b,y,15,5,71001,1,3,342.7846,351.001
1,6,26,4,3,2,A,F,b,y,15,5,71001,1,3,387.6743,342.985
1,6,26,4,3,2,A,F,b,y,15,5,71001,1,3,390.8808,395.8908
1,6,26,4,3,2,A,F,b,y,15,5,71001,1,3,381.2615,439.1774
1,6,26,4,3,2,A,F,b,y,15,5,71001,1,3,261.021,485.6703
1,6,26,4,3,2,A,F,b,y,15,5,72001,1,3,543.1854,140.981
1,6,26,4,3,2,A,F,b,y,15,5,72001,1,3,482.2635,110.52
1,6,26,4,3,2,A,F,b,y,15,5,72001,1,3,429.3577,86.4719
1,6,26,4,3,2,A,F,b,y,15,5,72001,1,3,321.9429,23.9469
1,6,26,4,3,2,A,F,b,y,15,5,72001,1,1,233.7665,246.7926
1,6,26,4,3,2,A,F,b,y,15,5,72001,1,1,227.3537,285.2695
1,6,26,4,3,2,A,F,b,y,15,5,72001,1,3,371.6423,383.0651
1,6,26,4,3,2,A,F,b,y,15,5,72001,1,3,387.6743,432.7645
1,6,26,4,3,2,A,F,b,y,15,5,72001,1,3,185.6703,351.001
1,6,26,4,3,2,A,F,b,y,15,5,72001,1,3,97.494,400.7004
1,6,26,4,3,2,A,F,b,y,15,5,72001,1,3,57.4138,322.1433
1,6,26,4,3,2,A,F,b,y,15,5,73001,1,3,525.5501,145.7906
1,6,26,4,3,2,A,F,b,y,15,5,73001,1,3,321.9429,28.7565
1,6,26,4,3,2,A,F,b,y,15,5,73001,1,3,236.9729,230.7605
1,6,26,4,3,2,A,F,b,y,15,5,73001,1,1,378.0551,320.5401
1,6,26,4,3,2,A,F,b,y,15,5,73001,1,1,411.7224,334.9689
1,6,26,4,3,2,A,F,b,y,15,5,73001,1,3,387.6743,389.478
1,6,26,4,3,2,A,F,b,y,15,5,73001,1,3,288.2756,376.6523
1,6,26,4,3,2,A,F,b,y,15,5,73001,1,3,370.0391,434.3677
1,6,26,4,3,2,A,F,b,y,15,5,73001,1,3,387.6743,536.9729
1,6,26,4,3,2,A,F,b,y,15,5,73001,1,3,235.3697,527.3537
1,6,26,4,3,2,A,F,b,y,15,5,74001,1,1,418.1353,107.3136
1,6,26,4,3,2,A,F,b,y,15,5,74001,1,3,293.2374,42.3994
1,6,26,4,3,2,A,F,b,y,15,5,74001,1,3,404.9693,66.9804
1,6,26,4,3,2,A,F,b,y,15,5,74001,1,3,578.1536,211.1145
1,6,26,4,3,2,A,F,b,y,15,5,74001,1,3,378.1536,401.0587
1,6,26,4,3,2,A,F,b,y,15,5,74001,1,3,378.1536,441.2821
1,6,26,4,3,2,A,F,b,y,15,5,74001,1,3,369.2151,508.3212
1,6,26,4,3,2,A,F,b,y,15,5,74001,1,1,226.1983,384.2989
1,6,26,4,3,2,A,F,b,y,15,5,74001,1,1,199.3827,424.5223
1,6,26,4,3,2,A,F,b,y,15,5,74001,1,3,173.6844,515.0251
1,6,26,4,3,2,A,F,b,y,15,5,75001,1,1,478.7123,496.0307
1,6,26,4,3,2,A,F,b,y,15,5,75001,1,3,554.6899,423.405
1,6,26,4,3,2,A,F,b,y,15,5,75001,1,3,411.6732,409.9972
1,6,26,4,3,2,A,F,b,y,15,5,75001,1,3,324.5223,494.9134
1,6,26,4,3,2,A,F,b,y,15,5,75001,1,3,371.4497,389.8855
1,6,26,4,3,2,A,F,b,y,15,5,75001,1,3,284.2989,399.9413
1,6,26,4,3,2,A,F,b,y,15,5,75001,1,3,379.2709,197.7067
1,6,26,4,3,2,A,F,b,y,15,5,75001,1,3,384.8575,39.0475
1,6,26,4,3,2,A,F,b,y,15,5,75001,1,3,316.7011,37.9302
1,6,26,4,3,2,A,F,b,y,15,5,75001,1,3,236.2542,96.0307
1,6,26,4,3,2,A,F,b,y,15,5,75001,1,1,161.3939,311.6732
1,6,26,4,3,2,A,F,b,y,15,5,76001,1,3,431.7849,65.8631
1,6,26,4,3,2,A,F,b,y,15,5,76001,1,3,328.9916,34.5782
1,6,26,4,3,2,A,F,b,y,15,5,76001,1,1,251.8966,278.1536
1,6,26,4,3,2,A,F,b,y,15,5,76001,1,1,259.7179,358.6006
1,6,26,4,3,2,A,F,b,y,15,5,76001,1,3,291.0028,332.9022
1,6,26,4,3,2,A,F,b,y,15,5,76001,1,3,137.9302,321.7291
1,6,26,4,3,2,A,F,b,y,15,5,76001,1,3,344.6341,378.7123
1,6,26,4,3,2,A,F,b,y,15,5,76001,1,3,394.9134,395.4721
1,6,26,4,3,2,A,F,b,y,15,5,76001,1,3,413.9078,409.9972
1,6,26,4,3,2,A,F,b,y,15,5,76001,1,3,515.5838,482.6229
1,6,26,4,3,2,A,F,b,y,15,5,76001,1,1,397.148,540.7235
1,6,26,4,3,2,A,F,b,y,15,5,77001,1,3,435.7705,73.6463
1,6,26,4,3,2,A,F,b,y,15,5,77001,1,3,313.9269,36.7725
1,6,26,4,3,2,A,F,b,y,15,5,77001,1,3,296.2916,213.1253
1,6,26,4,3,2,A,F,b,y,15,5,77001,1,3,309.1172,293.2856
1,6,26,4,3,2,A,F,b,y,15,5,77001,1,3,374.8487,341.3818
1,6,26,4,3,2,A,F,b,y,15,5,77001,1,1,435.7705,394.2876
1,6,26,4,3,2,A,F,b,y,15,5,77001,1,3,395.6904,429.5581
1,6,26,4,3,2,A,F,b,y,15,5,77001,1,1,355.6102,500.0992
1,6,26,4,3,2,A,F,b,y,15,5,77001,1,3,302.7044,395.8908
1,6,26,4,3,2,A,F,b,y,15,5,77001,1,3,230.5601,384.6683
1,6,26,4,3,2,A,F,b,y,15,5,77001,1,3,70.2395,227.5541
1,6,26,4,3,2,A,F,b,y,15,5,78001,1,3,504.7084,115.3297
1,6,26,4,3,2,A,F,b,y,15,5,78001,1,3,321.9429,38.3758
1,6,26,4,3,2,A,F,b,y,15,5,78001,1,1,350.8006,216.3317
1,6,26,4,3,2,A,F,b,y,15,5,78001,1,1,302.7044,192.2836
1,6,26,4,3,2,A,F,b,y,15,5,78001,1,3,584.8687,307.7144
1,6,26,4,3,2,A,F,b,y,15,5,78001,1,3,408.516,354.2074
1,6,26,4,3,2,A,F,b,y,15,5,78001,1,3,389.2776,391.0812
1,6,26,4,3,2,A,F,b,y,15,5,78001,1,3,302.7044,389.478
1,6,26,4,3,2,A,F,b,y,15,5,78001,1,3,288.2756,328.5561
1,6,26,4,3,2,A,F,b,y,15,5,78001,1,3,79.8587,245.1894
1,6,26,4,3,2,A,F,b,y,15,5,78001,1,3,382.8647,533.7665
1,6,26,4,3,2,A,F,b,y,15,5,79001,1,3,180.8607,76.8527
1,6,26,4,3,2,A,F,b,y,15,5,79001,1,3,312.3236,23.9469
1,6,26,4,3,2,A,F,b,y,15,5,79001,1,1,193.6864,136.1713
1,6,26,4,3,2,A,F,b,y,15,5,79001,1,3,480.6603,120.1393
1,6,26,4,3,2,A,F,b,y,15,5,79001,1,3,544.7886,158.6162
1,6,26,4,3,2,A,F,b,y,15,5,79001,1,3,576.8527,315.7305
1,6,26,4,3,2,A,F,b,y,15,5,79001,1,3,546.3918,423.1453
1,6,26,4,3,2,A,F,b,y,15,5,79001,1,3,414.9289,392.6844
1,6,26,4,3,2,A,F,b,y,15,5,79001,1,3,379.6583,349.3978
1,6,26,4,3,2,A,F,b,y,15,5,79001,1,3,296.2916,298.0952
1,6,26,4,3,2,A,F,b,y,15,5,79001,1,1,386.0711,496.8928
1,6,26,4,3,2,A,F,b,y,15,5,79001,1,3,310.7204,570.6403
1,6,26,4,3,2,A,F,b,y,15,5,80001,1,3,297.8948,46.3918
1,6,26,4,3,2,A,F,b,y,15,5,80001,1,3,414.9289,65.6303
1,6,26,4,3,2,A,F,b,y,15,5,80001,1,3,57.4138,246.7926
1,6,26,4,3,2,A,F,b,y,15,5,80001,1,1,458.2154,171.4419
1,6,26,4,3,2,A,F,b,y,15,5,80001,1,3,515.9309,131.3617
1,6,26,4,3,2,A,F,b,y,15,5,80001,1,1,570.4399,192.2836
1,6,26,4,3,2,A,F,b,y,15,5,80001,1,3,557.6142,278.8567
1,6,26,4,3,2,A,F,b,y,15,5,80001,1,1,451.8026,349.3978
1,6,26,4,3,2,A,F,b,y,15,5,80001,1,3,366.8327,330.1593
1,6,26,4,3,2,A,F,b,y,15,5,80001,1,3,357.2134,408.7164
1,6,26,4,3,2,A,F,b,y,15,5,80001,1,3,435.7705,403.9068
1,6,26,4,3,2,A,F,b,y,15,5,80001,1,3,503.1052,474.4479
1,6,26,4,3,2,A,F,b,y,15,5,80001,1,3,376.4519,501.7024
1,6,26,4,3,2,A,F,b,y,15,5,81001,1,1,394.0872,67.2335
1,6,26,4,3,2,A,F,b,y,15,5,81001,1,1,511.1212,99.2976
1,6,26,4,3,2,A,F,b,y,15,5,81001,1,3,459.8186,173.0451
1,6,26,4,3,2,A,F,b,y,15,5,81001,1,3,565.6303,174.6483
1,6,26,4,3,2,A,F,b,y,15,5,81001,1,3,580.0591,326.9529
1,6,26,4,3,2,A,F,b,y,15,5,81001,1,1,576.8527,413.5261
1,6,26,4,3,2,A,F,b,y,15,5,81001,1,3,400.5,399.0972
1,6,26,4,3,2,A,F,b,y,15,5,81001,1,3,373.2455,362.2234
1,6,26,4,3,2,A,F,b,y,15,5,81001,1,3,317.1333,392.6844
1,6,26,4,3,2,A,F,b,y,15,5,81001,1,3,283.4659,267.6343
1,6,26,4,3,2,A,F,b,y,15,5,81001,1,3,172.8447,235.5701
1,6,26,4,3,2,A,F,b,y,15,5,81001,1,3,336.3717,528.9569
1,6,26,4,3,2,A,F,b,y,15,5,81001,1,3,216.1313,500.0992
1,6,26,4,3,2,A,F,b,y,15,5,82001,1,3,312.3236,52.8046
1,6,26,4,3,2,A,F,b,y,15,5,82001,1,1,374.8487,44.7886
1,6,26,4,3,2,A,F,b,y,15,5,82001,1,3,445.3898,62.4238
1,6,26,4,3,2,A,F,b,y,15,5,82001,1,3,509.518,113.7265
1,6,26,4,3,2,A,F,b,y,15,5,82001,1,3,294.6884,293.2856
1,6,26,4,3,2,A,F,b,y,15,5,82001,1,3,310.7204,375.0491
1,6,26,4,3,2,A,F,b,y,15,5,82001,1,3,273.8467,399.0972
1,6,26,4,3,2,A,F,b,y,15,5,82001,1,3,222.5441,384.6683
1,6,26,4,3,2,A,F,b,y,15,5,82001,1,3,222.5441,435.9709
1,6,26,4,3,2,A,F,b,y,15,5,82001,1,3,354.007,520.9409
1,6,26,4,3,2,A,F,b,y,15,5,82001,1,1,498.2956,455.2094
1,6,26,4,3,2,A,F,b,y,15,5,82001,1,3,211.3216,528.9569
1,6,26,4,3,2,A,F,b,y,15,5,82001,1,1,124.7485,318.9369
1,6,26,4,3,2,A,F,b,y,15,5,83001,1,3,241.7826,52.8046
1,6,26,4,3,2,A,F,b,y,15,5,83001,1,3,402.1032,49.5982
1,6,26,4,3,2,A,F,b,y,15,5,83001,1,3,475.8507,323.7465
1,6,26,4,3,2,A,F,b,y,15,5,83001,1,1,586.4719,315.7305
1,6,26,4,3,2,A,F,b,y,15,5,83001,1,1,496.6924,460.019
1,6,26,4,3,2,A,F,b,y,15,5,83001,1,3,398.8968,403.9068
1,6,26,4,3,2,A,F,b,y,15,5,83001,1,3,363.6263,439.1774
1,6,26,4,3,2,A,F,b,y,15,5,83001,1,3,289.8788,395.8908
1,6,26,4,3,2,A,F,b,y,15,5,83001,1,3,304.3076,357.4138
1,6,26,4,3,2,A,F,b,y,15,5,83001,1,3,249.7986,336.5721
1,6,26,4,3,2,A,F,b,y,15,5,83001,1,3,259.4178,573.8467
1,6,26,4,3,2,A,F,b,y,15,5,83001,1,1,155.2094,317.3337
1,6,26,4,3,2,A,F,b,y,15,5,84001,1,3,446.993,181.0611
1,6,26,4,3,2,A,F,b,y,15,5,84001,1,3,344.3878,36.7725
1,6,26,4,3,2,A,F,b,y,15,5,84001,1,3,310.7204,36.7725
1,6,26,4,3,2,A,F,b,y,15,5,84001,1,1,240.1794,67.2335
1,6,26,4,3,2,A,F,b,y,15,5,84001,1,3,288.2756,285.2695
1,6,26,4,3,2,A,F,b,y,15,5,84001,1,1,591.2816,312.524
1,6,26,4,3,2,A,F,b,y,15,5,84001,1,3,301.1012,376.6523
1,6,26,4,3,2,A,F,b,y,15,5,84001,1,3,230.5601,411.9228
1,6,26,4,3,2,A,F,b,y,15,5,84001,1,3,403.7064,421.5421
1,6,26,4,3,2,A,F,b,y,15,5,84001,1,3,501.502,456.8126
1,6,26,4,3,2,A,F,b,y,15,5,84001,1,1,119.9389,472.8447
1,6,26,4,3,2,A,F,b,y,15,5,84001,1,3,349.1974,556.2114
1,6,26,4,3,2,A,F,b,y,15,5,85001,1,3,296.2916,36.7725
1,6,26,4,3,2,A,F,b,y,15,5,85001,1,3,261.021,84.8687
1,6,26,4,3,2,A,F,b,y,15,5,85001,1,1,184.0671,150.6002
1,6,26,4,3,2,A,F,b,y,15,5,85001,1,1,315.5301,192.2836
1,6,26,4,3,2,A,F,b,y,15,5,85001,1,3,394.0872,181.0611
1,6,26,4,3,2,A,F,b,y,15,5,85001,1,3,342.7846,301.3016
1,6,26,4,3,2,A,F,b,y,15,5,85001,1,3,379.6583,418.3357
1,6,26,4,3,2,A,F,b,y,15,5,85001,1,3,422.9449,411.9228
1,6,26,4,3,2,A,F,b,y,15,5,85001,1,3,254.6082,375.0491
1,6,26,4,3,2,A,F,b,y,15,5,85001,1,3,334.7685,530.5601
1,6,26,4,3,2,A,F,b,y,15,5,85001,1,3,150.3998,301.3016
1,6,26,4,3,2,A,F,b,y,15,5,85001,1,1,100.7004,328.5561
1,6,26,4,3,2,A,F,b,y,15,5,86001,1,3,296.2916,43.1854
1,6,26,4,3,2,A,F,b,y,15,5,86001,1,3,307.514,99.2976
1,6,26,4,3,2,A,F,b,y,15,5,86001,1,3,179.2575,115.3297
1,6,26,4,3,2,A,F,b,y,15,5,86001,1,3,161.6222,92.8848
1,6,26,4,3,2,A,F,b,y,15,5,86001,1,1,211.3216,173.0451
1,6,26,4,3,2,A,F,b,y,15,5,86001,1,1,392.484,126.5521
1,6,26,4,3,2,A,F,b,y,15,5,86001,1,3,337.9749,227.5541
1,6,26,4,3,2,A,F,b,y,15,5,86001,1,3,378.0551,360.6202
1,6,26,4,3,2,A,F,b,y,15,5,86001,1,3,400.5,415.1293
1,6,26,4,3,2,A,F,b,y,15,5,86001,1,3,289.8788,387.8747
1,6,26,4,3,2,A,F,b,y,15,5,86001,1,3,228.9569,410.3196
1,6,26,4,3,2,A,F,b,y,15,5,86001,1,3,265.8307,544.989
1,6,26,4,3,2,A,F,b,y,15,5,87001,1,3,519.1373,124.9489
1,6,26,4,3,2,A,F,b,y,15,5,87001,1,3,288.2756,41.5822
1,6,26,4,3,2,A,F,b,y,15,5,87001,1,3,304.3076,293.2856
1,6,26,4,3,2,A,F,b,y,15,5,87001,1,3,376.4519,360.6202
1,6,26,4,3,2,A,F,b,y,15,5,87001,1,3,397.2936,402.3036
1,6,26,4,3,2,A,F,b,y,15,5,87001,1,1,480.6603,413.5261
1,6,26,4,3,2,A,F,b,y,15,5,87001,1,3,379.6583,429.5581
1,6,26,4,3,2,A,F,b,y,15,5,87001,1,3,248.1954,400.7004
1,6,26,4,3,2,A,F,b,y,15,5,87001,1,3,331.5621,569.0371
1,6,26,4,3,2,A,F,b,y,15,5,87001,1,3,78.2555,445.5902
1,6,26,4,3,2,A,F,b,y,15,5,87001,1,1,102.3036,383.0651
1,6,26,4,3,2,A,F,b,y,15,5,88001,1,3,291.482,36.7725
1,6,26,4,3,2,A,F,b,y,15,5,88001,1,3,280.2595,181.0611
1,6,26,4,3,2,A,F,b,y,15,5,88001,1,3,148.7966,285.2695
1,6,26,4,3,2,A,F,b,y,15,5,88001,1,3,67.0331,249.999
1,6,26,4,3,2,A,F,b,y,15,5,88001,1,3,341.1814,365.4299
1,6,26,4,3,2,A,F,b,y,15,5,88001,1,3,309.1172,392.6844
1,6,26,4,3,2,A,F,b,y,15,5,88001,1,3,321.9429,435.9709
1,6,26,4,3,2,A,F,b,y,15,5,88001,1,3,429.3577,415.1293
1,6,26,4,3,2,A,F,b,y,15,5,88001,1,3,480.6603,530.5601
1,6,26,4,3,2,A,F,b,y,15,5,88001,1,3,547.995,484.0671
1,6,26,4,3,2,A,F,b,y,15,5,89001,1,3,321.9429,80.0591
1,6,26,4,3,2,A,F,b,y,15,5,89001,1,3,315.5301,46.3918
1,6,26,4,3,2,A,F,b,y,15,5,89001,1,3,543.1854,177.8547
1,6,26,4,3,2,A,F,b,y,15,5,89001,1,3,576.8527,363.8267
1,6,26,4,3,2,A,F,b,y,15,5,89001,1,3,341.1814,331.7625
1,6,26,4,3,2,A,F,b,y,15,5,89001,1,3,328.3557,370.2395
1,6,26,4,3,2,A,F,b,y,15,5,89001,1,3,299.498,386.2715
1,6,26,4,3,2,A,F,b,y,15,5,89001,1,3,329.9589,485.6703
1,6,26,4,3,2,A,F,b,y,15,5,89001,1,1,310.7204,298.0952
1,6,26,4,3,2,A,F,b,y,15,5,89001,1,3,304.3076,272.4439
1,6,26,4,3,2,A,F,b,y,15,5,89001,1,3,63.8267,238.7766
1,6,26,4,3,2,A,F,b,y,15,5,90001,1,3,299.498,28.7565
1,6,26,4,3,2,A,F,b,y,15,5,90001,1,3,281.8627,70.4399
1,6,26,4,3,2,A,F,b,y,15,5,90001,1,3,204.9088,144.1874
1,6,26,4,3,2,A,F,b,y,15,5,90001,1,3,148.7966,269.2375
1,6,26,4,3,2,A,F,b,y,15,5,90001,1,1,73.4459,241.983
1,6,26,4,3,2,A,F,b,y,15,5,90001,1,3,583.2655,200.2996
1,6,26,4,3,2,A,F,b,y,15,5,90001,1,3,358.8166,347.7946
1,6,26,4,3,2,A,F,b,y,15,5,90001,1,3,329.9589,363.8267
1,6,26,4,3,2,A,F,b,y,15,5,90001,1,3,228.9569,415.1293
1,6,26,4,3,2,A,F,b,y,15,5,90001,1,3,395.6904,426.3517
1,6,26,4,3,2,A,F,b,y,15,5,90001,1,3,443.7866,416.7325
1,6,26,4,3,2,A,F,b,y,15,5,90001,1,1,371.6423,482.4639
1,6,26,4,3,2,A,F,b,y,15,5,91001,1,3,453.4058,68.8367
1,6,26,4,3,2,A,F,b,y,15,5,91001,1,3,509.518,112.1232
1,6,26,4,3,2,A,F,b,y,15,5,91001,1,3,315.5301,44.7886
1,6,26,4,3,2,A,F,b,y,15,5,91001,1,3,503.1052,238.7766
1,6,26,4,3,2,A,F,b,y,15,5,91001,1,1,344.3878,241.983
1,6,26,4,3,2,A,F,b,y,15,5,91001,1,3,374.8487,355.8106
1,6,26,4,3,2,A,F,b,y,15,5,91001,1,3,387.6743,391.0812
1,6,26,4,3,2,A,F,b,y,15,5,91001,1,3,448.5962,354.2074
1,6,26,4,3,2,A,F,b,y,15,5,91001,1,3,217.7345,275.6503
1,6,26,4,3,2,A,F,b,y,15,5,91001,1,3,201.7024,368.6363
1,6,26,4,3,2,A,F,b,y,15,5,91001,1,3,119.9389,283.6663
1,6,26,4,3,2,A,F,b,y,15,5,91001,1,1,100.7004,342.985
1,6,26,4,3,2,A,F,b,y,15,5,92001,1,3,432.5641,51.2014
1,6,26,4,3,2,A,F,b,y,15,5,92001,1,3,515.9309,267.6343
1,6,26,4,3,2,A,F,b,y,15,5,92001,1,3,123.1453,123.3457
1,6,26,4,3,2,A,F,b,y,15,5,92001,1,3,127.9549,296.492
1,6,26,4,3,2,A,F,b,y,15,5,92001,1,1,99.0972,373.4459
1,6,26,4,3,2,A,F,b,y,15,5,92001,1,3,211.3216,371.8427
1,6,26,4,3,2,A,F,b,y,15,5,92001,1,1,333.1653,359.017
1,6,26,4,3,2,A,F,b,y,15,5,92001,1,3,344.3878,291.6824
1,6,26,4,3,2,A,F,b,y,15,5,92001,1,3,368.4359,373.4459
1,6,26,4,3,2,A,F,b,y,15,5,92001,1,3,394.0872,410.3196
1,6,26,4,3,2,A,F,b,y,15,5,92001,1,3,531.9629,431.1613
1,6,26,4,3,2,A,F,b,y,15,5,92001,1,3,283.4659,484.0671
1,6,26,4,3,2,A,F,b,y,15,5,93001,1,3,519.1373,148.997
1,6,26,4,3,2,A,F,b,y,15,5,93001,1,3,368.4359,33.5661
1,6,26,4,3,2,A,F,b,y,15,5,93001,1,3,270.6403,70.4399
1,6,26,4,3,2,A,F,b,y,15,5,93001,1,3,65.4299,230.7605
1,6,26,4,3,2,A,F,b,y,15,5,93001,1,3,296.2916,283.6663
1,6,26,4,3,2,A,F,b,y,15,5,93001,1,3,342.7846,371.8427
1,6,26,4,3,2,A,F,b,y,15,5,93001,1,3,384.4679,419.9389
1,6,26,4,3,2,A,F,b,y,15,5,93001,1,3,225.7505,373.4459
1,6,26,4,3,2,A,F,b,y,15,5,93001,1,3,201.7024,466.4319
1,6,26,4,3,2,A,F,b,y,15,5,93001,1,1,265.8307,536.9729
1,6,26,4,3,2,A,F,b,y,15,5,93001,1,1,530.3597,485.6703
1,6,26,4,3,2,A,F,b,y,15,5,94001,1,3,525.5501,160.2194
1,6,26,4,3,2,A,F,b,y,15,5,94001,1,3,443.7866,86.4719
1,6,26,4,3,2,A,F,b,y,15,5,94001,1,3,605.7104,235.5701
1,6,26,4,3,2,A,F,b,y,15,5,94001,1,1,578.4559,352.6042
1,6,26,4,3,2,A,F,b,y,15,5,94001,1,3,390.8808,411.9228
1,6,26,4,3,2,A,F,b,y,15,5,94001,1,3,349.1974,431.1613
1,6,26,4,3,2,A,F,b,y,15,5,94001,1,3,365.2295,532.1633
1,6,26,4,3,2,A,F,b,y,15,5,94001,1,1,265.8307,556.2114
1,6,26,4,3,2,A,F,b,y,15,5,94001,1,3,227.3537,384.6683
1,6,26,4,3,2,A,F,b,y,15,5,94001,1,3,172.8447,304.508
1,6,26,4,3,2,A,F,b,y,15,5,94001,1,3,84.6683,352.6042
1,6,26,4,3,2,A,F,b,y,15,5,94001,1,3,62.2234,232.3637
1,6,26,4,3,2,A,F,b,y,15,5,95001,1,3,355.6102,41.5822
1,6,26,4,3,2,A,F,b,y,15,5,95001,1,3,257.8146,177.8547
1,6,26,4,3,2,A,F,b,y,15,5,95001,1,3,337.9749,290.0792
1,6,26,4,3,2,A,F,b,y,15,5,95001,1,1,269.0371,379.8587
1,6,26,4,3,2,A,F,b,y,15,5,95001,1,3,124.7485,291.6824
1,6,26,4,3,2,A,F,b,y,15,5,95001,1,3,81.4619,237.1733
1,6,26,4,3,2,A,F,b,y,15,5,95001,1,3,341.1814,431.1613
1,6,26,4,3,2,A,F,b,y,15,5,95001,1,3,386.0711,411.9228
1,6,26,4,3,2,A,F,b,y,15,5,95001,1,3,285.0691,501.7024
1,6,26,4,3,2,A,F,b,y,15,5,95001,1,1,277.0531,565.8307
1,6,26,4,3,2,A,F,b,y,15,5,96001,1,3,325.1493,41.5822
1,6,26,4,3,2,A,F,b,y,15,5,96001,1,1,131.1613,102.504
1,6,26,4,3,2,A,F,b,y,15,5,96001,1,3,89.478,198.6964
1,6,26,4,3,2,A,F,b,y,15,5,96001,1,3,168.0351,249.999
1,6,26,4,3,2,A,F,b,y,15,5,96001,1,3,228.9569,405.51
1,6,26,4,3,2,A,F,b,y,15,5,96001,1,3,267.4339,493.6864
1,6,26,4,3,2,A,F,b,y,15,5,96001,1,1,272.2435,557.8146
1,6,26,4,3,2,A,F,b,y,15,5,96001,1,3,355.6102,418.3357
1,6,26,4,3,2,A,F,b,y,15,5,96001,1,3,400.5,391.0812
1,6,26,4,3,2,A,F,b,y,15,5,97001,1,3,291.482,30.3597
1,6,26,4,3,2,A,F,b,y,15,5,97001,1,3,315.5301,241.983
1,6,26,4,3,2,A,F,b,y,15,5,97001,1,3,201.7024,253.2054
1,6,26,4,3,2,A,F,b,y,15,5,97001,1,1,551.2014,163.4259
1,6,26,4,3,2,A,F,b,y,15,5,97001,1,3,573.6463,213.1253
1,6,26,4,3,2,A,F,b,y,15,5,97001,1,3,357.2134,383.0651
1,6,26,4,3,2,A,F,b,y,15,5,97001,1,3,406.9128,416.7325
1,6,26,4,3,2,A,F,b,y,15,5,97001,1,3,272.2435,383.0651
1,6,26,4,3,2,A,F,b,y,15,5,97001,1,1,312.3236,589.8788
1,6,26,4,3,2,A,F,b,y,15,5,98001,1,3,304.3076,44.7886
1,6,26,4,3,2,A,F,b,y,15,5,98001,1,3,422.9449,84.8687
1,6,26,4,3,2,A,F,b,y,15,5,98001,1,3,323.5461,248.3958
1,6,26,4,3,2,A,F,b,y,15,5,98001,1,1,424.5481,261.2214
1,6,26,4,3,2,A,F,b,y,15,5,98001,1,3,472.6443,336.5721
1,6,26,4,3,2,A,F,b,y,15,5,98001,1,3,467.8347,389.478
1,6,26,4,3,2,A,F,b,y,15,5,98001,1,3,414.9289,432.7645
1,6,26,4,3,2,A,F,b,y,15,5,98001,1,3,219.3377,342.985
1,6,26,4,3,2,A,F,b,y,15,5,98001,1,3,54.2074,312.524
1,6,26,4,3,2,A,F,b,y,15,5,98001,1,3,54.2074,235.5701
1,6,26,4,3,2,A,F,b,y,15,5,99001,1,3,297.8948,41.5822
1,6,26,4,3,2,A,F,b,y,15,5,99001,1,3,581.6623,254.8086
1,6,26,4,3,2,A,F,b,y,15,5,99001,1,3,288.2756,285.2695
1,6,26,4,3,2,A,F,b,y,15,5,99001,1,3,188.8768,302.9048
1,6,26,4,3,2,A,F,b,y,15,5,99001,1,3,140.7806,245.1894
1,6,26,4,3,2,A,F,b,y,15,5,99001,1,3,285.0691,371.8427
1,6,26,4,3,2,A,F,b,y,15,5,99001,1,3,354.007,423.1453
1,6,26,4,3,2,A,F,b,y,15,5,99001,1,3,131.1613,471.2415
1,6,26,4,3,2,A,F,b,y,15,5,99001,1,1,272.2435,551.4018
1,6,26,4,3,2,A,F,b,y,15,5,100001,1,3,288.2756,44.7886
1,6,26,4,3,2,A,F,b,y,15,5,100001,1,3,573.6463,203.506
1,6,26,4,3,2,A,F,b,y,15,5,100001,1,3,580.0591,288.476
1,6,26,4,3,2,A,F,b,y,15,5,100001,1,3,395.6904,419.9389
1,6,26,4,3,2,A,F,b,y,15,5,100001,1,3,318.7365,371.8427
1,6,26,4,3,2,A,F,b,y,15,5,100001,1,3,275.4499,402.3036
1,6,26,4,3,2,A,F,b,y,15,5,100001,1,3,161.6222,391.0812
1,6,26,4,3,2,A,F,b,y,15,5,100001,1,1,105.51,338.1754
1,6,26,4,3,2,A,F,b,y,15,5,100001,1,3,312.3236,522.5441
1,6,26,4,3,2,A,F,b,y,15,5,100001,1,1,349.1974,577.0531
1,6,26,4,3,2,A,F,b,y,15,5,101001,1,1,567.2335,357.4138
1,6,26,4,3,2,A,F,b,y,15,5,101001,1,3,501.502,145.7906
1,6,26,4,3,2,A,F,b,y,15,5,101001,1,3,398.8968,148.997
1,6,26,4,3,2,A,F,b,y,15,5,101001,1,3,354.007,30.3597
1,6,26,4,3,2,A,F,b,y,15,5,101001,1,3,188.8768,205.1092
1,6,26,4,3,2,A,F,b,y,15,5,101001,1,1,89.478,221.1413
1,6,26,4,3,2,A,F,b,y,15,5,101001,1,3,232.1633,411.9228
1,6,26,4,3,2,A,F,b,y,15,5,101001,1,3,326.7525,492.0832
1,6,26,4,3,2,A,F,b,y,15,5,101001,1,3,403.7064,419.9389
1,6,26,4,3,2,A,F,b,y,15,5,101001,1,3,474.2475,535.3697
1,6,26,4,3,2,A,F,b,y,15,5,102001,1,1,560.8206,181.0611
1,6,26,4,3,2,A,F,b,y,15,5,102001,1,3,329.9589,28.7565
1,6,26,4,3,2,A,F,b,y,15,5,102001,1,3,140.7806,174.6483
1,6,26,4,3,2,A,F,b,y,15,5,102001,1,3,360.4198,302.9048
1,6,26,4,3,2,A,F,b,y,15,5,102001,1,3,365.2295,384.6683
1,6,26,4,3,2,A,F,b,y,15,5,102001,1,3,403.7064,439.1774
1,6,26,4,3,2,A,F,b,y,15,5,102001,1,3,289.8788,415.1293
1,6,26,4,3,2,A,F,b,y,15,5,102001,1,3,236.9729,397.494
1,6,26,4,3,2,A,F,b,y,15,5,102001,1,3,283.4659,543.3858
1,6,26,4,3,2,A,F,b,y,15,5,102001,1,1,110.3196,367.0331
1,6,26,4,3,2,A,F,b,y,15,5,103001,1,1,480.6603,76.8527
1,6,26,4,3,2,A,F,b,y,15,5,103001,1,3,153.6062,108.9168
1,6,26,4,3,2,A,F,b,y,15,5,103001,1,3,153.6062,256.4118
1,6,26,4,3,2,A,F,b,y,15,5,103001,1,3,309.1172,296.492
1,6,26,4,3,2,A,F,b,y,15,5,103001,1,3,249.7986,387.8747
1,6,26,4,3,2,A,F,b,y,15,5,103001,1,3,301.1012,389.478
1,6,26,4,3,2,A,F,b,y,15,5,103001,1,3,347.5942,367.0331
1,6,26,4,3,2,A,F,b,y,15,5,103001,1,1,400.5,395.8908
1,6,26,4,3,2,A,F,b,y,15,5,103001,1,3,289.8788,514.5281
1,6,26,4,3,2,A,F,b,y,15,5,103001,1,3,410.1192,553.005
1,6,26,4,3,2,A,F,b,y,15,5,104001,1,1,376.4519,36.7725
1,6,26,4,3,2,A,F,b,y,15,5,104001,1,1,317.1333,285.2695
1,6,26,4,3,2,A,F,b,y,15,5,104001,1,3,283.4659,347.7946
1,6,26,4,3,2,A,F,b,y,15,5,104001,1,3,305.9108,381.4619
1,6,26,4,3,2,A,F,b,y,15,5,104001,1,3,347.5942,429.5581
1,6,26,4,3,2,A,F,b,y,15,5,104001,1,3,238.5762,365.4299
1,6,26,4,3,2,A,F,b,y,15,5,104001,1,3,219.3377,411.9228
1,6,26,4,3,2,A,F,b,y,15,5,104001,1,3,187.2735,487.2735
1,6,26,4,3,2,A,F,b,y,15,5,104001,1,3,140.7806,466.4319
1,6,26,4,3,2,A,F,b,y,15,5,105001,1,1,317.1333,28.7565
1,6,26,4,3,2,A,F,b,y,15,5,105001,1,3,288.2756,100.9008
1,6,26,4,3,2,A,F,b,y,15,5,105001,1,1,176.0511,307.7144
1,6,26,4,3,2,A,F,b,y,15,5,105001,1,3,196.8928,306.1112
1,6,26,4,3,2,A,F,b,y,15,5,105001,1,3,272.2435,334.9689
1,6,26,4,3,2,A,F,b,y,15,5,105001,1,3,376.4519,376.6523
1,6,26,4,3,2,A,F,b,y,15,5,105001,1,3,483.8667,387.8747
1,6,26,4,3,2,A,F,b,y,15,5,105001,1,3,581.6623,373.4459
1,6,26,4,3,2,A,F,b,y,15,5,105001,1,3,230.5601,389.478
1,6,26,4,3,2,A,F,b,y,15,5,105001,1,3,251.4018,538.5762
1,6,26,4,3,2,A,F,b,y,15,5,106001,1,1,336.3717,128.1553
1,6,26,4,3,2,A,F,b,y,15,5,106001,1,3,297.8948,56.011
1,6,26,4,3,2,A,F,b,y,15,5,106001,1,3,501.502,142.5842
1,6,26,4,3,2,A,F,b,y,15,5,106001,1,3,304.3076,285.2695
1,6,26,4,3,2,A,F,b,y,15,5,106001,1,3,365.2295,376.6523
1,6,26,4,3,2,A,F,b,y,15,5,106001,1,3,448.5962,508.1152
1,6,26,4,3,2,A,F,b,y,15,5,106001,1,3,238.5762,304.508
1,6,26,4,3,2,A,F,b,y,15,5,106001,1,3,140.7806,407.1132
1,6,26,4,3,2,A,F,b,y,15,5,106001,1,1,115.1293,464.8287
1,6,26,4,3,2,A,F,b,y,15,5,106001,1,3,67.0331,233.9669
1,6,26,4,3,2,A,F,b,y,15,5,107001,1,3,583.2655,275.6503
1,6,26,4,3,2,A,F,b,y,15,5,107001,1,3,527.1533,291.6824
1,6,26,4,3,2,A,F,b,y,15,5,107001,1,3,559.2174,376.6523
1,6,26,4,3,2,A,F,b,y,15,5,107001,1,1,363.6263,270.8407
1,6,26,4,3,2,A,F,b,y,15,5,107001,1,3,342.7846,312.524
1,6,26,4,3,2,A,F,b,y,15,5,107001,1,3,374.8487,387.8747
1,6,26,4,3,2,A,F,b,y,15,5,107001,1,3,406.9128,394.2876
1,6,26,4,3,2,A,F,b,y,15,5,107001,1,3,209.7184,262.8246
1,6,26,4,3,2,A,F,b,y,15,5,107001,1,3,286.6723,44.7886
1,6,26,4,3,2,A,F,b,y,15,5,107001,1,1,232.1633,556.2114
