dummy,month,day,period,view,station,fgeno,mgeno,fcol,mcol,nf,nm,frame,something,sex,x,y
1,9,24,2,3,1,C,F,b,y,10,10,1,1,3,374,396
1,9,24,2,3,1,C,F,b,y,10,10,1001,1,3,597,370
1,9,24,2,3,1,C,F,b,y,10,10,2001,1,3,420,92
1,9,24,2,3,1,C,F,b,y,10,10,3001,1,3,280,215
1,9,24,2,3,1,C,F,b,y,10,10,4001,1,3,546,471
1,9,24,2,3,1,C,F,b,y,10,10,5001,1,3,536,416
1,9,24,2,3,1,C,F,b,y,10,10,6001,1,3,355,449
1,9,24,2,3,1,C,F,b,y,10,10,7001,1,3,336,463
1,9,24,2,3,1,C,F,b,y,10,10,8001,1,3,376,401
1,9,24,2,3,1,C,F,b,y,10,10,9001,1,3,319,304
1,9,24,2,3,1,C,F,b,y,10,10,10001,1,3,290,114
1,9,24,2,3,1,C,F,b,y,10,10,11001,1,3,439,84
1,9,24,2,3,1,C,F,b,y,10,10,12001,1,3,561,221
1,9,24,2,3,1,C,F,b,y,10,10,13001,1,3,481,118
1,9,24,2,3,1,C,F,b,y,10,10,13001,1,1,513,423
1,9,24,2,3,1,C,F,b,y,10,10,14001,1,3,451,251
1,9,24,2,3,1,C,F,b,y,10,10,14001,1,1,590,334
1,9,24,2,3,1,C,F,b,y,10,10,15001,1,3,448,372
1,9,24,2,3,1,C,F,b,y,10,10,15001,1,1,364,77
1,9,24,2,3,1,C,F,b,y,10,10,16001,1,3,387,356
1,9,24,2,3,1,C,F,b,y,10,10,16001,1,1,544,511
1,9,24,2,3,1,C,F,b,y,10,10,17001,1,1,453,225
1,9,24,2,3,1,C,F,b,y,10,10,17001,1,3,394,263
1,9,24,2,3,1,C,F,b,y,10,10,18001,1,3,304,126
1,9,24,2,3,1,C,F,b,y,10,10,18001,1,1,186,223
1,9,24,2,3,1,C,F,b,y,10,10,19001,1,3,222,160
1,9,24,2,3,1,C,F,b,y,10,10,19001,1,1,658,314
1,9,24,2,3,1,C,F,b,y,10,10,20001,1,1,429,65
1,9,24,2,3,1,C,F,b,y,10,10,20001,1,3,337,278
1,9,24,2,3,1,C,F,b,y,10,10,21001,1,3,400,260
1,9,24,2,3,1,C,F,b,y,10,10,21001,1,1,534,517
1,9,24,2,3,1,C,F,b,y,10,10,22001,1,3,424,63
1,9,24,2,3,1,C,F,b,y,10,10,22001,1,1,216,153
1,9,24,2,3,1,C,F,b,y,10,10,23001,1,3,593,278
1,9,24,2,3,1,C,F,b,y,10,10,23001,1,1,458,444
1,9,24,2,3,1,C,F,b,y,10,10,24001,1,3,542,325
1,9,24,2,3,1,C,F,b,y,10,10,24001,1,1,181,274
1,9,24,2,3,1,C,F,b,y,10,10,25001,1,1,406,295
1,9,24,2,3,1,C,F,b,y,10,10,25001,1,1,265,278
1,9,24,2,3,1,C,F,b,y,10,10,25001,1,3,427,415
1,9,24,2,3,1,C,F,b,y,10,10,26001,1,1,526,506
1,9,24,2,3,1,C,F,b,y,10,10,26001,1,3,387,446
1,9,24,2,3,1,C,F,b,y,10,10,27001,1,1,505,211
1,9,24,2,3,1,C,F,b,y,10,10,27001,1,3,228,300
1,9,24,2,3,1,C,F,b,y,10,10,28001,1,3,358,248
1,9,24,2,3,1,C,F,b,y,10,10,28001,1,1,234,394
1,9,24,2,3,1,C,F,b,y,10,10,29001,1,1,647,382
1,9,24,2,3,1,C,F,b,y,10,10,29001,1,3,458,396
1,9,24,2,3,1,C,F,b,y,10,10,30001,1,3,247,439
1,9,24,2,3,1,C,F,b,y,10,10,30001,1,1,172,333
1,9,24,2,3,1,C,F,b,y,10,10,31001,1,3,250,269
1,9,24,2,3,1,C,F,b,y,10,10,31001,1,1,605,466
1,9,24,2,3,1,C,F,b,y,10,10,32001,1,3,391,165
1,9,24,2,3,1,C,F,b,y,10,10,32001,1,1,380,429
1,9,24,2,3,1,C,F,b,y,10,10,33001,1,3,613,284
1,9,24,2,3,1,C,F,b,y,10,10,33001,1,1,260,409
1,9,24,2,3,1,C,F,b,y,10,10,34001,1,3,528,435
1,9,24,2,3,1,C,F,b,y,10,10,34001,1,1,254,142
1,9,24,2,3,1,C,F,b,y,10,10,35001,1,3,331,362
1,9,24,2,3,1,C,F,b,y,10,10,36001,1,1,241,297
1,9,24,2,3,1,C,F,b,y,10,10,36001,1,3,217,354
1,9,24,2,3,1,C,F,b,y,10,10,37001,1,1,583,147
1,9,24,2,3,1,C,F,b,y,10,10,37001,1,3,204,394
1,9,24,2,3,1,C,F,b,y,10,10,38001,1,3,409,420
1,9,24,2,3,1,C,F,b,y,10,10,38001,1,1,554,468
1,9,24,2,3,1,C,F,b,y,10,10,39001,1,3,624,361
1,9,24,2,3,1,C,F,b,y,10,10,39001,1,1,293,78
1,9,24,2,3,1,C,F,b,y,10,10,40001,1,1,522,444
1,9,24,2,3,1,C,F,b,y,10,10,40001,1,3,435,43
1,9,24,2,3,1,C,F,b,y,10,10,41001,1,1,223,112
1,9,24,2,3,1,C,F,b,y,10,10,41001,1,3,204,301
1,9,24,2,3,1,C,F,b,y,10,10,42001,1,1,619,388
1,9,24,2,3,1,C,F,b,y,10,10,42001,1,3,508,527
1,9,24,2,3,1,C,F,b,y,10,10,43001,1,3,377,255
1,9,24,2,3,1,C,F,b,y,10,10,43001,1,1,169,362
1,9,24,2,3,1,C,F,b,y,10,10,44001,1,1,464,49
1,9,24,2,3,1,C,F,b,y,10,10,44001,1,3,207,371
1,9,24,2,3,1,C,F,b,y,10,10,45001,1,1,588,402
1,9,24,2,3,1,C,F,b,y,10,10,45001,1,3,402,511
1,9,24,2,3,1,C,F,b,y,10,10,46001,1,1,294,269
1,9,24,2,3,1,C,F,b,y,10,10,46001,1,3,566,446
1,9,24,2,3,1,C,F,b,y,10,10,47001,1,1,509,92
1,9,24,2,3,1,C,F,b,y,10,10,47001,1,3,597,453
1,9,24,2,3,1,C,F,b,y,10,10,48001,1,3,618,166
1,9,24,2,3,1,C,F,b,y,10,10,48001,1,1,250,467
1,9,24,2,3,1,C,F,b,y,10,10,49001,1,1,364,151
1,9,24,2,3,1,C,F,b,y,10,10,49001,1,3,327,179
1,9,24,2,3,1,C,F,b,y,10,10,50001,1,3,555,210
1,9,24,2,3,1,C,F,b,y,10,10,50001,1,1,458,281
1,9,24,2,3,1,C,F,b,y,10,10,51001,1,1,583,218
1,9,24,2,3,1,C,F,b,y,10,10,52001,1,1,463,323
1,9,24,2,3,1,C,F,b,y,10,10,52001,1,1,473,398
1,9,24,2,3,1,C,F,b,y,10,10,53001,1,1,413,277
1,9,24,2,3,1,C,F,b,y,10,10,53001,1,1,384,467
1,9,24,2,3,1,C,F,b,y,10,10,54001,1,1,565,68
1,9,24,2,3,1,C,F,b,y,10,10,54001,1,1,233,253
1,9,24,2,3,1,C,F,b,y,10,10,55001,1,1,607,384
1,9,24,2,3,1,C,F,b,y,10,10,55001,1,1,368,503
1,9,24,2,3,1,C,F,b,y,10,10,56001,1,1,562,138
1,9,24,2,3,1,C,F,b,y,10,10,56001,1,1,334,445
1,9,24,2,3,1,C,F,b,y,10,10,56001,1,1,324,542
1,9,24,2,3,1,C,F,b,y,10,10,57001,1,1,644,245
1,9,24,2,3,1,C,F,b,y,10,10,57001,1,1,166,246
1,9,24,2,3,1,C,F,b,y,10,10,58001,1,1,482,43
1,9,24,2,3,1,C,F,b,y,10,10,58001,1,1,602,411
1,9,24,2,3,1,C,F,b,y,10,10,59001,1,1,415,11
1,9,24,2,3,1,C,F,b,y,10,10,59001,1,1,429,348
1,9,24,2,3,1,C,F,b,y,10,10,60001,1,1,239,265
1,9,24,2,3,1,C,F,b,y,10,10,60001,1,1,287,459
1,9,24,2,3,1,C,F,b,y,10,10,61001,1,1,358,256
1,9,24,2,3,1,C,F,b,y,10,10,61001,1,1,405,455
1,9,24,2,3,1,C,F,b,y,10,10,62001,1,1,531,233
1,9,24,2,3,1,C,F,b,y,10,10,62001,1,1,346,74
1,9,24,2,3,1,C,F,b,y,10,10,63001,1,1,265,321
1,9,24,2,3,1,C,F,b,y,10,10,64001,1,1,340,123
1,9,24,2,3,1,C,F,b,y,10,10,65001,1,1,612,178
1,9,24,2,3,1,C,F,b,y,10,10,66001,1,1,530,503
1,9,24,2,3,1,C,F,b,y,10,10,67001,1,1,253,272
1,9,24,2,3,1,C,F,b,y,10,10,68001,1,1,519,99
1,9,24,2,3,1,C,F,b,y,10,10,69001,1,1,608,279
1,9,24,2,3,1,C,F,b,y,10,10,70001,1,1,613,459
1,9,24,2,3,1,C,F,b,y,10,10,71001,1,1,356,458
1,9,24,2,3,1,C,F,b,y,10,10,72001,1,1,271,118
1,9,24,2,3,1,C,F,b,y,10,10,73001,1,1,495,110
1,9,24,2,3,1,C,F,b,y,10,10,74001,1,1,599,424
1,9,24,2,3,1,C,F,b,y,10,10,75001,1,1,415,471
1,9,24,2,3,1,C,F,b,y,10,10,76001,1,1,206,237
1,9,24,2,3,1,C,F,b,y,10,10,77001,1,1,619,285
1,9,24,2,3,1,C,F,b,y,10,10,78001,1,1,537,487
1,9,24,2,3,1,C,F,b,y,10,10,79001,1,1,287,371
1,9,24,2,3,1,C,F,b,y,10,10,80001,1,1,464,53
1,9,24,2,3,1,C,F,b,y,10,10,81001,1,1,645,325
1,9,24,2,3,1,C,F,b,y,10,10,82001,1,1,234,171
1,9,24,2,3,1,C,F,b,y,10,10,84001,1,1,220,339
1,9,24,2,3,1,C,F,b,y,10,10,85001,1,1,568,185
1,9,24,2,3,1,C,F,b,y,10,10,86001,1,1,515,107
1,9,24,2,3,1,C,F,b,y,10,10,87001,1,1,437,329
1,9,24,2,3,1,C,F,b,y,10,10,87001,1,1,447,401
1,9,24,2,3,1,C,F,b,y,10,10,93001,1,1,246,456
1,9,24,2,3,1,C,F,b,y,10,10,94001,1,1,258,370
1,9,24,2,3,1,C,F,b,y,10,10,96001,1,1,343,414
1,9,24,2,3,1,C,F,b,y,10,10,97001,1,1,384,511
