dummy,month,day,period,view,station,fgeno,mgeno,fcol,mcol,nf,nm,frame,something,sex,x,y
1,9,24,1,3,1,C,F,b,y,10,10,1,1,3,337,70
1,9,24,1,3,1,C,F,b,y,10,10,1001,1,3,326,81
1,9,24,1,3,1,C,F,b,y,10,10,2001,1,3,350,181
1,9,24,1,3,1,C,F,b,y,10,10,3001,1,3,310,206
1,9,24,1,3,1,C,F,b,y,10,10,4001,1,3,247,379
1,9,24,1,3,1,C,F,b,y,10,10,5001,1,3,309,476
1,9,24,1,3,1,C,F,b,y,10,10,6001,1,3,410,515
1,9,24,1,3,1,C,F,b,y,10,10,7001,1,3,600,274
1,9,24,1,3,1,C,F,b,y,10,10,8001,1,3,447,215
1,9,24,1,3,1,C,F,b,y,10,10,9001,1,3,398,433
1,9,24,1,3,1,C,F,b,y,10,10,10001,1,3,439,501
1,9,24,1,3,1,C,F,b,y,10,10,11001,1,3,476,411
1,9,24,1,3,1,C,F,b,y,10,10,11001,1,1,500,361
1,9,24,1,3,1,C,F,b,y,10,10,11001,1,1,298,558
1,9,24,1,3,1,C,F,b,y,10,10,12001,1,3,511,352
1,9,24,1,3,1,C,F,b,y,10,10,12001,1,3,200,245
1,9,24,1,3,1,C,F,b,y,10,10,13001,1,3,502,158
1,9,24,1,3,1,C,F,b,y,10,10,13001,1,3,505,320
1,9,24,1,3,1,C,F,b,y,10,10,13001,1,1,661,293
1,9,24,1,3,1,C,F,b,y,10,10,13001,1,1,507,115
1,9,24,1,3,1,C,F,b,y,10,10,14001,1,1,350,255
1,9,24,1,3,1,C,F,b,y,10,10,14001,1,3,262,250
1,9,24,1,3,1,C,F,b,y,10,10,14001,1,3,302,90
1,9,24,1,3,1,C,F,b,y,10,10,15001,1,3,525,136
1,9,24,1,3,1,C,F,b,y,10,10,15001,1,3,305,343
1,9,24,1,3,1,C,F,b,y,10,10,15001,1,1,437,203
1,9,24,1,3,1,C,F,b,y,10,10,16001,1,3,456,412
1,9,24,1,3,1,C,F,b,y,10,10,16001,1,3,208,352
1,9,24,1,3,1,C,F,b,y,10,10,17001,1,3,644,285
1,9,24,1,3,1,C,F,b,y,10,10,17001,1,3,388,408
1,9,24,1,3,1,C,F,b,y,10,10,18001,1,3,371,344
1,9,24,1,3,1,C,F,b,y,10,10,18001,1,3,409,411
1,9,24,1,3,1,C,F,b,y,10,10,19001,1,3,372,338
1,9,24,1,3,1,C,F,b,y,10,10,19001,1,3,416,407
1,9,24,1,3,1,C,F,b,y,10,10,20001,1,3,647,309
1,9,24,1,3,1,C,F,b,y,10,10,20001,1,3,448,391
1,9,24,1,3,1,C,F,b,y,10,10,21001,1,3,559,367
1,9,24,1,3,1,C,F,b,y,10,10,21001,1,3,369,279
1,9,24,1,3,1,C,F,b,y,10,10,22001,1,3,315,80
1,9,24,1,3,1,C,F,b,y,10,10,22001,1,3,557,355
1,9,24,1,3,1,C,F,b,y,10,10,23001,1,1,314,133
1,9,24,1,3,1,C,F,b,y,10,10,23001,1,3,561,289
1,9,24,1,3,1,C,F,b,y,10,10,23001,1,3,484,388
1,9,24,1,3,1,C,F,b,y,10,10,24001,1,3,464,369
1,9,24,1,3,1,C,F,b,y,10,10,24001,1,3,609,295
1,9,24,1,3,1,C,F,b,y,10,10,25001,1,3,409,345
1,9,24,1,3,1,C,F,b,y,10,10,25001,1,3,353,342
1,9,24,1,3,1,C,F,b,y,10,10,26001,1,3,358,366
1,9,24,1,3,1,C,F,b,y,10,10,26001,1,3,416,83
1,9,24,1,3,1,C,F,b,y,10,10,27001,1,3,373,467
1,9,24,1,3,1,C,F,b,y,10,10,27001,1,3,624,301
1,9,24,1,3,1,C,F,b,y,10,10,27001,1,1,621,258
1,9,24,1,3,1,C,F,b,y,10,10,27001,1,1,230,191
1,9,24,1,3,1,C,F,b,y,10,10,28001,1,3,489,298
1,9,24,1,3,1,C,F,b,y,10,10,28001,1,3,367,494
1,9,24,1,3,1,C,F,b,y,10,10,28001,1,1,386,529
1,9,24,1,3,1,C,F,b,y,10,10,29001,1,3,397,256
1,9,24,1,3,1,C,F,b,y,10,10,29001,1,3,371,474
1,9,24,1,3,1,C,F,b,y,10,10,29001,1,1,359,157
1,9,24,1,3,1,C,F,b,y,10,10,30001,1,3,463,254
1,9,24,1,3,1,C,F,b,y,10,10,30001,1,3,436,414
1,9,24,1,3,1,C,F,b,y,10,10,30001,1,1,310,437
1,9,24,1,3,1,C,F,b,y,10,10,30001,1,1,300,149
1,9,24,1,3,1,C,F,b,y,10,10,31001,1,3,596,231
1,9,24,1,3,1,C,F,b,y,10,10,31001,1,3,526,304
1,9,24,1,3,1,C,F,b,y,10,10,32001,1,3,539,177
1,9,24,1,3,1,C,F,b,y,10,10,32001,1,3,260,464
1,9,24,1,3,1,C,F,b,y,10,10,33001,1,3,450,99
1,9,24,1,3,1,C,F,b,y,10,10,33001,1,3,220,193
1,9,24,1,3,1,C,F,b,y,10,10,34001,1,3,610,169
1,9,24,1,3,1,C,F,b,y,10,10,34001,1,3,337,217
1,9,24,1,3,1,C,F,b,y,10,10,35001,1,3,243,260
1,9,24,1,3,1,C,F,b,y,10,10,35001,1,3,329,460
1,9,24,1,3,1,C,F,b,y,10,10,36001,1,3,225,321
1,9,24,1,3,1,C,F,b,y,10,10,36001,1,3,560,51
1,9,24,1,3,1,C,F,b,y,10,10,37001,1,3,393,352
1,9,24,1,3,1,C,F,b,y,10,10,38001,1,3,506,331
1,9,24,1,3,1,C,F,b,y,10,10,39001,1,1,327,400
1,9,24,1,3,1,C,F,b,y,10,10,39001,1,3,686,337
1,9,24,1,3,1,C,F,b,y,10,10,40001,1,3,378,348
1,9,24,1,3,1,C,F,b,y,10,10,40001,1,1,566,497
1,9,24,1,3,1,C,F,b,y,10,10,41001,1,3,324,250
1,9,24,1,3,1,C,F,b,y,10,10,42001,1,3,245,351
1,9,24,1,3,1,C,F,b,y,10,10,43001,1,3,178,271
1,9,24,1,3,1,C,F,b,y,10,10,44001,1,3,505,89
1,9,24,1,3,1,C,F,b,y,10,10,45001,1,3,605,321
1,9,24,1,3,1,C,F,b,y,10,10,46001,1,3,520,511
1,9,24,1,3,1,C,F,b,y,10,10,47001,1,3,232,482
1,9,24,1,3,1,C,F,b,y,10,10,47001,1,1,557,507
1,9,24,1,3,1,C,F,b,y,10,10,48001,1,3,568,181
1,9,24,1,3,1,C,F,b,y,10,10,48001,1,1,591,241
1,9,24,1,3,1,C,F,b,y,10,10,48001,1,1,199,255
1,9,24,1,3,1,C,F,b,y,10,10,54001,1,1,634,290
1,9,24,1,3,1,C,F,b,y,10,10,55001,1,1,381,210
1,9,24,1,3,1,C,F,b,y,10,10,55001,1,3,258,133
1,9,24,1,3,1,C,F,b,y,10,10,55001,1,1,525,506
1,9,24,1,3,1,C,F,b,y,10,10,56001,1,3,527,377
1,9,24,1,3,1,C,F,b,y,10,10,57001,1,3,428,424
1,9,24,1,3,1,C,F,b,y,10,10,58001,1,3,333,407
1,9,24,1,3,1,C,F,b,y,10,10,59001,1,3,366,467
1,9,24,1,3,1,C,F,b,y,10,10,60001,1,3,365,385
1,9,24,1,3,1,C,F,b,y,10,10,61001,1,3,434,297
1,9,24,1,3,1,C,F,b,y,10,10,61001,1,1,408,195
1,9,24,1,3,1,C,F,b,y,10,10,62001,1,3,443,139
1,9,24,1,3,1,C,F,b,y,10,10,62001,1,1,370,503
1,9,24,1,3,1,C,F,b,y,10,10,63001,1,3,575,246
1,9,24,1,3,1,C,F,b,y,10,10,63001,1,1,234,331
1,9,24,1,3,1,C,F,b,y,10,10,64001,1,1,618,140
1,9,24,1,3,1,C,F,b,y,10,10,64001,1,3,446,406
1,9,24,1,3,1,C,F,b,y,10,10,65001,1,1,386,359
1,9,24,1,3,1,C,F,b,y,10,10,65001,1,3,346,355
1,9,24,1,3,1,C,F,b,y,10,10,66001,1,1,481,135
1,9,24,1,3,1,C,F,b,y,10,10,66001,1,3,257,307
1,9,24,1,3,1,C,F,b,y,10,10,67001,1,3,269,338
1,9,24,1,3,1,C,F,b,y,10,10,68001,1,3,306,351
1,9,24,1,3,1,C,F,b,y,10,10,69001,1,3,353,417
1,9,24,1,3,1,C,F,b,y,10,10,72001,1,1,690,317
1,9,24,1,3,1,C,F,b,y,10,10,73001,1,1,631,330
1,9,24,1,3,1,C,F,b,y,10,10,74001,1,1,482,54
1,9,24,1,3,1,C,F,b,y,10,10,74001,1,1,532,467
1,9,24,1,3,1,C,F,b,y,10,10,75001,1,1,449,232
1,9,24,1,3,1,C,F,b,y,10,10,76001,1,1,434,90
1,9,24,1,3,1,C,F,b,y,10,10,76001,1,1,387,13
1,9,24,1,3,1,C,F,b,y,10,10,77001,1,1,196,217
1,9,24,1,3,1,C,F,b,y,10,10,77001,1,1,671,310
1,9,24,1,3,1,C,F,b,y,10,10,78001,1,1,159,417
1,9,24,1,3,1,C,F,b,y,10,10,78001,1,1,276,50
1,9,24,1,3,1,C,F,b,y,10,10,79001,1,1,420,12
1,9,24,1,3,1,C,F,b,y,10,10,81001,1,1,670,406
1,9,24,1,3,1,C,F,b,y,10,10,91001,1,1,353,209
1,9,24,1,3,1,C,F,b,y,10,10,92001,1,1,384,25
1,9,24,1,3,1,C,F,b,y,10,10,96001,1,3,427,127
1,9,24,1,3,1,C,F,b,y,10,10,97001,1,3,398,245
1,9,24,1,3,1,C,F,b,y,10,10,98001,1,3,390,534
1,9,24,1,3,1,C,F,b,y,10,10,99001,1,3,421,337
1,9,24,1,3,1,C,F,b,y,10,10,100001,1,3,392,167
1,9,24,1,3,1,C,F,b,y,10,10,101001,1,3,257,215
1,9,24,1,3,1,C,F,b,y,10,10,102001,1,3,418,411
1,9,24,1,3,1,C,F,b,y,10,10,103001,1,3,575,333
1,9,24,1,3,1,C,F,b,y,10,10,104001,1,3,553,173
1,9,24,1,3,1,C,F,b,y,10,10,105001,1,3,389,350
1,9,24,1,3,1,C,F,b,y,10,10,106001,1,3,260,342
1,9,24,1,3,1,C,F,b,y,10,10,107001,1,3,184,237
