dummy,month,day,period,view,station,fgeno,mgeno,fcol,mcol,nf,nm,frame,something,sex,x,y
1,6,20,3,1,2,B,F,r,g,10,10,1,1,1,152.8452,401.8133
1,6,20,3,1,2,B,F,r,g,10,10,1,1,3,334.4587,556.4099
1,6,20,3,1,2,B,F,r,g,10,10,1,1,3,573.1079,418.3236
1,6,20,3,1,2,B,F,r,g,10,10,1,1,1,627.1417,389.8058
1,6,20,3,1,2,B,F,r,g,10,10,1001,1,1,558.0985,406.3161
1,6,20,3,1,2,B,F,r,g,10,10,1001,1,3,576.1098,370.2936
1,6,20,3,1,2,B,F,r,g,10,10,1001,1,1,510.0685,344.7777
1,6,20,3,1,2,B,F,r,g,10,10,1001,1,1,411.0066,419.8246
1,6,20,3,1,2,B,F,r,g,10,10,1001,1,3,361.4756,434.834
1,6,20,3,1,2,B,F,r,g,10,10,1001,1,3,454.5338,518.8865
1,6,20,3,1,2,B,F,r,g,10,10,2001,1,3,448.53,527.8921
1,6,20,3,1,2,B,F,r,g,10,10,2001,1,1,418.5113,544.4024
1,6,20,3,1,2,B,F,r,g,10,10,2001,1,1,420.0122,493.3705
1,6,20,3,1,2,B,F,r,g,10,10,2001,1,3,302.939,340.2749
1,6,20,3,1,2,B,F,r,g,10,10,3001,1,3,352.47,443.8396
1,6,20,3,1,2,B,F,r,g,10,10,3001,1,3,463.5394,496.3724
1,6,20,3,1,2,B,F,r,g,10,10,3001,1,1,511.5694,346.2786
1,6,20,3,1,2,B,F,r,g,10,10,3001,1,3,553.5957,361.288
1,6,20,3,1,2,B,F,r,g,10,10,4001,1,3,499.5619,389.8058
1,6,20,3,1,2,B,F,r,g,10,10,4001,1,3,377.9859,499.3743
1,6,20,3,1,2,B,F,r,g,10,10,4001,1,1,526.5788,347.7795
1,6,20,3,1,2,B,F,r,g,10,10,4001,1,3,624.1398,298.2486
1,6,20,3,1,2,B,F,r,g,10,10,4001,1,1,480.0497,31.0816
1,6,20,3,1,2,B,F,r,g,10,10,5001,1,1,598.6238,337.273
1,6,20,3,1,2,B,F,r,g,10,10,5001,1,3,630.1435,356.7852
1,6,20,3,1,2,B,F,r,g,10,10,5001,1,1,612.1323,376.2974
1,6,20,3,1,2,B,F,r,g,10,10,5001,1,3,389.9934,502.3762
1,6,20,3,1,2,B,F,r,g,10,10,5001,1,3,331.4568,472.3574
1,6,20,3,1,2,B,F,r,g,10,10,6001,1,1,220.3874,391.3068
1,6,20,3,1,2,B,F,r,g,10,10,6001,1,3,202.3762,431.8321
1,6,20,3,1,2,B,F,r,g,10,10,6001,1,3,402.0009,511.3818
1,6,20,3,1,2,B,F,r,g,10,10,6001,1,3,634.6463,364.2899
1,6,20,3,1,2,B,F,r,g,10,10,7001,1,3,163.3518,230.7064
1,6,20,3,1,2,B,F,r,g,10,10,7001,1,3,398.9991,503.8771
1,6,20,3,1,2,B,F,r,g,10,10,7001,1,1,591.1191,329.7683
1,6,20,3,1,2,B,F,r,g,10,10,7001,1,3,541.5882,235.2092
1,6,20,3,1,2,B,F,r,g,10,10,8001,1,1,305.9409,134.6463
1,6,20,3,1,2,B,F,r,g,10,10,8001,1,3,389.9934,506.879
1,6,20,3,1,2,B,F,r,g,10,10,9001,1,1,414.0084,484.3649
1,6,20,3,1,2,B,F,r,g,10,10,9001,1,3,389.9934,508.3799
1,6,20,3,1,2,B,F,r,g,10,10,10001,1,1,481.5507,479.8621
1,6,20,3,1,2,B,F,r,g,10,10,10001,1,3,383.9897,520.3874
1,6,20,3,1,2,B,F,r,g,10,10,10001,1,1,146.8415,401.8133
1,6,20,3,1,2,B,F,r,g,10,10,11001,1,3,427.5169,469.3555
1,6,20,3,1,2,B,F,r,g,10,10,11001,1,1,436.5225,514.3837
1,6,20,3,1,2,B,F,r,g,10,10,12001,1,3,493.5582,404.8152
1,6,20,3,1,2,B,F,r,g,10,10,12001,1,1,487.5544,479.8621
1,6,20,3,1,2,B,F,r,g,10,10,12001,1,1,481.5507,514.3837
1,6,20,3,1,2,B,F,r,g,10,10,13001,1,3,552.0947,457.348
1,6,20,3,1,2,B,F,r,g,10,10,13001,1,1,573.1079,412.3199
1,6,20,3,1,2,B,F,r,g,10,10,13001,1,3,382.4887,329.7683
1,6,20,3,1,2,B,F,r,g,10,10,13001,1,1,409.5056,65.6032
1,6,20,3,1,2,B,F,r,g,10,10,14001,1,3,385.4906,346.2786
1,6,20,3,1,2,B,F,r,g,10,10,14001,1,1,313.4456,193.1829
1,6,20,3,1,2,B,F,r,g,10,10,14001,1,1,394.4962,553.4081
1,6,20,3,1,2,B,F,r,g,10,10,15001,1,1,405.0028,292.2448
1,6,20,3,1,2,B,F,r,g,10,10,15001,1,3,389.9934,338.7739
1,6,20,3,1,2,B,F,r,g,10,10,16001,1,3,382.4887,331.2692
1,6,20,3,1,2,B,F,r,g,10,10,16001,1,1,347.9672,83.6144
1,6,20,3,1,2,B,F,r,g,10,10,16001,1,1,627.1417,400.3124
1,6,20,3,1,2,B,F,r,g,10,10,17001,1,1,358.4737,286.2411
1,6,20,3,1,2,B,F,r,g,10,10,17001,1,3,334.4587,329.7683
1,6,20,3,1,2,B,F,r,g,10,10,18001,1,1,430.5188,359.7871
1,6,20,3,1,2,B,F,r,g,10,10,18001,1,1,459.0366,292.2448
1,6,20,3,1,2,B,F,r,g,10,10,18001,1,3,374.9841,335.772
1,6,20,3,1,2,B,F,r,g,10,10,19001,1,1,478.5488,313.258
1,6,20,3,1,2,B,F,r,g,10,10,19001,1,3,376.485,335.772
1,6,20,3,1,2,B,F,r,g,10,10,19001,1,1,323.9522,313.258
1,6,20,3,1,2,B,F,r,g,10,10,19001,1,1,167.8546,331.2692
1,6,20,3,1,2,B,F,r,g,10,10,20001,1,1,444.0272,395.8096
1,6,20,3,1,2,B,F,r,g,10,10,20001,1,3,377.9859,332.7702
1,6,20,3,1,2,B,F,r,g,10,10,20001,1,1,328.455,314.7589
1,6,20,3,1,2,B,F,r,g,10,10,21001,1,3,373.4831,332.7702
1,6,20,3,1,2,B,F,r,g,10,10,21001,1,1,349.4681,299.7495
1,6,20,3,1,2,B,F,r,g,10,10,21001,1,1,124.3274,190.1811
1,6,20,3,1,2,B,F,r,g,10,10,22001,1,1,400.5,370.2936
1,6,20,3,1,2,B,F,r,g,10,10,22001,1,3,382.4887,319.2617
1,6,20,3,1,2,B,F,r,g,10,10,23001,1,1,501.0629,433.333
1,6,20,3,1,2,B,F,r,g,10,10,23001,1,3,603.1266,416.8227
1,6,20,3,1,2,B,F,r,g,10,10,24001,1,3,612.1323,413.8208
1,6,20,3,1,2,B,F,r,g,10,10,24001,1,1,615.1341,356.7852
1,6,20,3,1,2,B,F,r,g,10,10,24001,1,3,646.6538,316.2598
1,6,20,3,1,2,B,F,r,g,10,10,25001,1,3,616.6351,313.258
1,6,20,3,1,2,B,F,r,g,10,10,25001,1,1,631.6445,260.7251
1,6,20,3,1,2,B,F,r,g,10,10,25001,1,3,600.1248,407.8171
1,6,20,3,1,2,B,F,r,g,10,10,26001,1,3,600.1248,340.2749
1,6,20,3,1,2,B,F,r,g,10,10,26001,1,3,598.6238,413.8208
1,6,20,3,1,2,B,F,r,g,10,10,26001,1,1,277.4231,332.7702
1,6,20,3,1,2,B,F,r,g,10,10,26001,1,1,496.56,59.5994
1,6,20,3,1,2,B,F,r,g,10,10,27001,1,3,633.1454,272.7326
1,6,20,3,1,2,B,F,r,g,10,10,27001,1,1,631.6445,295.2467
1,6,20,3,1,2,B,F,r,g,10,10,27001,1,3,594.121,397.3105
1,6,20,3,1,2,B,F,r,g,10,10,28001,1,1,576.1098,287.742
1,6,20,3,1,2,B,F,r,g,10,10,28001,1,3,627.1417,286.2411
1,6,20,3,1,2,B,F,r,g,10,10,28001,1,3,598.6238,397.3105
1,6,20,3,1,2,B,F,r,g,10,10,29001,1,1,585.1154,295.2467
1,6,20,3,1,2,B,F,r,g,10,10,29001,1,1,604.6276,256.2223
1,6,20,3,1,2,B,F,r,g,10,10,29001,1,3,648.1548,286.2411
1,6,20,3,1,2,B,F,r,g,10,10,29001,1,3,604.6276,409.318
1,6,20,3,1,2,B,F,r,g,10,10,30001,1,3,633.1454,374.7964
1,6,20,3,1,2,B,F,r,g,10,10,30001,1,1,618.136,322.2636
1,6,20,3,1,2,B,F,r,g,10,10,30001,1,3,600.1248,398.8114
1,6,20,3,1,2,B,F,r,g,10,10,30001,1,1,181.363,358.2861
1,6,20,3,1,2,B,F,r,g,10,10,31001,1,3,601.6257,404.8152
1,6,20,3,1,2,B,F,r,g,10,10,31001,1,3,639.1492,301.2505
1,6,20,3,1,2,B,F,r,g,10,10,31001,1,1,196.3724,484.3649
1,6,20,3,1,2,B,F,r,g,10,10,31001,1,1,158.849,443.8396
1,6,20,3,1,2,B,F,r,g,10,10,32001,1,3,600.1248,401.8133
1,6,20,3,1,2,B,F,r,g,10,10,32001,1,3,648.1548,287.742
1,6,20,3,1,2,B,F,r,g,10,10,33001,1,3,607.6295,404.8152
1,6,20,3,1,2,B,F,r,g,10,10,33001,1,3,618.136,338.7739
1,6,20,3,1,2,B,F,r,g,10,10,33001,1,1,633.1454,295.2467
1,6,20,3,1,2,B,F,r,g,10,10,34001,1,3,630.1435,376.2974
1,6,20,3,1,2,B,F,r,g,10,10,34001,1,3,639.1492,314.7589
1,6,20,3,1,2,B,F,r,g,10,10,34001,1,1,447.0291,521.8884
1,6,20,3,1,2,B,F,r,g,10,10,35001,1,3,612.1323,394.3086
1,6,20,3,1,2,B,F,r,g,10,10,35001,1,3,640.6501,308.7552
1,6,20,3,1,2,B,F,r,g,10,10,35001,1,1,128.8302,389.8058
1,6,20,3,1,2,B,F,r,g,10,10,36001,1,3,600.1248,401.8133
1,6,20,3,1,2,B,F,r,g,10,10,36001,1,1,630.1435,310.2561
1,6,20,3,1,2,B,F,r,g,10,10,36001,1,3,645.1529,262.2261
1,6,20,3,1,2,B,F,r,g,10,10,37001,1,1,615.1341,254.7214
1,6,20,3,1,2,B,F,r,g,10,10,37001,1,3,624.1398,316.2598
1,6,20,3,1,2,B,F,r,g,10,10,37001,1,3,606.1285,385.303
1,6,20,3,1,2,B,F,r,g,10,10,38001,1,1,567.1041,329.7683
1,6,20,3,1,2,B,F,r,g,10,10,38001,1,3,630.1435,325.2655
1,6,20,3,1,2,B,F,r,g,10,10,38001,1,3,598.6238,394.3086
1,6,20,3,1,2,B,F,r,g,10,10,39001,1,1,531.0816,382.3011
1,6,20,3,1,2,B,F,r,g,10,10,39001,1,3,589.6182,374.7964
1,6,20,3,1,2,B,F,r,g,10,10,39001,1,3,607.6295,400.3124
1,6,20,3,1,2,B,F,r,g,10,10,39001,1,1,610.6313,325.2655
1,6,20,3,1,2,B,F,r,g,10,10,40001,1,3,579.1116,416.8227
1,6,20,3,1,2,B,F,r,g,10,10,40001,1,3,597.1229,427.3293
1,6,20,3,1,2,B,F,r,g,10,10,41001,1,3,576.1098,350.7814
1,6,20,3,1,2,B,F,r,g,10,10,41001,1,3,618.136,404.8152
1,6,20,3,1,2,B,F,r,g,10,10,41001,1,1,541.5882,194.6839
1,6,20,3,1,2,B,F,r,g,10,10,41001,1,1,176.8602,256.2223
1,6,20,3,1,2,B,F,r,g,10,10,42001,1,3,583.6144,407.8171
1,6,20,3,1,2,B,F,r,g,10,10,42001,1,3,571.6069,359.7871
1,6,20,3,1,2,B,F,r,g,10,10,42001,1,1,586.6163,331.2692
1,6,20,3,1,2,B,F,r,g,10,10,43001,1,3,588.1173,368.7927
1,6,20,3,1,2,B,F,r,g,10,10,43001,1,1,574.6088,308.7552
1,6,20,3,1,2,B,F,r,g,10,10,43001,1,3,368.9803,170.6689
1,6,20,3,1,2,B,F,r,g,10,10,44001,1,3,601.6257,404.8152
1,6,20,3,1,2,B,F,r,g,10,10,44001,1,3,493.5582,518.8865
1,6,20,3,1,2,B,F,r,g,10,10,44001,1,1,317.9484,31.0816
1,6,20,3,1,2,B,F,r,g,10,10,45001,1,3,615.1341,395.8096
1,6,20,3,1,2,B,F,r,g,10,10,45001,1,1,591.1191,412.3199
1,6,20,3,1,2,B,F,r,g,10,10,45001,1,3,471.0441,218.6989
1,6,20,3,1,2,B,F,r,g,10,10,45001,1,1,178.3612,461.8508
1,6,20,3,1,2,B,F,r,g,10,10,46001,1,3,619.637,416.8227
1,6,20,3,1,2,B,F,r,g,10,10,46001,1,1,624.1398,355.2842
1,6,20,3,1,2,B,F,r,g,10,10,46001,1,3,290.9315,539.8996
1,6,20,3,1,2,B,F,r,g,10,10,47001,1,3,546.091,395.8096
1,6,20,3,1,2,B,F,r,g,10,10,47001,1,1,573.1079,416.8227
1,6,20,3,1,2,B,F,r,g,10,10,47001,1,3,616.6351,409.318
1,6,20,3,1,2,B,F,r,g,10,10,48001,1,3,640.6501,382.3011
1,6,20,3,1,2,B,F,r,g,10,10,48001,1,3,480.0497,230.7064
1,6,20,3,1,2,B,F,r,g,10,10,48001,1,1,514.5713,208.1923
1,6,20,3,1,2,B,F,r,g,10,10,49001,1,3,481.5507,305.7533
1,6,20,3,1,2,B,F,r,g,10,10,49001,1,3,624.1398,353.7833
1,6,20,3,1,2,B,F,r,g,10,10,49001,1,1,350.969,31.0816
1,6,20,3,1,2,B,F,r,g,10,10,50001,1,3,610.6313,394.3086
1,6,20,3,1,2,B,F,r,g,10,10,50001,1,3,389.9934,211.1942
1,6,20,3,1,2,B,F,r,g,10,10,50001,1,1,445.5281,50.5938
1,6,20,3,1,2,B,F,r,g,10,10,51001,1,3,486.0535,100.1248
1,6,20,3,1,2,B,F,r,g,10,10,51001,1,1,316.4475,215.697
1,6,20,3,1,2,B,F,r,g,10,10,51001,1,3,607.6295,392.8077
1,6,20,3,1,2,B,F,r,g,10,10,52001,1,1,429.0178,317.7608
1,6,20,3,1,2,B,F,r,g,10,10,52001,1,3,374.9841,329.7683
1,6,20,3,1,2,B,F,r,g,10,10,52001,1,1,244.4024,125.6407
1,6,20,3,1,2,B,F,r,g,10,10,52001,1,3,610.6313,389.8058
1,6,20,3,1,2,B,F,r,g,10,10,53001,1,3,612.1323,403.3143
1,6,20,3,1,2,B,F,r,g,10,10,53001,1,3,374.9841,556.4099
1,6,20,3,1,2,B,F,r,g,10,10,53001,1,1,97.3105,281.7383
1,6,20,3,1,2,B,F,r,g,10,10,54001,1,3,580.6126,404.8152
1,6,20,3,1,2,B,F,r,g,10,10,54001,1,3,526.5788,398.8114
1,6,20,3,1,2,B,F,r,g,10,10,54001,1,1,555.0966,439.3368
1,6,20,3,1,2,B,F,r,g,10,10,55001,1,1,601.6257,374.7964
1,6,20,3,1,2,B,F,r,g,10,10,55001,1,1,571.6069,358.2861
1,6,20,3,1,2,B,F,r,g,10,10,55001,1,3,636.1473,350.7814
1,6,20,3,1,2,B,F,r,g,10,10,55001,1,3,163.3518,190.1811
1,6,20,3,1,2,B,F,r,g,10,10,56001,1,3,607.6295,416.8227
1,6,20,3,1,2,B,F,r,g,10,10,56001,1,3,567.1041,434.834
1,6,20,3,1,2,B,F,r,g,10,10,56001,1,1,609.1304,377.7983
1,6,20,3,1,2,B,F,r,g,10,10,57001,1,3,598.6238,401.8133
1,6,20,3,1,2,B,F,r,g,10,10,57001,1,3,583.6144,428.8302
1,6,20,3,1,2,B,F,r,g,10,10,57001,1,1,523.5769,436.3349
1,6,20,3,1,2,B,F,r,g,10,10,58001,1,3,598.6238,373.2955
1,6,20,3,1,2,B,F,r,g,10,10,58001,1,3,633.1454,335.772
1,6,20,3,1,2,B,F,r,g,10,10,58001,1,1,594.121,326.7664
1,6,20,3,1,2,B,F,r,g,10,10,59001,1,3,567.1041,361.288
1,6,20,3,1,2,B,F,r,g,10,10,59001,1,3,558.0985,433.333
1,6,20,3,1,2,B,F,r,g,10,10,59001,1,1,615.1341,361.288
1,6,20,3,1,2,B,F,r,g,10,10,59001,1,1,405.0028,38.5863
1,6,20,3,1,2,B,F,r,g,10,10,60001,1,3,592.6201,356.7852
1,6,20,3,1,2,B,F,r,g,10,10,60001,1,1,436.5225,268.2298
1,6,20,3,1,2,B,F,r,g,10,10,60001,1,3,386.9916,487.3668
1,6,20,3,1,2,B,F,r,g,10,10,61001,1,1,472.545,532.3949
1,6,20,3,1,2,B,F,r,g,10,10,61001,1,3,492.0572,524.8902
1,6,20,3,1,2,B,F,r,g,10,10,61001,1,3,586.6163,215.697
1,6,20,3,1,2,B,F,r,g,10,10,62001,1,3,525.0779,514.3837
1,6,20,3,1,2,B,F,r,g,10,10,62001,1,1,483.0516,529.3931
1,6,20,3,1,2,B,F,r,g,10,10,62001,1,1,510.0685,442.3386
1,6,20,3,1,2,B,F,r,g,10,10,62001,1,3,513.0704,233.7083
1,6,20,3,1,2,B,F,r,g,10,10,62001,1,1,326.954,221.7008
1,6,20,3,1,2,B,F,r,g,10,10,62001,1,1,143.8396,118.136
1,6,20,3,1,2,B,F,r,g,10,10,63001,1,3,290.9315,119.637
1,6,20,3,1,2,B,F,r,g,10,10,63001,1,1,314.9465,71.6069
1,6,20,3,1,2,B,F,r,g,10,10,64001,1,3,286.4287,121.1379
1,6,20,3,1,2,B,F,r,g,10,10,64001,1,1,242.9015,41.5882
1,6,20,3,1,2,B,F,r,g,10,10,64001,1,1,622.6388,371.7946
1,6,20,3,1,2,B,F,r,g,10,10,64001,1,3,568.6051,430.3311
1,6,20,3,1,2,B,F,r,g,10,10,65001,1,3,436.5225,559.4118
1,6,20,3,1,2,B,F,r,g,10,10,65001,1,1,460.5375,523.3893
1,6,20,3,1,2,B,F,r,g,10,10,65001,1,1,484.5525,139.1492
1,6,20,3,1,2,B,F,r,g,10,10,65001,1,3,417.0103,20.575
1,6,20,3,1,2,B,F,r,g,10,10,66001,1,3,412.5075,44.5901
1,6,20,3,1,2,B,F,r,g,10,10,67001,1,3,414.0084,55.0966
1,6,20,3,1,2,B,F,r,g,10,10,67001,1,1,525.0779,451.3443
1,6,20,3,1,2,B,F,r,g,10,10,68001,1,3,444.0272,182.6764
1,6,20,3,1,2,B,F,r,g,10,10,69001,1,3,436.5225,227.7045
1,6,20,3,1,2,B,F,r,g,10,10,69001,1,3,301.4381,49.0929
1,6,20,3,1,2,B,F,r,g,10,10,69001,1,1,307.4418,31.0816
1,6,20,3,1,2,B,F,r,g,10,10,70001,1,3,513.0704,329.7683
1,6,20,3,1,2,B,F,r,g,10,10,70001,1,1,630.1435,314.7589
1,6,20,3,1,2,B,F,r,g,10,10,70001,1,3,639.1492,344.7777
1,6,20,3,1,2,B,F,r,g,10,10,71001,1,3,501.0629,382.3011
1,6,20,3,1,2,B,F,r,g,10,10,71001,1,1,552.0947,251.7195
1,6,20,3,1,2,B,F,r,g,10,10,71001,1,1,589.6182,278.7364
1,6,20,3,1,2,B,F,r,g,10,10,71001,1,3,546.091,503.8771
1,6,20,3,1,2,B,F,r,g,10,10,72001,1,3,412.5075,550.4062
1,6,20,3,1,2,B,F,r,g,10,10,72001,1,1,364.4775,574.4212
1,6,20,3,1,2,B,F,r,g,10,10,72001,1,1,426.0159,508.3799
1,6,20,3,1,2,B,F,r,g,10,10,72001,1,3,487.5544,281.7383
1,6,20,3,1,2,B,F,r,g,10,10,73001,1,3,406.5038,256.2223
1,6,20,3,1,2,B,F,r,g,10,10,73001,1,3,362.9765,43.0891
1,6,20,3,1,2,B,F,r,g,10,10,73001,1,1,304.44,37.0854
1,6,20,3,1,2,B,F,r,g,10,10,74001,1,3,380.9878,331.2692
1,6,20,3,1,2,B,F,r,g,10,10,74001,1,1,463.5394,274.2336
1,6,20,3,1,2,B,F,r,g,10,10,74001,1,1,558.0985,308.7552
1,6,20,3,1,2,B,F,r,g,10,10,74001,1,3,577.6107,341.7758
1,6,20,3,1,2,B,F,r,g,10,10,75001,1,3,648.1548,370.2936
1,6,20,3,1,2,B,F,r,g,10,10,75001,1,1,616.6351,352.2824
1,6,20,3,1,2,B,F,r,g,10,10,75001,1,3,382.4887,331.2692
1,6,20,3,1,2,B,F,r,g,10,10,75001,1,1,242.9015,449.8433
1,6,20,3,1,2,B,F,r,g,10,10,76001,1,3,374.9841,334.2711
1,6,20,3,1,2,B,F,r,g,10,10,76001,1,1,400.5,335.772
1,6,20,3,1,2,B,F,r,g,10,10,76001,1,1,432.0197,347.7795
1,6,20,3,1,2,B,F,r,g,10,10,77001,1,3,385.4906,326.7664
1,6,20,3,1,2,B,F,r,g,10,10,77001,1,1,405.0028,301.2505
1,6,20,3,1,2,B,F,r,g,10,10,78001,1,3,380.9878,337.273
1,6,20,3,1,2,B,F,r,g,10,10,78001,1,1,406.5038,313.258
1,6,20,3,1,2,B,F,r,g,10,10,79001,1,3,391.4944,334.2711
1,6,20,3,1,2,B,F,r,g,10,10,79001,1,1,409.5056,295.2467
1,6,20,3,1,2,B,F,r,g,10,10,79001,1,1,247.4043,26.5788
1,6,20,3,1,2,B,F,r,g,10,10,80001,1,1,382.4887,302.7514
1,6,20,3,1,2,B,F,r,g,10,10,80001,1,3,386.9916,338.7739
1,6,20,3,1,2,B,F,r,g,10,10,80001,1,1,577.6107,133.1454
1,6,20,3,1,2,B,F,r,g,10,10,81001,1,3,377.9859,334.2711
1,6,20,3,1,2,B,F,r,g,10,10,81001,1,1,463.5394,550.4062
1,6,20,3,1,2,B,F,r,g,10,10,82001,1,3,389.9934,343.2767
1,6,20,3,1,2,B,F,r,g,10,10,82001,1,1,332.9578,349.2805
1,6,20,3,1,2,B,F,r,g,10,10,83001,1,3,389.9934,335.772
1,6,20,3,1,2,B,F,r,g,10,10,83001,1,1,304.44,545.9034
1,6,20,3,1,2,B,F,r,g,10,10,83001,1,1,322.4512,565.4156
1,6,20,3,1,2,B,F,r,g,10,10,84001,1,3,382.4887,338.7739
1,6,20,3,1,2,B,F,r,g,10,10,84001,1,1,537.0854,349.2805
1,6,20,3,1,2,B,F,r,g,10,10,84001,1,1,175.3593,110.6313
1,6,20,3,1,2,B,F,r,g,10,10,85001,1,1,403.5019,254.7214
1,6,20,3,1,2,B,F,r,g,10,10,85001,1,3,385.4906,332.7702
1,6,20,3,1,2,B,F,r,g,10,10,86001,1,3,386.9916,344.7777
1,6,20,3,1,2,B,F,r,g,10,10,86001,1,1,474.046,554.909
1,6,20,3,1,2,B,F,r,g,10,10,87001,1,3,380.9878,337.273
1,6,20,3,1,2,B,F,r,g,10,10,87001,1,1,454.5338,566.9165
1,6,20,3,1,2,B,F,r,g,10,10,88001,1,1,444.0272,554.909
1,6,20,3,1,2,B,F,r,g,10,10,88001,1,3,377.9859,332.7702
1,6,20,3,1,2,B,F,r,g,10,10,89001,1,3,380.9878,331.2692
1,6,20,3,1,2,B,F,r,g,10,10,89001,1,1,589.6182,205.1904
1,6,20,3,1,2,B,F,r,g,10,10,90001,1,3,382.4887,329.7683
1,6,20,3,1,2,B,F,r,g,10,10,90001,1,1,459.0366,115.1341
1,6,20,3,1,2,B,F,r,g,10,10,91001,1,3,371.9822,329.7683
1,6,20,3,1,2,B,F,r,g,10,10,91001,1,1,462.0385,556.4099
1,6,20,3,1,2,B,F,r,g,10,10,92001,1,3,367.4794,314.7589
1,6,20,3,1,2,B,F,r,g,10,10,92001,1,1,453.0328,557.9109
1,6,20,3,1,2,B,F,r,g,10,10,93001,1,3,405.0028,325.2655
1,6,20,3,1,2,B,F,r,g,10,10,93001,1,1,435.0216,565.4156
1,6,20,3,1,2,B,F,r,g,10,10,94001,1,3,398.9991,233.7083
1,6,20,3,1,2,B,F,r,g,10,10,94001,1,1,612.1323,190.1811
1,6,20,3,1,2,B,F,r,g,10,10,95001,1,3,433.5206,562.4137
1,6,20,3,1,2,B,F,r,g,10,10,95001,1,1,122.8265,410.8189
1,6,20,3,1,2,B,F,r,g,10,10,96001,1,1,395.9972,515.8846
1,6,20,3,1,2,B,F,r,g,10,10,96001,1,3,420.0122,566.9165
1,6,20,3,1,2,B,F,r,g,10,10,97001,1,3,429.0178,575.9221
1,6,20,3,1,2,B,F,r,g,10,10,97001,1,1,594.121,167.667
1,6,20,3,1,2,B,F,r,g,10,10,98001,1,3,423.0141,557.9109
1,6,20,3,1,2,B,F,r,g,10,10,99001,1,3,427.5169,560.9128
1,6,20,3,1,2,B,F,r,g,10,10,100001,1,3,427.5169,554.909
1,6,20,3,1,2,B,F,r,g,10,10,100001,1,1,462.0385,538.3987
1,6,20,3,1,2,B,F,r,g,10,10,101001,1,3,442.5263,560.9128
1,6,20,3,1,2,B,F,r,g,10,10,101001,1,1,582.1135,346.2786
1,6,20,3,1,2,B,F,r,g,10,10,102001,1,3,426.0159,562.4137
1,6,20,3,1,2,B,F,r,g,10,10,102001,1,1,504.0647,295.2467
1,6,20,3,1,2,B,F,r,g,10,10,103001,1,1,417.0103,481.363
1,6,20,3,1,2,B,F,r,g,10,10,103001,1,3,423.0141,563.9146
1,6,20,3,1,2,B,F,r,g,10,10,104001,1,1,377.9859,559.4118
1,6,20,3,1,2,B,F,r,g,10,10,104001,1,3,424.515,569.9184
1,6,20,3,1,2,B,F,r,g,10,10,105001,1,3,432.0197,562.4137
1,6,20,3,1,2,B,F,r,g,10,10,105001,1,1,591.1191,133.1454
1,6,20,3,1,2,B,F,r,g,10,10,106001,1,1,453.0328,367.2917
1,6,20,3,1,2,B,F,r,g,10,10,106001,1,3,429.0178,565.4156
1,6,20,3,1,2,B,F,r,g,10,10,107001,1,3,426.0159,562.4137
1,6,20,3,1,2,B,F,r,g,10,10,107001,1,1,311.9447,98.6238
