dummy,month,day,period,view,station,fgeno,mgeno,fcol,mcol,nf,nm,frame,something,sex,x,y
1,6,17,1,1,2,B,G,b,y,10,10,1,1,1,268.4174,205.1904
1,6,17,1,1,2,B,G,b,y,10,10,1,1,1,403.5019,245.7158
1,6,17,1,1,2,B,G,b,y,10,10,1,1,1,408.0047,145.1529
1,6,17,1,1,2,B,G,b,y,10,10,1,1,1,459.0366,89.6182
1,6,17,1,1,2,B,G,b,y,10,10,1,1,1,331.4568,439.3368
1,6,17,1,1,2,B,G,b,y,10,10,1,1,3,537.0854,437.8358
1,6,17,1,1,2,B,G,b,y,10,10,1,1,3,571.6069,331.2692
1,6,17,1,1,2,B,G,b,y,10,10,1,1,3,633.1454,205.1904
1,6,17,1,1,2,B,G,b,y,10,10,1001,1,1,271.4193,206.6914
1,6,17,1,1,2,B,G,b,y,10,10,1001,1,1,299.9371,154.1585
1,6,17,1,1,2,B,G,b,y,10,10,1001,1,1,326.954,347.7795
1,6,17,1,1,2,B,G,b,y,10,10,1001,1,3,480.0497,364.2899
1,6,17,1,1,2,B,G,b,y,10,10,1001,1,1,513.0704,331.2692
1,6,17,1,1,2,B,G,b,y,10,10,1001,1,1,591.1191,196.1848
1,6,17,1,1,2,B,G,b,y,10,10,1001,1,3,493.5582,127.1417
1,6,17,1,1,2,B,G,b,y,10,10,1001,1,3,510.0685,511.3818
1,6,17,1,1,2,B,G,b,y,10,10,2001,1,1,477.0478,332.7702
1,6,17,1,1,2,B,G,b,y,10,10,2001,1,1,529.5807,229.2054
1,6,17,1,1,2,B,G,b,y,10,10,2001,1,3,435.0216,68.6051
1,6,17,1,1,2,B,G,b,y,10,10,2001,1,1,284.9278,473.8583
1,6,17,1,1,2,B,G,b,y,10,10,2001,1,3,257.9109,523.3893
1,6,17,1,1,2,B,G,b,y,10,10,2001,1,1,432.0197,568.4174
1,6,17,1,1,2,B,G,b,y,10,10,2001,1,3,445.5281,530.894
1,6,17,1,1,2,B,G,b,y,10,10,3001,1,3,280.425,221.7008
1,6,17,1,1,2,B,G,b,y,10,10,3001,1,1,353.9709,277.2355
1,6,17,1,1,2,B,G,b,y,10,10,3001,1,3,134.834,320.7627
1,6,17,1,1,2,B,G,b,y,10,10,3001,1,3,359.9747,521.8884
1,6,17,1,1,2,B,G,b,y,10,10,3001,1,1,377.9859,484.3649
1,6,17,1,1,2,B,G,b,y,10,10,3001,1,1,477.0478,181.1754
1,6,17,1,1,2,B,G,b,y,10,10,3001,1,1,556.5976,245.7158
1,6,17,1,1,2,B,G,b,y,10,10,3001,1,1,633.1454,170.6689
1,6,17,1,1,2,B,G,b,y,10,10,4001,1,3,167.8546,172.1698
1,6,17,1,1,2,B,G,b,y,10,10,4001,1,3,250.4062,218.6989
1,6,17,1,1,2,B,G,b,y,10,10,4001,1,1,214.3837,311.757
1,6,17,1,1,2,B,G,b,y,10,10,4001,1,1,601.6257,268.2298
1,6,17,1,1,2,B,G,b,y,10,10,4001,1,1,634.6463,160.1623
1,6,17,1,1,2,B,G,b,y,10,10,5001,1,3,253.4081,421.3255
1,6,17,1,1,2,B,G,b,y,10,10,5001,1,1,501.0629,254.7214
1,6,17,1,1,2,B,G,b,y,10,10,5001,1,1,615.1341,232.2073
1,6,17,1,1,2,B,G,b,y,10,10,5001,1,1,658.6614,286.2411
1,6,17,1,1,2,B,G,b,y,10,10,5001,1,1,411.0066,73.1079
1,6,17,1,1,2,B,G,b,y,10,10,5001,1,3,438.0235,49.0929
1,6,17,1,1,2,B,G,b,y,10,10,6001,1,1,196.3724,397.3105
1,6,17,1,1,2,B,G,b,y,10,10,6001,1,1,232.3949,440.8377
1,6,17,1,1,2,B,G,b,y,10,10,6001,1,3,457.5356,386.8039
1,6,17,1,1,2,B,G,b,y,10,10,6001,1,3,489.0553,227.7045
1,6,17,1,1,2,B,G,b,y,10,10,6001,1,1,537.0854,220.1998
1,6,17,1,1,2,B,G,b,y,10,10,7001,1,1,310.4437,196.1848
1,6,17,1,1,2,B,G,b,y,10,10,7001,1,1,299.9371,92.6201
1,6,17,1,1,2,B,G,b,y,10,10,7001,1,3,230.894,169.1679
1,6,17,1,1,2,B,G,b,y,10,10,7001,1,3,510.0685,343.2767
1,6,17,1,1,2,B,G,b,y,10,10,8001,1,1,386.9916,152.6576
1,6,17,1,1,2,B,G,b,y,10,10,8001,1,3,125.8283,307.2542
1,6,17,1,1,2,B,G,b,y,10,10,8001,1,3,522.076,530.894
1,6,17,1,1,2,B,G,b,y,10,10,9001,1,3,322.4512,275.7345
1,6,17,1,1,2,B,G,b,y,10,10,9001,1,3,382.4887,527.8921
1,6,17,1,1,2,B,G,b,y,10,10,9001,1,1,531.0816,251.7195
1,6,17,1,1,2,B,G,b,y,10,10,10001,1,3,374.9841,307.2542
1,6,17,1,1,2,B,G,b,y,10,10,10001,1,3,187.3668,406.3161
1,6,17,1,1,2,B,G,b,y,10,10,10001,1,1,489.0553,377.7983
1,6,17,1,1,2,B,G,b,y,10,10,10001,1,1,528.0797,377.7983
1,6,17,1,1,2,B,G,b,y,10,10,11001,1,3,356.9728,166.166
1,6,17,1,1,2,B,G,b,y,10,10,11001,1,1,418.5113,512.8827
1,6,17,1,1,2,B,G,b,y,10,10,11001,1,3,639.1492,355.2842
1,6,17,1,1,2,B,G,b,y,10,10,12001,1,3,454.5338,272.7326
1,6,17,1,1,2,B,G,b,y,10,10,12001,1,3,417.0103,386.8039
1,6,17,1,1,2,B,G,b,y,10,10,12001,1,1,290.9315,497.8734
1,6,17,1,1,2,B,G,b,y,10,10,12001,1,1,275.9221,542.9015
1,6,17,1,1,2,B,G,b,y,10,10,13001,1,1,229.3931,437.8358
1,6,17,1,1,2,B,G,b,y,10,10,13001,1,1,400.5,157.1604
1,6,17,1,1,2,B,G,b,y,10,10,13001,1,1,323.9522,80.6126
1,6,17,1,1,2,B,G,b,y,10,10,13001,1,3,585.1154,133.1454
1,6,17,1,1,2,B,G,b,y,10,10,13001,1,3,630.1435,416.8227
1,6,17,1,1,2,B,G,b,y,10,10,14001,1,1,395.9972,161.6632
1,6,17,1,1,2,B,G,b,y,10,10,14001,1,3,400.5,113.6332
1,6,17,1,1,2,B,G,b,y,10,10,14001,1,1,203.8771,158.6614
1,6,17,1,1,2,B,G,b,y,10,10,14001,1,3,535.5844,355.2842
1,6,17,1,1,2,B,G,b,y,10,10,15001,1,3,400.5,212.6951
1,6,17,1,1,2,B,G,b,y,10,10,15001,1,1,400.5,473.8583
1,6,17,1,1,2,B,G,b,y,10,10,15001,1,3,157.348,392.8077
1,6,17,1,1,2,B,G,b,y,10,10,16001,1,3,215.8846,485.8659
1,6,17,1,1,2,B,G,b,y,10,10,16001,1,1,257.9109,484.3649
1,6,17,1,1,2,B,G,b,y,10,10,16001,1,1,200.8752,413.8208
1,6,17,1,1,2,B,G,b,y,10,10,16001,1,3,182.864,143.652
1,6,17,1,1,2,B,G,b,y,10,10,17001,1,1,298.4362,331.2692
1,6,17,1,1,2,B,G,b,y,10,10,17001,1,3,230.894,497.8734
1,6,17,1,1,2,B,G,b,y,10,10,17001,1,3,160.3499,230.7064
1,6,17,1,1,2,B,G,b,y,10,10,18001,1,1,295.4343,509.8809
1,6,17,1,1,2,B,G,b,y,10,10,18001,1,3,314.9465,466.3537
1,6,17,1,1,2,B,G,b,y,10,10,19001,1,1,299.9371,469.3555
1,6,17,1,1,2,B,G,b,y,10,10,19001,1,3,326.954,439.3368
1,6,17,1,1,2,B,G,b,y,10,10,20001,1,1,435.0216,289.243
1,6,17,1,1,2,B,G,b,y,10,10,20001,1,3,469.5432,260.7251
1,6,17,1,1,2,B,G,b,y,10,10,20001,1,3,411.0066,157.1604
1,6,17,1,1,2,B,G,b,y,10,10,20001,1,1,502.5638,83.6144
1,6,17,1,1,2,B,G,b,y,10,10,21001,1,3,241.4006,224.7026
1,6,17,1,1,2,B,G,b,y,10,10,21001,1,1,247.4043,164.6651
1,6,17,1,1,2,B,G,b,y,10,10,21001,1,1,618.136,275.7345
1,6,17,1,1,2,B,G,b,y,10,10,23001,1,1,436.5225,166.166
1,6,17,1,1,2,B,G,b,y,10,10,23001,1,3,480.0497,184.1773
1,6,17,1,1,2,B,G,b,y,10,10,24001,1,1,664.6651,193.1829
1,6,17,1,1,2,B,G,b,y,10,10,25001,1,1,166.3537,431.8321
1,6,17,1,1,2,B,G,b,y,10,10,27001,1,1,146.8415,245.7158
1,6,17,1,1,2,B,G,b,y,10,10,28001,1,1,549.0929,109.1304
1,6,17,1,1,2,B,G,b,y,10,10,29001,1,1,463.5394,554.909
1,6,17,1,1,2,B,G,b,y,10,10,30001,1,1,652.6576,247.2167
1,6,17,1,1,2,B,G,b,y,10,10,30001,1,1,661.6632,277.2355
1,6,17,1,1,2,B,G,b,y,10,10,31001,1,1,648.1548,190.1811
1,6,17,1,1,2,B,G,b,y,10,10,33001,1,1,460.5375,433.333
1,6,17,1,1,2,B,G,b,y,10,10,34001,1,1,295.4343,100.1248
1,6,17,1,1,2,B,G,b,y,10,10,35001,1,1,331.4568,409.318
1,6,17,1,1,2,B,G,b,y,10,10,36001,1,1,343.4644,485.8659
1,6,17,1,1,2,B,G,b,y,10,10,37001,1,1,383.9897,580.425
1,6,17,1,1,2,B,G,b,y,10,10,39001,1,1,350.969,533.8959
1,6,17,1,1,2,B,G,b,y,10,10,40001,1,1,352.47,533.8959
1,6,17,1,1,2,B,G,b,y,10,10,41001,1,1,268.4174,92.6201
1,6,17,1,1,2,B,G,b,y,10,10,42001,1,1,296.9353,284.7402
1,6,17,1,1,2,B,G,b,y,10,10,43001,1,3,254.909,157.1604
1,6,17,1,1,2,B,G,b,y,10,10,43001,1,1,672.1698,343.2767
1,6,17,1,1,2,B,G,b,y,10,10,44001,1,3,523.5769,362.7889
1,6,17,1,1,2,B,G,b,y,10,10,45001,1,1,607.6295,329.7683
1,6,17,1,1,2,B,G,b,y,10,10,46001,1,1,510.0685,379.2992
1,6,17,1,1,2,B,G,b,y,10,10,47001,1,1,508.5675,518.8865
1,6,17,1,1,2,B,G,b,y,10,10,48001,1,1,398.9991,533.8959
1,6,17,1,1,2,B,G,b,y,10,10,49001,1,1,251.9071,161.6632
1,6,17,1,1,2,B,G,b,y,10,10,50001,1,1,259.4118,163.1642
1,6,17,1,1,2,B,G,b,y,10,10,51001,1,1,158.849,178.1735
1,6,17,1,1,2,B,G,b,y,10,10,51001,1,1,254.909,430.3311
1,6,17,1,1,2,B,G,b,y,10,10,52001,1,1,205.378,136.1473
1,6,17,1,1,2,B,G,b,y,10,10,53001,1,1,166.3537,271.2317
1,6,17,1,1,2,B,G,b,y,10,10,54001,1,1,208.3799,490.3687
1,6,17,1,1,2,B,G,b,y,10,10,55001,1,1,275.9221,523.3893
1,6,17,1,1,2,B,G,b,y,10,10,56001,1,1,397.4981,422.8265
1,6,17,1,1,2,B,G,b,y,10,10,57001,1,1,448.53,368.7927
1,6,17,1,1,2,B,G,b,y,10,10,58001,1,1,322.4512,271.2317
1,6,17,1,1,2,B,G,b,y,10,10,58001,1,1,283.4268,269.7308
1,6,17,1,1,2,B,G,b,y,10,10,59001,1,1,328.455,130.1435
1,6,17,1,1,2,B,G,b,y,10,10,60001,1,1,386.9916,160.1623
1,6,17,1,1,2,B,G,b,y,10,10,61001,1,1,468.0422,137.6482
1,6,17,1,1,2,B,G,b,y,10,10,62001,1,1,142.3386,248.7176
1,6,17,1,1,2,B,G,b,y,10,10,62001,1,1,182.864,272.7326
1,6,17,1,1,2,B,G,b,y,10,10,63001,1,1,642.151,382.3011
1,6,17,1,1,2,B,G,b,y,10,10,63001,1,1,684.1773,365.7908
1,6,17,1,1,2,B,G,b,y,10,10,64001,1,1,520.575,361.288
1,6,17,1,1,2,B,G,b,y,10,10,64001,1,1,447.0291,46.091
1,6,17,1,1,2,B,G,b,y,10,10,65001,1,1,510.0685,98.6238
1,6,17,1,1,2,B,G,b,y,10,10,66001,1,1,185.8659,368.7927
1,6,17,1,1,2,B,G,b,y,10,10,67001,1,1,592.6201,442.3386
1,6,17,1,1,2,B,G,b,y,10,10,68001,1,1,568.6051,259.2242
1,6,17,1,1,2,B,G,b,y,10,10,69001,1,1,469.5432,203.6895
1,6,17,1,1,2,B,G,b,y,10,10,69001,1,1,477.0478,173.6707
1,6,17,1,1,2,B,G,b,y,10,10,69001,1,1,499.5619,148.1548
1,6,17,1,1,2,B,G,b,y,10,10,70001,1,3,235.3968,112.1323
1,6,17,1,1,2,B,G,b,y,10,10,70001,1,1,639.1492,244.2148
1,6,17,1,1,2,B,G,b,y,10,10,71001,1,3,472.545,289.243
1,6,17,1,1,2,B,G,b,y,10,10,71001,1,1,329.9559,466.3537
1,6,17,1,1,2,B,G,b,y,10,10,72001,1,1,331.4568,356.7852
1,6,17,1,1,2,B,G,b,y,10,10,72001,1,3,329.9559,302.7514
1,6,17,1,1,2,B,G,b,y,10,10,72001,1,1,323.9522,61.1004
1,6,17,1,1,2,B,G,b,y,10,10,72001,1,3,421.5131,568.4174
1,6,17,1,1,2,B,G,b,y,10,10,73001,1,1,200.8752,145.1529
1,6,17,1,1,2,B,G,b,y,10,10,73001,1,1,326.954,119.637
1,6,17,1,1,2,B,G,b,y,10,10,73001,1,1,269.9184,40.0872
1,6,17,1,1,2,B,G,b,y,10,10,74001,1,1,299.9371,113.6332
1,6,17,1,1,2,B,G,b,y,10,10,74001,1,1,161.8508,140.6501
1,6,17,1,1,2,B,G,b,y,10,10,74001,1,1,430.5188,146.6538
1,6,17,1,1,2,B,G,b,y,10,10,74001,1,3,454.5338,113.6332
1,6,17,1,1,2,B,G,b,y,10,10,74001,1,3,537.0854,472.3574
1,6,17,1,1,2,B,G,b,y,10,10,75001,1,1,412.5075,289.243
1,6,17,1,1,2,B,G,b,y,10,10,75001,1,3,442.5263,262.2261
1,6,17,1,1,2,B,G,b,y,10,10,75001,1,1,421.5131,199.1867
1,6,17,1,1,2,B,G,b,y,10,10,76001,1,1,290.9315,412.3199
1,6,17,1,1,2,B,G,b,y,10,10,76001,1,1,353.9709,443.8396
1,6,17,1,1,2,B,G,b,y,10,10,77001,1,1,571.6069,284.7402
1,6,17,1,1,2,B,G,b,y,10,10,77001,1,1,609.1304,317.7608
1,6,17,1,1,2,B,G,b,y,10,10,78001,1,1,586.6163,229.2054
1,6,17,1,1,2,B,G,b,y,10,10,79001,1,1,495.0591,130.1435
1,6,17,1,1,2,B,G,b,y,10,10,80001,1,1,460.5375,346.2786
1,6,17,1,1,2,B,G,b,y,10,10,81001,1,1,175.3593,184.1773
1,6,17,1,1,2,B,G,b,y,10,10,82001,1,1,266.9165,536.8977
1,6,17,1,1,2,B,G,b,y,10,10,83001,1,1,400.5,508.3799
1,6,17,1,1,2,B,G,b,y,10,10,84001,1,3,432.0197,304.2523
1,6,17,1,1,2,B,G,b,y,10,10,85001,1,3,528.0797,473.8583
1,6,17,1,1,2,B,G,b,y,10,10,85001,1,1,568.6051,472.3574
1,6,17,1,1,2,B,G,b,y,10,10,86001,1,3,588.1173,446.8415
1,6,17,1,1,2,B,G,b,y,10,10,86001,1,1,609.1304,412.3199
1,6,17,1,1,2,B,G,b,y,10,10,86001,1,1,633.1454,427.3293
1,6,17,1,1,2,B,G,b,y,10,10,87001,1,1,501.0629,101.6257
1,6,17,1,1,2,B,G,b,y,10,10,88001,1,3,316.4475,530.894
1,6,17,1,1,2,B,G,b,y,10,10,88001,1,1,486.0535,184.1773
1,6,17,1,1,2,B,G,b,y,10,10,89001,1,1,486.0535,518.8865
1,6,17,1,1,2,B,G,b,y,10,10,89001,1,3,517.5732,479.8621
1,6,17,1,1,2,B,G,b,y,10,10,90001,1,1,544.5901,92.6201
1,6,17,1,1,2,B,G,b,y,10,10,92001,1,1,232.3949,406.3161
1,6,17,1,1,2,B,G,b,y,10,10,93001,1,1,316.4475,91.1191
1,6,17,1,1,2,B,G,b,y,10,10,94001,1,1,430.5188,497.8734
1,6,17,1,1,2,B,G,b,y,10,10,96001,1,1,477.0478,524.8902
1,6,17,1,1,2,B,G,b,y,10,10,97001,1,1,634.6463,385.303
1,6,17,1,1,2,B,G,b,y,10,10,98001,1,1,211.3818,433.333
1,6,17,1,1,2,B,G,b,y,10,10,99001,1,1,598.6238,235.2092
1,6,17,1,1,2,B,G,b,y,10,10,100001,1,1,439.5244,530.894
1,6,17,1,1,2,B,G,b,y,10,10,101001,1,1,268.4174,527.8921
1,6,17,1,1,2,B,G,b,y,10,10,102001,1,1,468.0422,73.1079
1,6,17,1,1,2,B,G,b,y,10,10,103001,1,1,298.4362,284.7402
1,6,17,1,1,2,B,G,b,y,10,10,104001,1,1,624.1398,218.6989
1,6,17,1,1,2,B,G,b,y,10,10,105001,1,1,211.3818,481.363
1,6,17,1,1,2,B,G,b,y,10,10,105001,1,1,262.4137,532.3949
1,6,17,1,1,2,B,G,b,y,10,10,106001,1,1,483.0516,50.5938
1,6,17,1,1,2,B,G,b,y,10,10,107001,1,1,456.0347,266.7289
