dummy,month,day,period,view,station,fgeno,mgeno,fcol,mcol,nf,nm,frame,something,sex,x,y
1,6,30,1,1,3,B,G,r,g,5,15,1,1,3,194,242
1,6,30,1,1,3,B,G,r,g,5,15,1001,1,3,313,286
1,6,30,1,1,3,B,G,r,g,5,15,2001,1,3,312,167
1,6,30,1,1,3,B,G,r,g,5,15,3001,1,3,339,52
1,6,30,1,1,3,B,G,r,g,5,15,4001,1,3,161,230
1,6,30,1,1,3,B,G,r,g,5,15,4001,1,3,140,163
1,6,30,1,1,3,B,G,r,g,5,15,5001,1,3,273,98
1,6,30,1,1,3,B,G,r,g,5,15,6001,1,3,166,429
1,6,30,1,1,3,B,G,r,g,5,15,6001,1,1,192,447
1,6,30,1,1,3,B,G,r,g,5,15,7001,1,1,466,501
1,6,30,1,1,3,B,G,r,g,5,15,7001,1,3,432,504
1,6,30,1,1,3,B,G,r,g,5,15,8001,1,1,411,394
1,6,30,1,1,3,B,G,r,g,5,15,8001,1,3,415,437
1,6,30,1,1,3,B,G,r,g,5,15,9001,1,3,215,423
1,6,30,1,1,3,B,G,r,g,5,15,13001,1,3,261,156
1,6,30,1,1,3,B,G,r,g,5,15,13001,1,2,185,97
1,6,30,1,1,3,B,G,r,g,5,15,14001,1,3,292,36
1,6,30,1,1,3,B,G,r,g,5,15,15001,1,3,409,143
1,6,30,1,1,3,B,G,r,g,5,15,16001,1,3,499,244
1,6,30,1,1,3,B,G,r,g,5,15,17001,1,3,332,97
1,6,30,1,1,3,B,G,r,g,5,15,18001,1,3,173,93
1,6,30,1,1,3,B,G,r,g,5,15,19001,1,3,173,89
1,6,30,1,1,3,B,G,r,g,5,15,20001,1,3,528,141
1,6,30,1,1,3,B,G,r,g,5,15,21001,1,3,425,401
1,6,30,1,1,3,B,G,r,g,5,15,21001,1,1,381,393
1,6,30,1,1,3,B,G,r,g,5,15,22001,1,1,424,512
1,6,30,1,1,3,B,G,r,g,5,15,22001,1,3,412,543
1,6,30,1,1,3,B,G,r,g,5,15,23001,1,3,231,266
1,6,30,1,1,3,B,G,r,g,5,15,24001,1,3,139,154
1,6,30,1,1,3,B,G,r,g,5,15,25001,1,3,359,294
1,6,30,1,1,3,B,G,r,g,5,15,25001,1,3,386,365
1,6,30,1,1,3,B,G,r,g,5,15,25001,1,1,363,370
1,6,30,1,1,3,B,G,r,g,5,15,26001,1,3,432,109
1,6,30,1,1,3,B,G,r,g,5,15,27001,1,3,205,522
1,6,30,1,1,3,B,G,r,g,5,15,27001,1,1,237,537
1,6,30,1,1,3,B,G,r,g,5,15,28001,1,3,210,403
1,6,30,1,1,3,B,G,r,g,5,15,28001,1,3,99,203
1,6,30,1,1,3,B,G,r,g,5,15,28001,1,3,74,203
1,6,30,1,1,3,B,G,r,g,5,15,29001,1,3,370,493
1,6,30,1,1,3,B,G,r,g,5,15,29001,1,3,426,483
1,6,30,1,1,3,B,G,r,g,5,15,30001,1,3,338,218
1,6,30,1,1,3,B,G,r,g,5,15,31001,1,3,92,165
1,6,30,1,1,3,B,G,r,g,5,15,33001,1,3,303,55
1,6,30,1,1,3,B,G,r,g,5,15,34001,1,3,375,492
1,6,30,1,1,3,B,G,r,g,5,15,34001,1,3,565,345
1,6,30,1,1,3,B,G,r,g,5,15,35001,1,3,490,212
1,6,30,1,1,3,B,G,r,g,5,15,36001,1,3,283,243
1,6,30,1,1,3,B,G,r,g,5,15,37001,1,3,436,237
1,6,30,1,1,3,B,G,r,g,5,15,38001,1,3,334,435
1,6,30,1,1,3,B,G,r,g,5,15,39001,1,3,304,55
1,6,30,1,1,3,B,G,r,g,5,15,41001,1,3,93,211
1,6,30,1,1,3,B,G,r,g,5,15,42001,1,3,295,313
1,6,30,1,1,3,B,G,r,g,5,15,43001,1,3,288,500
1,6,30,1,1,3,B,G,r,g,5,15,44001,1,3,110,269
1,6,30,1,1,3,B,G,r,g,5,15,44001,1,3,286,73
1,6,30,1,1,3,B,G,r,g,5,15,44001,1,3,531,271
1,6,30,1,1,3,B,G,r,g,5,15,44001,1,1,492,267
1,6,30,1,1,3,B,G,r,g,5,15,45001,1,3,124,359
1,6,30,1,1,3,B,G,r,g,5,15,45001,1,3,235,82
1,6,30,1,1,3,B,G,r,g,5,15,47001,1,1,283,144
1,6,30,1,1,3,B,G,r,g,5,15,47001,1,3,233,139
1,6,30,1,1,3,B,G,r,g,5,15,48001,1,1,448,170
1,6,30,1,1,3,B,G,r,g,5,15,48001,1,3,421,154
1,6,30,1,1,3,B,G,r,g,5,15,48001,1,3,331,122
1,6,30,1,1,3,B,G,r,g,5,15,49001,1,1,249,136
1,6,30,1,1,3,B,G,r,g,5,15,49001,1,3,224,107
1,6,30,1,1,3,B,G,r,g,5,15,51001,1,3,224,518
1,6,30,1,1,3,B,G,r,g,5,15,51001,1,3,314,32
1,6,30,1,1,3,B,G,r,g,5,15,52001,1,3,229,275
1,6,30,1,1,3,B,G,r,g,5,15,53001,1,3,501,442
1,6,30,1,1,3,B,G,r,g,5,15,54001,1,3,233,99
1,6,30,1,1,3,B,G,r,g,5,15,56001,1,3,342,38
1,6,30,1,1,3,B,G,r,g,5,15,57001,1,3,184,437
1,6,30,1,1,3,B,G,r,g,5,15,58001,1,3,192,303
1,6,30,1,1,3,B,G,r,g,5,15,59001,1,3,303,146
1,6,30,1,1,3,B,G,r,g,5,15,59001,1,1,279,159
1,6,30,1,1,3,B,G,r,g,5,15,60001,1,3,374,348
1,6,30,1,1,3,B,G,r,g,5,15,60001,1,3,354,378
1,6,30,1,1,3,B,G,r,g,5,15,60001,1,1,368,407
1,6,30,1,1,3,B,G,r,g,5,15,61001,1,1,534,297
1,6,30,1,1,3,B,G,r,g,5,15,61001,1,3,536,338
1,6,30,1,1,3,B,G,r,g,5,15,62001,1,1,399,365
1,6,30,1,1,3,B,G,r,g,5,15,62001,1,3,391,414
1,6,30,1,1,3,B,G,r,g,5,15,62001,1,3,425,399
1,6,30,1,1,3,B,G,r,g,5,15,63001,1,1,143,431
1,6,30,1,1,3,B,G,r,g,5,15,63001,1,3,533,336
1,6,30,1,1,3,B,G,r,g,5,15,64001,1,1,419,522
1,6,30,1,1,3,B,G,r,g,5,15,65001,1,3,321,77
1,6,30,1,1,3,B,G,r,g,5,15,65001,1,1,410,238
1,6,30,1,1,3,B,G,r,g,5,15,65001,1,3,496,188
1,6,30,1,1,3,B,G,r,g,5,15,65001,1,3,563,200
1,6,30,1,1,3,B,G,r,g,5,15,66001,1,3,399,323
1,6,30,1,1,3,B,G,r,g,5,15,66001,1,3,390,301
1,6,30,1,1,3,B,G,r,g,5,15,66001,1,1,406,242
1,6,30,1,1,3,B,G,r,g,5,15,67001,1,3,430,386
1,6,30,1,1,3,B,G,r,g,5,15,67001,1,3,367,395
1,6,30,1,1,3,B,G,r,g,5,15,67001,1,1,400,351
1,6,30,1,1,3,B,G,r,g,5,15,67001,1,3,479,198
1,6,30,1,1,3,B,G,r,g,5,15,68001,1,3,323,93
1,6,30,1,1,3,B,G,r,g,5,15,68001,1,1,331,271
1,6,30,1,1,3,B,G,r,g,5,15,69001,1,1,419,319
1,6,30,1,1,3,B,G,r,g,5,15,69001,1,3,231,351
1,6,30,1,1,3,B,G,r,g,5,15,70001,1,1,426,443
1,6,30,1,1,3,B,G,r,g,5,15,70001,1,3,437,472
1,6,30,1,1,3,B,G,r,g,5,15,71001,1,1,327,458
1,6,30,1,1,3,B,G,r,g,5,15,71001,1,3,325,483
1,6,30,1,1,3,B,G,r,g,5,15,71001,1,3,389,117
1,6,30,1,1,3,B,G,r,g,5,15,72001,1,1,287,296
1,6,30,1,1,3,B,G,r,g,5,15,72001,1,1,338,340
1,6,30,1,1,3,B,G,r,g,5,15,72001,1,3,312,368
1,6,30,1,1,3,B,G,r,g,5,15,73001,1,1,246,444
1,6,30,1,1,3,B,G,r,g,5,15,73001,1,3,201,423
1,6,30,1,1,3,B,G,r,g,5,15,73001,1,1,533,258
1,6,30,1,1,3,B,G,r,g,5,15,74001,1,1,273,326
1,6,30,1,1,3,B,G,r,g,5,15,74001,1,3,279,281
1,6,30,1,1,3,B,G,r,g,5,15,74001,1,1,70,246
1,6,30,1,1,3,B,G,r,g,5,15,75001,1,1,169,361
1,6,30,1,1,3,B,G,r,g,5,15,75001,1,3,199,333
1,6,30,1,1,3,B,G,r,g,5,15,75001,1,1,80,200
1,6,30,1,1,3,B,G,r,g,5,15,76001,1,1,313,227
1,6,30,1,1,3,B,G,r,g,5,15,76001,1,3,299,174
1,6,30,1,1,3,B,G,r,g,5,15,77001,1,1,260,486
1,6,30,1,1,3,B,G,r,g,5,15,77001,1,3,259,447
1,6,30,1,1,3,B,G,r,g,5,15,78001,1,1,451,270
1,6,30,1,1,3,B,G,r,g,5,15,78001,1,3,414,280
1,6,30,1,1,3,B,G,r,g,5,15,79001,1,1,287,223
1,6,30,1,1,3,B,G,r,g,5,15,79001,1,3,275,184
1,6,30,1,1,3,B,G,r,g,5,15,79001,1,3,274,265
1,6,30,1,1,3,B,G,r,g,5,15,80001,1,1,350,273
1,6,30,1,1,3,B,G,r,g,5,15,80001,1,3,357,248
1,6,30,1,1,3,B,G,r,g,5,15,81001,1,1,298,98
1,6,30,1,1,3,B,G,r,g,5,15,81001,1,3,76,222
1,6,30,1,1,3,B,G,r,g,5,15,81001,1,3,46,366
1,6,30,1,1,3,B,G,r,g,5,15,81001,1,3,294,563
1,6,30,1,1,3,B,G,r,g,5,15,82001,1,3,346,267
1,6,30,1,1,3,B,G,r,g,5,15,82001,1,3,360,517
1,6,30,1,1,3,B,G,r,g,5,15,82001,1,3,323,502
1,6,30,1,1,3,B,G,r,g,5,15,83001,1,3,265,114
1,6,30,1,1,3,B,G,r,g,5,15,84001,1,1,512,202
1,6,30,1,1,3,B,G,r,g,5,15,84001,1,3,71,267
1,6,30,1,1,3,B,G,r,g,5,15,85001,1,1,521,204
1,6,30,1,1,3,B,G,r,g,5,15,85001,1,3,515,236
1,6,30,1,1,3,B,G,r,g,5,15,85001,1,3,505,139
1,6,30,1,1,3,B,G,r,g,5,15,86001,1,1,252,198
1,6,30,1,1,3,B,G,r,g,5,15,86001,1,3,230,163
1,6,30,1,1,3,B,G,r,g,5,15,86001,1,3,263,162
1,6,30,1,1,3,B,G,r,g,5,15,86001,1,3,146,102
1,6,30,1,1,3,B,G,r,g,5,15,87001,1,1,319,395
1,6,30,1,1,3,B,G,r,g,5,15,87001,1,3,323,429
1,6,30,1,1,3,B,G,r,g,5,15,87001,1,3,354,414
1,6,30,1,1,3,B,G,r,g,5,15,87001,1,3,422,475
1,6,30,1,1,3,B,G,r,g,5,15,88001,1,1,128,232
1,6,30,1,1,3,B,G,r,g,5,15,88001,1,3,174,461
1,6,30,1,1,3,B,G,r,g,5,15,88001,1,3,211,458
1,6,30,1,1,3,B,G,r,g,5,15,89001,1,3,98,214
1,6,30,1,1,3,B,G,r,g,5,15,89001,1,3,321,346
1,6,30,1,1,3,B,G,r,g,5,15,89001,1,3,207,525
1,6,30,1,1,3,B,G,r,g,5,15,89001,1,2,151,523
1,6,30,1,1,3,B,G,r,g,5,15,90001,1,3,257,101
1,6,30,1,1,3,B,G,r,g,5,15,90001,1,3,227,83
1,6,30,1,1,3,B,G,r,g,5,15,91001,1,3,237,392
1,6,30,1,1,3,B,G,r,g,5,15,91001,1,3,280,452
1,6,30,1,1,3,B,G,r,g,5,15,92001,1,3,190,216
1,6,30,1,1,3,B,G,r,g,5,15,92001,1,3,257,124
1,6,30,1,1,3,B,G,r,g,5,15,92001,1,3,420,225
1,6,30,1,1,3,B,G,r,g,5,15,93001,1,3,315,392
1,6,30,1,1,3,B,G,r,g,5,15,93001,1,3,335,454
1,6,30,1,1,3,B,G,r,g,5,15,93001,1,3,461,112
1,6,30,1,1,3,B,G,r,g,5,15,94001,1,3,87,185
1,6,30,1,1,3,B,G,r,g,5,15,94001,1,3,172,191
1,6,30,1,1,3,B,G,r,g,5,15,94001,1,3,178,290
1,6,30,1,1,3,B,G,r,g,5,15,94001,1,3,159,440
1,6,30,1,1,3,B,G,r,g,5,15,95001,1,3,295,283
1,6,30,1,1,3,B,G,r,g,5,15,95001,1,3,260,278
1,6,30,1,1,3,B,G,r,g,5,15,95001,1,1,292,255
1,6,30,1,1,3,B,G,r,g,5,15,95001,1,3,270,410
1,6,30,1,1,3,B,G,r,g,5,15,95001,1,3,218,510
1,6,30,1,1,3,B,G,r,g,5,15,96001,1,3,444,281
1,6,30,1,1,3,B,G,r,g,5,15,96001,1,3,508,213
1,6,30,1,1,3,B,G,r,g,5,15,96001,1,3,530,219
1,6,30,1,1,3,B,G,r,g,5,15,96001,1,1,513,245
1,6,30,1,1,3,B,G,r,g,5,15,96001,1,3,93,144
1,6,30,1,1,3,B,G,r,g,5,15,97001,1,3,342,186
1,6,30,1,1,3,B,G,r,g,5,15,97001,1,3,353,216
1,6,30,1,1,3,B,G,r,g,5,15,97001,1,3,363,239
1,6,30,1,1,3,B,G,r,g,5,15,97001,1,3,314,249
1,6,30,1,1,3,B,G,r,g,5,15,98001,1,3,122,231
1,6,30,1,1,3,B,G,r,g,5,15,98001,1,3,96,194
1,6,30,1,1,3,B,G,r,g,5,15,98001,1,1,96,231
1,6,30,1,1,3,B,G,r,g,5,15,98001,1,3,554,276
1,6,30,1,1,3,B,G,r,g,5,15,99001,1,3,371,548
1,6,30,1,1,3,B,G,r,g,5,15,99001,1,1,348,501
1,6,30,1,1,3,B,G,r,g,5,15,100001,1,3,231,237
1,6,30,1,1,3,B,G,r,g,5,15,100001,1,3,568,296
1,6,30,1,1,3,B,G,r,g,5,15,101001,1,3,65,383
1,6,30,1,1,3,B,G,r,g,5,15,102001,1,3,382,199
1,6,30,1,1,3,B,G,r,g,5,15,102001,1,3,194,532
1,6,30,1,1,3,B,G,r,g,5,15,103001,1,3,528,183
1,6,30,1,1,3,B,G,r,g,5,15,103001,1,3,367,510
1,6,30,1,1,3,B,G,r,g,5,15,104001,1,3,365,274
1,6,30,1,1,3,B,G,r,g,5,15,104001,1,3,515,216
1,6,30,1,1,3,B,G,r,g,5,15,105001,1,3,268,96
1,6,30,1,1,3,B,G,r,g,5,15,106001,1,3,275,272
1,6,30,1,1,3,B,G,r,g,5,15,106001,1,3,191,133
1,6,30,1,1,3,B,G,r,g,5,15,107001,1,3,385,155
1,6,30,1,1,3,B,G,r,g,5,15,107001,1,3,90,397
