dummy,month,day,period,view,station,fgeno,mgeno,fcol,mcol,nf,nm,frame,something,sex,x,y
1,10,29,3,0,1,A,E,b,y,5,15,1,1,3,491,444
1,10,29,3,0,1,A,E,b,y,5,15,1,1,1,235,214
1,10,29,3,0,1,A,E,b,y,5,15,1001,1,3,474,454
1,10,29,3,0,1,A,E,b,y,5,15,1001,1,1,241,217
1,10,29,3,0,1,A,E,b,y,5,15,2001,1,1,211,211
1,10,29,3,0,1,A,E,b,y,5,15,2001,1,3,473,445
1,10,29,3,0,1,A,E,b,y,5,15,3001,1,1,277,82
1,10,29,3,0,1,A,E,b,y,5,15,3001,1,3,480,450
1,10,29,3,0,1,A,E,b,y,5,15,4001,1,1,401,41
1,10,29,3,0,1,A,E,b,y,5,15,4001,1,3,478,446
1,10,29,3,0,1,A,E,b,y,5,15,5001,1,1,406,45
1,10,29,3,0,1,A,E,b,y,5,15,5001,1,3,473,446
1,10,29,3,0,1,A,E,b,y,5,15,6001,1,1,483,81
1,10,29,3,0,1,A,E,b,y,5,15,6001,1,3,484,448
1,10,29,3,0,1,A,E,b,y,5,15,7001,1,1,518,58
1,10,29,3,0,1,A,E,b,y,5,15,7001,1,3,478,451
1,10,29,3,0,1,A,E,b,y,5,15,8001,1,1,604,219
1,10,29,3,0,1,A,E,b,y,5,15,8001,1,3,550,256
1,10,29,3,0,1,A,E,b,y,5,15,9001,1,1,660,255
1,10,29,3,0,1,A,E,b,y,5,15,9001,1,3,488,300
1,10,29,3,0,1,A,E,b,y,5,15,10001,1,1,652,205
1,10,29,3,0,1,A,E,b,y,5,15,10001,1,3,380,194
1,10,29,3,0,1,A,E,b,y,5,15,10001,1,1,178,445
1,10,29,3,0,1,A,E,b,y,5,15,11001,1,1,568,168
1,10,29,3,0,1,A,E,b,y,5,15,11001,1,3,333,100
1,10,29,3,0,1,A,E,b,y,5,15,11001,1,1,239,383
1,10,29,3,0,1,A,E,b,y,5,15,12001,1,3,193,189
1,10,29,3,0,1,A,E,b,y,5,15,12001,1,1,224,217
1,10,29,3,0,1,A,E,b,y,5,15,12001,1,1,479,135
1,10,29,3,0,1,A,E,b,y,5,15,13001,1,1,483,143
1,10,29,3,0,1,A,E,b,y,5,15,13001,1,1,284,144
1,10,29,3,0,1,A,E,b,y,5,15,13001,1,3,154,278
1,10,29,3,0,1,A,E,b,y,5,15,14001,1,1,478,131
1,10,29,3,0,1,A,E,b,y,5,15,14001,1,1,271,134
1,10,29,3,0,1,A,E,b,y,5,15,14001,1,3,210,423
1,10,29,3,0,1,A,E,b,y,5,15,15001,1,1,490,137
1,10,29,3,0,1,A,E,b,y,5,15,15001,1,1,300,140
1,10,29,3,0,1,A,E,b,y,5,15,15001,1,3,209,422
1,10,29,3,0,1,A,E,b,y,5,15,16001,1,1,474,128
1,10,29,3,0,1,A,E,b,y,5,15,16001,1,1,289,141
1,10,29,3,0,1,A,E,b,y,5,15,16001,1,3,209,409
1,10,29,3,0,1,A,E,b,y,5,15,17001,1,1,463,129
1,10,29,3,0,1,A,E,b,y,5,15,17001,1,1,307,144
1,10,29,3,0,1,A,E,b,y,5,15,17001,1,3,214,423
1,10,29,3,0,1,A,E,b,y,5,15,18001,1,1,473,136
1,10,29,3,0,1,A,E,b,y,5,15,18001,1,1,294,138
1,10,29,3,0,1,A,E,b,y,5,15,18001,1,3,205,424
1,10,29,3,0,1,A,E,b,y,5,15,19001,1,1,475,138
1,10,29,3,0,1,A,E,b,y,5,15,19001,1,1,304,140
1,10,29,3,0,1,A,E,b,y,5,15,19001,1,3,199,411
1,10,29,3,0,1,A,E,b,y,5,15,20001,1,1,483,136
1,10,29,3,0,1,A,E,b,y,5,15,20001,1,1,294,137
1,10,29,3,0,1,A,E,b,y,5,15,20001,1,3,209,409
1,10,29,3,0,1,A,E,b,y,5,15,21001,1,1,473,130
1,10,29,3,0,1,A,E,b,y,5,15,21001,1,1,298,138
1,10,29,3,0,1,A,E,b,y,5,15,21001,1,3,210,406
1,10,29,3,0,1,A,E,b,y,5,15,22001,1,1,473,135
1,10,29,3,0,1,A,E,b,y,5,15,22001,1,1,297,146
1,10,29,3,0,1,A,E,b,y,5,15,22001,1,3,206,277
1,10,29,3,0,1,A,E,b,y,5,15,22001,1,3,257,341
1,10,29,3,0,1,A,E,b,y,5,15,23001,1,3,432,224
1,10,29,3,0,1,A,E,b,y,5,15,23001,1,1,318,193
1,10,29,3,0,1,A,E,b,y,5,15,23001,1,1,334,270
1,10,29,3,0,1,A,E,b,y,5,15,23001,1,3,284,341
1,10,29,3,0,1,A,E,b,y,5,15,24001,1,3,637,163
1,10,29,3,0,1,A,E,b,y,5,15,24001,1,3,364,343
1,10,29,3,0,1,A,E,b,y,5,15,24001,1,1,352,281
1,10,29,3,0,1,A,E,b,y,5,15,24001,1,1,366,128
1,10,29,3,0,1,A,E,b,y,5,15,25001,1,3,561,352
1,10,29,3,0,1,A,E,b,y,5,15,25001,1,1,335,362
1,10,29,3,0,1,A,E,b,y,5,15,25001,1,1,442,121
1,10,29,3,0,1,A,E,b,y,5,15,25001,1,3,482,63
1,10,29,3,0,1,A,E,b,y,5,15,26001,1,3,429,164
1,10,29,3,0,1,A,E,b,y,5,15,26001,1,1,448,233
1,10,29,3,0,1,A,E,b,y,5,15,26001,1,1,416,362
1,10,29,3,0,1,A,E,b,y,5,15,26001,1,3,204,458
1,10,29,3,0,1,A,E,b,y,5,15,27001,1,3,388,86
1,10,29,3,0,1,A,E,b,y,5,15,27001,1,3,156,305
1,10,29,3,0,1,A,E,b,y,5,15,27001,1,1,451,388
1,10,29,3,0,1,A,E,b,y,5,15,27001,1,1,447,342
1,10,29,3,0,1,A,E,b,y,5,15,28001,1,3,345,134
1,10,29,3,0,1,A,E,b,y,5,15,28001,1,3,169,234
1,10,29,3,0,1,A,E,b,y,5,15,28001,1,1,166,278
1,10,29,3,0,1,A,E,b,y,5,15,28001,1,1,445,246
1,10,29,3,0,1,A,E,b,y,5,15,28001,1,1,553,372
1,10,29,3,0,1,A,E,b,y,5,15,29001,1,1,453,66
1,10,29,3,0,1,A,E,b,y,5,15,29001,1,1,449,157
1,10,29,3,0,1,A,E,b,y,5,15,29001,1,3,390,147
1,10,29,3,0,1,A,E,b,y,5,15,29001,1,1,579,413
1,10,29,3,0,1,A,E,b,y,5,15,29001,1,1,265,390
1,10,29,3,0,1,A,E,b,y,5,15,30001,1,1,473,72
1,10,29,3,0,1,A,E,b,y,5,15,30001,1,1,428,118
1,10,29,3,0,1,A,E,b,y,5,15,30001,1,3,383,183
1,10,29,3,0,1,A,E,b,y,5,15,30001,1,1,549,406
1,10,29,3,0,1,A,E,b,y,5,15,30001,1,1,470,436
1,10,29,3,0,1,A,E,b,y,5,15,31001,1,1,450,29
1,10,29,3,0,1,A,E,b,y,5,15,31001,1,3,400,196
1,10,29,3,0,1,A,E,b,y,5,15,31001,1,1,438,311
1,10,29,3,0,1,A,E,b,y,5,15,31001,1,1,511,359
1,10,29,3,0,1,A,E,b,y,5,15,31001,1,1,508,431
1,10,29,3,0,1,A,E,b,y,5,15,32001,1,1,309,196
1,10,29,3,0,1,A,E,b,y,5,15,32001,1,3,254,215
1,10,29,3,0,1,A,E,b,y,5,15,32001,1,1,367,346
1,10,29,3,0,1,A,E,b,y,5,15,32001,1,1,623,308
1,10,29,3,0,1,A,E,b,y,5,15,32001,1,1,590,407
1,10,29,3,0,1,A,E,b,y,5,15,33001,1,1,654,266
1,10,29,3,0,1,A,E,b,y,5,15,33001,1,1,601,389
1,10,29,3,0,1,A,E,b,y,5,15,33001,1,1,408,308
1,10,29,3,0,1,A,E,b,y,5,15,33001,1,1,410,416
1,10,29,3,0,1,A,E,b,y,5,15,33001,1,3,260,218
1,10,29,3,0,1,A,E,b,y,5,15,34001,1,1,580,192
1,10,29,3,0,1,A,E,b,y,5,15,34001,1,1,533,320
1,10,29,3,0,1,A,E,b,y,5,15,34001,1,1,461,351
1,10,29,3,0,1,A,E,b,y,5,15,34001,1,1,341,338
1,10,29,3,0,1,A,E,b,y,5,15,34001,1,3,275,220
1,10,29,3,0,1,A,E,b,y,5,15,35001,1,1,629,230
1,10,29,3,0,1,A,E,b,y,5,15,35001,1,1,453,200
1,10,29,3,0,1,A,E,b,y,5,15,35001,1,1,425,280
1,10,29,3,0,1,A,E,b,y,5,15,35001,1,1,287,261
1,10,29,3,0,1,A,E,b,y,5,15,35001,1,3,251,215
1,10,29,3,0,1,A,E,b,y,5,15,36001,1,1,631,317
1,10,29,3,0,1,A,E,b,y,5,15,36001,1,1,469,259
1,10,29,3,0,1,A,E,b,y,5,15,36001,1,1,419,203
1,10,29,3,0,1,A,E,b,y,5,15,36001,1,1,380,286
1,10,29,3,0,1,A,E,b,y,5,15,36001,1,3,263,219
1,10,29,3,0,1,A,E,b,y,5,15,37001,1,1,488,544
1,10,29,3,0,1,A,E,b,y,5,15,37001,1,1,504,487
1,10,29,3,0,1,A,E,b,y,5,15,37001,1,1,391,402
1,10,29,3,0,1,A,E,b,y,5,15,37001,1,1,335,260
1,10,29,3,0,1,A,E,b,y,5,15,37001,1,3,256,217
1,10,29,3,0,1,A,E,b,y,5,15,38001,1,1,292,177
1,10,29,3,0,1,A,E,b,y,5,15,38001,1,3,287,266
1,10,29,3,0,1,A,E,b,y,5,15,38001,1,1,359,465
1,10,29,3,0,1,A,E,b,y,5,15,38001,1,1,379,561
1,10,29,3,0,1,A,E,b,y,5,15,38001,1,1,511,475
1,10,29,3,0,1,A,E,b,y,5,15,39001,1,3,180,130
1,10,29,3,0,1,A,E,b,y,5,15,39001,1,3,277,253
1,10,29,3,0,1,A,E,b,y,5,15,39001,1,1,315,412
1,10,29,3,0,1,A,E,b,y,5,15,39001,1,1,296,518
1,10,29,3,0,1,A,E,b,y,5,15,39001,1,1,586,468
1,10,29,3,0,1,A,E,b,y,5,15,40001,1,3,181,140
1,10,29,3,0,1,A,E,b,y,5,15,40001,1,1,278,338
1,10,29,3,0,1,A,E,b,y,5,15,40001,1,1,277,466
1,10,29,3,0,1,A,E,b,y,5,15,40001,1,3,376,459
1,10,29,3,0,1,A,E,b,y,5,15,40001,1,1,619,286
1,10,29,3,0,1,A,E,b,y,5,15,41001,1,1,220,157
1,10,29,3,0,1,A,E,b,y,5,15,41001,1,1,257,182
1,10,29,3,0,1,A,E,b,y,5,15,41001,1,1,597,264
1,10,29,3,0,1,A,E,b,y,5,15,41001,1,3,402,437
1,10,29,3,0,1,A,E,b,y,5,15,42001,1,1,468,91
1,10,29,3,0,1,A,E,b,y,5,15,42001,1,1,543,257
1,10,29,3,0,1,A,E,b,y,5,15,42001,1,3,467,351
1,10,29,3,0,1,A,E,b,y,5,15,42001,1,1,545,424
1,10,29,3,0,1,A,E,b,y,5,15,43001,1,1,569,225
1,10,29,3,0,1,A,E,b,y,5,15,43001,1,1,530,277
1,10,29,3,0,1,A,E,b,y,5,15,43001,1,3,434,315
1,10,29,3,0,1,A,E,b,y,5,15,44001,1,1,594,152
1,10,29,3,0,1,A,E,b,y,5,15,44001,1,1,532,285
1,10,29,3,0,1,A,E,b,y,5,15,44001,1,3,373,356
1,10,29,3,0,1,A,E,b,y,5,15,45001,1,1,578,123
1,10,29,3,0,1,A,E,b,y,5,15,45001,1,1,522,281
1,10,29,3,0,1,A,E,b,y,5,15,45001,1,3,388,353
1,10,29,3,0,1,A,E,b,y,5,15,46001,1,1,504,111
1,10,29,3,0,1,A,E,b,y,5,15,46001,1,1,527,272
1,10,29,3,0,1,A,E,b,y,5,15,46001,1,3,381,357
1,10,29,3,0,1,A,E,b,y,5,15,47001,1,1,316,70
1,10,29,3,0,1,A,E,b,y,5,15,47001,1,1,514,282
1,10,29,3,0,1,A,E,b,y,5,15,47001,1,3,389,353
1,10,29,3,0,1,A,E,b,y,5,15,48001,1,1,314,73
1,10,29,3,0,1,A,E,b,y,5,15,48001,1,1,514,282
1,10,29,3,0,1,A,E,b,y,5,15,48001,1,3,393,359
1,10,29,3,0,1,A,E,b,y,5,15,49001,1,1,271,77
1,10,29,3,0,1,A,E,b,y,5,15,49001,1,1,515,282
1,10,29,3,0,1,A,E,b,y,5,15,49001,1,3,387,356
1,10,29,3,0,1,A,E,b,y,5,15,50001,1,1,216,183
1,10,29,3,0,1,A,E,b,y,5,15,50001,1,1,513,282
1,10,29,3,0,1,A,E,b,y,5,15,50001,1,3,383,355
1,10,29,3,0,1,A,E,b,y,5,15,51001,1,1,515,283
1,10,29,3,0,1,A,E,b,y,5,15,51001,1,1,308,296
1,10,29,3,0,1,A,E,b,y,5,15,51001,1,3,385,362
1,10,29,3,0,1,A,E,b,y,5,15,52001,1,1,451,342
1,10,29,3,0,1,A,E,b,y,5,15,52001,1,3,396,360
1,10,29,3,0,1,A,E,b,y,5,15,52001,1,1,335,399
1,10,29,3,0,1,A,E,b,y,5,15,53001,1,1,439,313
1,10,29,3,0,1,A,E,b,y,5,15,53001,1,3,388,361
1,10,29,3,0,1,A,E,b,y,5,15,53001,1,1,353,448
1,10,29,3,0,1,A,E,b,y,5,15,54001,1,1,409,260
1,10,29,3,0,1,A,E,b,y,5,15,54001,1,1,297,58
1,10,29,3,0,1,A,E,b,y,5,15,54001,1,1,457,417
1,10,29,3,0,1,A,E,b,y,5,15,54001,1,3,386,324
1,10,29,3,0,1,A,E,b,y,5,15,55001,1,1,403,165
1,10,29,3,0,1,A,E,b,y,5,15,55001,1,1,317,182
1,10,29,3,0,1,A,E,b,y,5,15,55001,1,3,273,260
1,10,29,3,0,1,A,E,b,y,5,15,55001,1,1,417,352
1,10,29,3,0,1,A,E,b,y,5,15,56001,1,1,451,157
1,10,29,3,0,1,A,E,b,y,5,15,56001,1,1,405,177
1,10,29,3,0,1,A,E,b,y,5,15,56001,1,1,313,223
1,10,29,3,0,1,A,E,b,y,5,15,56001,1,3,208,291
1,10,29,3,0,1,A,E,b,y,5,15,57001,1,1,359,118
1,10,29,3,0,1,A,E,b,y,5,15,57001,1,1,450,214
1,10,29,3,0,1,A,E,b,y,5,15,57001,1,1,349,221
1,10,29,3,0,1,A,E,b,y,5,15,57001,1,3,303,317
1,10,29,3,0,1,A,E,b,y,5,15,58001,1,1,471,231
1,10,29,3,0,1,A,E,b,y,5,15,58001,1,1,357,201
1,10,29,3,0,1,A,E,b,y,5,15,58001,1,1,282,81
1,10,29,3,0,1,A,E,b,y,5,15,58001,1,3,410,394
1,10,29,3,0,1,A,E,b,y,5,15,59001,1,1,277,79
1,10,29,3,0,1,A,E,b,y,5,15,59001,1,1,316,227
1,10,29,3,0,1,A,E,b,y,5,15,59001,1,1,462,225
1,10,29,3,0,1,A,E,b,y,5,15,59001,1,3,454,453
1,10,29,3,0,1,A,E,b,y,5,15,60001,1,1,466,231
1,10,29,3,0,1,A,E,b,y,5,15,60001,1,1,302,253
1,10,29,3,0,1,A,E,b,y,5,15,60001,1,1,236,144
1,10,29,3,0,1,A,E,b,y,5,15,60001,1,3,359,467
1,10,29,3,0,1,A,E,b,y,5,15,61001,1,1,268,186
1,10,29,3,0,1,A,E,b,y,5,15,61001,1,1,469,240
1,10,29,3,0,1,A,E,b,y,5,15,61001,1,1,328,350
1,10,29,3,0,1,A,E,b,y,5,15,61001,1,3,324,420
1,10,29,3,0,1,A,E,b,y,5,15,62001,1,1,226,272
1,10,29,3,0,1,A,E,b,y,5,15,62001,1,1,344,279
1,10,29,3,0,1,A,E,b,y,5,15,62001,1,1,464,234
1,10,29,3,0,1,A,E,b,y,5,15,62001,1,3,329,404
1,10,29,3,0,1,A,E,b,y,5,15,63001,1,1,475,244
1,10,29,3,0,1,A,E,b,y,5,15,63001,1,1,360,275
1,10,29,3,0,1,A,E,b,y,5,15,63001,1,1,190,308
1,10,29,3,0,1,A,E,b,y,5,15,63001,1,3,331,407
1,10,29,3,0,1,A,E,b,y,5,15,64001,1,1,683,202
1,10,29,3,0,1,A,E,b,y,5,15,64001,1,1,346,280
1,10,29,3,0,1,A,E,b,y,5,15,64001,1,1,213,288
1,10,29,3,0,1,A,E,b,y,5,15,64001,1,3,277,346
1,10,29,3,0,1,A,E,b,y,5,15,65001,1,1,285,176
1,10,29,3,0,1,A,E,b,y,5,15,65001,1,1,352,281
1,10,29,3,0,1,A,E,b,y,5,15,65001,1,3,275,346
1,10,29,3,0,1,A,E,b,y,5,15,66001,1,1,585,160
1,10,29,3,0,1,A,E,b,y,5,15,66001,1,1,341,289
1,10,29,3,0,1,A,E,b,y,5,15,66001,1,1,294,145
1,10,29,3,0,1,A,E,b,y,5,15,66001,1,3,276,344
1,10,29,3,0,1,A,E,b,y,5,15,67001,1,1,573,89
1,10,29,3,0,1,A,E,b,y,5,15,67001,1,1,545,188
1,10,29,3,0,1,A,E,b,y,5,15,67001,1,1,327,111
1,10,29,3,0,1,A,E,b,y,5,15,67001,1,3,275,347
1,10,29,3,0,1,A,E,b,y,5,15,68001,1,1,491,96
1,10,29,3,0,1,A,E,b,y,5,15,68001,1,1,408,172
1,10,29,3,0,1,A,E,b,y,5,15,68001,1,1,543,177
1,10,29,3,0,1,A,E,b,y,5,15,68001,1,3,274,349
1,10,29,3,0,1,A,E,b,y,5,15,69001,1,1,539,177
1,10,29,3,0,1,A,E,b,y,5,15,69001,1,1,494,99
1,10,29,3,0,1,A,E,b,y,5,15,69001,1,1,351,286
1,10,29,3,0,1,A,E,b,y,5,15,69001,1,3,275,347
1,10,29,3,0,1,A,E,b,y,5,15,70001,1,1,550,178
1,10,29,3,0,1,A,E,b,y,5,15,70001,1,1,488,99
1,10,29,3,0,1,A,E,b,y,5,15,70001,1,1,388,336
1,10,29,3,0,1,A,E,b,y,5,15,70001,1,3,337,285
1,10,29,3,0,1,A,E,b,y,5,15,71001,1,1,497,97
1,10,29,3,0,1,A,E,b,y,5,15,71001,1,3,393,216
1,10,29,3,0,1,A,E,b,y,5,15,71001,1,1,555,174
1,10,29,3,0,1,A,E,b,y,5,15,71001,1,1,427,433
1,10,29,3,0,1,A,E,b,y,5,15,72001,1,1,492,253
1,10,29,3,0,1,A,E,b,y,5,15,72001,1,1,310,130
1,10,29,3,0,1,A,E,b,y,5,15,72001,1,3,470,291
1,10,29,3,0,1,A,E,b,y,5,15,72001,1,1,406,515
1,10,29,3,0,1,A,E,b,y,5,15,73001,1,1,529,257
1,10,29,3,0,1,A,E,b,y,5,15,73001,1,1,335,57
1,10,29,3,0,1,A,E,b,y,5,15,73001,1,1,313,533
1,10,29,3,0,1,A,E,b,y,5,15,73001,1,3,569,382
1,10,29,3,0,1,A,E,b,y,5,15,74001,1,1,371,57
1,10,29,3,0,1,A,E,b,y,5,15,74001,1,1,523,259
1,10,29,3,0,1,A,E,b,y,5,15,74001,1,1,194,426
1,10,29,3,0,1,A,E,b,y,5,15,74001,1,3,483,390
1,10,29,3,0,1,A,E,b,y,5,15,75001,1,1,388,58
1,10,29,3,0,1,A,E,b,y,5,15,75001,1,1,530,255
1,10,29,3,0,1,A,E,b,y,5,15,75001,1,1,164,354
1,10,29,3,0,1,A,E,b,y,5,15,75001,1,3,482,394
1,10,29,3,0,1,A,E,b,y,5,15,76001,1,1,377,53
1,10,29,3,0,1,A,E,b,y,5,15,76001,1,1,189,237
1,10,29,3,0,1,A,E,b,y,5,15,76001,1,1,517,253
1,10,29,3,0,1,A,E,b,y,5,15,76001,1,3,479,391
1,10,29,3,0,1,A,E,b,y,5,15,77001,1,1,372,77
1,10,29,3,0,1,A,E,b,y,5,15,77001,1,1,294,145
1,10,29,3,0,1,A,E,b,y,5,15,77001,1,1,526,248
1,10,29,3,0,1,A,E,b,y,5,15,77001,1,3,475,392
1,10,29,3,0,1,A,E,b,y,5,15,78001,1,3,476,392
1,10,29,3,0,1,A,E,b,y,5,15,78001,1,1,516,252
1,10,29,3,0,1,A,E,b,y,5,15,78001,1,1,372,81
1,10,29,3,0,1,A,E,b,y,5,15,78001,1,1,193,185
1,10,29,3,0,1,A,E,b,y,5,15,79001,1,1,521,253
1,10,29,3,0,1,A,E,b,y,5,15,79001,1,1,192,226
1,10,29,3,0,1,A,E,b,y,5,15,79001,1,1,371,77
1,10,29,3,0,1,A,E,b,y,5,15,79001,1,3,484,388
1,10,29,3,0,1,A,E,b,y,5,15,80001,1,3,485,395
1,10,29,3,0,1,A,E,b,y,5,15,80001,1,1,523,260
1,10,29,3,0,1,A,E,b,y,5,15,80001,1,1,165,275
1,10,29,3,0,1,A,E,b,y,5,15,80001,1,1,370,78
1,10,29,3,0,1,A,E,b,y,5,15,81001,1,1,520,258
1,10,29,3,0,1,A,E,b,y,5,15,81001,1,3,483,392
1,10,29,3,0,1,A,E,b,y,5,15,81001,1,1,164,272
1,10,29,3,0,1,A,E,b,y,5,15,81001,1,1,383,67
1,10,29,3,0,1,A,E,b,y,5,15,82001,1,1,535,254
1,10,29,3,0,1,A,E,b,y,5,15,82001,1,1,380,86
1,10,29,3,0,1,A,E,b,y,5,15,82001,1,1,161,270
1,10,29,3,0,1,A,E,b,y,5,15,82001,1,3,484,391
1,10,29,3,0,1,A,E,b,y,5,15,83001,1,1,526,250
1,10,29,3,0,1,A,E,b,y,5,15,83001,1,1,381,82
1,10,29,3,0,1,A,E,b,y,5,15,83001,1,1,172,274
1,10,29,3,0,1,A,E,b,y,5,15,83001,1,3,493,396
1,10,29,3,0,1,A,E,b,y,5,15,84001,1,3,483,388
1,10,29,3,0,1,A,E,b,y,5,15,84001,1,1,524,260
1,10,29,3,0,1,A,E,b,y,5,15,84001,1,1,369,77
1,10,29,3,0,1,A,E,b,y,5,15,84001,1,1,171,270
1,10,29,3,0,1,A,E,b,y,5,15,85001,1,3,485,391
1,10,29,3,0,1,A,E,b,y,5,15,85001,1,1,522,256
1,10,29,3,0,1,A,E,b,y,5,15,85001,1,1,183,273
1,10,29,3,0,1,A,E,b,y,5,15,85001,1,1,381,69
1,10,29,3,0,1,A,E,b,y,5,15,86001,1,3,482,385
1,10,29,3,0,1,A,E,b,y,5,15,86001,1,1,518,244
1,10,29,3,0,1,A,E,b,y,5,15,86001,1,1,378,69
1,10,29,3,0,1,A,E,b,y,5,15,86001,1,1,158,269
1,10,29,3,0,1,A,E,b,y,5,15,87001,1,3,483,392
1,10,29,3,0,1,A,E,b,y,5,15,87001,1,1,524,254
1,10,29,3,0,1,A,E,b,y,5,15,87001,1,1,374,79
1,10,29,3,0,1,A,E,b,y,5,15,87001,1,1,155,232
1,10,29,3,0,1,A,E,b,y,5,15,88001,1,1,382,74
1,10,29,3,0,1,A,E,b,y,5,15,88001,1,1,212,148
1,10,29,3,0,1,A,E,b,y,5,15,88001,1,1,525,255
1,10,29,3,0,1,A,E,b,y,5,15,88001,1,3,480,394
1,10,29,3,0,1,A,E,b,y,5,15,89001,1,1,307,55
1,10,29,3,0,1,A,E,b,y,5,15,89001,1,1,340,128
1,10,29,3,0,1,A,E,b,y,5,15,89001,1,1,537,246
1,10,29,3,0,1,A,E,b,y,5,15,89001,1,3,484,397
1,10,29,3,0,1,A,E,b,y,5,15,90001,1,1,400,32
1,10,29,3,0,1,A,E,b,y,5,15,90001,1,1,463,92
1,10,29,3,0,1,A,E,b,y,5,15,90001,1,1,520,253
1,10,29,3,0,1,A,E,b,y,5,15,90001,1,3,484,394
1,10,29,3,0,1,A,E,b,y,5,15,91001,1,1,390,140
1,10,29,3,0,1,A,E,b,y,5,15,91001,1,1,477,103
1,10,29,3,0,1,A,E,b,y,5,15,91001,1,1,543,108
1,10,29,3,0,1,A,E,b,y,5,15,91001,1,3,489,399
1,10,29,3,0,1,A,E,b,y,5,15,92001,1,1,472,102
1,10,29,3,0,1,A,E,b,y,5,15,92001,1,1,406,170
1,10,29,3,0,1,A,E,b,y,5,15,92001,1,1,580,305
1,10,29,3,0,1,A,E,b,y,5,15,92001,1,3,486,391
1,10,29,3,0,1,A,E,b,y,5,15,93001,1,3,557,270
1,10,29,3,0,1,A,E,b,y,5,15,93001,1,1,449,127
1,10,29,3,0,1,A,E,b,y,5,15,93001,1,1,422,183
1,10,29,3,0,1,A,E,b,y,5,15,93001,1,1,412,433
1,10,29,3,0,1,A,E,b,y,5,15,94001,1,3,575,172
1,10,29,3,0,1,A,E,b,y,5,15,94001,1,1,548,279
1,10,29,3,0,1,A,E,b,y,5,15,94001,1,1,380,317
1,10,29,3,0,1,A,E,b,y,5,15,94001,1,1,376,119
1,10,29,3,0,1,A,E,b,y,5,15,95001,1,3,514,133
1,10,29,3,0,1,A,E,b,y,5,15,95001,1,1,364,145
1,10,29,3,0,1,A,E,b,y,5,15,95001,1,1,373,292
1,10,29,3,0,1,A,E,b,y,5,15,95001,1,1,457,360
1,10,29,3,0,1,A,E,b,y,5,15,96001,1,3,437,160
1,10,29,3,0,1,A,E,b,y,5,15,96001,1,1,376,188
1,10,29,3,0,1,A,E,b,y,5,15,96001,1,1,344,267
1,10,29,3,0,1,A,E,b,y,5,15,96001,1,1,473,432
1,10,29,3,0,1,A,E,b,y,5,15,97001,1,3,410,254
1,10,29,3,0,1,A,E,b,y,5,15,97001,1,1,333,192
1,10,29,3,0,1,A,E,b,y,5,15,97001,1,1,331,288
1,10,29,3,0,1,A,E,b,y,5,15,97001,1,1,337,369
1,10,29,3,0,1,A,E,b,y,5,15,98001,1,1,312,179
1,10,29,3,0,1,A,E,b,y,5,15,98001,1,1,255,213
1,10,29,3,0,1,A,E,b,y,5,15,98001,1,1,213,150
1,10,29,3,0,1,A,E,b,y,5,15,98001,1,3,392,331
1,10,29,3,0,1,A,E,b,y,5,15,99001,1,1,249,133
1,10,29,3,0,1,A,E,b,y,5,15,99001,1,1,251,241
1,10,29,3,0,1,A,E,b,y,5,15,99001,1,1,151,227
1,10,29,3,0,1,A,E,b,y,5,15,99001,1,3,386,412
1,10,29,3,0,1,A,E,b,y,5,15,100001,1,1,219,125
1,10,29,3,0,1,A,E,b,y,5,15,100001,1,1,292,294
1,10,29,3,0,1,A,E,b,y,5,15,100001,1,1,146,337
1,10,29,3,0,1,A,E,b,y,5,15,100001,1,3,386,426
1,10,29,3,0,1,A,E,b,y,5,15,101001,1,1,230,169
1,10,29,3,0,1,A,E,b,y,5,15,101001,1,1,287,313
1,10,29,3,0,1,A,E,b,y,5,15,101001,1,1,252,357
1,10,29,3,0,1,A,E,b,y,5,15,101001,1,3,323,467
1,10,29,3,0,1,A,E,b,y,5,15,102001,1,1,174,144
1,10,29,3,0,1,A,E,b,y,5,15,102001,1,1,241,222
1,10,29,3,0,1,A,E,b,y,5,15,102001,1,1,211,289
1,10,29,3,0,1,A,E,b,y,5,15,102001,1,1,282,275
1,10,29,3,0,1,A,E,b,y,5,15,102001,1,3,259,373
1,10,29,3,0,1,A,E,b,y,5,15,102001,1,1,269,529
1,10,29,3,0,1,A,E,b,y,5,15,103001,1,1,250,193
1,10,29,3,0,1,A,E,b,y,5,15,103001,1,1,210,249
1,10,29,3,0,1,A,E,b,y,5,15,103001,1,1,585,139
1,10,29,3,0,1,A,E,b,y,5,15,103001,1,1,326,546
1,10,29,3,0,1,A,E,b,y,5,15,103001,1,3,341,460
1,10,29,3,0,1,A,E,b,y,5,15,104001,1,1,396,68
1,10,29,3,0,1,A,E,b,y,5,15,104001,1,1,245,279
1,10,29,3,0,1,A,E,b,y,5,15,104001,1,3,342,389
1,10,29,3,0,1,A,E,b,y,5,15,105001,1,1,442,108
1,10,29,3,0,1,A,E,b,y,5,15,105001,1,1,623,307
1,10,29,3,0,1,A,E,b,y,5,15,105001,1,1,295,303
1,10,29,3,0,1,A,E,b,y,5,15,105001,1,3,251,390
1,10,29,3,0,1,A,E,b,y,5,15,106001,1,1,516,218
1,10,29,3,0,1,A,E,b,y,5,15,106001,1,1,368,325
1,10,29,3,0,1,A,E,b,y,5,15,106001,1,1,348,249
1,10,29,3,0,1,A,E,b,y,5,15,106001,1,3,284,400
1,10,29,3,0,1,A,E,b,y,5,15,107001,1,1,529,216
1,10,29,3,0,1,A,E,b,y,5,15,107001,1,1,448,269
1,10,29,3,0,1,A,E,b,y,5,15,107001,1,1,194,192
1,10,29,3,0,1,A,E,b,y,5,15,107001,1,3,317,396
