dummy,month,day,period,view,station,fgeno,mgeno,fcol,mcol,nf,nm,frame,something,sex,x,y
1,10,29,3,1,1,A,E,b,y,5,15,1,1,1,284,54
1,10,29,3,1,1,A,E,b,y,5,15,1,1,1,213,167
1,10,29,3,1,1,A,E,b,y,5,15,1,1,3,367,339
1,10,29,3,1,1,A,E,b,y,5,15,1001,1,1,278,65
1,10,29,3,1,1,A,E,b,y,5,15,1001,1,1,212,163
1,10,29,3,1,1,A,E,b,y,5,15,1001,1,3,309,323
1,10,29,3,1,1,A,E,b,y,5,15,2001,1,1,282,65
1,10,29,3,1,1,A,E,b,y,5,15,2001,1,1,208,143
1,10,29,3,1,1,A,E,b,y,5,15,2001,1,3,259,356
1,10,29,3,1,1,A,E,b,y,5,15,3001,1,1,135,149
1,10,29,3,1,1,A,E,b,y,5,15,3001,1,3,202,331
1,10,29,3,1,1,A,E,b,y,5,15,4001,1,1,231,288
1,10,29,3,1,1,A,E,b,y,5,15,4001,1,1,521,38
1,10,29,3,1,1,A,E,b,y,5,15,4001,1,3,195,226
1,10,29,3,1,1,A,E,b,y,5,15,5001,1,1,188,209
1,10,29,3,1,1,A,E,b,y,5,15,5001,1,3,215,157
1,10,29,3,1,1,A,E,b,y,5,15,5001,1,1,526,51
1,10,29,3,1,1,A,E,b,y,5,15,6001,1,3,296,107
1,10,29,3,1,1,A,E,b,y,5,15,6001,1,1,464,107
1,10,29,3,1,1,A,E,b,y,5,15,6001,1,1,517,99
1,10,29,3,1,1,A,E,b,y,5,15,6001,1,1,658,312
1,10,29,3,1,1,A,E,b,y,5,15,7001,1,3,511,149
1,10,29,3,1,1,A,E,b,y,5,15,7001,1,1,537,475
1,10,29,3,1,1,A,E,b,y,5,15,7001,1,1,537,519
1,10,29,3,1,1,A,E,b,y,5,15,8001,1,3,562,158
1,10,29,3,1,1,A,E,b,y,5,15,8001,1,1,272,381
1,10,29,3,1,1,A,E,b,y,5,15,9001,1,3,547,235
1,10,29,3,1,1,A,E,b,y,5,15,9001,1,1,551,137
1,10,29,3,1,1,A,E,b,y,5,15,10001,1,3,465,339
1,10,29,3,1,1,A,E,b,y,5,15,10001,1,1,441,508
1,10,29,3,1,1,A,E,b,y,5,15,10001,1,1,488,533
1,10,29,3,1,1,A,E,b,y,5,15,11001,1,1,485,161
1,10,29,3,1,1,A,E,b,y,5,15,11001,1,3,431,139
1,10,29,3,1,1,A,E,b,y,5,15,11001,1,1,481,486
1,10,29,3,1,1,A,E,b,y,5,15,12001,1,3,371,123
1,10,29,3,1,1,A,E,b,y,5,15,12001,1,1,432,181
1,10,29,3,1,1,A,E,b,y,5,15,12001,1,1,565,513
1,10,29,3,1,1,A,E,b,y,5,15,13001,1,3,329,147
1,10,29,3,1,1,A,E,b,y,5,15,13001,1,1,310,187
1,10,29,3,1,1,A,E,b,y,5,15,13001,1,1,525,416
1,10,29,3,1,1,A,E,b,y,5,15,14001,1,3,410,148
1,10,29,3,1,1,A,E,b,y,5,15,15001,1,3,557,179
1,10,29,3,1,1,A,E,b,y,5,15,15001,1,1,396,401
1,10,29,3,1,1,A,E,b,y,5,15,16001,1,1,580,171
1,10,29,3,1,1,A,E,b,y,5,15,16001,1,3,540,129
1,10,29,3,1,1,A,E,b,y,5,15,17001,1,1,453,86
1,10,29,3,1,1,A,E,b,y,5,15,17001,1,3,384,204
1,10,29,3,1,1,A,E,b,y,5,15,18001,1,1,478,229
1,10,29,3,1,1,A,E,b,y,5,15,18001,1,3,417,238
1,10,29,3,1,1,A,E,b,y,5,15,19001,1,3,563,365
1,10,29,3,1,1,A,E,b,y,5,15,19001,1,1,346,278
1,10,29,3,1,1,A,E,b,y,5,15,20001,1,3,552,317
1,10,29,3,1,1,A,E,b,y,5,15,20001,1,1,305,271
1,10,29,3,1,1,A,E,b,y,5,15,21001,1,1,293,278
1,10,29,3,1,1,A,E,b,y,5,15,21001,1,3,559,304
1,10,29,3,1,1,A,E,b,y,5,15,22001,1,1,305,277
1,10,29,3,1,1,A,E,b,y,5,15,22001,1,3,552,294
1,10,29,3,1,1,A,E,b,y,5,15,23001,1,1,302,277
1,10,29,3,1,1,A,E,b,y,5,15,23001,1,3,512,217
1,10,29,3,1,1,A,E,b,y,5,15,24001,1,1,298,280
1,10,29,3,1,1,A,E,b,y,5,15,24001,1,3,551,165
1,10,29,3,1,1,A,E,b,y,5,15,25001,1,1,409,286
1,10,29,3,1,1,A,E,b,y,5,15,25001,1,3,421,346
1,10,29,3,1,1,A,E,b,y,5,15,26001,1,1,407,295
1,10,29,3,1,1,A,E,b,y,5,15,26001,1,3,379,371
1,10,29,3,1,1,A,E,b,y,5,15,27001,1,1,371,320
1,10,29,3,1,1,A,E,b,y,5,15,27001,1,3,251,308
1,10,29,3,1,1,A,E,b,y,5,15,28001,1,1,386,331
1,10,29,3,1,1,A,E,b,y,5,15,28001,1,3,243,281
1,10,29,3,1,1,A,E,b,y,5,15,29001,1,3,226,261
1,10,29,3,1,1,A,E,b,y,5,15,29001,1,1,378,332
1,10,29,3,1,1,A,E,b,y,5,15,30001,1,1,374,335
1,10,29,3,1,1,A,E,b,y,5,15,30001,1,3,176,254
1,10,29,3,1,1,A,E,b,y,5,15,31001,1,3,175,300
1,10,29,3,1,1,A,E,b,y,5,15,31001,1,1,387,362
1,10,29,3,1,1,A,E,b,y,5,15,32001,1,1,305,322
1,10,29,3,1,1,A,E,b,y,5,15,32001,1,3,224,337
1,10,29,3,1,1,A,E,b,y,5,15,33001,1,3,324,295
1,10,29,3,1,1,A,E,b,y,5,15,33001,1,1,481,293
1,10,29,3,1,1,A,E,b,y,5,15,34001,1,3,366,271
1,10,29,3,1,1,A,E,b,y,5,15,34001,1,1,478,292
1,10,29,3,1,1,A,E,b,y,5,15,35001,1,3,425,197
1,10,29,3,1,1,A,E,b,y,5,15,35001,1,1,374,223
1,10,29,3,1,1,A,E,b,y,5,15,36001,1,3,593,207
1,10,29,3,1,1,A,E,b,y,5,15,36001,1,1,363,345
1,10,29,3,1,1,A,E,b,y,5,15,37001,1,1,589,222
1,10,29,3,1,1,A,E,b,y,5,15,37001,1,3,591,294
1,10,29,3,1,1,A,E,b,y,5,15,38001,1,3,561,288
1,10,29,3,1,1,A,E,b,y,5,15,38001,1,1,484,289
1,10,29,3,1,1,A,E,b,y,5,15,39001,1,3,502,237
1,10,29,3,1,1,A,E,b,y,5,15,39001,1,1,362,82
1,10,29,3,1,1,A,E,b,y,5,15,40001,1,3,458,178
1,10,29,3,1,1,A,E,b,y,5,15,40001,1,1,362,75
1,10,29,3,1,1,A,E,b,y,5,15,41001,1,3,415,127
1,10,29,3,1,1,A,E,b,y,5,15,41001,1,1,441,208
1,10,29,3,1,1,A,E,b,y,5,15,42001,1,1,450,163
1,10,29,3,1,1,A,E,b,y,5,15,42001,1,3,335,164
1,10,29,3,1,1,A,E,b,y,5,15,43001,1,1,446,163
1,10,29,3,1,1,A,E,b,y,5,15,43001,1,3,301,215
1,10,29,3,1,1,A,E,b,y,5,15,44001,1,1,451,165
1,10,29,3,1,1,A,E,b,y,5,15,44001,1,3,297,254
1,10,29,3,1,1,A,E,b,y,5,15,45001,1,1,444,164
1,10,29,3,1,1,A,E,b,y,5,15,45001,1,3,281,334
1,10,29,3,1,1,A,E,b,y,5,15,46001,1,1,450,163
1,10,29,3,1,1,A,E,b,y,5,15,46001,1,3,413,415
1,10,29,3,1,1,A,E,b,y,5,15,47001,1,1,453,173
1,10,29,3,1,1,A,E,b,y,5,15,47001,1,3,465,393
1,10,29,3,1,1,A,E,b,y,5,15,48001,1,1,444,165
1,10,29,3,1,1,A,E,b,y,5,15,48001,1,3,497,378
1,10,29,3,1,1,A,E,b,y,5,15,49001,1,1,437,166
1,10,29,3,1,1,A,E,b,y,5,15,49001,1,3,440,279
1,10,29,3,1,1,A,E,b,y,5,15,50001,1,3,470,82
1,10,29,3,1,1,A,E,b,y,5,15,50001,1,1,486,271
1,10,29,3,1,1,A,E,b,y,5,15,51001,1,1,563,158
1,10,29,3,1,1,A,E,b,y,5,15,51001,1,3,509,231
1,10,29,3,1,1,A,E,b,y,5,15,52001,1,1,437,19
1,10,29,3,1,1,A,E,b,y,5,15,52001,1,3,493,356
1,10,29,3,1,1,A,E,b,y,5,15,53001,1,1,445,17
1,10,29,3,1,1,A,E,b,y,5,15,53001,1,3,505,368
1,10,29,3,1,1,A,E,b,y,5,15,54001,1,3,486,446
1,10,29,3,1,1,A,E,b,y,5,15,55001,1,1,478,376
1,10,29,3,1,1,A,E,b,y,5,15,55001,1,3,482,479
1,10,29,3,1,1,A,E,b,y,5,15,56001,1,1,281,129
1,10,29,3,1,1,A,E,b,y,5,15,56001,1,3,439,492
1,10,29,3,1,1,A,E,b,y,5,15,57001,1,1,440,255
1,10,29,3,1,1,A,E,b,y,5,15,57001,1,3,412,525
1,10,29,3,1,1,A,E,b,y,5,15,58001,1,1,443,256
1,10,29,3,1,1,A,E,b,y,5,15,58001,1,3,387,538
1,10,29,3,1,1,A,E,b,y,5,15,59001,1,1,444,255
1,10,29,3,1,1,A,E,b,y,5,15,59001,1,3,322,531
1,10,29,3,1,1,A,E,b,y,5,15,60001,1,1,441,252
1,10,29,3,1,1,A,E,b,y,5,15,60001,1,3,287,473
1,10,29,3,1,1,A,E,b,y,5,15,61001,1,1,442,259
1,10,29,3,1,1,A,E,b,y,5,15,61001,1,3,270,408
1,10,29,3,1,1,A,E,b,y,5,15,62001,1,1,408,420
1,10,29,3,1,1,A,E,b,y,5,15,62001,1,3,280,410
1,10,29,3,1,1,A,E,b,y,5,15,63001,1,1,514,113
1,10,29,3,1,1,A,E,b,y,5,15,63001,1,3,316,434
1,10,29,3,1,1,A,E,b,y,5,15,64001,1,1,515,100
1,10,29,3,1,1,A,E,b,y,5,15,64001,1,3,336,472
1,10,29,3,1,1,A,E,b,y,5,15,65001,1,1,135,279
1,10,29,3,1,1,A,E,b,y,5,15,65001,1,3,332,483
1,10,29,3,1,1,A,E,b,y,5,15,66001,1,1,322,72
1,10,29,3,1,1,A,E,b,y,5,15,66001,1,3,372,517
1,10,29,3,1,1,A,E,b,y,5,15,67001,1,1,366,131
1,10,29,3,1,1,A,E,b,y,5,15,67001,1,3,382,539
1,10,29,3,1,1,A,E,b,y,5,15,68001,1,1,373,130
1,10,29,3,1,1,A,E,b,y,5,15,68001,1,3,340,535
1,10,29,3,1,1,A,E,b,y,5,15,69001,1,1,378,129
1,10,29,3,1,1,A,E,b,y,5,15,69001,1,3,319,518
1,10,29,3,1,1,A,E,b,y,5,15,70001,1,1,368,124
1,10,29,3,1,1,A,E,b,y,5,15,70001,1,3,315,519
1,10,29,3,1,1,A,E,b,y,5,15,71001,1,1,379,134
1,10,29,3,1,1,A,E,b,y,5,15,71001,1,3,326,517
1,10,29,3,1,1,A,E,b,y,5,15,72001,1,1,382,135
1,10,29,3,1,1,A,E,b,y,5,15,72001,1,3,318,512
1,10,29,3,1,1,A,E,b,y,5,15,73001,1,1,374,126
1,10,29,3,1,1,A,E,b,y,5,15,73001,1,3,332,527
1,10,29,3,1,1,A,E,b,y,5,15,74001,1,1,375,133
1,10,29,3,1,1,A,E,b,y,5,15,74001,1,3,316,510
1,10,29,3,1,1,A,E,b,y,5,15,75001,1,3,315,517
1,10,29,3,1,1,A,E,b,y,5,15,75001,1,1,378,125
1,10,29,3,1,1,A,E,b,y,5,15,76001,1,1,380,134
1,10,29,3,1,1,A,E,b,y,5,15,76001,1,3,291,472
1,10,29,3,1,1,A,E,b,y,5,15,77001,1,1,383,136
1,10,29,3,1,1,A,E,b,y,5,15,77001,1,3,273,404
1,10,29,3,1,1,A,E,b,y,5,15,78001,1,1,381,136
1,10,29,3,1,1,A,E,b,y,5,15,78001,1,1,203,357
1,10,29,3,1,1,A,E,b,y,5,15,79001,1,1,383,132
1,10,29,3,1,1,A,E,b,y,5,15,79001,1,3,226,313
1,10,29,3,1,1,A,E,b,y,5,15,80001,1,1,376,137
1,10,29,3,1,1,A,E,b,y,5,15,80001,1,3,343,336
1,10,29,3,1,1,A,E,b,y,5,15,81001,1,1,384,390
1,10,29,3,1,1,A,E,b,y,5,15,81001,1,3,389,335
1,10,29,3,1,1,A,E,b,y,5,15,82001,1,1,456,419
1,10,29,3,1,1,A,E,b,y,5,15,82001,1,3,411,395
1,10,29,3,1,1,A,E,b,y,5,15,83001,1,3,436,447
1,10,29,3,1,1,A,E,b,y,5,15,83001,1,1,418,147
1,10,29,3,1,1,A,E,b,y,5,15,84001,1,1,412,145
1,10,29,3,1,1,A,E,b,y,5,15,84001,1,3,467,452
1,10,29,3,1,1,A,E,b,y,5,15,85001,1,1,414,146
1,10,29,3,1,1,A,E,b,y,5,15,85001,1,3,572,444
1,10,29,3,1,1,A,E,b,y,5,15,86001,1,1,422,151
1,10,29,3,1,1,A,E,b,y,5,15,86001,1,3,587,403
1,10,29,3,1,1,A,E,b,y,5,15,87001,1,1,420,145
1,10,29,3,1,1,A,E,b,y,5,15,87001,1,3,596,377
1,10,29,3,1,1,A,E,b,y,5,15,88001,1,1,417,151
1,10,29,3,1,1,A,E,b,y,5,15,88001,1,3,583,349
1,10,29,3,1,1,A,E,b,y,5,15,89001,1,1,417,150
1,10,29,3,1,1,A,E,b,y,5,15,89001,1,3,612,267
1,10,29,3,1,1,A,E,b,y,5,15,90001,1,1,421,152
1,10,29,3,1,1,A,E,b,y,5,15,90001,1,3,605,203
1,10,29,3,1,1,A,E,b,y,5,15,91001,1,1,421,153
1,10,29,3,1,1,A,E,b,y,5,15,91001,1,3,565,177
1,10,29,3,1,1,A,E,b,y,5,15,92001,1,3,499,217
1,10,29,3,1,1,A,E,b,y,5,15,92001,1,1,384,360
1,10,29,3,1,1,A,E,b,y,5,15,93001,1,3,502,251
1,10,29,3,1,1,A,E,b,y,5,15,93001,1,1,367,299
1,10,29,3,1,1,A,E,b,y,5,15,94001,1,3,496,274
1,10,29,3,1,1,A,E,b,y,5,15,94001,1,1,372,293
1,10,29,3,1,1,A,E,b,y,5,15,95001,1,1,519,300
1,10,29,3,1,1,A,E,b,y,5,15,95001,1,1,424,307
1,10,29,3,1,1,A,E,b,y,5,15,95001,1,3,384,240
1,10,29,3,1,1,A,E,b,y,5,15,96001,1,3,454,206
1,10,29,3,1,1,A,E,b,y,5,15,96001,1,1,217,495
1,10,29,3,1,1,A,E,b,y,5,15,97001,1,3,522,110
1,10,29,3,1,1,A,E,b,y,5,15,97001,1,1,242,483
1,10,29,3,1,1,A,E,b,y,5,15,98001,1,3,534,111
1,10,29,3,1,1,A,E,b,y,5,15,98001,1,1,283,460
1,10,29,3,1,1,A,E,b,y,5,15,99001,1,3,566,139
1,10,29,3,1,1,A,E,b,y,5,15,99001,1,1,343,385
1,10,29,3,1,1,A,E,b,y,5,15,100001,1,3,587,224
1,10,29,3,1,1,A,E,b,y,5,15,100001,1,1,364,379
1,10,29,3,1,1,A,E,b,y,5,15,101001,1,3,591,198
1,10,29,3,1,1,A,E,b,y,5,15,101001,1,1,357,380
1,10,29,3,1,1,A,E,b,y,5,15,102001,1,1,558,158
1,10,29,3,1,1,A,E,b,y,5,15,102001,1,3,481,168
1,10,29,3,1,1,A,E,b,y,5,15,103001,1,1,495,146
1,10,29,3,1,1,A,E,b,y,5,15,103001,1,3,427,313
1,10,29,3,1,1,A,E,b,y,5,15,104001,1,1,572,204
1,10,29,3,1,1,A,E,b,y,5,15,104001,1,3,604,351
1,10,29,3,1,1,A,E,b,y,5,15,105001,1,1,360,164
1,10,29,3,1,1,A,E,b,y,5,15,105001,1,3,625,341
1,10,29,3,1,1,A,E,b,y,5,15,106001,1,1,355,163
1,10,29,3,1,1,A,E,b,y,5,15,106001,1,3,611,335
1,10,29,3,1,1,A,E,b,y,5,15,107001,1,1,357,159
1,10,29,3,1,1,A,E,b,y,5,15,107001,1,3,629,308
