dummy,month,day,period,view,station,fgeno,mgeno,fcol,mcol,nf,nm,frame,something,sex,x,y
1,6,25,3,3,2,B,F,b,y,10,10,1,1,1,317.9484,352.2824
1,6,25,3,3,2,B,F,b,y,10,10,1,1,1,290.9315,442.3386
1,6,25,3,3,2,B,F,b,y,10,10,1,1,3,310.4437,415.3218
1,6,25,3,3,2,B,F,b,y,10,10,1001,1,1,253.4081,389.8058
1,6,25,3,3,2,B,F,b,y,10,10,1001,1,3,298.4362,410.8189
1,6,25,3,3,2,B,F,b,y,10,10,2001,1,1,508.5675,196.1848
1,6,25,3,3,2,B,F,b,y,10,10,2001,1,3,496.56,131.6445
1,6,25,3,3,2,B,F,b,y,10,10,3001,1,1,474.046,56.5976
1,6,25,3,3,2,B,F,b,y,10,10,13001,1,1,365.9784,205.1904
1,6,25,3,3,2,B,F,b,y,10,10,16001,1,1,451.5319,560.9128
1,6,25,3,3,2,B,F,b,y,10,10,17001,1,1,337.4606,479.8621
1,6,25,3,3,2,B,F,b,y,10,10,17001,1,1,543.0891,499.3743
1,6,25,3,3,2,B,F,b,y,10,10,17001,1,1,577.6107,499.3743
1,6,25,3,3,2,B,F,b,y,10,10,17001,1,3,598.6238,463.3518
1,6,25,3,3,2,B,F,b,y,10,10,18001,1,1,337.4606,173.6707
1,6,25,3,3,2,B,F,b,y,10,10,18001,1,3,355.4719,239.712
1,6,25,3,3,2,B,F,b,y,10,10,19001,1,3,166.3537,428.8302
1,6,25,3,3,2,B,F,b,y,10,10,20001,1,3,562.6013,493.3705
1,6,25,3,3,2,B,F,b,y,10,10,21001,1,1,296.9353,514.3837
1,6,25,3,3,2,B,F,b,y,10,10,21001,1,3,588.1173,499.3743
1,6,25,3,3,2,B,F,b,y,10,10,22001,1,1,532.5826,545.9034
1,6,25,3,3,2,B,F,b,y,10,10,22001,1,1,606.1285,511.3818
1,6,25,3,3,2,B,F,b,y,10,10,22001,1,2,637.6482,485.8659
1,6,25,3,3,2,B,F,b,y,10,10,23001,1,1,504.0647,181.1754
1,6,25,3,3,2,B,F,b,y,10,10,24001,1,1,346.4662,155.6595
1,6,25,3,3,2,B,F,b,y,10,10,25001,1,1,292.4325,233.7083
1,6,25,3,3,2,B,F,b,y,10,10,25001,1,3,284.9278,281.7383
1,6,25,3,3,2,B,F,b,y,10,10,26001,1,1,319.4493,565.4156
1,6,25,3,3,2,B,F,b,y,10,10,27001,1,1,353.9709,545.9034
1,6,25,3,3,2,B,F,b,y,10,10,28001,1,1,386.9916,562.4137
1,6,25,3,3,2,B,F,b,y,10,10,29001,1,3,209.8809,217.1979
1,6,25,3,3,2,B,F,b,y,10,10,29001,1,1,487.5544,98.6238
1,6,25,3,3,2,B,F,b,y,10,10,29001,1,1,260.9128,71.6069
1,6,25,3,3,2,B,F,b,y,10,10,30001,1,1,265.4156,187.1792
1,6,25,3,3,2,B,F,b,y,10,10,30001,1,3,275.9221,247.2167
1,6,25,3,3,2,B,F,b,y,10,10,30001,1,1,278.924,326.7664
1,6,25,3,3,2,B,F,b,y,10,10,30001,1,1,230.894,344.7777
1,6,25,3,3,2,B,F,b,y,10,10,30001,1,3,242.9015,358.2861
1,6,25,3,3,2,B,F,b,y,10,10,31001,1,1,442.5263,137.6482
1,6,25,3,3,2,B,F,b,y,10,10,31001,1,1,459.0366,181.1754
1,6,25,3,3,2,B,F,b,y,10,10,31001,1,1,496.56,190.1811
1,6,25,3,3,2,B,F,b,y,10,10,31001,1,1,498.061,146.6538
1,6,25,3,3,2,B,F,b,y,10,10,31001,1,3,475.5469,212.6951
1,6,25,3,3,2,B,F,b,y,10,10,33001,1,1,423.0141,131.6445
1,6,25,3,3,2,B,F,b,y,10,10,33001,1,1,615.1341,277.2355
1,6,25,3,3,2,B,F,b,y,10,10,37001,1,1,358.4737,461.8508
1,6,25,3,3,2,B,F,b,y,10,10,38001,1,1,460.5375,113.6332
1,6,25,3,3,2,B,F,b,y,10,10,39001,1,1,226.3912,517.3856
1,6,25,3,3,2,B,F,b,y,10,10,40001,1,1,160.3499,194.6839
1,6,25,3,3,2,B,F,b,y,10,10,41001,1,1,406.5038,371.7946
1,6,25,3,3,2,B,F,b,y,10,10,41001,1,3,414.0084,317.7608
1,6,25,3,3,2,B,F,b,y,10,10,44001,1,1,525.0779,460.3499
1,6,25,3,3,2,B,F,b,y,10,10,45001,1,1,365.9784,439.3368
1,6,25,3,3,2,B,F,b,y,10,10,45001,1,3,370.4812,397.3105
1,6,25,3,3,2,B,F,b,y,10,10,46001,1,3,313.4456,98.6238
1,6,25,3,3,2,B,F,b,y,10,10,48001,1,1,268.4174,146.6538
1,6,25,3,3,2,B,F,b,y,10,10,52001,1,1,616.6351,257.7233
1,6,25,3,3,2,B,F,b,y,10,10,53001,1,1,406.5038,37.0854
1,6,25,3,3,2,B,F,b,y,10,10,54001,1,1,634.6463,179.6745
1,6,25,3,3,2,B,F,b,y,10,10,58001,1,1,344.9653,152.6576
1,6,25,3,3,2,B,F,b,y,10,10,59001,1,1,418.5113,539.8996
1,6,25,3,3,2,B,F,b,y,10,10,60001,1,1,371.9822,539.8996
1,6,25,3,3,2,B,F,b,y,10,10,61001,1,1,377.9859,539.8996
1,6,25,3,3,2,B,F,b,y,10,10,61001,1,3,438.0235,475.3593
1,6,25,3,3,2,B,F,b,y,10,10,62001,1,1,395.9972,391.3068
1,6,25,3,3,2,B,F,b,y,10,10,64001,1,1,139.3368,269.7308
1,6,25,3,3,2,B,F,b,y,10,10,64001,1,3,170.8565,299.7495
1,6,25,3,3,2,B,F,b,y,10,10,65001,1,1,140.8377,281.7383
1,6,25,3,3,2,B,F,b,y,10,10,65001,1,1,140.8377,301.2505
1,6,25,3,3,2,B,F,b,y,10,10,65001,1,3,181.363,295.2467
1,6,25,3,3,2,B,F,b,y,10,10,66001,1,1,379.4869,425.8283
1,6,25,3,3,2,B,F,b,y,10,10,66001,1,3,362.9765,395.8096
1,6,25,3,3,2,B,F,b,y,10,10,67001,1,1,398.9991,382.3011
1,6,25,3,3,2,B,F,b,y,10,10,67001,1,1,395.9972,418.3236
1,6,25,3,3,2,B,F,b,y,10,10,67001,1,3,406.5038,389.8058
1,6,25,3,3,2,B,F,b,y,10,10,70001,1,1,233.8959,232.2073
1,6,25,3,3,2,B,F,b,y,10,10,71001,1,1,436.5225,433.333
1,6,25,3,3,2,B,F,b,y,10,10,71001,1,1,601.6257,259.2242
1,6,25,3,3,2,B,F,b,y,10,10,74001,1,1,166.3537,229.2054
1,6,25,3,3,2,B,F,b,y,10,10,75001,1,1,296.9353,85.1154
1,6,25,3,3,2,B,F,b,y,10,10,76001,1,1,391.4944,568.4174
1,6,25,3,3,2,B,F,b,y,10,10,77001,1,1,377.9859,511.3818
1,6,25,3,3,2,B,F,b,y,10,10,78001,1,1,230.894,164.6651
1,6,25,3,3,2,B,F,b,y,10,10,78001,1,2,241.4006,101.6257
1,6,25,3,3,2,B,F,b,y,10,10,80001,1,1,466.5413,568.4174
1,6,25,3,3,2,B,F,b,y,10,10,85001,1,3,373.4831,160.1623
1,6,25,3,3,2,B,F,b,y,10,10,87001,1,1,266.9165,164.6651
1,6,25,3,3,2,B,F,b,y,10,10,88001,1,1,552.0947,127.1417
1,6,25,3,3,2,B,F,b,y,10,10,92001,1,1,331.4568,137.6482
1,6,25,3,3,2,B,F,b,y,10,10,93001,1,1,445.5281,548.9053
1,6,25,3,3,2,B,F,b,y,10,10,94001,1,1,427.5169,154.1585
1,6,25,3,3,2,B,F,b,y,10,10,95001,1,1,408.0047,551.9071
1,6,25,3,3,2,B,F,b,y,10,10,96001,1,1,188.8677,415.3218
1,6,25,3,3,2,B,F,b,y,10,10,97001,1,1,295.4343,541.4006
1,6,25,3,3,2,B,F,b,y,10,10,98001,1,1,564.1023,515.8846
1,6,25,3,3,2,B,F,b,y,10,10,99001,1,1,367.4794,71.6069
1,6,25,3,3,2,B,F,b,y,10,10,100001,1,1,217.3856,254.7214
1,6,25,3,3,2,B,F,b,y,10,10,101001,1,1,432.0197,499.3743
1,6,25,3,3,2,B,F,b,y,10,10,101001,1,1,158.849,430.3311
1,6,25,3,3,2,B,F,b,y,10,10,102001,1,1,574.6088,137.6482
1,6,25,3,3,2,B,F,b,y,10,10,103001,1,1,415.5094,50.5938
1,6,25,3,3,2,B,F,b,y,10,10,104001,1,1,176.8602,445.3405
1,6,25,3,3,2,B,F,b,y,10,10,105001,1,1,239.8996,385.303
1,6,25,3,3,2,B,F,b,y,10,10,106001,1,1,338.9615,560.9128
1,6,25,3,3,2,B,F,b,y,10,10,107001,1,1,178.3612,274.2336
