dummy,month,day,period,view,station,fgeno,mgeno,fcol,mcol,nf,nm,frame,something,sex,x,y
1,6,18,3,1,1,C,G,b,y,5,15,1,1,1,592,268
1,6,18,3,1,1,C,G,b,y,5,15,1001,1,1,587,239
1,6,18,3,1,1,C,G,b,y,5,15,2001,1,1,563,158
1,6,18,3,1,1,C,G,b,y,5,15,3001,1,1,187,289
1,6,18,3,1,1,C,G,b,y,5,15,4001,1,1,294,70
1,6,18,3,1,1,C,G,b,y,5,15,6001,1,1,507,92
1,6,18,3,1,1,C,G,b,y,5,15,7001,1,1,154,407
1,6,18,3,1,1,C,G,b,y,5,15,7001,1,1,188,436
1,6,18,3,1,1,C,G,b,y,5,15,8001,1,1,492,465
1,6,18,3,1,1,C,G,b,y,5,15,9001,1,1,153,244
1,6,18,3,1,1,C,G,b,y,5,15,10001,1,1,173,111
1,6,18,3,1,1,C,G,b,y,5,15,10001,1,1,560,129
1,6,18,3,1,1,C,G,b,y,5,15,11001,1,1,312,82
1,6,18,3,1,1,C,G,b,y,5,15,11001,1,1,232,140
1,6,18,3,1,1,C,G,b,y,5,15,12001,1,1,528,70
1,6,18,3,1,1,C,G,b,y,5,15,12001,1,1,544,250
1,6,18,3,1,1,C,G,b,y,5,15,12001,1,1,423,42
1,6,18,3,1,1,C,G,b,y,5,15,15001,1,1,230,92
1,6,18,3,1,1,C,G,b,y,5,15,16001,1,1,404,20
1,6,18,3,1,1,C,G,b,y,5,15,17001,1,1,308,377
1,6,18,3,1,1,C,G,b,y,5,15,18001,1,1,426,53
1,6,18,3,1,1,C,G,b,y,5,15,19001,1,1,438,63
1,6,18,3,1,1,C,G,b,y,5,15,20001,1,1,395,16
1,6,18,3,1,1,C,G,b,y,5,15,20001,1,1,93,302
1,6,18,3,1,1,C,G,b,y,5,15,21001,1,1,476,214
1,6,18,3,1,1,C,G,b,y,5,15,21001,1,1,90,302
1,6,18,3,1,1,C,G,b,y,5,15,22001,1,1,342,53
1,6,18,3,1,1,C,G,b,y,5,15,22001,1,1,316,554
1,6,18,3,1,1,C,G,b,y,5,15,23001,1,1,399,439
1,6,18,3,1,1,C,G,b,y,5,15,25001,1,1,454,365
1,6,18,3,1,1,C,G,b,y,5,15,26001,1,1,327,63
1,6,18,3,1,1,C,G,b,y,5,15,27001,1,1,301,167
1,6,18,3,1,1,C,G,b,y,5,15,28001,1,1,388,75
1,6,18,3,1,1,C,G,b,y,5,15,29001,1,1,383,77
1,6,18,3,1,1,C,G,b,y,5,15,30001,1,1,352,397
1,6,18,3,1,1,C,G,b,y,5,15,31001,1,1,353,44
1,6,18,3,1,1,C,G,b,y,5,15,32001,1,1,132,259
1,6,18,3,1,1,C,G,b,y,5,15,33001,1,1,325,70
1,6,18,3,1,1,C,G,b,y,5,15,34001,1,1,326,76
1,6,18,3,1,1,C,G,b,y,5,15,35001,1,1,327,76
1,6,18,3,1,1,C,G,b,y,5,15,36001,1,1,325,72
1,6,18,3,1,1,C,G,b,y,5,15,37001,1,1,399,38
1,6,18,3,1,1,C,G,b,y,5,15,38001,1,1,401,33
1,6,18,3,1,1,C,G,b,y,5,15,39001,1,1,391,31
1,6,18,3,1,1,C,G,b,y,5,15,40001,1,1,390,28
1,6,18,3,1,1,C,G,b,y,5,15,41001,1,1,392,28
1,6,18,3,1,1,C,G,b,y,5,15,42001,1,1,397,20
1,6,18,3,1,1,C,G,b,y,5,15,43001,1,1,407,21
1,6,18,3,1,1,C,G,b,y,5,15,44001,1,1,411,28
1,6,18,3,1,1,C,G,b,y,5,15,45001,1,1,410,19
1,6,18,3,1,1,C,G,b,y,5,15,46001,1,1,482,37
1,6,18,3,1,1,C,G,b,y,5,15,47001,1,1,478,38
1,6,18,3,1,1,C,G,b,y,5,15,48001,1,1,482,35
1,6,18,3,1,1,C,G,b,y,5,15,49001,1,1,556,171
1,6,18,3,1,1,C,G,b,y,5,15,50001,1,1,553,182
1,6,18,3,1,1,C,G,b,y,5,15,51001,1,1,555,181
1,6,18,3,1,1,C,G,b,y,5,15,52001,1,1,203,370
1,6,18,3,1,1,C,G,b,y,5,15,53001,1,1,205,370
1,6,18,3,1,1,C,G,b,y,5,15,54001,1,1,203,371
1,6,18,3,1,1,C,G,b,y,5,15,55001,1,1,394,376
1,6,18,3,1,1,C,G,b,y,5,15,56001,1,1,395,379
1,6,18,3,1,1,C,G,b,y,5,15,57001,1,1,393,376
1,6,18,3,1,1,C,G,b,y,5,15,58001,1,1,247,252
1,6,18,3,1,1,C,G,b,y,5,15,59001,1,1,248,245
1,6,18,3,1,1,C,G,b,y,5,15,60001,1,1,249,248
1,6,18,3,1,1,C,G,b,y,5,15,61001,1,1,248,244
1,6,18,3,1,1,C,G,b,y,5,15,62001,1,1,248,247
1,6,18,3,1,1,C,G,b,y,5,15,63001,1,1,245,247
1,6,18,3,1,1,C,G,b,y,5,15,64001,1,1,244,246
1,6,18,3,1,1,C,G,b,y,5,15,65001,1,1,247,246
1,6,18,3,1,1,C,G,b,y,5,15,65001,1,3,529,80
1,6,18,3,1,1,C,G,b,y,5,15,66001,1,3,531,89
1,6,18,3,1,1,C,G,b,y,5,15,66001,1,1,247,249
1,6,18,3,1,1,C,G,b,y,5,15,67001,1,3,520,134
1,6,18,3,1,1,C,G,b,y,5,15,67001,1,1,520,164
1,6,18,3,1,1,C,G,b,y,5,15,68001,1,3,461,157
1,6,18,3,1,1,C,G,b,y,5,15,68001,1,1,472,123
1,6,18,3,1,1,C,G,b,y,5,15,69001,1,3,461,172
1,6,18,3,1,1,C,G,b,y,5,15,69001,1,1,468,144
1,6,18,3,1,1,C,G,b,y,5,15,70001,1,3,467,179
1,6,18,3,1,1,C,G,b,y,5,15,70001,1,1,439,154
1,6,18,3,1,1,C,G,b,y,5,15,71001,1,3,464,177
1,6,18,3,1,1,C,G,b,y,5,15,71001,1,1,483,141
1,6,18,3,1,1,C,G,b,y,5,15,72001,1,1,488,145
1,6,18,3,1,1,C,G,b,y,5,15,72001,1,3,462,177
1,6,18,3,1,1,C,G,b,y,5,15,73001,1,3,460,176
1,6,18,3,1,1,C,G,b,y,5,15,73001,1,1,470,203
1,6,18,3,1,1,C,G,b,y,5,15,74001,1,1,466,183
1,6,18,3,1,1,C,G,b,y,5,15,74001,1,3,431,189
1,6,18,3,1,1,C,G,b,y,5,15,75001,1,1,475,178
1,6,18,3,1,1,C,G,b,y,5,15,75001,1,3,434,193
1,6,18,3,1,1,C,G,b,y,5,15,76001,1,1,463,187
1,6,18,3,1,1,C,G,b,y,5,15,76001,1,3,455,221
1,6,18,3,1,1,C,G,b,y,5,15,77001,1,3,481,221
1,6,18,3,1,1,C,G,b,y,5,15,77001,1,1,438,221
1,6,18,3,1,1,C,G,b,y,5,15,78001,1,1,365,27
1,6,18,3,1,1,C,G,b,y,5,15,79001,1,1,403,52
1,6,18,3,1,1,C,G,b,y,5,15,80001,1,1,364,521
1,6,18,3,1,1,C,G,b,y,5,15,81001,1,1,388,42
1,6,18,3,1,1,C,G,b,y,5,15,82001,1,1,308,46
1,6,18,3,1,1,C,G,b,y,5,15,83001,1,1,157,313
1,6,18,3,1,1,C,G,b,y,5,15,84001,1,1,313,362
1,6,18,3,1,1,C,G,b,y,5,15,85001,1,1,321,336
1,6,18,3,1,1,C,G,b,y,5,15,86001,1,1,233,115
1,6,18,3,1,1,C,G,b,y,5,15,87001,1,1,288,116
1,6,18,3,1,1,C,G,b,y,5,15,88001,1,1,295,119
1,6,18,3,1,1,C,G,b,y,5,15,89001,1,1,286,117
1,6,18,3,1,1,C,G,b,y,5,15,90001,1,1,284,117
1,6,18,3,1,1,C,G,b,y,5,15,91001,1,1,289,117
1,6,18,3,1,1,C,G,b,y,5,15,92001,1,1,289,119
1,6,18,3,1,1,C,G,b,y,5,15,93001,1,1,300,150
1,6,18,3,1,1,C,G,b,y,5,15,94001,1,1,637,212
1,6,18,3,1,1,C,G,b,y,5,15,95001,1,1,483,367
1,6,18,3,1,1,C,G,b,y,5,15,96001,1,1,128,251
1,6,18,3,1,1,C,G,b,y,5,15,97001,1,1,252,153
1,6,18,3,1,1,C,G,b,y,5,15,98001,1,1,255,154
1,6,18,3,1,1,C,G,b,y,5,15,99001,1,1,258,156
1,6,18,3,1,1,C,G,b,y,5,15,100001,1,1,246,154
1,6,18,3,1,1,C,G,b,y,5,15,101001,1,1,243,155
1,6,18,3,1,1,C,G,b,y,5,15,102001,1,1,242,154
1,6,18,3,1,1,C,G,b,y,5,15,103001,1,1,241,153
1,6,18,3,1,1,C,G,b,y,5,15,104001,1,1,245,157
1,6,18,3,1,1,C,G,b,y,5,15,105001,1,1,245,155
1,6,18,3,1,1,C,G,b,y,5,15,106001,1,1,243,151
1,6,18,3,1,1,C,G,b,y,5,15,107001,1,1,246,151
