dummy,month,day,period,view,station,fgeno,mgeno,fcol,mcol,nf,nm,frame,something,sex,x,y
1,2,10,2,2,2,B,F,y,b,5,15,1,1,3,436,183
1,2,10,2,2,2,B,F,y,b,5,15,1,1,3,641,438
1,2,10,2,2,2,B,F,y,b,5,15,1,1,1,610,450
1,2,10,2,2,2,B,F,y,b,5,15,1001,1,3,442,195
1,2,10,2,2,2,B,F,y,b,5,15,1001,1,1,426,165
1,2,10,2,2,2,B,F,y,b,5,15,2001,1,1,205,178
1,2,10,2,2,2,B,F,y,b,5,15,5001,1,1,297,197
1,2,10,2,2,2,B,F,y,b,5,15,5001,1,1,730,341
1,2,10,2,2,2,B,F,y,b,5,15,6001,1,3,711,323
1,2,10,2,2,2,B,F,y,b,5,15,6001,1,1,546,515
1,2,10,2,2,2,B,F,y,b,5,15,7001,1,1,429,244
1,2,10,2,2,2,B,F,y,b,5,15,7001,1,3,406,266
1,2,10,2,2,2,B,F,y,b,5,15,12001,1,1,538,133
1,2,10,2,2,2,B,F,y,b,5,15,13001,1,3,494,148
1,2,10,2,2,2,B,F,y,b,5,15,14001,1,3,531,214
1,2,10,2,2,2,B,F,y,b,5,15,14001,1,1,503,190
1,2,10,2,2,2,B,F,y,b,5,15,15001,1,1,734,361
1,2,10,2,2,2,B,F,y,b,5,15,15001,1,1,562,369
1,2,10,2,2,2,B,F,y,b,5,15,15001,1,3,206,245
1,2,10,2,2,2,B,F,y,b,5,15,16001,1,1,519,455
1,2,10,2,2,2,B,F,y,b,5,15,16001,1,1,471,456
1,2,10,2,2,2,B,F,y,b,5,15,16001,1,3,448,394
1,2,10,2,2,2,B,F,y,b,5,15,17001,1,1,230,495
1,2,10,2,2,2,B,F,y,b,5,15,18001,1,1,291,269
1,2,10,2,2,2,B,F,y,b,5,15,18001,1,1,269,227
1,2,10,2,2,2,B,F,y,b,5,15,19001,1,1,401,581
1,2,10,2,2,2,B,F,y,b,5,15,21001,1,1,627,364
1,2,10,2,2,2,B,F,y,b,5,15,23001,1,1,428,86
1,2,10,2,2,2,B,F,y,b,5,15,26001,1,1,663,103
1,2,10,2,2,2,B,F,y,b,5,15,31001,1,1,340,383
1,2,10,2,2,2,B,F,y,b,5,15,32001,1,1,485,531
1,2,10,2,2,2,B,F,y,b,5,15,33001,1,1,396,168
1,2,10,2,2,2,B,F,y,b,5,15,37001,1,1,447,420
1,2,10,2,2,2,B,F,y,b,5,15,38001,1,1,508,495
1,2,10,2,2,2,B,F,y,b,5,15,39001,1,1,591,510
1,2,10,2,2,2,B,F,y,b,5,15,49001,1,1,437,100
1,2,10,2,2,2,B,F,y,b,5,15,53001,1,1,701,306
1,2,10,2,2,2,B,F,y,b,5,15,54001,1,1,586,426
1,2,10,2,2,2,B,F,y,b,5,15,62001,1,1,265,371
1,2,10,2,2,2,B,F,y,b,5,15,65001,1,1,605,353
1,2,10,2,2,2,B,F,y,b,5,15,66001,1,1,328,125
1,2,10,2,2,2,B,F,y,b,5,15,69001,1,1,292,227
1,2,10,2,2,2,B,F,y,b,5,15,72001,1,1,681,234
1,2,10,2,2,2,B,F,y,b,5,15,78001,1,3,360,367
1,2,10,2,2,2,B,F,y,b,5,15,78001,1,1,310,399
1,2,10,2,2,2,B,F,y,b,5,15,79001,1,1,400,457
1,2,10,2,2,2,B,F,y,b,5,15,79001,1,3,378,500
1,2,10,2,2,2,B,F,y,b,5,15,80001,1,3,376,391
1,2,10,2,2,2,B,F,y,b,5,15,80001,1,1,396,433
1,2,10,2,2,2,B,F,y,b,5,15,81001,1,1,423,325
1,2,10,2,2,2,B,F,y,b,5,15,81001,1,3,469,340
1,2,10,2,2,2,B,F,y,b,5,15,82001,1,1,502,494
1,2,10,2,2,2,B,F,y,b,5,15,85001,1,1,360,37
1,2,10,2,2,2,B,F,y,b,5,15,87001,1,1,631,391
1,2,10,2,2,2,B,F,y,b,5,15,87001,1,1,560,485
1,2,10,2,2,2,B,F,y,b,5,15,88001,1,1,742,252
1,2,10,2,2,2,B,F,y,b,5,15,89001,1,1,528,25
1,2,10,2,2,2,B,F,y,b,5,15,93001,1,3,510,188
1,2,10,2,2,2,B,F,y,b,5,15,94001,1,3,499,321
1,2,10,2,2,2,B,F,y,b,5,15,95001,1,3,493,458
1,2,10,2,2,2,B,F,y,b,5,15,96001,1,3,508,442
1,2,10,2,2,2,B,F,y,b,5,15,96001,1,1,491,403
1,2,10,2,2,2,B,F,y,b,5,15,97001,1,3,474,256
1,2,10,2,2,2,B,F,y,b,5,15,97001,1,1,424,308
1,2,10,2,2,2,B,F,y,b,5,15,98001,1,1,295,349
1,2,10,2,2,2,B,F,y,b,5,15,98001,1,3,288,396
1,2,10,2,2,2,B,F,y,b,5,15,99001,1,1,376,389
1,2,10,2,2,2,B,F,y,b,5,15,99001,1,3,341,419
1,2,10,2,2,2,B,F,y,b,5,15,99001,1,3,529,535
1,2,10,2,2,2,B,F,y,b,5,15,100001,1,3,419,158
1,2,10,2,2,2,B,F,y,b,5,15,100001,1,3,650,332
1,2,10,2,2,2,B,F,y,b,5,15,100001,1,1,633,371
1,2,10,2,2,2,B,F,y,b,5,15,101001,1,3,435,176
1,2,10,2,2,2,B,F,y,b,5,15,101001,1,1,562,237
1,2,10,2,2,2,B,F,y,b,5,15,101001,1,3,584,319
1,2,10,2,2,2,B,F,y,b,5,15,102001,1,3,530,257
1,2,10,2,2,2,B,F,y,b,5,15,102001,1,3,622,343
1,2,10,2,2,2,B,F,y,b,5,15,102001,1,1,583,344
1,2,10,2,2,2,B,F,y,b,5,15,103001,1,1,554,249
1,2,10,2,2,2,B,F,y,b,5,15,103001,1,3,507,229
1,2,10,2,2,2,B,F,y,b,5,15,103001,1,3,380,144
1,2,10,2,2,2,B,F,y,b,5,15,104001,1,3,638,182
1,2,10,2,2,2,B,F,y,b,5,15,104001,1,1,344,134
1,2,10,2,2,2,B,F,y,b,5,15,104001,1,1,602,155
1,2,10,2,2,2,B,F,y,b,5,15,104001,1,3,466,511
1,2,10,2,2,2,B,F,y,b,5,15,105001,1,3,384,303
1,2,10,2,2,2,B,F,y,b,5,15,105001,1,1,368,451
1,2,10,2,2,2,B,F,y,b,5,15,105001,1,1,472,515
1,2,10,2,2,2,B,F,y,b,5,15,105001,1,1,471,487
1,2,10,2,2,2,B,F,y,b,5,15,105001,1,3,451,488
1,2,10,2,2,2,B,F,y,b,5,15,106001,1,3,441,53
1,2,10,2,2,2,B,F,y,b,5,15,106001,1,1,386,95
1,2,10,2,2,2,B,F,y,b,5,15,107001,1,1,676,351
1,2,10,2,2,2,B,F,y,b,5,15,107001,1,3,659,384
