dummy,month,day,period,view,station,fgeno,mgeno,fcol,mcol,nf,nm,frame,something,sex,x,y
1,7,10,2,0,1,B,G,b,y,10,10,1,1,1,248,49
1,7,10,2,0,1,B,G,b,y,10,10,1001,1,1,447,542
1,7,10,2,0,1,B,G,b,y,10,10,2001,1,1,111,239
1,7,10,2,0,1,B,G,b,y,10,10,3001,1,1,494,442
1,7,10,2,0,1,B,G,b,y,10,10,4001,1,1,602,234
1,7,10,2,0,1,B,G,b,y,10,10,5001,1,1,587,236
1,7,10,2,0,1,B,G,b,y,10,10,6001,1,1,587,253
1,7,10,2,0,1,B,G,b,y,10,10,7001,1,1,574,255
1,7,10,2,0,1,B,G,b,y,10,10,8001,1,1,302,465
1,7,10,2,0,1,B,G,b,y,10,10,9001,1,1,171,144
1,7,10,2,0,1,B,G,b,y,10,10,10001,1,1,260,502
1,7,10,2,0,1,B,G,b,y,10,10,11001,1,1,434,112
1,7,10,2,0,1,B,G,b,y,10,10,12001,1,1,437,114
1,7,10,2,0,1,B,G,b,y,10,10,13001,1,1,484,96
1,7,10,2,0,1,B,G,b,y,10,10,14001,1,1,418,148
1,7,10,2,0,1,B,G,b,y,10,10,15001,1,1,228,188
1,7,10,2,0,1,B,G,b,y,10,10,16001,1,1,191,121
1,7,10,2,0,1,B,G,b,y,10,10,17001,1,1,263,345
1,7,10,2,0,1,B,G,b,y,10,10,18001,1,1,327,64
1,7,10,2,0,1,B,G,b,y,10,10,18001,1,1,292,73
1,7,10,2,0,1,B,G,b,y,10,10,19001,1,1,153,332
1,7,10,2,0,1,B,G,b,y,10,10,20001,1,1,280,64
1,7,10,2,0,1,B,G,b,y,10,10,21001,1,1,285,68
1,7,10,2,0,1,B,G,b,y,10,10,22001,1,1,310,443
1,7,10,2,0,1,B,G,b,y,10,10,23001,1,1,128,351
1,7,10,2,0,1,B,G,b,y,10,10,24001,1,1,227,183
1,7,10,2,0,1,B,G,b,y,10,10,25001,1,1,157,413
1,7,10,2,0,1,B,G,b,y,10,10,25001,1,1,121,421
1,7,10,2,0,1,B,G,b,y,10,10,26001,1,1,377,72
1,7,10,2,0,1,B,G,b,y,10,10,27001,1,1,361,404
1,7,10,2,0,1,B,G,b,y,10,10,28001,1,1,182,206
1,7,10,2,0,1,B,G,b,y,10,10,29001,1,1,406,91
1,7,10,2,0,1,B,G,b,y,10,10,30001,1,1,463,545
1,7,10,2,0,1,B,G,b,y,10,10,31001,1,1,325,521
1,7,10,2,0,1,B,G,b,y,10,10,32001,1,1,341,497
1,7,10,2,0,1,B,G,b,y,10,10,34001,1,1,240,330
1,7,10,2,0,1,B,G,b,y,10,10,37001,1,1,137,254
1,7,10,2,0,1,B,G,b,y,10,10,38001,1,3,430,180
1,7,10,2,0,1,B,G,b,y,10,10,38001,1,1,434,568
1,7,10,2,0,1,B,G,b,y,10,10,39001,1,1,626,335
1,7,10,2,0,1,B,G,b,y,10,10,39001,1,1,257,489
1,7,10,2,0,1,B,G,b,y,10,10,39001,1,3,369,506
1,7,10,2,0,1,B,G,b,y,10,10,40001,1,3,305,530
1,7,10,2,0,1,B,G,b,y,10,10,40001,1,1,99,312
1,7,10,2,0,1,B,G,b,y,10,10,41001,1,1,289,400
1,7,10,2,0,1,B,G,b,y,10,10,41001,1,3,304,440
1,7,10,2,0,1,B,G,b,y,10,10,42001,1,1,405,436
1,7,10,2,0,1,B,G,b,y,10,10,42001,1,3,390,393
1,7,10,2,0,1,B,G,b,y,10,10,43001,1,1,417,388
1,7,10,2,0,1,B,G,b,y,10,10,43001,1,3,392,435
1,7,10,2,0,1,B,G,b,y,10,10,44001,1,3,360,483
1,7,10,2,0,1,B,G,b,y,10,10,44001,1,1,300,499
1,7,10,2,0,1,B,G,b,y,10,10,45001,1,3,334,412
1,7,10,2,0,1,B,G,b,y,10,10,45001,1,1,326,450
1,7,10,2,0,1,B,G,b,y,10,10,46001,1,1,230,347
1,7,10,2,0,1,B,G,b,y,10,10,46001,1,3,279,355
1,7,10,2,0,1,B,G,b,y,10,10,47001,1,3,204,304
1,7,10,2,0,1,B,G,b,y,10,10,47001,1,1,194,345
1,7,10,2,0,1,B,G,b,y,10,10,48001,1,3,300,314
1,7,10,2,0,1,B,G,b,y,10,10,48001,1,1,246,368
1,7,10,2,0,1,B,G,b,y,10,10,49001,1,3,339,488
1,7,10,2,0,1,B,G,b,y,10,10,50001,1,3,435,445
1,7,10,2,0,1,B,G,b,y,10,10,50001,1,1,407,471
1,7,10,2,0,1,B,G,b,y,10,10,51001,1,3,553,367
1,7,10,2,0,1,B,G,b,y,10,10,51001,1,1,203,440
1,7,10,2,0,1,B,G,b,y,10,10,52001,1,3,520,368
1,7,10,2,0,1,B,G,b,y,10,10,52001,1,1,500,138
1,7,10,2,0,1,B,G,b,y,10,10,53001,1,3,560,353
1,7,10,2,0,1,B,G,b,y,10,10,53001,1,1,334,524
1,7,10,2,0,1,B,G,b,y,10,10,54001,1,1,442,399
1,7,10,2,0,1,B,G,b,y,10,10,54001,1,1,617,279
1,7,10,2,0,1,B,G,b,y,10,10,54001,1,3,600,250
1,7,10,2,0,1,B,G,b,y,10,10,55001,1,1,504,244
1,7,10,2,0,1,B,G,b,y,10,10,55001,1,1,611,196
1,7,10,2,0,1,B,G,b,y,10,10,55001,1,3,591,228
1,7,10,2,0,1,B,G,b,y,10,10,56001,1,3,557,241
1,7,10,2,0,1,B,G,b,y,10,10,56001,1,1,338,72
1,7,10,2,0,1,B,G,b,y,10,10,56001,1,1,450,556
1,7,10,2,0,1,B,G,b,y,10,10,57001,1,3,598,268
1,7,10,2,0,1,B,G,b,y,10,10,57001,1,1,113,303
1,7,10,2,0,1,B,G,b,y,10,10,58001,1,3,595,185
1,7,10,2,0,1,B,G,b,y,10,10,58001,1,1,154,222
1,7,10,2,0,1,B,G,b,y,10,10,59001,1,3,428,473
1,7,10,2,0,1,B,G,b,y,10,10,59001,1,1,374,422
1,7,10,2,0,1,B,G,b,y,10,10,60001,1,1,310,443
1,7,10,2,0,1,B,G,b,y,10,10,60001,1,3,280,448
1,7,10,2,0,1,B,G,b,y,10,10,61001,1,3,225,461
1,7,10,2,0,1,B,G,b,y,10,10,61001,1,1,222,419
1,7,10,2,0,1,B,G,b,y,10,10,62001,1,3,302,456
1,7,10,2,0,1,B,G,b,y,10,10,62001,1,1,257,450
1,7,10,2,0,1,B,G,b,y,10,10,63001,1,3,507,477
1,7,10,2,0,1,B,G,b,y,10,10,63001,1,1,335,527
1,7,10,2,0,1,B,G,b,y,10,10,64001,1,1,581,389
1,7,10,2,0,1,B,G,b,y,10,10,64001,1,3,557,369
1,7,10,2,0,1,B,G,b,y,10,10,65001,1,3,463,46
1,7,10,2,0,1,B,G,b,y,10,10,65001,1,1,436,61
1,7,10,2,0,1,B,G,b,y,10,10,66001,1,1,205,106
1,7,10,2,0,1,B,G,b,y,10,10,66001,1,3,190,133
1,7,10,2,0,1,B,G,b,y,10,10,67001,1,3,176,312
1,7,10,2,0,1,B,G,b,y,10,10,67001,1,1,164,269
1,7,10,2,0,1,B,G,b,y,10,10,67001,1,1,261,441
1,7,10,2,0,1,B,G,b,y,10,10,68001,1,3,336,458
1,7,10,2,0,1,B,G,b,y,10,10,69001,1,3,526,364
1,7,10,2,0,1,B,G,b,y,10,10,69001,1,1,476,358
1,7,10,2,0,1,B,G,b,y,10,10,70001,1,3,405,374
1,7,10,2,0,1,B,G,b,y,10,10,70001,1,1,348,502
1,7,10,2,0,1,B,G,b,y,10,10,71001,1,1,544,495
1,7,10,2,0,1,B,G,b,y,10,10,71001,1,1,519,494
1,7,10,2,0,1,B,G,b,y,10,10,71001,1,3,481,477
1,7,10,2,0,1,B,G,b,y,10,10,72001,1,1,486,275
1,7,10,2,0,1,B,G,b,y,10,10,72001,1,3,566,134
1,7,10,2,0,1,B,G,b,y,10,10,73001,1,1,343,265
1,7,10,2,0,1,B,G,b,y,10,10,73001,1,1,271,77
1,7,10,2,0,1,B,G,b,y,10,10,73001,1,3,218,81
1,7,10,2,0,1,B,G,b,y,10,10,74001,1,3,442,68
1,7,10,2,0,1,B,G,b,y,10,10,74001,1,1,418,86
1,7,10,2,0,1,B,G,b,y,10,10,75001,1,1,159,186
1,7,10,2,0,1,B,G,b,y,10,10,76001,1,1,269,396
1,7,10,2,0,1,B,G,b,y,10,10,77001,1,1,350,44
1,7,10,2,0,1,B,G,b,y,10,10,78001,1,3,561,241
1,7,10,2,0,1,B,G,b,y,10,10,78001,1,1,154,431
1,7,10,2,0,1,B,G,b,y,10,10,79001,1,3,487,191
1,7,10,2,0,1,B,G,b,y,10,10,79001,1,1,442,276
1,7,10,2,0,1,B,G,b,y,10,10,79001,1,3,415,522
1,7,10,2,0,1,B,G,b,y,10,10,80001,1,1,330,24
1,7,10,2,0,1,B,G,b,y,10,10,80001,1,1,282,21
1,7,10,2,0,1,B,G,b,y,10,10,81001,1,1,409,130
1,7,10,2,0,1,B,G,b,y,10,10,81001,1,1,442,365
1,7,10,2,0,1,B,G,b,y,10,10,82001,1,1,366,386
1,7,10,2,0,1,B,G,b,y,10,10,82001,1,3,331,389
1,7,10,2,0,1,B,G,b,y,10,10,83001,1,1,216,355
1,7,10,2,0,1,B,G,b,y,10,10,83001,1,3,224,368
1,7,10,2,0,1,B,G,b,y,10,10,84001,1,1,418,56
1,7,10,2,0,1,B,G,b,y,10,10,84001,1,1,368,77
1,7,10,2,0,1,B,G,b,y,10,10,84001,1,3,321,532
1,7,10,2,0,1,B,G,b,y,10,10,85001,1,1,441,427
1,7,10,2,0,1,B,G,b,y,10,10,85001,1,3,337,530
1,7,10,2,0,1,B,G,b,y,10,10,86001,1,3,501,411
1,7,10,2,0,1,B,G,b,y,10,10,86001,1,1,462,428
1,7,10,2,0,1,B,G,b,y,10,10,87001,1,3,584,222
1,7,10,2,0,1,B,G,b,y,10,10,87001,1,1,155,250
1,7,10,2,0,1,B,G,b,y,10,10,88001,1,1,602,197
1,7,10,2,0,1,B,G,b,y,10,10,88001,1,3,642,237
1,7,10,2,0,1,B,G,b,y,10,10,89001,1,3,639,293
1,7,10,2,0,1,B,G,b,y,10,10,89001,1,1,524,372
1,7,10,2,0,1,B,G,b,y,10,10,90001,1,1,550,250
1,7,10,2,0,1,B,G,b,y,10,10,90001,1,3,631,348
1,7,10,2,0,1,B,G,b,y,10,10,91001,1,3,438,470
1,7,10,2,0,1,B,G,b,y,10,10,91001,1,1,409,475
1,7,10,2,0,1,B,G,b,y,10,10,92001,1,3,403,412
1,7,10,2,0,1,B,G,b,y,10,10,92001,1,1,380,413
1,7,10,2,0,1,B,G,b,y,10,10,93001,1,1,594,158
1,7,10,2,0,1,B,G,b,y,10,10,93001,1,3,182,358
1,7,10,2,0,1,B,G,b,y,10,10,94001,1,1,402,89
1,7,10,2,0,1,B,G,b,y,10,10,94001,1,3,411,462
1,7,10,2,0,1,B,G,b,y,10,10,95001,1,3,439,248
1,7,10,2,0,1,B,G,b,y,10,10,95001,1,1,257,151
1,7,10,2,0,1,B,G,b,y,10,10,96001,1,3,591,290
1,7,10,2,0,1,B,G,b,y,10,10,96001,1,1,607,356
1,7,10,2,0,1,B,G,b,y,10,10,97001,1,3,561,479
1,7,10,2,0,1,B,G,b,y,10,10,97001,1,1,500,487
1,7,10,2,0,1,B,G,b,y,10,10,98001,1,1,453,72
1,7,10,2,0,1,B,G,b,y,10,10,98001,1,3,549,508
1,7,10,2,0,1,B,G,b,y,10,10,99001,1,1,411,515
1,7,10,2,0,1,B,G,b,y,10,10,100001,1,1,425,51
1,7,10,2,0,1,B,G,b,y,10,10,100001,1,1,349,43
1,7,10,2,0,1,B,G,b,y,10,10,100001,1,3,278,537
1,7,10,2,0,1,B,G,b,y,10,10,101001,1,3,330,351
1,7,10,2,0,1,B,G,b,y,10,10,101001,1,1,278,333
1,7,10,2,0,1,B,G,b,y,10,10,102001,1,3,475,346
1,7,10,2,0,1,B,G,b,y,10,10,102001,1,1,450,392
1,7,10,2,0,1,B,G,b,y,10,10,103001,1,1,287,80
1,7,10,2,0,1,B,G,b,y,10,10,105001,1,3,384,396
1,7,10,2,0,1,B,G,b,y,10,10,105001,1,1,243,58
1,7,10,2,0,1,B,G,b,y,10,10,105001,1,1,193,83
1,7,10,2,0,1,B,G,b,y,10,10,106001,1,1,501,386
1,7,10,2,0,1,B,G,b,y,10,10,106001,1,3,456,396
1,7,10,2,0,1,B,G,b,y,10,10,107001,1,1,370,327
1,7,10,2,0,1,B,G,b,y,10,10,107001,1,3,200,389
