dummy,month,day,period,view,station,fgeno,mgeno,fcol,mcol,nf,nm,frame,something,sex,x,y
1,7,16,1,1,3,C,E,g,r,10,10,1,1,3,560.7273,522.517
1,7,16,1,1,3,C,E,g,r,10,10,1001,1,3,426.0682,224.2216
1,7,16,1,1,3,C,E,g,r,10,10,2001,1,3,635.7273,387.858
1,7,16,1,1,3,C,E,g,r,10,10,3001,1,3,386.8636,563.4261
1,7,16,1,1,3,C,E,g,r,10,10,4001,1,3,308.4545,513.9943
1,7,16,1,1,3,C,E,g,r,10,10,6001,1,3,449.9318,99.7898
1,7,16,1,1,3,C,E,g,r,10,10,7001,1,3,689.4205,193.5398
1,7,16,1,1,3,C,E,g,r,10,10,8001,1,3,657.8864,208.8807
1,7,16,1,1,3,C,E,g,r,10,10,8001,1,3,700.5,168.8239
1,7,16,1,1,3,C,E,g,r,10,10,9001,1,3,306.75,374.2216
1,7,16,1,1,3,C,E,g,r,10,10,10001,1,3,573.5114,205.4716
1,7,16,1,1,3,C,E,g,r,10,10,10001,1,3,510.4432,46.9489
1,7,16,1,1,3,C,E,g,r,10,10,11001,1,3,403.9091,81.0398
1,7,16,1,1,3,C,E,g,r,10,10,11001,1,3,446.5227,333.3125
1,7,16,1,1,3,C,E,g,r,10,10,11001,1,1,400.5,346.9489
1,7,16,1,1,3,C,E,g,r,10,10,12001,1,3,360.4432,246.3807
1,7,16,1,1,3,C,E,g,r,10,10,12001,1,3,295.6705,375.0739
1,7,16,1,1,3,C,E,g,r,10,10,12001,1,1,327.2045,406.608
1,7,16,1,1,3,C,E,g,r,10,10,13001,1,3,395.3864,86.1534
1,7,16,1,1,3,C,E,g,r,10,10,13001,1,3,334.875,273.6534
1,7,16,1,1,3,C,E,g,r,10,10,13001,1,1,475.5,351.2102
1,7,16,1,1,3,C,E,g,r,10,10,14001,1,3,501.9205,440.6989
1,7,16,1,1,3,C,E,g,r,10,10,14001,1,1,282.0341,213.142
1,7,16,1,1,3,C,E,g,r,10,10,15001,1,1,631.4659,253.1989
1,7,16,1,1,3,C,E,g,r,10,10,15001,1,3,326.3523,155.1875
1,7,16,1,1,3,C,E,g,r,10,10,16001,1,1,272.6591,406.608
1,7,16,1,1,3,C,E,g,r,10,10,16001,1,3,312.7159,423.6534
1,7,16,1,1,3,C,E,g,r,10,10,17001,1,1,481.4659,173.0852
1,7,16,1,1,3,C,E,g,r,10,10,17001,1,3,456.75,183.3125
1,7,16,1,1,3,C,E,g,r,10,10,18001,1,1,634.0227,174.7898
1,7,16,1,1,3,C,E,g,r,10,10,18001,1,3,399.6477,81.0398
1,7,16,1,1,3,C,E,g,r,10,10,19001,1,1,686.0114,273.6534
1,7,16,1,1,3,C,E,g,r,10,10,19001,1,3,388.5682,433.0284
1,7,16,1,1,3,C,E,g,r,10,10,19001,1,3,453.3409,542.1193
1,7,16,1,1,3,C,E,g,r,10,10,20001,1,1,493.3977,85.3011
1,7,16,1,1,3,C,E,g,r,10,10,20001,1,3,529.1932,441.5511
1,7,16,1,1,3,C,E,g,r,10,10,21001,1,1,657.8864,114.2784
1,7,16,1,1,3,C,E,g,r,10,10,21001,1,3,602.4886,98.9375
1,7,16,1,1,3,C,E,g,r,10,10,21001,1,3,423.5114,73.3693
1,7,16,1,1,3,C,E,g,r,10,10,22001,1,1,691.9773,445.8125
1,7,16,1,1,3,C,E,g,r,10,10,22001,1,3,709.0227,252.3466
1,7,16,1,1,3,C,E,g,r,10,10,23001,1,1,350.2159,261.7216
1,7,16,1,1,3,C,E,g,r,10,10,23001,1,3,376.6364,280.4716
1,7,16,1,1,3,C,E,g,r,10,10,24001,1,1,285.4432,162.858
1,7,16,1,1,3,C,E,g,r,10,10,24001,1,1,524.9318,191.8352
1,7,16,1,1,3,C,E,g,r,10,10,24001,1,3,529.1932,221.6648
1,7,16,1,1,3,C,E,g,r,10,10,25001,1,1,624.6477,420.2443
1,7,16,1,1,3,C,E,g,r,10,10,25001,1,1,714.1364,340.1307
1,7,16,1,1,3,C,E,g,r,10,10,25001,1,3,710.7273,271.0966
1,7,16,1,1,3,C,E,g,r,10,10,25001,1,3,576.0682,395.5284
1,7,16,1,1,3,C,E,g,r,10,10,26001,1,3,199.3636,285.5852
1,7,16,1,1,3,C,E,g,r,10,10,27001,1,3,570.9545,518.2557
1,7,16,1,1,3,C,E,g,r,10,10,29001,1,3,278.625,461.1534
1,7,16,1,1,3,C,E,g,r,10,10,30001,1,3,665.5568,219.9602
1,7,16,1,1,3,C,E,g,r,10,10,31001,1,3,532.6023,133.8807
1,7,16,1,1,3,C,E,g,r,10,10,31001,1,3,436.2955,472.233
1,7,16,1,1,3,C,E,g,r,10,10,32001,1,3,559.0227,357.1761
1,7,16,1,1,3,C,E,g,r,10,10,33001,1,1,546.2386,459.4489
1,7,16,1,1,3,C,E,g,r,10,10,33001,1,3,228.3409,238.7102
1,7,16,1,1,3,C,E,g,r,10,10,33001,1,3,318.6818,98.0852
1,7,16,1,1,3,C,E,g,r,10,10,34001,1,1,410.7273,515.6989
1,7,16,1,1,3,C,E,g,r,10,10,34001,1,1,462.7159,407.4602
1,7,16,1,1,3,C,E,g,r,10,10,34001,1,3,315.2727,452.6307
1,7,16,1,1,3,C,E,g,r,10,10,35001,1,3,227.4886,304.3352
1,7,16,1,1,3,C,E,g,r,10,10,36001,1,3,238.5682,391.267
1,7,16,1,1,3,C,E,g,r,10,10,36001,1,1,206.1818,395.5284
1,7,16,1,1,3,C,E,g,r,10,10,37001,1,3,461.8636,318.8239
1,7,16,1,1,3,C,E,g,r,10,10,38001,1,1,706.4659,373.3693
1,7,16,1,1,3,C,E,g,r,10,10,38001,1,3,318.6818,371.6648
1,7,16,1,1,3,C,E,g,r,10,10,39001,1,1,588,173.9375
1,7,16,1,1,3,C,E,g,r,10,10,39001,1,3,516.4091,222.517
1,7,16,1,1,3,C,E,g,r,10,10,40001,1,1,273.5114,152.6307
1,7,16,1,1,3,C,E,g,r,10,10,40001,1,1,486.5795,45.2443
1,7,16,1,1,3,C,E,g,r,10,10,40001,1,3,523.2273,59.733
1,7,16,1,1,3,C,E,g,r,10,10,41001,1,1,266.6932,378.483
1,7,16,1,1,3,C,E,g,r,10,10,41001,1,3,261.5795,346.9489
1,7,16,1,1,3,C,E,g,r,10,10,42001,1,1,325.5,516.5511
1,7,16,1,1,3,C,E,g,r,10,10,42001,1,1,644.25,288.142
1,7,16,1,1,3,C,E,g,r,10,10,42001,1,3,315.2727,247.233
1,7,16,1,1,3,C,E,g,r,10,10,43001,1,1,373.2273,533.5966
1,7,16,1,1,3,C,E,g,r,10,10,43001,1,3,597.375,450.9261
1,7,16,1,1,3,C,E,g,r,10,10,44001,1,1,568.3977,438.142
1,7,16,1,1,3,C,E,g,r,10,10,44001,1,3,576.0682,501.2102
1,7,16,1,1,3,C,E,g,r,10,10,45001,1,1,725.2159,288.142
1,7,16,1,1,3,C,E,g,r,10,10,45001,1,3,420.9545,140.6989
1,7,16,1,1,3,C,E,g,r,10,10,46001,1,1,490.8409,468.8239
1,7,16,1,1,3,C,E,g,r,10,10,46001,1,1,255.6136,432.1761
1,7,16,1,1,3,C,E,g,r,10,10,46001,1,3,266.6932,394.6761
1,7,16,1,1,3,C,E,g,r,10,10,46001,1,3,221.5227,392.9716
1,7,16,1,1,3,C,E,g,r,10,10,46001,1,3,409.875,48.6534
1,7,16,1,1,3,C,E,g,r,10,10,47001,1,1,288.8523,449.2216
1,7,16,1,1,3,C,E,g,r,10,10,47001,1,1,261.5795,464.5625
1,7,16,1,1,3,C,E,g,r,10,10,47001,1,3,290.5568,489.2784
1,7,16,1,1,3,C,E,g,r,10,10,47001,1,3,266.6932,428.767
1,7,16,1,1,3,C,E,g,r,10,10,47001,1,3,374.0795,64.8466
1,7,16,1,1,3,C,E,g,r,10,10,48001,1,1,263.2841,482.4602
1,7,16,1,1,3,C,E,g,r,10,10,48001,1,1,353.625,410.8693
1,7,16,1,1,3,C,E,g,r,10,10,48001,1,1,634.875,400.642
1,7,16,1,1,3,C,E,g,r,10,10,48001,1,3,312.7159,411.7216
1,7,16,1,1,3,C,E,g,r,10,10,49001,1,1,260.7273,255.7557
1,7,16,1,1,3,C,E,g,r,10,10,49001,1,1,293.9659,212.2898
1,7,16,1,1,3,C,E,g,r,10,10,49001,1,3,219.8182,267.6875
1,7,16,1,1,3,C,E,g,r,10,10,49001,1,3,219.8182,314.5625
1,7,16,1,1,3,C,E,g,r,10,10,49001,1,3,280.3295,291.5511
1,7,16,1,1,3,C,E,g,r,10,10,49001,1,3,478.0568,360.5852
1,7,16,1,1,3,C,E,g,r,10,10,49001,1,1,495.9545,537.858
1,7,16,1,1,3,C,E,g,r,10,10,50001,1,1,438,347.8011
1,7,16,1,1,3,C,E,g,r,10,10,50001,1,1,631.4659,492.6875
1,7,16,1,1,3,C,E,g,r,10,10,50001,1,3,480.6136,95.5284
1,7,16,1,1,3,C,E,g,r,10,10,51001,1,1,594.8182,362.2898
1,7,16,1,1,3,C,E,g,r,10,10,51001,1,1,337.4318,535.3011
1,7,16,1,1,3,C,E,g,r,10,10,51001,1,3,396.2386,533.5966
1,7,16,1,1,3,C,E,g,r,10,10,51001,1,3,299.9318,467.1193
1,7,16,1,1,3,C,E,g,r,10,10,52001,1,1,292.2614,294.108
1,7,16,1,1,3,C,E,g,r,10,10,52001,1,1,595.6705,371.6648
1,7,16,1,1,3,C,E,g,r,10,10,53001,1,1,369.8182,240.4148
1,7,16,1,1,3,C,E,g,r,10,10,53001,1,1,336.5795,524.2216
1,7,16,1,1,3,C,E,g,r,10,10,53001,1,1,572.6591,83.5966
1,7,16,1,1,3,C,E,g,r,10,10,53001,1,3,569.25,304.3352
1,7,16,1,1,3,C,E,g,r,10,10,53001,1,1,620.3864,321.3807
1,7,16,1,1,3,C,E,g,r,10,10,54001,1,1,266.6932,445.8125
1,7,16,1,1,3,C,E,g,r,10,10,54001,1,3,241.9773,426.2102
1,7,16,1,1,3,C,E,g,r,10,10,54001,1,3,317.8295,491.8352
1,7,16,1,1,3,C,E,g,r,10,10,54001,1,1,351.0682,518.2557
1,7,16,1,1,3,C,E,g,r,10,10,54001,1,1,507.0341,411.7216
1,7,16,1,1,3,C,E,g,r,10,10,54001,1,3,459.3068,420.2443
1,7,16,1,1,3,C,E,g,r,10,10,54001,1,3,479.7614,386.1534
1,7,16,1,1,3,C,E,g,r,10,10,54001,1,1,703.0568,187.5739
1,7,16,1,1,3,C,E,g,r,10,10,55001,1,3,449.9318,220.8125
1,7,16,1,1,3,C,E,g,r,10,10,55001,1,1,702.2045,276.2102
1,7,16,1,1,3,C,E,g,r,10,10,55001,1,3,554.7614,495.2443
1,7,16,1,1,3,C,E,g,r,10,10,55001,1,2,680.8977,141.5511
1,7,16,1,1,3,C,E,g,r,10,10,56001,1,1,387.7159,493.5398
1,7,16,1,1,3,C,E,g,r,10,10,56001,1,3,427.7727,487.5739
1,7,16,1,1,3,C,E,g,r,10,10,56001,1,1,587.1477,484.1648
1,7,16,1,1,3,C,E,g,r,10,10,56001,1,3,584.5909,457.7443
1,7,16,1,1,3,C,E,g,r,10,10,56001,1,3,639.9886,454.3352
1,7,16,1,1,3,C,E,g,r,10,10,57001,1,1,406.4659,241.267
1,7,16,1,1,3,C,E,g,r,10,10,57001,1,3,392.8295,301.7784
1,7,16,1,1,3,C,E,g,r,10,10,57001,1,3,709.0227,321.3807
1,7,16,1,1,3,C,E,g,r,10,10,57001,1,1,277.7727,487.5739
1,7,16,1,1,3,C,E,g,r,10,10,57001,1,3,259.0227,513.142
1,7,16,1,1,3,C,E,g,r,10,10,58001,1,1,345.1023,335.8693
1,7,16,1,1,3,C,E,g,r,10,10,58001,1,1,195.9545,278.767
1,7,16,1,1,3,C,E,g,r,10,10,58001,1,3,375.7841,342.6875
1,7,16,1,1,3,C,E,g,r,10,10,58001,1,3,579.4773,440.6989
1,7,16,1,1,3,C,E,g,r,10,10,58001,1,3,406.4659,498.6534
1,7,16,1,1,3,C,E,g,r,10,10,58001,1,3,282.8864,464.5625
1,7,16,1,1,3,C,E,g,r,10,10,59001,1,1,523.2273,242.1193
1,7,16,1,1,3,C,E,g,r,10,10,59001,1,3,381.75,464.5625
1,7,16,1,1,3,C,E,g,r,10,10,59001,1,3,420.9545,456.892
1,7,16,1,1,3,C,E,g,r,10,10,59001,1,3,432.0341,489.2784
1,7,16,1,1,3,C,E,g,r,10,10,59001,1,3,331.4659,525.0739
1,7,16,1,1,3,C,E,g,r,10,10,60001,1,1,272.6591,138.9943
1,7,16,1,1,3,C,E,g,r,10,10,60001,1,3,298.2273,120.2443
1,7,16,1,1,3,C,E,g,r,10,10,60001,1,3,309.3068,133.8807
1,7,16,1,1,3,C,E,g,r,10,10,60001,1,1,625.5,167.9716
1,7,16,1,1,3,C,E,g,r,10,10,60001,1,3,386.8636,489.2784
1,7,16,1,1,3,C,E,g,r,10,10,61001,1,1,627.2045,476.4943
1,7,16,1,1,3,C,E,g,r,10,10,61001,1,3,630.6136,441.5511
1,7,16,1,1,3,C,E,g,r,10,10,62001,1,1,380.0455,413.4261
1,7,16,1,1,3,C,E,g,r,10,10,62001,1,3,420.1023,426.2102
1,7,16,1,1,3,C,E,g,r,10,10,62001,1,3,300.7841,278.767
1,7,16,1,1,3,C,E,g,r,10,10,62001,1,3,447.375,37.5739
1,7,16,1,1,3,C,E,g,r,10,10,63001,1,3,517.2614,88.7102
1,7,16,1,1,3,C,E,g,r,10,10,64001,1,3,429.4773,152.6307
1,7,16,1,1,3,C,E,g,r,10,10,64001,1,1,363.8523,111.7216
1,7,16,1,1,3,C,E,g,r,10,10,64001,1,1,430.3295,294.9602
1,7,16,1,1,3,C,E,g,r,10,10,65001,1,1,700.5,318.8239
1,7,16,1,1,3,C,E,g,r,10,10,65001,1,3,438.8523,490.983
1,7,16,1,1,3,C,E,g,r,10,10,66001,1,1,619.5341,112.5739
1,7,16,1,1,3,C,E,g,r,10,10,66001,1,3,368.9659,416.8352
1,7,16,1,1,3,C,E,g,r,10,10,67001,1,1,483.1705,142.4034
1,7,16,1,1,3,C,E,g,r,10,10,67001,1,3,657.8864,396.3807
1,7,16,1,1,3,C,E,g,r,10,10,68001,1,1,312.7159,140.6989
1,7,16,1,1,3,C,E,g,r,10,10,68001,1,3,321.2386,273.6534
1,7,16,1,1,3,C,E,g,r,10,10,68001,1,3,412.4318,106.608
1,7,16,1,1,3,C,E,g,r,10,10,69001,1,1,465.2727,257.4602
1,7,16,1,1,3,C,E,g,r,10,10,69001,1,3,480.6136,294.9602
1,7,16,1,1,3,C,E,g,r,10,10,69001,1,3,295.6705,269.392
1,7,16,1,1,3,C,E,g,r,10,10,70001,1,1,651.0682,179.0511
1,7,16,1,1,3,C,E,g,r,10,10,70001,1,3,670.6705,441.5511
1,7,16,1,1,3,C,E,g,r,10,10,70001,1,3,591.4091,172.233
1,7,16,1,1,3,C,E,g,r,10,10,70001,1,3,316.9773,237.0057
1,7,16,1,1,3,C,E,g,r,10,10,71001,1,1,375.7841,102.3466
1,7,16,1,1,3,C,E,g,r,10,10,71001,1,3,460.1591,114.2784
1,7,16,1,1,3,C,E,g,r,10,10,71001,1,1,716.6932,242.1193
1,7,16,1,1,3,C,E,g,r,10,10,72001,1,1,493.3977,66.5511
1,7,16,1,1,3,C,E,g,r,10,10,72001,1,1,596.5227,229.3352
1,7,16,1,1,3,C,E,g,r,10,10,72001,1,3,564.9886,232.7443
1,7,16,1,1,3,C,E,g,r,10,10,72001,1,1,644.25,337.5739
1,7,16,1,1,3,C,E,g,r,10,10,72001,1,3,688.5682,345.2443
1,7,16,1,1,3,C,E,g,r,10,10,73001,1,3,640.8409,181.608
1,7,16,1,1,3,C,E,g,r,10,10,73001,1,3,636.5795,139.8466
1,7,16,1,1,3,C,E,g,r,10,10,73001,1,1,667.2614,175.642
1,7,16,1,1,3,C,E,g,r,10,10,73001,1,1,278.625,392.1193
1,7,16,1,1,3,C,E,g,r,10,10,74001,1,1,477.2045,299.2216
1,7,16,1,1,3,C,E,g,r,10,10,74001,1,3,403.0568,296.6648
1,7,16,1,1,3,C,E,g,r,10,10,74001,1,1,509.5909,122.8011
1,7,16,1,1,3,C,E,g,r,10,10,75001,1,1,432.0341,112.5739
1,7,16,1,1,3,C,E,g,r,10,10,75001,1,1,434.5909,426.2102
1,7,16,1,1,3,C,E,g,r,10,10,75001,1,3,225.7841,251.4943
1,7,16,1,1,3,C,E,g,r,10,10,75001,1,3,368.9659,55.4716
1,7,16,1,1,3,C,E,g,r,10,10,76001,1,1,319.5341,126.2102
1,7,16,1,1,3,C,E,g,r,10,10,76001,1,1,425.2159,342.6875
1,7,16,1,1,3,C,E,g,r,10,10,76001,1,1,594.8182,346.0966
1,7,16,1,1,3,C,E,g,r,10,10,76001,1,3,451.6364,405.7557
1,7,16,1,1,3,C,E,g,r,10,10,77001,1,1,627.2045,454.3352
1,7,16,1,1,3,C,E,g,r,10,10,77001,1,1,672.375,196.0966
1,7,16,1,1,3,C,E,g,r,10,10,77001,1,1,524.9318,68.2557
1,7,16,1,1,3,C,E,g,r,10,10,77001,1,3,692.8295,242.9716
1,7,16,1,1,3,C,E,g,r,10,10,77001,1,3,302.4886,387.0057
1,7,16,1,1,3,C,E,g,r,10,10,78001,1,1,672.375,368.2557
1,7,16,1,1,3,C,E,g,r,10,10,78001,1,3,251.3523,398.9375
1,7,16,1,1,3,C,E,g,r,10,10,79001,1,1,565.8409,410.017
1,7,16,1,1,3,C,E,g,r,10,10,79001,1,1,531.75,469.6761
1,7,16,1,1,3,C,E,g,r,10,10,79001,1,3,449.0795,524.2216
1,7,16,1,1,3,C,E,g,r,10,10,79001,1,3,540.2727,536.1534
1,7,16,1,1,3,C,E,g,r,10,10,80001,1,1,352.7727,387.0057
1,7,16,1,1,3,C,E,g,r,10,10,80001,1,3,259.0227,271.9489
1,7,16,1,1,3,C,E,g,r,10,10,81001,1,1,346.8068,253.1989
1,7,16,1,1,3,C,E,g,r,10,10,81001,1,1,282.8864,151.7784
1,7,16,1,1,3,C,E,g,r,10,10,81001,1,3,389.4205,218.2557
1,7,16,1,1,3,C,E,g,r,10,10,81001,1,3,443.1136,215.6989
1,7,16,1,1,3,C,E,g,r,10,10,82001,1,1,264.9886,312.858
1,7,16,1,1,3,C,E,g,r,10,10,82001,1,1,414.9886,83.5966
1,7,16,1,1,3,C,E,g,r,10,10,82001,1,3,510.4432,326.4943
1,7,16,1,1,3,C,E,g,r,10,10,83001,1,1,305.8977,284.733
1,7,16,1,1,3,C,E,g,r,10,10,83001,1,1,580.3295,139.8466
1,7,16,1,1,3,C,E,g,r,10,10,83001,1,3,271.8068,253.1989
1,7,16,1,1,3,C,E,g,r,10,10,83001,1,3,369.8182,62.2898
1,7,16,1,1,3,C,E,g,r,10,10,84001,1,1,420.9545,563.4261
1,7,16,1,1,3,C,E,g,r,10,10,84001,1,1,637.4318,295.8125
1,7,16,1,1,3,C,E,g,r,10,10,84001,1,3,335.7273,192.6875
1,7,16,1,1,3,C,E,g,r,10,10,85001,1,1,510.4432,497.8011
1,7,16,1,1,3,C,E,g,r,10,10,85001,1,1,495.1023,425.358
1,7,16,1,1,3,C,E,g,r,10,10,85001,1,3,539.4205,453.483
1,7,16,1,1,3,C,E,g,r,10,10,86001,1,1,367.2614,436.4375
1,7,16,1,1,3,C,E,g,r,10,10,86001,1,1,592.2614,166.267
1,7,16,1,1,3,C,E,g,r,10,10,86001,1,3,593.1136,132.1761
1,7,16,1,1,3,C,E,g,r,10,10,87001,1,1,230.8977,392.9716
1,7,16,1,1,3,C,E,g,r,10,10,87001,1,3,245.3864,359.733
1,7,16,1,1,3,C,E,g,r,10,10,87001,1,1,683.4545,172.233
1,7,16,1,1,3,C,E,g,r,10,10,88001,1,1,383.4545,512.2898
1,7,16,1,1,3,C,E,g,r,10,10,88001,1,1,279.4773,131.3239
1,7,16,1,1,3,C,E,g,r,10,10,88001,1,3,306.75,109.1648
1,7,16,1,1,3,C,E,g,r,10,10,89001,1,1,518.9659,444.9602
1,7,16,1,1,3,C,E,g,r,10,10,89001,1,1,507.0341,531.892
1,7,16,1,1,3,C,E,g,r,10,10,89001,1,3,553.9091,396.3807
1,7,16,1,1,3,C,E,g,r,10,10,90001,1,1,653.625,467.9716
1,7,16,1,1,3,C,E,g,r,10,10,90001,1,1,676.6364,303.483
1,7,16,1,1,3,C,E,g,r,10,10,90001,1,3,726.0682,268.5398
1,7,16,1,1,3,C,E,g,r,10,10,91001,1,1,647.6591,395.5284
1,7,16,1,1,3,C,E,g,r,10,10,91001,1,1,462.7159,144.9602
1,7,16,1,1,3,C,E,g,r,10,10,91001,1,3,461.0114,113.4261
1,7,16,1,1,3,C,E,g,r,10,10,92001,1,1,524.9318,427.9148
1,7,16,1,1,3,C,E,g,r,10,10,92001,1,1,674.0795,393.8239
1,7,16,1,1,3,C,E,g,r,10,10,92001,1,3,366.4091,314.5625
1,7,16,1,1,3,C,E,g,r,10,10,92001,1,3,411.5795,288.9943
1,7,16,1,1,3,C,E,g,r,10,10,93001,1,1,317.8295,512.2898
1,7,16,1,1,3,C,E,g,r,10,10,93001,1,3,346.8068,485.017
1,7,16,1,1,3,C,E,g,r,10,10,93001,1,3,363,466.267
1,7,16,1,1,3,C,E,g,r,10,10,94001,1,1,440.5568,478.1989
1,7,16,1,1,3,C,E,g,r,10,10,94001,1,1,305.8977,424.5057
1,7,16,1,1,3,C,E,g,r,10,10,94001,1,3,428.625,424.5057
1,7,16,1,1,3,C,E,g,r,10,10,95001,1,1,322.9432,277.9148
1,7,16,1,1,3,C,E,g,r,10,10,95001,1,3,295.6705,305.1875
1,7,16,1,1,3,C,E,g,r,10,10,95001,1,1,340.8409,96.3807
1,7,16,1,1,3,C,E,g,r,10,10,95001,1,3,347.6591,124.5057
1,7,16,1,1,3,C,E,g,r,10,10,96001,1,1,426.9205,85.3011
1,7,16,1,1,3,C,E,g,r,10,10,96001,1,1,233.4545,240.4148
1,7,16,1,1,3,C,E,g,r,10,10,96001,1,3,435.4432,109.1648
1,7,16,1,1,3,C,E,g,r,10,10,96001,1,3,470.3864,108.3125
1,7,16,1,1,3,C,E,g,r,10,10,97001,1,1,405.6136,382.7443
1,7,16,1,1,3,C,E,g,r,10,10,97001,1,1,611.0114,159.4489
1,7,16,1,1,3,C,E,g,r,10,10,97001,1,1,216.4091,212.2898
1,7,16,1,1,3,C,E,g,r,10,10,98001,1,1,215.5568,320.5284
1,7,16,1,1,3,C,E,g,r,10,10,98001,1,1,482.3182,150.0739
1,7,16,1,1,3,C,E,g,r,10,10,98001,1,1,513.8523,484.1648
1,7,16,1,1,3,C,E,g,r,10,10,98001,1,3,495.1023,527.6307
1,7,16,1,1,3,C,E,g,r,10,10,98001,1,3,481.4659,544.6761
1,7,16,1,1,3,C,E,g,r,10,10,99001,1,1,328.0568,160.3011
1,7,16,1,1,3,C,E,g,r,10,10,99001,1,1,570.9545,340.1307
1,7,16,1,1,3,C,E,g,r,10,10,99001,1,3,619.5341,337.5739
1,7,16,1,1,3,C,E,g,r,10,10,99001,1,1,732.0341,291.5511
1,7,16,1,1,3,C,E,g,r,10,10,99001,1,1,337.4318,518.2557
1,7,16,1,1,3,C,E,g,r,10,10,100001,1,1,442.2614,535.3011
1,7,16,1,1,3,C,E,g,r,10,10,100001,1,1,523.2273,201.2102
1,7,16,1,1,3,C,E,g,r,10,10,100001,1,3,501.0682,151.7784
1,7,16,1,1,3,C,E,g,r,10,10,101001,1,1,563.2841,482.4602
1,7,16,1,1,3,C,E,g,r,10,10,101001,1,1,667.2614,286.4375
1,7,16,1,1,3,C,E,g,r,10,10,101001,1,3,615.2727,260.8693
1,7,16,1,1,3,C,E,g,r,10,10,102001,1,1,404.7614,360.5852
1,7,16,1,1,3,C,E,g,r,10,10,102001,1,1,583.7386,355.4716
1,7,16,1,1,3,C,E,g,r,10,10,102001,1,1,683.4545,262.5739
1,7,16,1,1,3,C,E,g,r,10,10,102001,1,3,648.5114,456.0398
1,7,16,1,1,3,C,E,g,r,10,10,102001,1,3,651.0682,494.392
1,7,16,1,1,3,C,E,g,r,10,10,103001,1,1,477.2045,128.767
1,7,16,1,1,3,C,E,g,r,10,10,103001,1,3,464.4205,102.3466
1,7,16,1,1,3,C,E,g,r,10,10,103001,1,1,644.25,270.2443
1,7,16,1,1,3,C,E,g,r,10,10,103001,1,3,373.2273,533.5966
1,7,16,1,1,3,C,E,g,r,10,10,103001,1,2,628.0568,531.0398
1,7,16,1,1,3,C,E,g,r,10,10,104001,1,1,574.3636,357.1761
1,7,16,1,1,3,C,E,g,r,10,10,104001,1,1,606.75,387.0057
1,7,16,1,1,3,C,E,g,r,10,10,104001,1,3,617.8295,438.142
1,7,16,1,1,3,C,E,g,r,10,10,104001,1,3,507.0341,63.142
1,7,16,1,1,3,C,E,g,r,10,10,105001,1,1,596.5227,248.9375
1,7,16,1,1,3,C,E,g,r,10,10,105001,1,1,581.1818,314.5625
1,7,16,1,1,3,C,E,g,r,10,10,105001,1,3,587.1477,421.0966
1,7,16,1,1,3,C,E,g,r,10,10,105001,1,1,583.7386,445.8125
1,7,16,1,1,3,C,E,g,r,10,10,105001,1,2,579.4773,565.1307
1,7,16,1,1,3,C,E,g,r,10,10,106001,1,1,678.3409,258.3125
1,7,16,1,1,3,C,E,g,r,10,10,106001,1,1,553.0568,326.4943
1,7,16,1,1,3,C,E,g,r,10,10,106001,1,3,640.8409,198.6534
1,7,16,1,1,3,C,E,g,r,10,10,106001,1,3,544.5341,381.892
1,7,16,1,1,3,C,E,g,r,10,10,106001,1,1,528.3409,363.9943
1,7,16,1,1,3,C,E,g,r,10,10,106001,1,46,526.6364,363.9943
1,7,16,1,1,3,C,E,g,r,10,10,107001,1,1,583.7386,376.7784
1,7,16,1,1,3,C,E,g,r,10,10,107001,1,1,692.8295,337.5739
1,7,16,1,1,3,C,E,g,r,10,10,107001,1,2,727.7727,213.142
1,7,16,1,1,3,C,E,g,r,10,10,107001,1,1,565.8409,292.4034
1,7,16,1,1,3,C,E,g,r,10,10,107001,1,3,547.9432,293.2557
