dummy,month,day,period,view,station,fgeno,mgeno,fcol,mcol,nf,nm,frame,something,sex,x,y
1,6,23,3,2,2,B,E,b,y,5,15,1,1,1,442.5263,140.6501
1,6,23,3,2,2,B,E,b,y,5,15,1001,1,1,239.8996,101.6257
1,6,23,3,2,2,B,E,b,y,5,15,2001,1,1,421.5131,91.1191
1,6,23,3,2,2,B,E,b,y,5,15,3001,1,1,433.5206,91.1191
1,6,23,3,2,2,B,E,b,y,5,15,4001,1,1,423.0141,61.1004
1,6,23,3,2,2,B,E,b,y,5,15,5001,1,1,420.0122,67.1041
1,6,23,3,2,2,B,E,b,y,5,15,6001,1,1,424.515,59.5994
1,6,23,3,2,2,B,E,b,y,5,15,7001,1,1,459.0366,49.0929
1,6,23,3,2,2,B,E,b,y,5,15,8001,1,1,420.0122,91.1191
1,6,23,3,2,2,B,E,b,y,5,15,9001,1,1,492.0572,208.1923
1,6,23,3,2,2,B,E,b,y,5,15,10001,1,1,427.5169,409.318
1,6,23,3,2,2,B,E,b,y,5,15,10001,1,1,197.8734,454.3462
1,6,23,3,2,2,B,E,b,y,5,15,11001,1,1,302.939,67.1041
1,6,23,3,2,2,B,E,b,y,5,15,12001,1,1,320.9503,16.0722
1,6,23,3,2,2,B,E,b,y,5,15,13001,1,1,376.485,79.1116
1,6,23,3,2,2,B,E,b,y,5,15,14001,1,1,436.5225,109.1304
1,6,23,3,2,2,B,E,b,y,5,15,15001,1,1,310.4437,412.3199
1,6,23,3,2,2,B,E,b,y,5,15,16001,1,1,397.4981,88.1173
1,6,23,3,2,2,B,E,b,y,5,15,17001,1,1,402.0009,44.5901
1,6,23,3,2,2,B,E,b,y,5,15,18001,1,1,299.9371,38.5863
1,6,23,3,2,2,B,E,b,y,5,15,19001,1,1,391.4944,164.6651
1,6,23,3,2,2,B,E,b,y,5,15,20001,1,1,550.5938,142.151
1,6,23,3,2,2,B,E,b,y,5,15,21001,1,1,242.9015,488.8677
1,6,23,3,2,2,B,E,b,y,5,15,23001,1,1,271.4193,295.2467
1,6,23,3,2,2,B,E,b,y,5,15,24001,1,1,465.0403,157.1604
1,6,23,3,2,2,B,E,b,y,5,15,25001,1,1,481.5507,250.2186
1,6,23,3,2,2,B,E,b,y,5,15,26001,1,1,454.5338,245.7158
1,6,23,3,2,2,B,E,b,y,5,15,27001,1,1,383.9897,131.6445
1,6,23,3,2,2,B,E,b,y,5,15,28001,1,1,286.4287,115.1341
1,6,23,3,2,2,B,E,b,y,5,15,31001,1,1,462.0385,110.6313
1,6,23,3,2,2,B,E,b,y,5,15,32001,1,1,370.4812,451.3443
1,6,23,3,2,2,B,E,b,y,5,15,33001,1,1,486.0535,154.1585
1,6,23,3,2,2,B,E,b,y,5,15,38001,1,1,269.9184,452.8452
1,6,23,3,2,2,B,E,b,y,5,15,38001,1,3,293.9334,421.3255
1,6,23,3,2,2,B,E,b,y,5,15,39001,1,3,290.9315,427.3293
1,6,23,3,2,2,B,E,b,y,5,15,39001,1,1,319.4493,436.3349
1,6,23,3,2,2,B,E,b,y,5,15,39001,1,1,564.1023,233.7083
1,6,23,3,2,2,B,E,b,y,5,15,40001,1,1,173.8583,104.6276
1,6,23,3,2,2,B,E,b,y,5,15,40001,1,1,332.9578,460.3499
1,6,23,3,2,2,B,E,b,y,5,15,40001,1,1,373.4831,442.3386
1,6,23,3,2,2,B,E,b,y,5,15,40001,1,3,382.4887,466.3537
1,6,23,3,2,2,B,E,b,y,5,15,41001,1,1,334.4587,388.3049
1,6,23,3,2,2,B,E,b,y,5,15,41001,1,3,140.8377,131.6445
1,6,23,3,2,2,B,E,b,y,5,15,43001,1,1,573.1079,319.2617
1,6,23,3,2,2,B,E,b,y,5,15,45001,1,1,570.106,326.7664
1,6,23,3,2,2,B,E,b,y,5,15,45001,1,1,471.0441,499.3743
1,6,23,3,2,2,B,E,b,y,5,15,46001,1,1,158.849,316.2598
1,6,23,3,2,2,B,E,b,y,5,15,46001,1,1,544.5901,299.7495
1,6,23,3,2,2,B,E,b,y,5,15,47001,1,1,326.954,356.7852
1,6,23,3,2,2,B,E,b,y,5,15,47001,1,3,395.9972,325.2655
1,6,23,3,2,2,B,E,b,y,5,15,47001,1,1,411.0066,352.2824
1,6,23,3,2,2,B,E,b,y,5,15,47001,1,1,436.5225,331.2692
1,6,23,3,2,2,B,E,b,y,5,15,47001,1,1,203.8771,475.3593
1,6,23,3,2,2,B,E,b,y,5,15,48001,1,3,489.0553,253.2205
1,6,23,3,2,2,B,E,b,y,5,15,48001,1,1,245.9034,154.1585
1,6,23,3,2,2,B,E,b,y,5,15,48001,1,1,337.4606,446.8415
1,6,23,3,2,2,B,E,b,y,5,15,49001,1,1,244.4024,367.2917
1,6,23,3,2,2,B,E,b,y,5,15,49001,1,1,272.9203,331.2692
1,6,23,3,2,2,B,E,b,y,5,15,49001,1,3,405.0028,283.2392
1,6,23,3,2,2,B,E,b,y,5,15,49001,1,1,322.4512,86.6163
1,6,23,3,2,2,B,E,b,y,5,15,50001,1,1,462.0385,103.1266
1,6,23,3,2,2,B,E,b,y,5,15,50001,1,3,364.4775,283.2392
1,6,23,3,2,2,B,E,b,y,5,15,50001,1,1,391.4944,305.7533
1,6,23,3,2,2,B,E,b,y,5,15,50001,1,1,568.6051,326.7664
1,6,23,3,2,2,B,E,b,y,5,15,51001,1,1,457.5356,76.1098
1,6,23,3,2,2,B,E,b,y,5,15,51001,1,1,383.9897,304.2523
1,6,23,3,2,2,B,E,b,y,5,15,51001,1,3,358.4737,281.7383
1,6,23,3,2,2,B,E,b,y,5,15,51001,1,1,166.3537,122.6388
1,6,23,3,2,2,B,E,b,y,5,15,52001,1,1,182.864,205.1904
1,6,23,3,2,2,B,E,b,y,5,15,52001,1,3,322.4512,275.7345
1,6,23,3,2,2,B,E,b,y,5,15,52001,1,1,380.9878,278.7364
1,6,23,3,2,2,B,E,b,y,5,15,52001,1,1,585.1154,268.2298
1,6,23,3,2,2,B,E,b,y,5,15,53001,1,1,367.4794,256.2223
1,6,23,3,2,2,B,E,b,y,5,15,53001,1,3,320.9503,301.2505
1,6,23,3,2,2,B,E,b,y,5,15,53001,1,1,184.3649,188.6801
1,6,23,3,2,2,B,E,b,y,5,15,54001,1,3,277.4231,302.7514
1,6,23,3,2,2,B,E,b,y,5,15,54001,1,1,280.425,278.7364
1,6,23,3,2,2,B,E,b,y,5,15,54001,1,3,316.4475,293.7458
1,6,23,3,2,2,B,E,b,y,5,15,54001,1,1,382.4887,473.8583
1,6,23,3,2,2,B,E,b,y,5,15,55001,1,1,292.4325,305.7533
1,6,23,3,2,2,B,E,b,y,5,15,55001,1,1,289.4306,265.228
1,6,23,3,2,2,B,E,b,y,5,15,55001,1,3,322.4512,283.2392
1,6,23,3,2,2,B,E,b,y,5,15,55001,1,1,347.9672,29.5807
1,6,23,3,2,2,B,E,b,y,5,15,56001,1,3,206.879,278.7364
1,6,23,3,2,2,B,E,b,y,5,15,56001,1,1,247.4043,268.2298
1,6,23,3,2,2,B,E,b,y,5,15,56001,1,1,349.4681,41.5882
1,6,23,3,2,2,B,E,b,y,5,15,56001,1,1,380.9878,65.6032
1,6,23,3,2,2,B,E,b,y,5,15,57001,1,1,121.3255,373.2955
1,6,23,3,2,2,B,E,b,y,5,15,57001,1,1,175.3593,454.3462
1,6,23,3,2,2,B,E,b,y,5,15,57001,1,1,257.9109,326.7664
1,6,23,3,2,2,B,E,b,y,5,15,57001,1,3,283.4268,295.2467
1,6,23,3,2,2,B,E,b,y,5,15,57001,1,1,307.4418,394.3086
1,6,23,3,2,2,B,E,b,y,5,15,58001,1,1,322.4512,310.2561
1,6,23,3,2,2,B,E,b,y,5,15,58001,1,3,376.485,280.2373
1,6,23,3,2,2,B,E,b,y,5,15,58001,1,1,592.6201,302.7514
1,6,23,3,2,2,B,E,b,y,5,15,59001,1,3,253.4081,295.2467
1,6,23,3,2,2,B,E,b,y,5,15,59001,1,1,277.4231,404.8152
1,6,23,3,2,2,B,E,b,y,5,15,59001,1,1,495.0591,251.7195
1,6,23,3,2,2,B,E,b,y,5,15,59001,1,1,175.3593,94.121
1,6,23,3,2,2,B,E,b,y,5,15,60001,1,3,266.9165,211.1942
1,6,23,3,2,2,B,E,b,y,5,15,60001,1,1,265.4156,253.2205
1,6,23,3,2,2,B,E,b,y,5,15,60001,1,1,484.5525,352.2824
1,6,23,3,2,2,B,E,b,y,5,15,61001,1,1,520.575,412.3199
1,6,23,3,2,2,B,E,b,y,5,15,61001,1,1,511.5694,398.8114
1,6,23,3,2,2,B,E,b,y,5,15,61001,1,1,486.0535,427.3293
1,6,23,3,2,2,B,E,b,y,5,15,61001,1,3,544.5901,407.8171
1,6,23,3,2,2,B,E,b,y,5,15,62001,1,1,227.8921,260.7251
1,6,23,3,2,2,B,E,b,y,5,15,62001,1,3,227.8921,226.2036
1,6,23,3,2,2,B,E,b,y,5,15,62001,1,1,254.909,100.1248
1,6,23,3,2,2,B,E,b,y,5,15,63001,1,3,197.8734,200.6876
1,6,23,3,2,2,B,E,b,y,5,15,63001,1,1,185.8659,286.2411
1,6,23,3,2,2,B,E,b,y,5,15,63001,1,1,426.0159,440.8377
1,6,23,3,2,2,B,E,b,y,5,15,63001,1,1,454.5338,478.3612
1,6,23,3,2,2,B,E,b,y,5,15,64001,1,1,568.6051,403.3143
1,6,23,3,2,2,B,E,b,y,5,15,64001,1,1,511.5694,380.8002
1,6,23,3,2,2,B,E,b,y,5,15,64001,1,3,314.9465,170.6689
1,6,23,3,2,2,B,E,b,y,5,15,64001,1,1,256.4099,110.6313
1,6,23,3,2,2,B,E,b,y,5,15,65001,1,1,265.4156,169.1679
1,6,23,3,2,2,B,E,b,y,5,15,65001,1,3,302.939,157.1604
1,6,23,3,2,2,B,E,b,y,5,15,65001,1,1,344.9653,130.1435
1,6,23,3,2,2,B,E,b,y,5,15,66001,1,3,260.9128,220.1998
1,6,23,3,2,2,B,E,b,y,5,15,66001,1,1,212.8827,202.1886
1,6,23,3,2,2,B,E,b,y,5,15,66001,1,1,382.4887,58.0985
1,6,23,3,2,2,B,E,b,y,5,15,67001,1,1,525.0779,148.1548
1,6,23,3,2,2,B,E,b,y,5,15,67001,1,1,567.1041,151.1567
1,6,23,3,2,2,B,E,b,y,5,15,68001,1,1,211.3818,290.7439
1,6,23,3,2,2,B,E,b,y,5,15,69001,1,3,137.8358,329.7683
1,6,23,3,2,2,B,E,b,y,5,15,69001,1,1,328.455,317.7608
1,6,23,3,2,2,B,E,b,y,5,15,69001,1,1,278.924,70.106
1,6,23,3,2,2,B,E,b,y,5,15,70001,1,1,490.5563,214.1961
1,6,23,3,2,2,B,E,b,y,5,15,71001,1,1,223.3893,205.1904
1,6,23,3,2,2,B,E,b,y,5,15,72001,1,1,426.0159,367.2917
1,6,23,3,2,2,B,E,b,y,5,15,72001,1,1,456.0347,434.834
1,6,23,3,2,2,B,E,b,y,5,15,73001,1,1,376.485,370.2936
1,6,23,3,2,2,B,E,b,y,5,15,73001,1,1,460.5375,338.7739
1,6,23,3,2,2,B,E,b,y,5,15,74001,1,1,408.0047,52.0947
1,6,23,3,2,2,B,E,b,y,5,15,75001,1,1,308.9428,223.2017
1,6,23,3,2,2,B,E,b,y,5,15,75001,1,3,302.939,170.6689
1,6,23,3,2,2,B,E,b,y,5,15,76001,1,1,392.9953,196.1848
1,6,23,3,2,2,B,E,b,y,5,15,76001,1,3,361.4756,163.1642
1,6,23,3,2,2,B,E,b,y,5,15,76001,1,1,196.3724,404.8152
1,6,23,3,2,2,B,E,b,y,5,15,77001,1,3,256.4099,322.2636
1,6,23,3,2,2,B,E,b,y,5,15,77001,1,1,379.4869,355.2842
1,6,23,3,2,2,B,E,b,y,5,15,77001,1,3,251.9071,124.1398
1,6,23,3,2,2,B,E,b,y,5,15,77001,1,1,218.8865,115.1341
1,6,23,3,2,2,B,E,b,y,5,15,78001,1,3,167.8546,334.2711
1,6,23,3,2,2,B,E,b,y,5,15,78001,1,1,281.9259,463.3518
1,6,23,3,2,2,B,E,b,y,5,15,78001,1,1,571.6069,232.2073
1,6,23,3,2,2,B,E,b,y,5,15,79001,1,1,414.0084,182.6764
1,6,23,3,2,2,B,E,b,y,5,15,79001,1,1,418.5113,97.1229
1,6,23,3,2,2,B,E,b,y,5,15,79001,1,3,164.8527,326.7664
1,6,23,3,2,2,B,E,b,y,5,15,80001,1,3,197.8734,286.2411
1,6,23,3,2,2,B,E,b,y,5,15,80001,1,1,607.6295,292.2448
1,6,23,3,2,2,B,E,b,y,5,15,81001,1,3,287.9296,211.1942
1,6,23,3,2,2,B,E,b,y,5,15,81001,1,1,492.0572,421.3255
1,6,23,3,2,2,B,E,b,y,5,15,82001,1,3,385.4906,349.2805
1,6,23,3,2,2,B,E,b,y,5,15,82001,1,1,235.3968,325.2655
1,6,23,3,2,2,B,E,b,y,5,15,82001,1,1,412.5075,211.1942
1,6,23,3,2,2,B,E,b,y,5,15,83001,1,3,370.4812,350.7814
1,6,23,3,2,2,B,E,b,y,5,15,83001,1,1,397.4981,368.7927
1,6,23,3,2,2,B,E,b,y,5,15,83001,1,1,358.4737,412.3199
1,6,23,3,2,2,B,E,b,y,5,15,84001,1,3,367.4794,352.2824
1,6,23,3,2,2,B,E,b,y,5,15,84001,1,1,392.9953,263.727
1,6,23,3,2,2,B,E,b,y,5,15,84001,1,1,136.3349,338.7739
1,6,23,3,2,2,B,E,b,y,5,15,85001,1,3,287.9296,428.8302
1,6,23,3,2,2,B,E,b,y,5,15,85001,1,1,451.5319,452.8452
1,6,23,3,2,2,B,E,b,y,5,15,86001,1,3,317.9484,359.7871
1,6,23,3,2,2,B,E,b,y,5,15,87001,1,3,340.4625,385.303
1,6,23,3,2,2,B,E,b,y,5,15,87001,1,1,405.0028,521.8884
1,6,23,3,2,2,B,E,b,y,5,15,87001,1,1,206.879,238.2111
1,6,23,3,2,2,B,E,b,y,5,15,87001,1,1,215.8846,175.1717
1,6,23,3,2,2,B,E,b,y,5,15,88001,1,1,155.8471,286.2411
1,6,23,3,2,2,B,E,b,y,5,15,88001,1,3,311.9447,361.288
1,6,23,3,2,2,B,E,b,y,5,15,88001,1,1,361.4756,377.7983
1,6,23,3,2,2,B,E,b,y,5,15,88001,1,1,499.5619,85.1154
1,6,23,3,2,2,B,E,b,y,5,15,89001,1,3,295.4343,344.7777
1,6,23,3,2,2,B,E,b,y,5,15,89001,1,1,379.4869,455.8471
1,6,23,3,2,2,B,E,b,y,5,15,89001,1,1,398.9991,479.8621
1,6,23,3,2,2,B,E,b,y,5,15,90001,1,3,305.9409,347.7795
1,6,23,3,2,2,B,E,b,y,5,15,90001,1,1,466.5413,133.1454
1,6,23,3,2,2,B,E,b,y,5,15,91001,1,1,388.4925,100.1248
1,6,23,3,2,2,B,E,b,y,5,15,91001,1,1,350.969,370.2936
1,6,23,3,2,2,B,E,b,y,5,15,91001,1,3,314.9465,382.3011
1,6,23,3,2,2,B,E,b,y,5,15,92001,1,3,298.4362,347.7795
1,6,23,3,2,2,B,E,b,y,5,15,92001,1,1,286.4287,106.1285
1,6,23,3,2,2,B,E,b,y,5,15,92001,1,1,481.5507,145.1529
1,6,23,3,2,2,B,E,b,y,5,15,92001,1,1,487.5544,268.2298
1,6,23,3,2,2,B,E,b,y,5,15,92001,1,1,564.1023,400.3124
1,6,23,3,2,2,B,E,b,y,5,15,93001,1,3,259.4118,362.7889
1,6,23,3,2,2,B,E,b,y,5,15,93001,1,1,582.1135,346.2786
1,6,23,3,2,2,B,E,b,y,5,15,94001,1,3,290.9315,437.8358
1,6,23,3,2,2,B,E,b,y,5,15,94001,1,1,392.9953,286.2411
1,6,23,3,2,2,B,E,b,y,5,15,94001,1,1,305.9409,233.7083
1,6,23,3,2,2,B,E,b,y,5,15,95001,1,3,290.9315,421.3255
1,6,23,3,2,2,B,E,b,y,5,15,95001,1,1,531.0816,290.7439
1,6,23,3,2,2,B,E,b,y,5,15,96001,1,3,296.9353,419.8246
1,6,23,3,2,2,B,E,b,y,5,15,96001,1,1,453.0328,113.6332
1,6,23,3,2,2,B,E,b,y,5,15,97001,1,1,341.9634,371.7946
1,6,23,3,2,2,B,E,b,y,5,15,97001,1,3,323.9522,347.7795
1,6,23,3,2,2,B,E,b,y,5,15,98001,1,3,370.4812,355.2842
1,6,23,3,2,2,B,E,b,y,5,15,98001,1,1,253.4081,214.1961
1,6,23,3,2,2,B,E,b,y,5,15,98001,1,1,535.5844,119.637
1,6,23,3,2,2,B,E,b,y,5,15,99001,1,3,400.5,343.2767
1,6,23,3,2,2,B,E,b,y,5,15,99001,1,1,579.1116,274.2336
1,6,23,3,2,2,B,E,b,y,5,15,99001,1,1,205.378,182.6764
1,6,23,3,2,2,B,E,b,y,5,15,100001,1,3,314.9465,353.7833
1,6,23,3,2,2,B,E,b,y,5,15,101001,1,1,392.9953,319.2617
1,6,23,3,2,2,B,E,b,y,5,15,101001,1,3,317.9484,284.7402
1,6,23,3,2,2,B,E,b,y,5,15,101001,1,1,385.4906,470.8565
1,6,23,3,2,2,B,E,b,y,5,15,102001,1,3,370.4812,271.2317
1,6,23,3,2,2,B,E,b,y,5,15,103001,1,3,352.47,283.2392
1,6,23,3,2,2,B,E,b,y,5,15,103001,1,1,239.8996,64.1023
1,6,23,3,2,2,B,E,b,y,5,15,104001,1,3,364.4775,277.2355
1,6,23,3,2,2,B,E,b,y,5,15,104001,1,1,379.4869,143.652
1,6,23,3,2,2,B,E,b,y,5,15,105001,1,3,361.4756,274.2336
1,6,23,3,2,2,B,E,b,y,5,15,105001,1,1,295.4343,434.834
1,6,23,3,2,2,B,E,b,y,5,15,105001,1,1,474.046,88.1173
1,6,23,3,2,2,B,E,b,y,5,15,106001,1,3,359.9747,277.2355
1,6,23,3,2,2,B,E,b,y,5,15,106001,1,1,178.3612,302.7514
1,6,23,3,2,2,B,E,b,y,5,15,107001,1,3,277.4231,302.7514
1,6,23,3,2,2,B,E,b,y,5,15,107001,1,1,311.9447,295.2467
1,6,23,3,2,2,B,E,b,y,5,15,107001,1,1,242.9015,421.3255
