dummy,month,day,period,view,station,fgeno,mgeno,fcol,mcol,nf,nm,frame,something,sex,x,y
1,7,16,3,2,3,C,E,g,r,10,10,1,1,3,316.9773,277.9148
1,7,16,3,2,3,C,E,g,r,10,10,1001,1,3,253.9091,381.892
1,7,16,3,2,3,C,E,g,r,10,10,1001,1,3,218.1136,349.5057
1,7,16,3,2,3,C,E,g,r,10,10,2001,1,3,211.2955,386.1534
1,7,16,3,2,3,C,E,g,r,10,10,2001,1,1,232.6023,461.1534
1,7,16,3,2,3,C,E,g,r,10,10,2001,1,3,411.5795,419.392
1,7,16,3,2,3,C,E,g,r,10,10,3001,1,2,214.7045,56.3239
1,7,16,3,2,3,C,E,g,r,10,10,5001,1,3,398.7955,362.2898
1,7,16,3,2,3,C,E,g,r,10,10,5001,1,3,432.0341,363.142
1,7,16,3,2,3,C,E,g,r,10,10,5001,1,1,407.3182,406.608
1,7,16,3,2,3,C,E,g,r,10,10,6001,1,1,485.7273,255.7557
1,7,16,3,2,3,C,E,g,r,10,10,7001,1,3,282.0341,143.2557
1,7,16,3,2,3,C,E,g,r,10,10,8001,1,3,194.25,285.5852
1,7,16,3,2,3,C,E,g,r,10,10,10001,1,3,217.2614,316.267
1,7,16,3,2,3,C,E,g,r,10,10,12001,1,3,299.0795,447.517
1,7,16,3,2,3,C,E,g,r,10,10,13001,1,3,339.1364,387.0057
1,7,16,3,2,3,C,E,g,r,10,10,13001,1,3,386.8636,346.9489
1,7,16,3,2,3,C,E,g,r,10,10,14001,1,3,221.5227,148.3693
1,7,16,3,2,3,C,E,g,r,10,10,15001,1,3,84.3068,463.7102
1,7,16,3,2,3,C,E,g,r,10,10,16001,1,3,251.3523,339.2784
1,7,16,3,2,3,C,E,g,r,10,10,16001,1,1,107.3182,422.8011
1,7,16,3,2,3,C,E,g,r,10,10,17001,1,1,195.1023,389.5625
1,7,16,3,2,3,C,E,g,r,10,10,17001,1,3,209.5909,318.8239
1,7,16,3,2,3,C,E,g,r,10,10,18001,1,1,195.1023,369.9602
1,7,16,3,2,3,C,E,g,r,10,10,18001,1,3,194.25,437.2898
1,7,16,3,2,3,C,E,g,r,10,10,19001,1,3,413.2841,473.0852
1,7,16,3,2,3,C,E,g,r,10,10,20001,1,3,195.9545,58.0284
1,7,16,3,2,3,C,E,g,r,10,10,21001,1,3,257.3182,473.0852
1,7,16,3,2,3,C,E,g,r,10,10,22001,1,3,313.5682,60.5852
1,7,16,3,2,3,C,E,g,r,10,10,23001,1,3,364.7045,133.8807
1,7,16,3,2,3,C,E,g,r,10,10,24001,1,3,417.5455,77.6307
1,7,16,3,2,3,C,E,g,r,10,10,25001,1,3,290.5568,383.5966
1,7,16,3,2,3,C,E,g,r,10,10,26001,1,3,160.1591,97.233
1,7,16,3,2,3,C,E,g,r,10,10,27001,1,3,258.1705,92.9716
1,7,16,3,2,3,C,E,g,r,10,10,28001,1,3,221.5227,463.7102
1,7,16,3,2,3,C,E,g,r,10,10,29001,1,3,403.0568,110.017
1,7,16,3,2,3,C,E,g,r,10,10,30001,1,3,410.7273,106.608
1,7,16,3,2,3,C,E,g,r,10,10,31001,1,3,297.375,98.9375
1,7,16,3,2,3,C,E,g,r,10,10,32001,1,3,299.0795,98.9375
1,7,16,3,2,3,C,E,g,r,10,10,33001,1,3,192.5455,370.8125
1,7,16,3,2,3,C,E,g,r,10,10,34001,1,3,444.8182,313.7102
1,7,16,3,2,3,C,E,g,r,10,10,35001,1,3,428.625,320.5284
1,7,16,3,2,3,C,E,g,r,10,10,36001,1,3,403.9091,314.5625
1,7,16,3,2,3,C,E,g,r,10,10,37001,1,3,292.2614,60.5852
1,7,16,3,2,3,C,E,g,r,10,10,38001,1,3,95.3864,260.017
1,7,16,3,2,3,C,E,g,r,10,10,39001,1,3,161.8636,335.8693
1,7,16,3,2,3,C,E,g,r,10,10,40001,1,3,166.125,339.2784
1,7,16,3,2,3,C,E,g,r,10,10,40001,1,3,461.0114,490.983
1,7,16,3,2,3,C,E,g,r,10,10,41001,1,3,160.1591,341.8352
1,7,16,3,2,3,C,E,g,r,10,10,41001,1,3,460.1591,493.5398
1,7,16,3,2,3,C,E,g,r,10,10,42001,1,3,163.5682,338.4261
1,7,16,3,2,3,C,E,g,r,10,10,42001,1,3,455.0455,499.5057
1,7,16,3,2,3,C,E,g,r,10,10,43001,1,3,301.6364,354.6193
1,7,16,3,2,3,C,E,g,r,10,10,44001,1,3,212.1477,224.2216
1,7,16,3,2,3,C,E,g,r,10,10,45001,1,3,365.5568,108.3125
1,7,16,3,2,3,C,E,g,r,10,10,46001,1,3,364.7045,100.642
1,7,16,3,2,3,C,E,g,r,10,10,47001,1,3,361.2955,121.0966
1,7,16,3,2,3,C,E,g,r,10,10,48001,1,3,377.4886,81.0398
1,7,16,3,2,3,C,E,g,r,10,10,49001,1,3,229.1932,167.9716
1,7,16,3,2,3,C,E,g,r,10,10,50001,1,3,448.2273,196.0966
1,7,16,3,2,3,C,E,g,r,10,10,51001,1,3,400.5,176.4943
1,7,16,3,2,3,C,E,g,r,10,10,52001,1,3,397.0909,183.3125
1,7,16,3,2,3,C,E,g,r,10,10,53001,1,3,404.7614,101.4943
1,7,16,3,2,3,C,E,g,r,10,10,54001,1,3,391.9773,196.9489
1,7,16,3,2,3,C,E,g,r,10,10,57001,1,1,443.1136,183.3125
1,7,16,3,2,3,C,E,g,r,10,10,57001,1,3,296.5227,496.0966
1,7,16,3,2,3,C,E,g,r,10,10,58001,1,3,381.75,152.6307
1,7,16,3,2,3,C,E,g,r,10,10,58001,1,3,415.8409,193.5398
1,7,16,3,2,3,C,E,g,r,10,10,58001,1,1,412.4318,127.9148
1,7,16,3,2,3,C,E,g,r,10,10,59001,1,1,447.375,119.392
1,7,16,3,2,3,C,E,g,r,10,10,59001,1,3,419.25,145.8125
1,7,16,3,2,3,C,E,g,r,10,10,60001,1,1,487.4318,197.8011
1,7,16,3,2,3,C,E,g,r,10,10,60001,1,1,280.3295,202.0625
1,7,16,3,2,3,C,E,g,r,10,10,60001,1,3,261.5795,238.7102
1,7,16,3,2,3,C,E,g,r,10,10,60001,1,3,295.6705,153.483
1,7,16,3,2,3,C,E,g,r,10,10,60001,1,3,247.0909,102.3466
1,7,16,3,2,3,C,E,g,r,10,10,61001,1,1,432.0341,228.483
1,7,16,3,2,3,C,E,g,r,10,10,61001,1,1,309.3068,260.8693
1,7,16,3,2,3,C,E,g,r,10,10,61001,1,3,270.9545,262.5739
1,7,16,3,2,3,C,E,g,r,10,10,61001,1,3,268.3977,211.4375
1,7,16,3,2,3,C,E,g,r,10,10,62001,1,1,371.5227,355.4716
1,7,16,3,2,3,C,E,g,r,10,10,62001,1,1,338.2841,196.0966
1,7,16,3,2,3,C,E,g,r,10,10,62001,1,3,540.2727,274.5057
1,7,16,3,2,3,C,E,g,r,10,10,63001,1,1,185.7273,392.1193
1,7,16,3,2,3,C,E,g,r,10,10,64001,1,1,229.1932,448.3693
1,7,16,3,2,3,C,E,g,r,10,10,64001,1,3,181.4659,463.7102
1,7,16,3,2,3,C,E,g,r,10,10,65001,1,3,230.0455,172.233
1,7,16,3,2,3,C,E,g,r,10,10,65001,1,2,236.8636,100.642
1,7,16,3,2,3,C,E,g,r,10,10,66001,1,3,398.7955,88.7102
1,7,16,3,2,3,C,E,g,r,10,10,68001,1,3,139.7045,197.8011
1,7,16,3,2,3,C,E,g,r,10,10,69001,1,3,442.2614,94.6761
1,7,16,3,2,3,C,E,g,r,10,10,70001,1,3,140.5568,147.517
1,7,16,3,2,3,C,E,g,r,10,10,70001,1,1,155.0455,186.7216
1,7,16,3,2,3,C,E,g,r,10,10,71001,1,3,264.9886,250.642
1,7,16,3,2,3,C,E,g,r,10,10,71001,1,1,205.3295,217.4034
1,7,16,3,2,3,C,E,g,r,10,10,72001,1,1,215.5568,271.9489
1,7,16,3,2,3,C,E,g,r,10,10,72001,1,3,356.1818,223.3693
1,7,16,3,2,3,C,E,g,r,10,10,72001,1,3,428.625,252.3466
1,7,16,3,2,3,C,E,g,r,10,10,73001,1,1,407.3182,397.233
1,7,16,3,2,3,C,E,g,r,10,10,73001,1,3,199.3636,531.0398
1,7,16,3,2,3,C,E,g,r,10,10,73001,1,2,67.2614,430.4716
1,7,16,3,2,3,C,E,g,r,10,10,74001,1,3,435.4432,426.2102
1,7,16,3,2,3,C,E,g,r,10,10,74001,1,1,395.3864,85.3011
1,7,16,3,2,3,C,E,g,r,10,10,74001,1,1,236.0114,134.733
1,7,16,3,2,3,C,E,g,r,10,10,74001,1,2,511.2955,134.733
1,7,16,3,2,3,C,E,g,r,10,10,75001,1,1,405.6136,294.9602
1,7,16,3,2,3,C,E,g,r,10,10,75001,1,1,247.9432,225.9261
1,7,16,3,2,3,C,E,g,r,10,10,75001,1,3,256.4659,166.267
1,7,16,3,2,3,C,E,g,r,10,10,76001,1,1,303.3409,267.6875
1,7,16,3,2,3,C,E,g,r,10,10,76001,1,1,415.8409,276.2102
1,7,16,3,2,3,C,E,g,r,10,10,76001,1,3,452.4886,222.517
1,7,16,3,2,3,C,E,g,r,10,10,76001,1,3,461.8636,251.4943
1,7,16,3,2,3,C,E,g,r,10,10,77001,1,1,400.5,275.358
1,7,16,3,2,3,C,E,g,r,10,10,77001,1,1,522.375,254.0511
1,7,16,3,2,3,C,E,g,r,10,10,77001,1,3,363,265.983
1,7,16,3,2,3,C,E,g,r,10,10,77001,1,3,316.9773,235.3011
1,7,16,3,2,3,C,E,g,r,10,10,78001,1,1,409.875,194.392
1,7,16,3,2,3,C,E,g,r,10,10,78001,1,1,124.3636,328.1989
1,7,16,3,2,3,C,E,g,r,10,10,78001,1,3,151.6364,359.733
1,7,16,3,2,3,C,E,g,r,10,10,78001,1,3,168.6818,333.3125
1,7,16,3,2,3,C,E,g,r,10,10,79001,1,1,185.7273,512.2898
1,7,16,3,2,3,C,E,g,r,10,10,79001,1,1,432.0341,146.6648
1,7,16,3,2,3,C,E,g,r,10,10,79001,1,2,142.2614,531.0398
1,7,16,3,2,3,C,E,g,r,10,10,80001,1,1,333.1705,540.4148
1,7,16,3,2,3,C,E,g,r,10,10,80001,1,1,470.3864,211.4375
1,7,16,3,2,3,C,E,g,r,10,10,80001,1,3,397.9432,202.0625
1,7,16,3,2,3,C,E,g,r,10,10,81001,1,1,448.2273,317.1193
1,7,16,3,2,3,C,E,g,r,10,10,81001,1,3,461.8636,263.4261
1,7,16,3,2,3,C,E,g,r,10,10,82001,1,1,297.375,335.017
1,7,16,3,2,3,C,E,g,r,10,10,82001,1,1,125.2159,353.767
1,7,16,3,2,3,C,E,g,r,10,10,82001,1,3,156.75,318.8239
1,7,16,3,2,3,C,E,g,r,10,10,82001,1,3,229.1932,55.4716
1,7,16,3,2,3,C,E,g,r,10,10,83001,1,1,176.3523,182.4602
1,7,16,3,2,3,C,E,g,r,10,10,83001,1,1,288.8523,376.7784
1,7,16,3,2,3,C,E,g,r,10,10,83001,1,1,227.4886,459.4489
1,7,16,3,2,3,C,E,g,r,10,10,83001,1,3,237.7159,487.5739
1,7,16,3,2,3,C,E,g,r,10,10,83001,1,3,300.7841,413.4261
1,7,16,3,2,3,C,E,g,r,10,10,84001,1,1,292.2614,385.3011
1,7,16,3,2,3,C,E,g,r,10,10,84001,1,3,295.6705,343.5398
1,7,16,3,2,3,C,E,g,r,10,10,84001,1,1,131.1818,245.5284
1,7,16,3,2,3,C,E,g,r,10,10,84001,1,3,155.8977,212.2898
1,7,16,3,2,3,C,E,g,r,10,10,84001,1,1,202.7727,226.7784
1,7,16,3,2,3,C,E,g,r,10,10,85001,1,1,189.9886,401.4943
1,7,16,3,2,3,C,E,g,r,10,10,85001,1,3,253.0568,352.9148
1,7,16,3,2,3,C,E,g,r,10,10,85001,1,3,252.2045,404.0511
1,7,16,3,2,3,C,E,g,r,10,10,85001,1,1,282.0341,381.892
1,7,16,3,2,3,C,E,g,r,10,10,85001,1,3,311.0114,246.3807
1,7,16,3,2,3,C,E,g,r,10,10,86001,1,1,208.7386,415.1307
1,7,16,3,2,3,C,E,g,r,10,10,86001,1,1,166.9773,337.5739
1,7,16,3,2,3,C,E,g,r,10,10,86001,1,1,235.1591,301.7784
1,7,16,3,2,3,C,E,g,r,10,10,86001,1,3,492.5455,168.8239
1,7,16,3,2,3,C,E,g,r,10,10,86001,1,3,449.0795,114.2784
1,7,16,3,2,3,C,E,g,r,10,10,87001,1,1,185.7273,194.392
1,7,16,3,2,3,C,E,g,r,10,10,87001,1,1,156.75,334.1648
1,7,16,3,2,3,C,E,g,r,10,10,87001,1,1,287.1477,312.858
1,7,16,3,2,3,C,E,g,r,10,10,87001,1,3,257.3182,340.1307
1,7,16,3,2,3,C,E,g,r,10,10,87001,1,3,521.5227,294.108
1,7,16,3,2,3,C,E,g,r,10,10,88001,1,1,205.3295,355.4716
1,7,16,3,2,3,C,E,g,r,10,10,88001,1,1,273.5114,208.8807
1,7,16,3,2,3,C,E,g,r,10,10,88001,1,3,299.0795,110.8693
1,7,16,3,2,3,C,E,g,r,10,10,89001,1,1,276.0682,240.4148
1,7,16,3,2,3,C,E,g,r,10,10,91001,1,1,218.1136,196.0966
1,7,16,3,2,3,C,E,g,r,10,10,91001,1,3,228.3409,146.6648
1,7,16,3,2,3,C,E,g,r,10,10,91001,1,1,384.3068,178.1989
1,7,16,3,2,3,C,E,g,r,10,10,92001,1,1,166.125,226.7784
1,7,16,3,2,3,C,E,g,r,10,10,92001,1,3,144.8182,171.3807
1,7,16,3,2,3,C,E,g,r,10,10,92001,1,1,359.5909,161.1534
1,7,16,3,2,3,C,E,g,r,10,10,92001,1,3,312.7159,166.267
1,7,16,3,2,3,C,E,g,r,10,10,93001,1,3,225.7841,260.017
1,7,16,3,2,3,C,E,g,r,10,10,93001,1,3,247.9432,257.4602
1,7,16,3,2,3,C,E,g,r,10,10,93001,1,1,247.9432,299.2216
1,7,16,3,2,3,C,E,g,r,10,10,94001,1,1,276.9205,364.8466
1,7,16,3,2,3,C,E,g,r,10,10,94001,1,3,252.2045,337.5739
1,7,16,3,2,3,C,E,g,r,10,10,94001,1,3,288.8523,321.3807
1,7,16,3,2,3,C,E,g,r,10,10,94001,1,1,158.4545,455.1875
1,7,16,3,2,3,C,E,g,r,10,10,94001,1,3,120.1023,429.6193
1,7,16,3,2,3,C,E,g,r,10,10,95001,1,1,316.125,434.733
1,7,16,3,2,3,C,E,g,r,10,10,95001,1,3,295.6705,415.983
1,7,16,3,2,3,C,E,g,r,10,10,95001,1,1,277.7727,471.3807
1,7,16,3,2,3,C,E,g,r,10,10,95001,1,3,236.8636,471.3807
1,7,16,3,2,3,C,E,g,r,10,10,95001,1,3,215.5568,492.6875
1,7,16,3,2,3,C,E,g,r,10,10,96001,1,3,248.7955,435.5852
1,7,16,3,2,3,C,E,g,r,10,10,96001,1,1,424.3636,467.1193
1,7,16,3,2,3,C,E,g,r,10,10,96001,1,3,455.8977,502.0625
1,7,16,3,2,3,C,E,g,r,10,10,96001,1,3,443.1136,117.6875
1,7,16,3,2,3,C,E,g,r,10,10,96001,1,3,330.6136,62.2898
1,7,16,3,2,3,C,E,g,r,10,10,97001,1,1,288,430.4716
1,7,16,3,2,3,C,E,g,r,10,10,97001,1,3,525.7841,394.6761
1,7,16,3,2,3,C,E,g,r,10,10,97001,1,2,548.7955,418.5398
1,7,16,3,2,3,C,E,g,r,10,10,98001,1,1,163.5682,340.1307
1,7,16,3,2,3,C,E,g,r,10,10,98001,1,3,163.5682,364.8466
1,7,16,3,2,3,C,E,g,r,10,10,98001,1,3,225.7841,533.5966
1,7,16,3,2,3,C,E,g,r,10,10,99001,1,1,119.25,217.4034
1,7,16,3,2,3,C,E,g,r,10,10,99001,1,3,146.5227,199.5057
1,7,16,3,2,3,C,E,g,r,10,10,99001,1,3,85.1591,186.7216
1,7,16,3,2,3,C,E,g,r,10,10,100001,1,1,216.4091,126.2102
1,7,16,3,2,3,C,E,g,r,10,10,100001,1,3,236.0114,81.892
1,7,16,3,2,3,C,E,g,r,10,10,100001,1,3,205.3295,79.3352
1,7,16,3,2,3,C,E,g,r,10,10,101001,1,1,279.4773,224.2216
1,7,16,3,2,3,C,E,g,r,10,10,101001,1,3,233.4545,191.8352
1,7,16,3,2,3,C,E,g,r,10,10,101001,1,3,305.8977,484.1648
1,7,16,3,2,3,C,E,g,r,10,10,102001,1,1,524.0795,195.2443
1,7,16,3,2,3,C,E,g,r,10,10,103001,1,1,497.6591,231.0398
1,7,16,3,2,3,C,E,g,r,10,10,103001,1,3,507.0341,267.6875
1,7,16,3,2,3,C,E,g,r,10,10,104001,1,1,493.3977,194.392
1,7,16,3,2,3,C,E,g,r,10,10,104001,1,3,468.6818,251.4943
1,7,16,3,2,3,C,E,g,r,10,10,105001,1,3,449.0795,183.3125
1,7,16,3,2,3,C,E,g,r,10,10,105001,1,1,168.6818,501.2102
1,7,16,3,2,3,C,E,g,r,10,10,106001,1,1,303.3409,370.8125
1,7,16,3,2,3,C,E,g,r,10,10,106001,1,3,301.6364,410.8693
1,7,16,3,2,3,C,E,g,r,10,10,107001,1,3,452.4886,201.2102
