dummy,month,day,period,view,station,fgeno,mgeno,fcol,mcol,nf,nm,frame,something,sex,x,y
1,6,20,2,3,2,B,F,r,g,10,10,1,1,3,643.652,158.6614
1,6,20,2,3,2,B,F,r,g,10,10,1,1,1,445.5281,209.6932
1,6,20,2,3,2,B,F,r,g,10,10,1,1,3,493.5582,289.243
1,6,20,2,3,2,B,F,r,g,10,10,1,1,3,454.5338,361.288
1,6,20,2,3,2,B,F,r,g,10,10,1,1,3,418.5113,445.3405
1,6,20,2,3,2,B,F,r,g,10,10,1,1,1,388.4925,446.8415
1,6,20,2,3,2,B,F,r,g,10,10,1,1,3,379.4869,488.8677
1,6,20,2,3,2,B,F,r,g,10,10,1,1,1,380.9878,533.8959
1,6,20,2,3,2,B,F,r,g,10,10,1,1,3,438.0235,491.8696
1,6,20,2,3,2,B,F,r,g,10,10,1001,1,3,371.9822,454.3462
1,6,20,2,3,2,B,F,r,g,10,10,1001,1,3,322.4512,398.8114
1,6,20,2,3,2,B,F,r,g,10,10,1001,1,1,346.4662,332.7702
1,6,20,2,3,2,B,F,r,g,10,10,1001,1,3,325.4531,287.742
1,6,20,2,3,2,B,F,r,g,10,10,1001,1,1,382.4887,289.243
1,6,20,2,3,2,B,F,r,g,10,10,1001,1,3,451.5319,400.3124
1,6,20,2,3,2,B,F,r,g,10,10,1001,1,3,495.0591,290.7439
1,6,20,2,3,2,B,F,r,g,10,10,1001,1,3,514.5713,104.6276
1,6,20,2,3,2,B,F,r,g,10,10,2001,1,3,489.0553,79.1116
1,6,20,2,3,2,B,F,r,g,10,10,2001,1,1,361.4756,175.1717
1,6,20,2,3,2,B,F,r,g,10,10,2001,1,3,337.4606,218.6989
1,6,20,2,3,2,B,F,r,g,10,10,2001,1,3,574.6088,299.7495
1,6,20,2,3,2,B,F,r,g,10,10,2001,1,3,532.5826,457.348
1,6,20,2,3,2,B,F,r,g,10,10,2001,1,3,385.4906,457.348
1,6,20,2,3,2,B,F,r,g,10,10,2001,1,1,359.9747,506.879
1,6,20,2,3,2,B,F,r,g,10,10,2001,1,3,340.4625,515.8846
1,6,20,2,3,2,B,F,r,g,10,10,3001,1,1,429.0178,400.3124
1,6,20,2,3,2,B,F,r,g,10,10,3001,1,3,429.0178,347.7795
1,6,20,2,3,2,B,F,r,g,10,10,3001,1,3,681.1754,401.8133
1,6,20,2,3,2,B,F,r,g,10,10,3001,1,3,535.5844,190.1811
1,6,20,2,3,2,B,F,r,g,10,10,3001,1,3,263.9146,268.2298
1,6,20,2,3,2,B,F,r,g,10,10,3001,1,3,284.9278,166.166
1,6,20,2,3,2,B,F,r,g,10,10,3001,1,3,405.0028,59.5994
1,6,20,2,3,2,B,F,r,g,10,10,4001,1,1,409.5056,71.6069
1,6,20,2,3,2,B,F,r,g,10,10,4001,1,1,388.4925,103.1266
1,6,20,2,3,2,B,F,r,g,10,10,4001,1,3,388.4925,64.1023
1,6,20,2,3,2,B,F,r,g,10,10,4001,1,3,332.9578,172.1698
1,6,20,2,3,2,B,F,r,g,10,10,4001,1,3,314.9465,343.2767
1,6,20,2,3,2,B,F,r,g,10,10,4001,1,1,250.4062,385.303
1,6,20,2,3,2,B,F,r,g,10,10,4001,1,3,226.3912,388.3049
1,6,20,2,3,2,B,F,r,g,10,10,4001,1,3,454.5338,556.4099
1,6,20,2,3,2,B,F,r,g,10,10,5001,1,3,412.5075,70.106
1,6,20,2,3,2,B,F,r,g,10,10,5001,1,1,224.8902,233.7083
1,6,20,2,3,2,B,F,r,g,10,10,5001,1,3,362.9765,290.7439
1,6,20,2,3,2,B,F,r,g,10,10,5001,1,3,346.4662,440.8377
1,6,20,2,3,2,B,F,r,g,10,10,5001,1,1,519.0741,551.9071
1,6,20,2,3,2,B,F,r,g,10,10,5001,1,1,472.545,392.8077
1,6,20,2,3,2,B,F,r,g,10,10,5001,1,3,547.5919,385.303
1,6,20,2,3,2,B,F,r,g,10,10,5001,1,3,612.1323,254.7214
1,6,20,2,3,2,B,F,r,g,10,10,6001,1,3,606.1285,251.7195
1,6,20,2,3,2,B,F,r,g,10,10,6001,1,3,517.5732,487.3668
1,6,20,2,3,2,B,F,r,g,10,10,6001,1,3,344.9653,518.8865
1,6,20,2,3,2,B,F,r,g,10,10,6001,1,3,383.9897,284.7402
1,6,20,2,3,2,B,F,r,g,10,10,6001,1,3,236.8977,194.6839
1,6,20,2,3,2,B,F,r,g,10,10,7001,1,3,409.5056,254.7214
1,6,20,2,3,2,B,F,r,g,10,10,7001,1,3,423.0141,92.6201
1,6,20,2,3,2,B,F,r,g,10,10,7001,1,3,236.8977,311.757
1,6,20,2,3,2,B,F,r,g,10,10,7001,1,3,181.363,373.2955
1,6,20,2,3,2,B,F,r,g,10,10,7001,1,3,278.924,412.3199
1,6,20,2,3,2,B,F,r,g,10,10,8001,1,3,436.5225,445.3405
1,6,20,2,3,2,B,F,r,g,10,10,8001,1,3,553.5957,364.2899
1,6,20,2,3,2,B,F,r,g,10,10,8001,1,3,484.5525,245.7158
1,6,20,2,3,2,B,F,r,g,10,10,8001,1,3,325.4531,56.5976
1,6,20,2,3,2,B,F,r,g,10,10,8001,1,3,178.3612,320.7627
1,6,20,2,3,2,B,F,r,g,10,10,9001,1,3,511.5694,304.2523
1,6,20,2,3,2,B,F,r,g,10,10,9001,1,3,460.5375,247.2167
1,6,20,2,3,2,B,F,r,g,10,10,9001,1,3,540.0872,107.6295
1,6,20,2,3,2,B,F,r,g,10,10,9001,1,3,232.3949,182.6764
1,6,20,2,3,2,B,F,r,g,10,10,9001,1,3,377.9859,448.3424
1,6,20,2,3,2,B,F,r,g,10,10,9001,1,3,365.9784,464.8527
1,6,20,2,3,2,B,F,r,g,10,10,10001,1,3,445.5281,116.6351
1,6,20,2,3,2,B,F,r,g,10,10,10001,1,3,358.4737,241.2129
1,6,20,2,3,2,B,F,r,g,10,10,10001,1,3,248.9053,320.7627
1,6,20,2,3,2,B,F,r,g,10,10,10001,1,3,242.9015,256.2223
1,6,20,2,3,2,B,F,r,g,10,10,10001,1,3,389.9934,466.3537
1,6,20,2,3,2,B,F,r,g,10,10,10001,1,3,388.4925,523.3893
1,6,20,2,3,2,B,F,r,g,10,10,10001,1,3,643.652,466.3537
1,6,20,2,3,2,B,F,r,g,10,10,11001,1,3,469.5432,406.3161
1,6,20,2,3,2,B,F,r,g,10,10,11001,1,3,553.5957,467.8546
1,6,20,2,3,2,B,F,r,g,10,10,11001,1,3,543.0891,520.3874
1,6,20,2,3,2,B,F,r,g,10,10,11001,1,3,436.5225,491.8696
1,6,20,2,3,2,B,F,r,g,10,10,11001,1,3,365.9784,431.8321
1,6,20,2,3,2,B,F,r,g,10,10,11001,1,3,251.9071,341.7758
1,6,20,2,3,2,B,F,r,g,10,10,11001,1,3,208.3799,182.6764
1,6,20,2,3,2,B,F,r,g,10,10,12001,1,3,347.9672,203.6895
1,6,20,2,3,2,B,F,r,g,10,10,12001,1,1,263.9146,320.7627
1,6,20,2,3,2,B,F,r,g,10,10,12001,1,3,245.9034,343.2767
1,6,20,2,3,2,B,F,r,g,10,10,12001,1,1,263.9146,355.2842
1,6,20,2,3,2,B,F,r,g,10,10,12001,1,3,359.9747,347.7795
1,6,20,2,3,2,B,F,r,g,10,10,12001,1,3,380.9878,448.3424
1,6,20,2,3,2,B,F,r,g,10,10,12001,1,3,338.9615,527.8921
1,6,20,2,3,2,B,F,r,g,10,10,12001,1,3,469.5432,389.8058
1,6,20,2,3,2,B,F,r,g,10,10,12001,1,3,508.5675,217.1979
1,6,20,2,3,2,B,F,r,g,10,10,12001,1,3,670.6689,269.7308
1,6,20,2,3,2,B,F,r,g,10,10,13001,1,3,667.667,215.697
1,6,20,2,3,2,B,F,r,g,10,10,13001,1,1,649.6557,181.1754
1,6,20,2,3,2,B,F,r,g,10,10,13001,1,3,478.5488,251.7195
1,6,20,2,3,2,B,F,r,g,10,10,13001,1,3,477.0478,397.3105
1,6,20,2,3,2,B,F,r,g,10,10,13001,1,3,559.5994,434.834
1,6,20,2,3,2,B,F,r,g,10,10,13001,1,3,334.4587,404.8152
1,6,20,2,3,2,B,F,r,g,10,10,13001,1,3,326.954,460.3499
1,6,20,2,3,2,B,F,r,g,10,10,13001,1,1,287.9296,440.8377
1,6,20,2,3,2,B,F,r,g,10,10,13001,1,3,248.9053,461.8508
1,6,20,2,3,2,B,F,r,g,10,10,14001,1,3,331.4568,404.8152
1,6,20,2,3,2,B,F,r,g,10,10,14001,1,1,325.4531,370.2936
1,6,20,2,3,2,B,F,r,g,10,10,14001,1,3,259.4118,328.2674
1,6,20,2,3,2,B,F,r,g,10,10,14001,1,3,211.3818,232.2073
1,6,20,2,3,2,B,F,r,g,10,10,14001,1,3,395.9972,257.7233
1,6,20,2,3,2,B,F,r,g,10,10,14001,1,3,472.545,403.3143
1,6,20,2,3,2,B,F,r,g,10,10,14001,1,3,477.0478,548.9053
1,6,20,2,3,2,B,F,r,g,10,10,14001,1,3,652.6576,311.757
1,6,20,2,3,2,B,F,r,g,10,10,14001,1,3,640.6501,278.7364
1,6,20,2,3,2,B,F,r,g,10,10,14001,1,1,676.6726,268.2298
1,6,20,2,3,2,B,F,r,g,10,10,14001,1,1,550.5938,130.1435
1,6,20,2,3,2,B,F,r,g,10,10,15001,1,3,675.1717,248.7176
1,6,20,2,3,2,B,F,r,g,10,10,15001,1,3,603.1266,292.2448
1,6,20,2,3,2,B,F,r,g,10,10,15001,1,3,556.5976,311.757
1,6,20,2,3,2,B,F,r,g,10,10,15001,1,3,670.6689,433.333
1,6,20,2,3,2,B,F,r,g,10,10,15001,1,3,472.545,406.3161
1,6,20,2,3,2,B,F,r,g,10,10,15001,1,3,441.0253,427.3293
1,6,20,2,3,2,B,F,r,g,10,10,15001,1,3,423.0141,454.3462
1,6,20,2,3,2,B,F,r,g,10,10,15001,1,1,343.4644,431.8321
1,6,20,2,3,2,B,F,r,g,10,10,15001,1,3,335.9597,383.8021
1,6,20,2,3,2,B,F,r,g,10,10,15001,1,3,412.5075,127.1417
1,6,20,2,3,2,B,F,r,g,10,10,15001,1,1,430.5188,110.6313
1,6,20,2,3,2,B,F,r,g,10,10,15001,1,1,463.5394,103.1266
1,6,20,2,3,2,B,F,r,g,10,10,16001,1,3,344.9653,58.0985
1,6,20,2,3,2,B,F,r,g,10,10,16001,1,3,640.6501,253.2205
1,6,20,2,3,2,B,F,r,g,10,10,16001,1,1,520.575,494.8715
1,6,20,2,3,2,B,F,r,g,10,10,16001,1,3,478.5488,506.879
1,6,20,2,3,2,B,F,r,g,10,10,16001,1,3,480.0497,403.3143
1,6,20,2,3,2,B,F,r,g,10,10,16001,1,3,382.4887,445.3405
1,6,20,2,3,2,B,F,r,g,10,10,16001,1,1,316.4475,410.8189
1,6,20,2,3,2,B,F,r,g,10,10,16001,1,1,262.4137,425.8283
1,6,20,2,3,2,B,F,r,g,10,10,16001,1,3,239.8996,472.3574
1,6,20,2,3,2,B,F,r,g,10,10,16001,1,3,182.864,329.7683
1,6,20,2,3,2,B,F,r,g,10,10,17001,1,3,313.4456,401.8133
1,6,20,2,3,2,B,F,r,g,10,10,17001,1,1,313.4456,376.2974
1,6,20,2,3,2,B,F,r,g,10,10,17001,1,3,489.0553,418.3236
1,6,20,2,3,2,B,F,r,g,10,10,17001,1,1,553.5957,433.333
1,6,20,2,3,2,B,F,r,g,10,10,17001,1,3,594.121,422.8265
1,6,20,2,3,2,B,F,r,g,10,10,17001,1,3,603.1266,487.3668
1,6,20,2,3,2,B,F,r,g,10,10,17001,1,3,655.6595,358.2861
1,6,20,2,3,2,B,F,r,g,10,10,17001,1,3,684.1773,163.1642
1,6,20,2,3,2,B,F,r,g,10,10,18001,1,3,172.3574,322.2636
1,6,20,2,3,2,B,F,r,g,10,10,18001,1,3,373.4831,242.7139
1,6,20,2,3,2,B,F,r,g,10,10,18001,1,3,621.1379,268.2298
1,6,20,2,3,2,B,F,r,g,10,10,18001,1,3,621.1379,416.8227
1,6,20,2,3,2,B,F,r,g,10,10,18001,1,1,651.1567,451.3443
1,6,20,2,3,2,B,F,r,g,10,10,18001,1,3,559.5994,439.3368
1,6,20,2,3,2,B,F,r,g,10,10,18001,1,1,517.5732,431.8321
1,6,20,2,3,2,B,F,r,g,10,10,18001,1,3,483.0516,398.8114
1,6,20,2,3,2,B,F,r,g,10,10,18001,1,1,454.5338,460.3499
1,6,20,2,3,2,B,F,r,g,10,10,18001,1,3,460.5375,494.8715
1,6,20,2,3,2,B,F,r,g,10,10,18001,1,1,427.5169,469.3555
1,6,20,2,3,2,B,F,r,g,10,10,18001,1,1,408.0047,445.3405
1,6,20,2,3,2,B,F,r,g,10,10,19001,1,1,477.0478,370.2936
1,6,20,2,3,2,B,F,r,g,10,10,19001,1,3,435.0216,520.3874
1,6,20,2,3,2,B,F,r,g,10,10,19001,1,3,508.5675,356.7852
1,6,20,2,3,2,B,F,r,g,10,10,19001,1,1,546.091,359.7871
1,6,20,2,3,2,B,F,r,g,10,10,19001,1,3,582.1135,377.7983
1,6,20,2,3,2,B,F,r,g,10,10,19001,1,3,693.1829,319.2617
1,6,20,2,3,2,B,F,r,g,10,10,19001,1,1,721.7008,298.2486
1,6,20,2,3,2,B,F,r,g,10,10,19001,1,3,585.1154,220.1998
1,6,20,2,3,2,B,F,r,g,10,10,19001,1,3,480.0497,178.1735
1,6,20,2,3,2,B,F,r,g,10,10,19001,1,3,471.0441,61.1004
1,6,20,2,3,2,B,F,r,g,10,10,20001,1,3,499.5619,52.0947
1,6,20,2,3,2,B,F,r,g,10,10,20001,1,3,601.6257,68.6051
1,6,20,2,3,2,B,F,r,g,10,10,20001,1,3,564.1023,175.1717
1,6,20,2,3,2,B,F,r,g,10,10,20001,1,1,628.6426,355.2842
1,6,20,2,3,2,B,F,r,g,10,10,20001,1,3,655.6595,376.2974
1,6,20,2,3,2,B,F,r,g,10,10,20001,1,1,516.0722,434.834
1,6,20,2,3,2,B,F,r,g,10,10,20001,1,3,489.0553,421.3255
1,6,20,2,3,2,B,F,r,g,10,10,20001,1,1,498.061,452.8452
1,6,20,2,3,2,B,F,r,g,10,10,20001,1,3,514.5713,518.8865
1,6,20,2,3,2,B,F,r,g,10,10,20001,1,1,537.0854,551.9071
1,6,20,2,3,2,B,F,r,g,10,10,21001,1,1,687.1792,302.7514
1,6,20,2,3,2,B,F,r,g,10,10,21001,1,3,672.1698,272.7326
1,6,20,2,3,2,B,F,r,g,10,10,21001,1,1,664.6651,320.7627
1,6,20,2,3,2,B,F,r,g,10,10,21001,1,3,474.046,409.318
1,6,20,2,3,2,B,F,r,g,10,10,21001,1,3,340.4625,455.8471
1,6,20,2,3,2,B,F,r,g,10,10,21001,1,3,254.909,292.2448
1,6,20,2,3,2,B,F,r,g,10,10,21001,1,1,230.894,293.7458
1,6,20,2,3,2,B,F,r,g,10,10,21001,1,1,250.4062,256.2223
1,6,20,2,3,2,B,F,r,g,10,10,21001,1,3,209.8809,172.1698
1,6,20,2,3,2,B,F,r,g,10,10,22001,1,1,522.076,154.1585
1,6,20,2,3,2,B,F,r,g,10,10,22001,1,3,507.0666,184.1773
1,6,20,2,3,2,B,F,r,g,10,10,22001,1,3,483.0516,179.6745
1,6,20,2,3,2,B,F,r,g,10,10,22001,1,3,631.6445,230.7064
1,6,20,2,3,2,B,F,r,g,10,10,22001,1,1,511.5694,313.258
1,6,20,2,3,2,B,F,r,g,10,10,22001,1,3,475.5469,403.3143
1,6,20,2,3,2,B,F,r,g,10,10,22001,1,3,368.9803,451.3443
1,6,20,2,3,2,B,F,r,g,10,10,22001,1,1,350.969,463.3518
1,6,20,2,3,2,B,F,r,g,10,10,22001,1,3,335.9597,377.7983
1,6,20,2,3,2,B,F,r,g,10,10,22001,1,3,227.8921,458.849
1,6,20,2,3,2,B,F,r,g,10,10,22001,1,3,244.4024,419.8246
1,6,20,2,3,2,B,F,r,g,10,10,22001,1,1,232.3949,389.8058
1,6,20,2,3,2,B,F,r,g,10,10,23001,1,1,325.4531,410.8189
1,6,20,2,3,2,B,F,r,g,10,10,23001,1,3,355.4719,371.7946
1,6,20,2,3,2,B,F,r,g,10,10,23001,1,3,221.8884,364.2899
1,6,20,2,3,2,B,F,r,g,10,10,23001,1,3,181.363,325.2655
1,6,20,2,3,2,B,F,r,g,10,10,23001,1,1,469.5432,437.8358
1,6,20,2,3,2,B,F,r,g,10,10,23001,1,1,498.061,430.3311
1,6,20,2,3,2,B,F,r,g,10,10,23001,1,3,474.046,385.303
1,6,20,2,3,2,B,F,r,g,10,10,23001,1,3,547.5919,421.3255
1,6,20,2,3,2,B,F,r,g,10,10,23001,1,3,537.0854,223.2017
1,6,20,2,3,2,B,F,r,g,10,10,23001,1,1,625.6407,166.166
1,6,20,2,3,2,B,F,r,g,10,10,23001,1,3,606.1285,125.6407
1,6,20,2,3,2,B,F,r,g,10,10,24001,1,1,520.575,260.7251
1,6,20,2,3,2,B,F,r,g,10,10,24001,1,3,474.046,277.2355
1,6,20,2,3,2,B,F,r,g,10,10,24001,1,1,420.0122,380.8002
1,6,20,2,3,2,B,F,r,g,10,10,24001,1,3,385.4906,392.8077
1,6,20,2,3,2,B,F,r,g,10,10,24001,1,3,277.4231,380.8002
1,6,20,2,3,2,B,F,r,g,10,10,24001,1,3,236.8977,278.7364
1,6,20,2,3,2,B,F,r,g,10,10,24001,1,3,376.485,493.3705
1,6,20,2,3,2,B,F,r,g,10,10,24001,1,3,456.0347,494.8715
1,6,20,2,3,2,B,F,r,g,10,10,25001,1,3,540.0872,323.7645
1,6,20,2,3,2,B,F,r,g,10,10,25001,1,3,409.5056,335.772
1,6,20,2,3,2,B,F,r,g,10,10,25001,1,3,277.4231,260.7251
1,6,20,2,3,2,B,F,r,g,10,10,25001,1,1,250.4062,500.8752
1,6,20,2,3,2,B,F,r,g,10,10,25001,1,1,380.9878,458.849
1,6,20,2,3,2,B,F,r,g,10,10,25001,1,3,418.5113,455.8471
1,6,20,2,3,2,B,F,r,g,10,10,25001,1,1,445.5281,478.3612
1,6,20,2,3,2,B,F,r,g,10,10,26001,1,1,510.0685,545.9034
1,6,20,2,3,2,B,F,r,g,10,10,26001,1,3,522.076,295.2467
1,6,20,2,3,2,B,F,r,g,10,10,26001,1,3,395.9972,185.6782
1,6,20,2,3,2,B,F,r,g,10,10,26001,1,3,433.5206,119.637
1,6,20,2,3,2,B,F,r,g,10,10,26001,1,1,462.0385,107.6295
1,6,20,2,3,2,B,F,r,g,10,10,26001,1,3,477.0478,76.1098
1,6,20,2,3,2,B,F,r,g,10,10,27001,1,3,489.0553,278.7364
1,6,20,2,3,2,B,F,r,g,10,10,27001,1,3,311.9447,166.166
1,6,20,2,3,2,B,F,r,g,10,10,27001,1,1,334.4587,88.1173
1,6,20,2,3,2,B,F,r,g,10,10,27001,1,3,230.894,278.7364
1,6,20,2,3,2,B,F,r,g,10,10,27001,1,1,200.8752,308.7552
1,6,20,2,3,2,B,F,r,g,10,10,28001,1,3,448.53,319.2617
1,6,20,2,3,2,B,F,r,g,10,10,28001,1,1,411.0066,283.2392
1,6,20,2,3,2,B,F,r,g,10,10,28001,1,1,259.4118,208.1923
1,6,20,2,3,2,B,F,r,g,10,10,28001,1,3,230.894,422.8265
1,6,20,2,3,2,B,F,r,g,10,10,28001,1,3,391.4944,448.3424
1,6,20,2,3,2,B,F,r,g,10,10,28001,1,3,414.0084,424.3274
1,6,20,2,3,2,B,F,r,g,10,10,28001,1,1,459.0366,445.3405
1,6,20,2,3,2,B,F,r,g,10,10,29001,1,3,511.5694,451.3443
1,6,20,2,3,2,B,F,r,g,10,10,29001,1,3,486.0535,262.2261
1,6,20,2,3,2,B,F,r,g,10,10,29001,1,1,537.0854,269.7308
1,6,20,2,3,2,B,F,r,g,10,10,29001,1,3,702.1886,334.2711
1,6,20,2,3,2,B,F,r,g,10,10,29001,1,1,371.9822,395.8096
1,6,20,2,3,2,B,F,r,g,10,10,29001,1,3,331.4568,392.8077
1,6,20,2,3,2,B,F,r,g,10,10,29001,1,1,356.9728,440.8377
1,6,20,2,3,2,B,F,r,g,10,10,29001,1,3,344.9653,502.3762
1,6,20,2,3,2,B,F,r,g,10,10,29001,1,3,350.969,563.9146
1,6,20,2,3,2,B,F,r,g,10,10,30001,1,1,520.575,292.2448
1,6,20,2,3,2,B,F,r,g,10,10,30001,1,3,456.0347,302.7514
1,6,20,2,3,2,B,F,r,g,10,10,30001,1,3,459.0366,416.8227
1,6,20,2,3,2,B,F,r,g,10,10,30001,1,3,489.0553,521.8884
1,6,20,2,3,2,B,F,r,g,10,10,30001,1,3,397.4981,527.8921
1,6,20,2,3,2,B,F,r,g,10,10,30001,1,1,374.9841,566.9165
1,6,20,2,3,2,B,F,r,g,10,10,30001,1,3,385.4906,466.3537
1,6,20,2,3,2,B,F,r,g,10,10,30001,1,3,408.0047,443.8396
1,6,20,2,3,2,B,F,r,g,10,10,30001,1,3,272.9203,463.3518
1,6,20,2,3,2,B,F,r,g,10,10,30001,1,3,194.8715,442.3386
1,6,20,2,3,2,B,F,r,g,10,10,30001,1,1,220.3874,350.7814
1,6,20,2,3,2,B,F,r,g,10,10,30001,1,1,265.4156,352.2824
1,6,20,2,3,2,B,F,r,g,10,10,30001,1,3,259.4118,320.7627
1,6,20,2,3,2,B,F,r,g,10,10,31001,1,3,286.4287,422.8265
1,6,20,2,3,2,B,F,r,g,10,10,31001,1,1,271.4193,461.8508
1,6,20,2,3,2,B,F,r,g,10,10,31001,1,1,329.9559,478.3612
1,6,20,2,3,2,B,F,r,g,10,10,31001,1,3,373.4831,466.3537
1,6,20,2,3,2,B,F,r,g,10,10,31001,1,3,405.0028,373.2955
1,6,20,2,3,2,B,F,r,g,10,10,31001,1,3,435.0216,326.7664
1,6,20,2,3,2,B,F,r,g,10,10,31001,1,1,409.5056,322.2636
1,6,20,2,3,2,B,F,r,g,10,10,31001,1,1,642.151,307.2542
1,6,20,2,3,2,B,F,r,g,10,10,31001,1,3,685.6782,316.2598
1,6,20,2,3,2,B,F,r,g,10,10,31001,1,3,703.6895,398.8114
1,6,20,2,3,2,B,F,r,g,10,10,31001,1,3,310.4437,80.6126
1,6,20,2,3,2,B,F,r,g,10,10,32001,1,3,550.5938,436.3349
1,6,20,2,3,2,B,F,r,g,10,10,32001,1,3,534.0835,310.2561
1,6,20,2,3,2,B,F,r,g,10,10,32001,1,3,559.5994,265.228
1,6,20,2,3,2,B,F,r,g,10,10,32001,1,1,391.4944,377.7983
1,6,20,2,3,2,B,F,r,g,10,10,32001,1,1,343.4644,379.2992
1,6,20,2,3,2,B,F,r,g,10,10,32001,1,3,202.3762,269.7308
1,6,20,2,3,2,B,F,r,g,10,10,32001,1,3,344.9653,107.6295
1,6,20,2,3,2,B,F,r,g,10,10,32001,1,3,423.0141,80.6126
1,6,20,2,3,2,B,F,r,g,10,10,32001,1,1,438.0235,112.1323
1,6,20,2,3,2,B,F,r,g,10,10,33001,1,3,589.6182,280.2373
1,6,20,2,3,2,B,F,r,g,10,10,33001,1,1,586.6163,323.7645
1,6,20,2,3,2,B,F,r,g,10,10,33001,1,3,501.0629,289.243
1,6,20,2,3,2,B,F,r,g,10,10,33001,1,3,311.9447,224.7026
1,6,20,2,3,2,B,F,r,g,10,10,33001,1,1,260.9128,203.6895
1,6,20,2,3,2,B,F,r,g,10,10,33001,1,3,230.894,316.2598
1,6,20,2,3,2,B,F,r,g,10,10,33001,1,3,364.4775,392.8077
1,6,20,2,3,2,B,F,r,g,10,10,33001,1,3,465.0403,416.8227
1,6,20,2,3,2,B,F,r,g,10,10,33001,1,1,346.4662,439.3368
1,6,20,2,3,2,B,F,r,g,10,10,33001,1,1,370.4812,541.4006
1,6,20,2,3,2,B,F,r,g,10,10,33001,1,3,397.4981,575.9221
1,6,20,2,3,2,B,F,r,g,10,10,34001,1,3,489.0553,353.7833
1,6,20,2,3,2,B,F,r,g,10,10,34001,1,3,582.1135,340.2749
1,6,20,2,3,2,B,F,r,g,10,10,34001,1,1,601.6257,301.2505
1,6,20,2,3,2,B,F,r,g,10,10,34001,1,3,615.1341,271.2317
1,6,20,2,3,2,B,F,r,g,10,10,34001,1,3,715.697,269.7308
1,6,20,2,3,2,B,F,r,g,10,10,34001,1,1,690.1811,227.7045
1,6,20,2,3,2,B,F,r,g,10,10,34001,1,1,322.4512,251.7195
1,6,20,2,3,2,B,F,r,g,10,10,34001,1,3,329.9559,220.1998
1,6,20,2,3,2,B,F,r,g,10,10,34001,1,3,190.3687,319.2617
1,6,20,2,3,2,B,F,r,g,10,10,35001,1,3,229.3931,290.7439
1,6,20,2,3,2,B,F,r,g,10,10,35001,1,1,271.4193,401.8133
1,6,20,2,3,2,B,F,r,g,10,10,35001,1,3,317.9484,395.8096
1,6,20,2,3,2,B,F,r,g,10,10,35001,1,1,367.4794,409.318
1,6,20,2,3,2,B,F,r,g,10,10,35001,1,3,486.0535,398.8114
1,6,20,2,3,2,B,F,r,g,10,10,35001,1,1,519.0741,385.303
1,6,20,2,3,2,B,F,r,g,10,10,35001,1,3,402.0009,518.8865
1,6,20,2,3,2,B,F,r,g,10,10,35001,1,3,376.485,542.9015
1,6,20,2,3,2,B,F,r,g,10,10,36001,1,1,429.0178,451.3443
1,6,20,2,3,2,B,F,r,g,10,10,36001,1,1,364.4775,463.3518
1,6,20,2,3,2,B,F,r,g,10,10,36001,1,3,358.4737,509.8809
1,6,20,2,3,2,B,F,r,g,10,10,36001,1,3,328.455,371.7946
1,6,20,2,3,2,B,F,r,g,10,10,36001,1,1,299.9371,377.7983
1,6,20,2,3,2,B,F,r,g,10,10,36001,1,1,471.0441,304.2523
1,6,20,2,3,2,B,F,r,g,10,10,36001,1,3,454.5338,263.727
1,6,20,2,3,2,B,F,r,g,10,10,36001,1,1,477.0478,257.7233
1,6,20,2,3,2,B,F,r,g,10,10,36001,1,3,642.151,448.3424
1,6,20,2,3,2,B,F,r,g,10,10,36001,1,3,398.9991,95.622
1,6,20,2,3,2,B,F,r,g,10,10,37001,1,1,199.3743,322.2636
1,6,20,2,3,2,B,F,r,g,10,10,37001,1,1,169.3555,323.7645
1,6,20,2,3,2,B,F,r,g,10,10,37001,1,1,523.5769,262.2261
1,6,20,2,3,2,B,F,r,g,10,10,37001,1,3,591.1191,382.3011
1,6,20,2,3,2,B,F,r,g,10,10,37001,1,3,631.6445,496.3724
1,6,20,2,3,2,B,F,r,g,10,10,38001,1,3,699.1867,394.3086
1,6,20,2,3,2,B,F,r,g,10,10,38001,1,3,619.637,296.7477
1,6,20,2,3,2,B,F,r,g,10,10,38001,1,1,612.1323,346.2786
1,6,20,2,3,2,B,F,r,g,10,10,38001,1,1,302.939,298.2486
1,6,20,2,3,2,B,F,r,g,10,10,38001,1,1,286.4287,325.2655
1,6,20,2,3,2,B,F,r,g,10,10,38001,1,3,286.4287,403.3143
1,6,20,2,3,2,B,F,r,g,10,10,38001,1,3,304.44,476.8602
1,6,20,2,3,2,B,F,r,g,10,10,38001,1,1,251.9071,431.8321
1,6,20,2,3,2,B,F,r,g,10,10,38001,1,3,227.8921,419.8246
1,6,20,2,3,2,B,F,r,g,10,10,39001,1,3,462.0385,479.8621
1,6,20,2,3,2,B,F,r,g,10,10,39001,1,1,436.5225,443.8396
1,6,20,2,3,2,B,F,r,g,10,10,39001,1,1,501.0629,388.3049
1,6,20,2,3,2,B,F,r,g,10,10,39001,1,3,529.5807,298.2486
1,6,20,2,3,2,B,F,r,g,10,10,39001,1,3,376.485,454.3462
1,6,20,2,3,2,B,F,r,g,10,10,39001,1,1,311.9447,485.8659
1,6,20,2,3,2,B,F,r,g,10,10,39001,1,1,305.9409,467.8546
1,6,20,2,3,2,B,F,r,g,10,10,39001,1,3,295.4343,440.8377
1,6,20,2,3,2,B,F,r,g,10,10,39001,1,1,278.924,460.3499
1,6,20,2,3,2,B,F,r,g,10,10,39001,1,3,355.4719,173.6707
1,6,20,2,3,2,B,F,r,g,10,10,40001,1,3,489.0553,367.2917
1,6,20,2,3,2,B,F,r,g,10,10,40001,1,3,426.0159,377.7983
1,6,20,2,3,2,B,F,r,g,10,10,40001,1,1,304.44,74.6088
1,6,20,2,3,2,B,F,r,g,10,10,40001,1,3,370.4812,443.8396
1,6,20,2,3,2,B,F,r,g,10,10,40001,1,3,292.4325,452.8452
1,6,20,2,3,2,B,F,r,g,10,10,40001,1,3,290.9315,509.8809
1,6,20,2,3,2,B,F,r,g,10,10,40001,1,1,284.9278,479.8621
1,6,20,2,3,2,B,F,r,g,10,10,40001,1,1,268.4174,467.8546
1,6,20,2,3,2,B,F,r,g,10,10,41001,1,3,421.5131,86.6163
1,6,20,2,3,2,B,F,r,g,10,10,41001,1,3,493.5582,146.6538
1,6,20,2,3,2,B,F,r,g,10,10,41001,1,3,544.5901,178.1735
1,6,20,2,3,2,B,F,r,g,10,10,41001,1,3,670.6689,185.6782
1,6,20,2,3,2,B,F,r,g,10,10,41001,1,3,576.1098,340.2749
1,6,20,2,3,2,B,F,r,g,10,10,41001,1,1,540.0872,359.7871
1,6,20,2,3,2,B,F,r,g,10,10,41001,1,3,331.4568,457.348
1,6,20,2,3,2,B,F,r,g,10,10,41001,1,1,320.9503,485.8659
1,6,20,2,3,2,B,F,r,g,10,10,42001,1,3,373.4831,260.7251
1,6,20,2,3,2,B,F,r,g,10,10,42001,1,3,335.9597,389.8058
1,6,20,2,3,2,B,F,r,g,10,10,42001,1,3,280.425,397.3105
1,6,20,2,3,2,B,F,r,g,10,10,42001,1,1,277.4231,374.7964
1,6,20,2,3,2,B,F,r,g,10,10,42001,1,3,420.0122,458.849
1,6,20,2,3,2,B,F,r,g,10,10,42001,1,3,423.0141,511.3818
1,6,20,2,3,2,B,F,r,g,10,10,43001,1,3,633.1454,436.3349
1,6,20,2,3,2,B,F,r,g,10,10,43001,1,3,484.5525,410.8189
1,6,20,2,3,2,B,F,r,g,10,10,43001,1,1,397.4981,349.2805
1,6,20,2,3,2,B,F,r,g,10,10,43001,1,3,311.9447,404.8152
1,6,20,2,3,2,B,F,r,g,10,10,43001,1,1,304.44,431.8321
1,6,20,2,3,2,B,F,r,g,10,10,43001,1,3,179.8621,317.7608
1,6,20,2,3,2,B,F,r,g,10,10,43001,1,3,221.8884,247.2167
1,6,20,2,3,2,B,F,r,g,10,10,44001,1,3,277.4231,422.8265
1,6,20,2,3,2,B,F,r,g,10,10,44001,1,1,311.9447,436.3349
1,6,20,2,3,2,B,F,r,g,10,10,44001,1,3,337.4606,415.3218
1,6,20,2,3,2,B,F,r,g,10,10,44001,1,1,338.9615,373.2955
1,6,20,2,3,2,B,F,r,g,10,10,44001,1,3,233.8959,290.7439
1,6,20,2,3,2,B,F,r,g,10,10,44001,1,3,307.4418,274.2336
1,6,20,2,3,2,B,F,r,g,10,10,44001,1,1,379.4869,232.2073
1,6,20,2,3,2,B,F,r,g,10,10,44001,1,3,522.076,136.1473
1,6,20,2,3,2,B,F,r,g,10,10,45001,1,3,275.9221,121.1379
1,6,20,2,3,2,B,F,r,g,10,10,45001,1,3,290.9315,172.1698
1,6,20,2,3,2,B,F,r,g,10,10,45001,1,3,349.4681,205.1904
1,6,20,2,3,2,B,F,r,g,10,10,45001,1,3,332.9578,392.8077
1,6,20,2,3,2,B,F,r,g,10,10,45001,1,3,361.4756,419.8246
1,6,20,2,3,2,B,F,r,g,10,10,45001,1,1,355.4719,439.3368
1,6,20,2,3,2,B,F,r,g,10,10,46001,1,1,319.4493,319.2617
1,6,20,2,3,2,B,F,r,g,10,10,46001,1,3,283.4268,352.2824
1,6,20,2,3,2,B,F,r,g,10,10,46001,1,1,244.4024,352.2824
1,6,20,2,3,2,B,F,r,g,10,10,46001,1,1,271.4193,305.7533
1,6,20,2,3,2,B,F,r,g,10,10,46001,1,3,466.5413,397.3105
1,6,20,2,3,2,B,F,r,g,10,10,46001,1,1,457.5356,425.8283
1,6,20,2,3,2,B,F,r,g,10,10,46001,1,3,567.1041,409.318
1,6,20,2,3,2,B,F,r,g,10,10,47001,1,3,438.0235,343.2767
1,6,20,2,3,2,B,F,r,g,10,10,47001,1,3,477.0478,337.273
1,6,20,2,3,2,B,F,r,g,10,10,47001,1,1,471.0441,349.2805
1,6,20,2,3,2,B,F,r,g,10,10,47001,1,1,499.5619,412.3199
1,6,20,2,3,2,B,F,r,g,10,10,47001,1,3,538.5863,437.8358
1,6,20,2,3,2,B,F,r,g,10,10,47001,1,3,397.4981,511.3818
1,6,20,2,3,2,B,F,r,g,10,10,47001,1,1,242.9015,476.8602
1,6,20,2,3,2,B,F,r,g,10,10,48001,1,3,358.4737,308.7552
1,6,20,2,3,2,B,F,r,g,10,10,48001,1,1,317.9484,293.7458
1,6,20,2,3,2,B,F,r,g,10,10,48001,1,1,355.4719,293.7458
1,6,20,2,3,2,B,F,r,g,10,10,48001,1,3,417.0103,100.1248
1,6,20,2,3,2,B,F,r,g,10,10,48001,1,3,516.0722,298.2486
1,6,20,2,3,2,B,F,r,g,10,10,48001,1,1,577.6107,373.2955
1,6,20,2,3,2,B,F,r,g,10,10,48001,1,1,568.6051,401.8133
1,6,20,2,3,2,B,F,r,g,10,10,48001,1,3,541.5882,380.8002
1,6,20,2,3,2,B,F,r,g,10,10,49001,1,3,496.56,341.7758
1,6,20,2,3,2,B,F,r,g,10,10,49001,1,1,528.0797,349.2805
1,6,20,2,3,2,B,F,r,g,10,10,49001,1,3,400.5,413.8208
1,6,20,2,3,2,B,F,r,g,10,10,49001,1,1,347.9672,349.2805
1,6,20,2,3,2,B,F,r,g,10,10,49001,1,3,364.4775,307.2542
1,6,20,2,3,2,B,F,r,g,10,10,49001,1,1,331.4568,329.7683
1,6,20,2,3,2,B,F,r,g,10,10,50001,1,3,489.0553,340.2749
1,6,20,2,3,2,B,F,r,g,10,10,50001,1,1,474.046,323.7645
1,6,20,2,3,2,B,F,r,g,10,10,50001,1,1,322.4512,379.2992
1,6,20,2,3,2,B,F,r,g,10,10,50001,1,1,314.9465,361.288
1,6,20,2,3,2,B,F,r,g,10,10,50001,1,3,307.4418,415.3218
1,6,20,2,3,2,B,F,r,g,10,10,50001,1,1,344.9653,161.6632
1,6,20,2,3,2,B,F,r,g,10,10,50001,1,3,346.4662,121.1379
1,6,20,2,3,2,B,F,r,g,10,10,50001,1,1,489.0553,569.9184
1,6,20,2,3,2,B,F,r,g,10,10,51001,1,3,564.1023,527.8921
1,6,20,2,3,2,B,F,r,g,10,10,51001,1,1,523.5769,502.3762
1,6,20,2,3,2,B,F,r,g,10,10,51001,1,3,528.0797,442.3386
1,6,20,2,3,2,B,F,r,g,10,10,51001,1,1,505.5657,436.3349
1,6,20,2,3,2,B,F,r,g,10,10,51001,1,1,517.5732,388.3049
1,6,20,2,3,2,B,F,r,g,10,10,51001,1,1,421.5131,193.1829
1,6,20,2,3,2,B,F,r,g,10,10,51001,1,3,307.4418,179.6745
1,6,20,2,3,2,B,F,r,g,10,10,52001,1,3,319.4493,217.1979
1,6,20,2,3,2,B,F,r,g,10,10,52001,1,1,365.9784,179.6745
1,6,20,2,3,2,B,F,r,g,10,10,52001,1,1,392.9953,254.7214
1,6,20,2,3,2,B,F,r,g,10,10,52001,1,3,471.0441,329.7683
1,6,20,2,3,2,B,F,r,g,10,10,52001,1,1,501.0629,329.7683
1,6,20,2,3,2,B,F,r,g,10,10,52001,1,3,379.4869,458.849
1,6,20,2,3,2,B,F,r,g,10,10,53001,1,3,314.9465,301.2505
1,6,20,2,3,2,B,F,r,g,10,10,53001,1,1,323.9522,470.8565
1,6,20,2,3,2,B,F,r,g,10,10,53001,1,3,377.9859,446.8415
1,6,20,2,3,2,B,F,r,g,10,10,53001,1,1,377.9859,479.8621
1,6,20,2,3,2,B,F,r,g,10,10,53001,1,1,474.046,445.3405
1,6,20,2,3,2,B,F,r,g,10,10,53001,1,3,478.5488,461.8508
1,6,20,2,3,2,B,F,r,g,10,10,54001,1,1,341.9634,169.1679
1,6,20,2,3,2,B,F,r,g,10,10,54001,1,3,287.9296,316.2598
1,6,20,2,3,2,B,F,r,g,10,10,54001,1,3,499.5619,511.3818
1,6,20,2,3,2,B,F,r,g,10,10,54001,1,1,490.5563,476.8602
1,6,20,2,3,2,B,F,r,g,10,10,54001,1,1,534.0835,514.3837
1,6,20,2,3,2,B,F,r,g,10,10,55001,1,3,436.5225,493.3705
1,6,20,2,3,2,B,F,r,g,10,10,55001,1,1,468.0422,503.8771
1,6,20,2,3,2,B,F,r,g,10,10,55001,1,1,528.0797,320.7627
1,6,20,2,3,2,B,F,r,g,10,10,55001,1,3,588.1173,262.2261
1,6,20,2,3,2,B,F,r,g,10,10,55001,1,3,250.4062,232.2073
1,6,20,2,3,2,B,F,r,g,10,10,56001,1,3,589.6182,254.7214
1,6,20,2,3,2,B,F,r,g,10,10,56001,1,1,197.8734,221.7008
1,6,20,2,3,2,B,F,r,g,10,10,56001,1,3,368.9803,415.3218
1,6,20,2,3,2,B,F,r,g,10,10,56001,1,1,346.4662,436.3349
1,6,20,2,3,2,B,F,r,g,10,10,56001,1,3,364.4775,488.8677
1,6,20,2,3,2,B,F,r,g,10,10,57001,1,3,377.9859,502.3762
1,6,20,2,3,2,B,F,r,g,10,10,57001,1,1,445.5281,460.3499
1,6,20,2,3,2,B,F,r,g,10,10,57001,1,1,492.0572,397.3105
1,6,20,2,3,2,B,F,r,g,10,10,57001,1,3,514.5713,392.8077
1,6,20,2,3,2,B,F,r,g,10,10,57001,1,3,576.1098,256.2223
1,6,20,2,3,2,B,F,r,g,10,10,58001,1,3,469.5432,520.3874
1,6,20,2,3,2,B,F,r,g,10,10,58001,1,3,484.5525,485.8659
1,6,20,2,3,2,B,F,r,g,10,10,58001,1,1,514.5713,478.3612
1,6,20,2,3,2,B,F,r,g,10,10,58001,1,1,613.6332,298.2486
1,6,20,2,3,2,B,F,r,g,10,10,58001,1,3,597.1229,268.2298
1,6,20,2,3,2,B,F,r,g,10,10,58001,1,3,421.5131,104.6276
1,6,20,2,3,2,B,F,r,g,10,10,59001,1,3,322.4512,164.6651
1,6,20,2,3,2,B,F,r,g,10,10,59001,1,1,238.3987,266.7289
1,6,20,2,3,2,B,F,r,g,10,10,59001,1,3,217.3856,307.2542
1,6,20,2,3,2,B,F,r,g,10,10,59001,1,1,178.3612,314.7589
1,6,20,2,3,2,B,F,r,g,10,10,59001,1,1,438.0235,530.894
1,6,20,2,3,2,B,F,r,g,10,10,59001,1,3,474.046,481.363
1,6,20,2,3,2,B,F,r,g,10,10,59001,1,1,513.0704,481.363
1,6,20,2,3,2,B,F,r,g,10,10,59001,1,3,592.6201,266.7289
1,6,20,2,3,2,B,F,r,g,10,10,59001,1,1,636.1473,268.2298
1,6,20,2,3,2,B,F,r,g,10,10,60001,1,3,604.6276,241.2129
1,6,20,2,3,2,B,F,r,g,10,10,60001,1,3,607.6295,280.2373
1,6,20,2,3,2,B,F,r,g,10,10,60001,1,3,405.0028,440.8377
1,6,20,2,3,2,B,F,r,g,10,10,60001,1,3,405.0028,517.3856
1,6,20,2,3,2,B,F,r,g,10,10,60001,1,1,436.5225,526.3912
1,6,20,2,3,2,B,F,r,g,10,10,60001,1,3,287.9296,367.2917
1,6,20,2,3,2,B,F,r,g,10,10,61001,1,3,613.6332,287.742
1,6,20,2,3,2,B,F,r,g,10,10,61001,1,3,727.7045,323.7645
1,6,20,2,3,2,B,F,r,g,10,10,61001,1,1,585.1154,251.7195
1,6,20,2,3,2,B,F,r,g,10,10,61001,1,3,374.9841,538.3987
1,6,20,2,3,2,B,F,r,g,10,10,61001,1,1,400.5,536.8977
1,6,20,2,3,2,B,F,r,g,10,10,61001,1,3,280.425,460.3499
1,6,20,2,3,2,B,F,r,g,10,10,61001,1,3,281.9259,349.2805
1,6,20,2,3,2,B,F,r,g,10,10,62001,1,3,418.5113,434.834
1,6,20,2,3,2,B,F,r,g,10,10,62001,1,1,395.9972,446.8415
1,6,20,2,3,2,B,F,r,g,10,10,62001,1,3,535.5844,277.2355
1,6,20,2,3,2,B,F,r,g,10,10,62001,1,3,347.9672,95.622
1,6,20,2,3,2,B,F,r,g,10,10,63001,1,3,597.1229,278.7364
1,6,20,2,3,2,B,F,r,g,10,10,63001,1,1,411.0066,479.8621
1,6,20,2,3,2,B,F,r,g,10,10,63001,1,1,377.9859,466.3537
1,6,20,2,3,2,B,F,r,g,10,10,63001,1,1,353.9709,469.3555
1,6,20,2,3,2,B,F,r,g,10,10,63001,1,3,323.9522,464.8527
1,6,20,2,3,2,B,F,r,g,10,10,64001,1,3,435.0216,466.3537
1,6,20,2,3,2,B,F,r,g,10,10,64001,1,1,417.0103,490.3687
1,6,20,2,3,2,B,F,r,g,10,10,64001,1,1,433.5206,503.8771
1,6,20,2,3,2,B,F,r,g,10,10,64001,1,1,487.5544,493.3705
1,6,20,2,3,2,B,F,r,g,10,10,64001,1,3,613.6332,281.7383
1,6,20,2,3,2,B,F,r,g,10,10,65001,1,3,504.0647,262.2261
1,6,20,2,3,2,B,F,r,g,10,10,65001,1,1,430.5188,130.1435
1,6,20,2,3,2,B,F,r,g,10,10,65001,1,3,582.1135,401.8133
1,6,20,2,3,2,B,F,r,g,10,10,65001,1,3,430.5188,449.8433
1,6,20,2,3,2,B,F,r,g,10,10,65001,1,1,427.5169,476.8602
1,6,20,2,3,2,B,F,r,g,10,10,66001,1,3,424.515,500.8752
1,6,20,2,3,2,B,F,r,g,10,10,66001,1,1,439.5244,430.3311
1,6,20,2,3,2,B,F,r,g,10,10,66001,1,1,472.545,437.8358
1,6,20,2,3,2,B,F,r,g,10,10,66001,1,1,498.061,463.3518
1,6,20,2,3,2,B,F,r,g,10,10,66001,1,1,487.5544,409.318
1,6,20,2,3,2,B,F,r,g,10,10,66001,1,3,508.5675,389.8058
1,6,20,2,3,2,B,F,r,g,10,10,66001,1,3,474.046,277.2355
1,6,20,2,3,2,B,F,r,g,10,10,67001,1,3,435.0216,428.8302
1,6,20,2,3,2,B,F,r,g,10,10,67001,1,1,451.5319,410.8189
1,6,20,2,3,2,B,F,r,g,10,10,67001,1,3,329.9559,395.8096
1,6,20,2,3,2,B,F,r,g,10,10,67001,1,1,293.9334,392.8077
1,6,20,2,3,2,B,F,r,g,10,10,67001,1,3,320.9503,365.7908
1,6,20,2,3,2,B,F,r,g,10,10,67001,1,1,269.9184,361.288
1,6,20,2,3,2,B,F,r,g,10,10,67001,1,3,178.3612,332.7702
1,6,20,2,3,2,B,F,r,g,10,10,68001,1,1,495.0591,434.834
1,6,20,2,3,2,B,F,r,g,10,10,68001,1,3,481.5507,404.8152
1,6,20,2,3,2,B,F,r,g,10,10,68001,1,1,457.5356,392.8077
1,6,20,2,3,2,B,F,r,g,10,10,68001,1,1,432.0197,442.3386
1,6,20,2,3,2,B,F,r,g,10,10,68001,1,3,448.53,454.3462
1,6,20,2,3,2,B,F,r,g,10,10,68001,1,1,408.0047,479.8621
1,6,20,2,3,2,B,F,r,g,10,10,68001,1,3,317.9484,280.2373
1,6,20,2,3,2,B,F,r,g,10,10,68001,1,3,229.3931,239.712
1,6,20,2,3,2,B,F,r,g,10,10,69001,1,3,540.0872,370.2936
1,6,20,2,3,2,B,F,r,g,10,10,69001,1,1,559.5994,403.3143
1,6,20,2,3,2,B,F,r,g,10,10,69001,1,3,421.5131,406.3161
1,6,20,2,3,2,B,F,r,g,10,10,69001,1,1,224.8902,347.7795
1,6,20,2,3,2,B,F,r,g,10,10,69001,1,3,196.3724,304.2523
1,6,20,2,3,2,B,F,r,g,10,10,69001,1,3,421.5131,104.6276
1,6,20,2,3,2,B,F,r,g,10,10,70001,1,3,550.5938,250.2186
1,6,20,2,3,2,B,F,r,g,10,10,70001,1,1,600.1248,233.7083
1,6,20,2,3,2,B,F,r,g,10,10,70001,1,3,429.0178,251.7195
1,6,20,2,3,2,B,F,r,g,10,10,70001,1,3,398.9991,229.2054
1,6,20,2,3,2,B,F,r,g,10,10,70001,1,1,421.5131,250.2186
1,6,20,2,3,2,B,F,r,g,10,10,70001,1,3,248.9053,242.7139
1,6,20,2,3,2,B,F,r,g,10,10,70001,1,1,224.8902,277.2355
1,6,20,2,3,2,B,F,r,g,10,10,70001,1,3,377.9859,476.8602
1,6,20,2,3,2,B,F,r,g,10,10,71001,1,1,403.5019,310.2561
1,6,20,2,3,2,B,F,r,g,10,10,71001,1,3,430.5188,292.2448
1,6,20,2,3,2,B,F,r,g,10,10,71001,1,1,523.5769,161.6632
1,6,20,2,3,2,B,F,r,g,10,10,71001,1,3,585.1154,436.3349
1,6,20,2,3,2,B,F,r,g,10,10,71001,1,1,332.9578,455.8471
1,6,20,2,3,2,B,F,r,g,10,10,71001,1,3,314.9465,503.8771
1,6,20,2,3,2,B,F,r,g,10,10,72001,1,3,408.0047,430.3311
1,6,20,2,3,2,B,F,r,g,10,10,72001,1,3,573.1079,322.2636
1,6,20,2,3,2,B,F,r,g,10,10,72001,1,1,549.0929,329.7683
1,6,20,2,3,2,B,F,r,g,10,10,72001,1,3,251.9071,458.849
1,6,20,2,3,2,B,F,r,g,10,10,72001,1,3,232.3949,424.3274
1,6,20,2,3,2,B,F,r,g,10,10,72001,1,1,233.8959,394.3086
1,6,20,2,3,2,B,F,r,g,10,10,72001,1,1,199.3743,401.8133
1,6,20,2,3,2,B,F,r,g,10,10,73001,1,1,418.5113,437.8358
1,6,20,2,3,2,B,F,r,g,10,10,73001,1,1,370.4812,455.8471
1,6,20,2,3,2,B,F,r,g,10,10,73001,1,3,382.4887,503.8771
1,6,20,2,3,2,B,F,r,g,10,10,73001,1,3,350.969,499.3743
1,6,20,2,3,2,B,F,r,g,10,10,73001,1,3,585.1154,262.2261
1,6,20,2,3,2,B,F,r,g,10,10,73001,1,3,654.1585,289.243
1,6,20,2,3,2,B,F,r,g,10,10,73001,1,3,492.0572,59.5994
1,6,20,2,3,2,B,F,r,g,10,10,74001,1,3,531.0816,298.2486
1,6,20,2,3,2,B,F,r,g,10,10,74001,1,1,546.091,382.3011
1,6,20,2,3,2,B,F,r,g,10,10,74001,1,3,475.5469,358.2861
1,6,20,2,3,2,B,F,r,g,10,10,74001,1,3,397.4981,421.3255
1,6,20,2,3,2,B,F,r,g,10,10,75001,1,1,487.5544,338.7739
1,6,20,2,3,2,B,F,r,g,10,10,75001,1,3,508.5675,292.2448
1,6,20,2,3,2,B,F,r,g,10,10,75001,1,1,408.0047,232.2073
1,6,20,2,3,2,B,F,r,g,10,10,75001,1,1,370.4812,229.2054
1,6,20,2,3,2,B,F,r,g,10,10,75001,1,3,227.8921,272.7326
1,6,20,2,3,2,B,F,r,g,10,10,75001,1,3,328.455,391.3068
1,6,20,2,3,2,B,F,r,g,10,10,76001,1,3,405.0028,443.8396
1,6,20,2,3,2,B,F,r,g,10,10,76001,1,3,329.9559,383.8021
1,6,20,2,3,2,B,F,r,g,10,10,76001,1,1,214.3837,338.7739
1,6,20,2,3,2,B,F,r,g,10,10,76001,1,3,170.8565,328.2674
1,6,20,2,3,2,B,F,r,g,10,10,76001,1,3,699.1867,418.3236
1,6,20,2,3,2,B,F,r,g,10,10,76001,1,1,679.6745,379.2992
1,6,20,2,3,2,B,F,r,g,10,10,77001,1,1,454.5338,565.4156
1,6,20,2,3,2,B,F,r,g,10,10,77001,1,1,478.5488,554.909
1,6,20,2,3,2,B,F,r,g,10,10,77001,1,1,448.53,524.8902
1,6,20,2,3,2,B,F,r,g,10,10,77001,1,1,409.5056,490.3687
1,6,20,2,3,2,B,F,r,g,10,10,77001,1,3,433.5206,556.4099
1,6,20,2,3,2,B,F,r,g,10,10,77001,1,3,430.5188,101.6257
1,6,20,2,3,2,B,F,r,g,10,10,77001,1,3,471.0441,101.6257
1,6,20,2,3,2,B,F,r,g,10,10,78001,1,3,454.5338,94.121
1,6,20,2,3,2,B,F,r,g,10,10,78001,1,3,514.5713,452.8452
1,6,20,2,3,2,B,F,r,g,10,10,78001,1,3,376.485,461.8508
1,6,20,2,3,2,B,F,r,g,10,10,78001,1,1,355.4719,440.8377
1,6,20,2,3,2,B,F,r,g,10,10,78001,1,1,331.4568,466.3537
1,6,20,2,3,2,B,F,r,g,10,10,79001,1,3,435.0216,125.6407
1,6,20,2,3,2,B,F,r,g,10,10,79001,1,3,206.879,266.7289
1,6,20,2,3,2,B,F,r,g,10,10,79001,1,1,484.5525,461.8508
1,6,20,2,3,2,B,F,r,g,10,10,79001,1,3,493.5582,413.8208
1,6,20,2,3,2,B,F,r,g,10,10,79001,1,3,606.1285,391.3068
1,6,20,2,3,2,B,F,r,g,10,10,79001,1,1,630.1435,299.7495
1,6,20,2,3,2,B,F,r,g,10,10,80001,1,3,223.3893,136.1473
1,6,20,2,3,2,B,F,r,g,10,10,80001,1,3,191.8696,301.2505
1,6,20,2,3,2,B,F,r,g,10,10,80001,1,3,386.9916,457.348
1,6,20,2,3,2,B,F,r,g,10,10,81001,1,3,568.6051,266.7289
1,6,20,2,3,2,B,F,r,g,10,10,81001,1,1,374.9841,389.8058
1,6,20,2,3,2,B,F,r,g,10,10,81001,1,3,322.4512,391.3068
1,6,20,2,3,2,B,F,r,g,10,10,81001,1,3,359.9747,463.3518
1,6,20,2,3,2,B,F,r,g,10,10,82001,1,3,463.5394,539.8996
1,6,20,2,3,2,B,F,r,g,10,10,82001,1,1,441.0253,505.378
1,6,20,2,3,2,B,F,r,g,10,10,82001,1,3,362.9765,458.849
1,6,20,2,3,2,B,F,r,g,10,10,82001,1,3,274.4212,503.8771
1,6,20,2,3,2,B,F,r,g,10,10,83001,1,1,520.575,448.3424
1,6,20,2,3,2,B,F,r,g,10,10,83001,1,3,481.5507,415.3218
1,6,20,2,3,2,B,F,r,g,10,10,83001,1,3,382.4887,193.1829
1,6,20,2,3,2,B,F,r,g,10,10,83001,1,3,275.9221,203.6895
1,6,20,2,3,2,B,F,r,g,10,10,84001,1,3,414.0084,110.6313
1,6,20,2,3,2,B,F,r,g,10,10,84001,1,3,350.969,125.6407
1,6,20,2,3,2,B,F,r,g,10,10,84001,1,3,358.4737,250.2186
1,6,20,2,3,2,B,F,r,g,10,10,84001,1,1,337.4606,302.7514
1,6,20,2,3,2,B,F,r,g,10,10,85001,1,3,343.4644,287.742
1,6,20,2,3,2,B,F,r,g,10,10,85001,1,1,502.5638,470.8565
1,6,20,2,3,2,B,F,r,g,10,10,86001,1,1,326.954,331.2692
1,6,20,2,3,2,B,F,r,g,10,10,86001,1,3,361.4756,278.7364
1,6,20,2,3,2,B,F,r,g,10,10,86001,1,3,236.8977,320.7627
1,6,20,2,3,2,B,F,r,g,10,10,86001,1,1,412.5075,166.166
1,6,20,2,3,2,B,F,r,g,10,10,86001,1,3,463.5394,244.2148
1,6,20,2,3,2,B,F,r,g,10,10,87001,1,3,537.0854,272.7326
1,6,20,2,3,2,B,F,r,g,10,10,87001,1,3,400.5,139.1492
1,6,20,2,3,2,B,F,r,g,10,10,87001,1,1,299.9371,232.2073
1,6,20,2,3,2,B,F,r,g,10,10,87001,1,1,322.4512,265.228
1,6,20,2,3,2,B,F,r,g,10,10,87001,1,3,253.4081,286.2411
1,6,20,2,3,2,B,F,r,g,10,10,88001,1,1,394.4962,346.2786
1,6,20,2,3,2,B,F,r,g,10,10,88001,1,1,362.9765,361.288
1,6,20,2,3,2,B,F,r,g,10,10,88001,1,3,323.9522,382.3011
1,6,20,2,3,2,B,F,r,g,10,10,88001,1,3,301.4381,229.2054
1,6,20,2,3,2,B,F,r,g,10,10,89001,1,1,462.0385,529.3931
1,6,20,2,3,2,B,F,r,g,10,10,89001,1,3,472.545,571.4193
1,6,20,2,3,2,B,F,r,g,10,10,89001,1,1,556.5976,455.8471
1,6,20,2,3,2,B,F,r,g,10,10,90001,1,3,397.4981,194.6839
1,6,20,2,3,2,B,F,r,g,10,10,90001,1,3,451.5319,100.1248
1,6,20,2,3,2,B,F,r,g,10,10,90001,1,3,194.8715,269.7308
1,6,20,2,3,2,B,F,r,g,10,10,90001,1,1,185.8659,316.2598
1,6,20,2,3,2,B,F,r,g,10,10,91001,1,3,453.0328,463.3518
1,6,20,2,3,2,B,F,r,g,10,10,91001,1,3,283.4268,353.7833
1,6,20,2,3,2,B,F,r,g,10,10,91001,1,1,239.8996,391.3068
1,6,20,2,3,2,B,F,r,g,10,10,91001,1,3,256.4099,185.6782
1,6,20,2,3,2,B,F,r,g,10,10,92001,1,3,340.4625,470.8565
1,6,20,2,3,2,B,F,r,g,10,10,92001,1,3,173.8583,320.7627
1,6,20,2,3,2,B,F,r,g,10,10,92001,1,1,272.9203,184.1773
1,6,20,2,3,2,B,F,r,g,10,10,92001,1,3,344.9653,218.6989
1,6,20,2,3,2,B,F,r,g,10,10,92001,1,1,337.4606,263.727
1,6,20,2,3,2,B,F,r,g,10,10,93001,1,3,224.8902,344.7777
1,6,20,2,3,2,B,F,r,g,10,10,93001,1,1,245.9034,188.6801
1,6,20,2,3,2,B,F,r,g,10,10,93001,1,3,244.4024,142.151
1,6,20,2,3,2,B,F,r,g,10,10,93001,1,3,604.6276,494.8715
1,6,20,2,3,2,B,F,r,g,10,10,94001,1,3,394.4962,448.3424
1,6,20,2,3,2,B,F,r,g,10,10,94001,1,1,496.56,572.9203
1,6,20,2,3,2,B,F,r,g,10,10,94001,1,3,367.4794,461.8508
1,6,20,2,3,2,B,F,r,g,10,10,94001,1,3,299.9371,433.333
1,6,20,2,3,2,B,F,r,g,10,10,94001,1,1,272.9203,403.3143
1,6,20,2,3,2,B,F,r,g,10,10,95001,1,3,433.5206,427.3293
1,6,20,2,3,2,B,F,r,g,10,10,95001,1,3,421.5131,398.8114
1,6,20,2,3,2,B,F,r,g,10,10,95001,1,3,385.4906,460.3499
1,6,20,2,3,2,B,F,r,g,10,10,96001,1,3,525.0779,419.8246
1,6,20,2,3,2,B,F,r,g,10,10,96001,1,1,622.6388,341.7758
1,6,20,2,3,2,B,F,r,g,10,10,96001,1,3,412.5075,370.2936
1,6,20,2,3,2,B,F,r,g,10,10,96001,1,3,364.4775,335.772
1,6,20,2,3,2,B,F,r,g,10,10,96001,1,3,436.5225,88.1173
1,6,20,2,3,2,B,F,r,g,10,10,97001,1,1,353.9709,482.864
1,6,20,2,3,2,B,F,r,g,10,10,97001,1,3,362.9765,524.8902
1,6,20,2,3,2,B,F,r,g,10,10,97001,1,1,540.0872,523.3893
1,6,20,2,3,2,B,F,r,g,10,10,97001,1,3,565.6032,511.3818
1,6,20,2,3,2,B,F,r,g,10,10,97001,1,3,585.1154,263.727
1,6,20,2,3,2,B,F,r,g,10,10,97001,1,3,341.9634,224.7026
1,6,20,2,3,2,B,F,r,g,10,10,98001,1,3,448.53,370.2936
1,6,20,2,3,2,B,F,r,g,10,10,98001,1,1,499.5619,392.8077
1,6,20,2,3,2,B,F,r,g,10,10,98001,1,3,574.6088,376.2974
1,6,20,2,3,2,B,F,r,g,10,10,98001,1,3,642.151,233.7083
1,6,20,2,3,2,B,F,r,g,10,10,98001,1,3,562.6013,496.3724
1,6,20,2,3,2,B,F,r,g,10,10,98001,1,3,508.5675,545.9034
1,6,20,2,3,2,B,F,r,g,10,10,99001,1,3,496.56,287.742
1,6,20,2,3,2,B,F,r,g,10,10,99001,1,1,469.5432,311.757
1,6,20,2,3,2,B,F,r,g,10,10,99001,1,3,625.6407,356.7852
1,6,20,2,3,2,B,F,r,g,10,10,99001,1,3,555.0966,208.1923
1,6,20,2,3,2,B,F,r,g,10,10,99001,1,3,220.3874,319.2617
1,6,20,2,3,2,B,F,r,g,10,10,99001,1,3,250.4062,449.8433
1,6,20,2,3,2,B,F,r,g,10,10,100001,1,3,341.9634,460.3499
1,6,20,2,3,2,B,F,r,g,10,10,100001,1,3,507.0666,515.8846
1,6,20,2,3,2,B,F,r,g,10,10,100001,1,3,205.378,361.288
1,6,20,2,3,2,B,F,r,g,10,10,100001,1,3,430.5188,80.6126
1,6,20,2,3,2,B,F,r,g,10,10,101001,1,3,262.4137,449.8433
1,6,20,2,3,2,B,F,r,g,10,10,101001,1,3,275.9221,137.6482
1,6,20,2,3,2,B,F,r,g,10,10,101001,1,1,625.6407,418.3236
1,6,20,2,3,2,B,F,r,g,10,10,101001,1,3,600.1248,503.8771
1,6,20,2,3,2,B,F,r,g,10,10,102001,1,1,618.136,166.166
1,6,20,2,3,2,B,F,r,g,10,10,102001,1,1,645.1529,199.1867
1,6,20,2,3,2,B,F,r,g,10,10,102001,1,3,669.1679,160.1623
1,6,20,2,3,2,B,F,r,g,10,10,102001,1,3,675.1717,410.8189
1,6,20,2,3,2,B,F,r,g,10,10,102001,1,3,320.9503,457.348
1,6,20,2,3,2,B,F,r,g,10,10,102001,1,3,184.3649,289.243
1,6,20,2,3,2,B,F,r,g,10,10,103001,1,3,570.106,370.2936
1,6,20,2,3,2,B,F,r,g,10,10,103001,1,1,525.0779,562.4137
1,6,20,2,3,2,B,F,r,g,10,10,103001,1,3,466.5413,101.6257
1,6,20,2,3,2,B,F,r,g,10,10,103001,1,3,507.0666,58.0985
1,6,20,2,3,2,B,F,r,g,10,10,103001,1,1,256.4099,178.1735
1,6,20,2,3,2,B,F,r,g,10,10,103001,1,3,236.8977,154.1585
1,6,20,2,3,2,B,F,r,g,10,10,104001,1,3,487.5544,193.1829
1,6,20,2,3,2,B,F,r,g,10,10,104001,1,3,450.031,91.1191
1,6,20,2,3,2,B,F,r,g,10,10,104001,1,1,427.5169,89.6182
1,6,20,2,3,2,B,F,r,g,10,10,104001,1,3,600.1248,265.228
1,6,20,2,3,2,B,F,r,g,10,10,104001,1,1,332.9578,314.7589
1,6,20,2,3,2,B,F,r,g,10,10,104001,1,3,335.9597,391.3068
1,6,20,2,3,2,B,F,r,g,10,10,104001,1,3,178.3612,325.2655
1,6,20,2,3,2,B,F,r,g,10,10,105001,1,3,426.0159,403.3143
1,6,20,2,3,2,B,F,r,g,10,10,105001,1,3,398.9991,532.3949
1,6,20,2,3,2,B,F,r,g,10,10,105001,1,3,379.4869,313.258
1,6,20,2,3,2,B,F,r,g,10,10,105001,1,3,664.6651,251.7195
1,6,20,2,3,2,B,F,r,g,10,10,106001,1,1,445.5281,371.7946
1,6,20,2,3,2,B,F,r,g,10,10,106001,1,3,394.4962,449.8433
1,6,20,2,3,2,B,F,r,g,10,10,106001,1,1,364.4775,406.3161
1,6,20,2,3,2,B,F,r,g,10,10,106001,1,3,313.4456,404.8152
1,6,20,2,3,2,B,F,r,g,10,10,106001,1,3,233.8959,365.7908
1,6,20,2,3,2,B,F,r,g,10,10,106001,1,3,191.8696,299.7495
1,6,20,2,3,2,B,F,r,g,10,10,106001,1,3,190.3687,196.1848
1,6,20,2,3,2,B,F,r,g,10,10,106001,1,3,562.6013,254.7214
1,6,20,2,3,2,B,F,r,g,10,10,107001,1,3,507.0666,287.742
1,6,20,2,3,2,B,F,r,g,10,10,107001,1,3,331.4568,388.3049
1,6,20,2,3,2,B,F,r,g,10,10,107001,1,3,453.0328,140.6501
1,6,20,2,3,2,B,F,r,g,10,10,107001,1,3,429.0178,106.1285
