dummy,month,day,period,view,station,fgeno,mgeno,fcol,mcol,nf,nm,frame,something,sex,x,y
1,6,19,3,2,2,B,E,r,g,5,15,1,1,1,474.046,431.8321
1,6,19,3,2,2,B,E,r,g,5,15,1,1,3,543.0891,110.6313
1,6,19,3,2,2,B,E,r,g,5,15,1001,1,1,546.091,110.6313
1,6,19,3,2,2,B,E,r,g,5,15,1001,1,3,504.0647,70.106
1,6,19,3,2,2,B,E,r,g,5,15,2001,1,1,519.0741,140.6501
1,6,19,3,2,2,B,E,r,g,5,15,2001,1,3,424.515,121.1379
1,6,19,3,2,2,B,E,r,g,5,15,3001,1,1,386.9916,194.6839
1,6,19,3,2,2,B,E,r,g,5,15,3001,1,3,373.4831,254.7214
1,6,19,3,2,2,B,E,r,g,5,15,3001,1,3,197.8734,305.7533
1,6,19,3,2,2,B,E,r,g,5,15,4001,1,3,328.455,332.7702
1,6,19,3,2,2,B,E,r,g,5,15,4001,1,3,374.9841,295.2467
1,6,19,3,2,2,B,E,r,g,5,15,4001,1,1,454.5338,196.1848
1,6,19,3,2,2,B,E,r,g,5,15,5001,1,3,403.5019,283.2392
1,6,19,3,2,2,B,E,r,g,5,15,5001,1,3,239.8996,206.6914
1,6,19,3,2,2,B,E,r,g,5,15,5001,1,1,323.9522,176.6726
1,6,19,3,2,2,B,E,r,g,5,15,6001,1,3,227.8921,193.1829
1,6,19,3,2,2,B,E,r,g,5,15,6001,1,1,328.455,23.5769
1,6,19,3,2,2,B,E,r,g,5,15,6001,1,3,457.5356,478.3612
1,6,19,3,2,2,B,E,r,g,5,15,7001,1,3,457.5356,479.8621
1,6,19,3,2,2,B,E,r,g,5,15,7001,1,3,573.1079,397.3105
1,6,19,3,2,2,B,E,r,g,5,15,7001,1,1,607.6295,362.7889
1,6,19,3,2,2,B,E,r,g,5,15,8001,1,3,463.5394,431.8321
1,6,19,3,2,2,B,E,r,g,5,15,8001,1,3,421.5131,497.8734
1,6,19,3,2,2,B,E,r,g,5,15,8001,1,1,206.879,88.1173
1,6,19,3,2,2,B,E,r,g,5,15,9001,1,1,209.8809,344.7777
1,6,19,3,2,2,B,E,r,g,5,15,9001,1,3,184.3649,382.3011
1,6,19,3,2,2,B,E,r,g,5,15,9001,1,3,567.1041,109.1304
1,6,19,3,2,2,B,E,r,g,5,15,10001,1,3,355.4719,233.7083
1,6,19,3,2,2,B,E,r,g,5,15,10001,1,3,337.4606,473.8583
1,6,19,3,2,2,B,E,r,g,5,15,10001,1,1,607.6295,184.1773
1,6,19,3,2,2,B,E,r,g,5,15,11001,1,3,347.9672,506.879
1,6,19,3,2,2,B,E,r,g,5,15,11001,1,3,254.909,437.8358
1,6,19,3,2,2,B,E,r,g,5,15,11001,1,1,172.3574,407.8171
1,6,19,3,2,2,B,E,r,g,5,15,12001,1,3,313.4456,542.9015
1,6,19,3,2,2,B,E,r,g,5,15,12001,1,3,313.4456,502.3762
1,6,19,3,2,2,B,E,r,g,5,15,12001,1,1,305.9409,77.6107
1,6,19,3,2,2,B,E,r,g,5,15,13001,1,3,272.9203,454.3462
1,6,19,3,2,2,B,E,r,g,5,15,13001,1,1,274.4212,227.7045
1,6,19,3,2,2,B,E,r,g,5,15,13001,1,3,151.3443,238.2111
1,6,19,3,2,2,B,E,r,g,5,15,14001,1,3,271.4193,419.8246
1,6,19,3,2,2,B,E,r,g,5,15,14001,1,3,511.5694,469.3555
1,6,19,3,2,2,B,E,r,g,5,15,14001,1,1,289.4306,89.6182
1,6,19,3,2,2,B,E,r,g,5,15,15001,1,3,314.9465,388.3049
1,6,19,3,2,2,B,E,r,g,5,15,15001,1,3,292.4325,311.757
1,6,19,3,2,2,B,E,r,g,5,15,16001,1,3,365.9784,289.243
1,6,19,3,2,2,B,E,r,g,5,15,16001,1,3,199.3743,410.8189
1,6,19,3,2,2,B,E,r,g,5,15,16001,1,1,232.3949,436.3349
1,6,19,3,2,2,B,E,r,g,5,15,17001,1,3,314.9465,356.7852
1,6,19,3,2,2,B,E,r,g,5,15,17001,1,3,368.9803,65.6032
1,6,19,3,2,2,B,E,r,g,5,15,17001,1,1,329.9559,47.5919
1,6,19,3,2,2,B,E,r,g,5,15,18001,1,1,250.4062,386.8039
1,6,19,3,2,2,B,E,r,g,5,15,18001,1,3,194.8715,374.7964
1,6,19,3,2,2,B,E,r,g,5,15,19001,1,1,481.5507,182.6764
1,6,19,3,2,2,B,E,r,g,5,15,19001,1,3,496.56,124.1398
1,6,19,3,2,2,B,E,r,g,5,15,20001,1,1,170.8565,290.7439
1,6,19,3,2,2,B,E,r,g,5,15,20001,1,3,163.3518,247.2167
1,6,19,3,2,2,B,E,r,g,5,15,21001,1,1,160.3499,292.2448
1,6,19,3,2,2,B,E,r,g,5,15,21001,1,3,190.3687,265.228
1,6,19,3,2,2,B,E,r,g,5,15,22001,1,1,139.3368,268.2298
1,6,19,3,2,2,B,E,r,g,5,15,22001,1,3,194.8715,263.727
1,6,19,3,2,2,B,E,r,g,5,15,23001,1,1,136.3349,247.2167
1,6,19,3,2,2,B,E,r,g,5,15,23001,1,3,188.8677,260.7251
1,6,19,3,2,2,B,E,r,g,5,15,24001,1,1,140.8377,241.2129
1,6,19,3,2,2,B,E,r,g,5,15,24001,1,3,191.8696,269.7308
1,6,19,3,2,2,B,E,r,g,5,15,25001,1,1,232.3949,214.1961
1,6,19,3,2,2,B,E,r,g,5,15,25001,1,3,257.9109,290.7439
1,6,19,3,2,2,B,E,r,g,5,15,26001,1,1,331.4568,185.6782
1,6,19,3,2,2,B,E,r,g,5,15,26001,1,3,397.4981,194.6839
1,6,19,3,2,2,B,E,r,g,5,15,27001,1,1,362.9765,310.2561
1,6,19,3,2,2,B,E,r,g,5,15,27001,1,3,395.9972,317.7608
1,6,19,3,2,2,B,E,r,g,5,15,28001,1,1,418.5113,418.3236
1,6,19,3,2,2,B,E,r,g,5,15,28001,1,3,468.0422,385.303
1,6,19,3,2,2,B,E,r,g,5,15,28001,1,3,415.5094,109.1304
1,6,19,3,2,2,B,E,r,g,5,15,29001,1,3,278.924,208.1923
1,6,19,3,2,2,B,E,r,g,5,15,29001,1,1,265.4156,250.2186
1,6,19,3,2,2,B,E,r,g,5,15,29001,1,3,214.3837,236.7101
1,6,19,3,2,2,B,E,r,g,5,15,30001,1,3,226.3912,316.2598
1,6,19,3,2,2,B,E,r,g,5,15,30001,1,1,244.4024,383.8021
1,6,19,3,2,2,B,E,r,g,5,15,30001,1,3,302.939,422.8265
1,6,19,3,2,2,B,E,r,g,5,15,31001,1,3,352.47,530.894
1,6,19,3,2,2,B,E,r,g,5,15,31001,1,3,408.0047,505.378
1,6,19,3,2,2,B,E,r,g,5,15,31001,1,1,454.5338,482.864
1,6,19,3,2,2,B,E,r,g,5,15,32001,1,1,323.9522,163.1642
1,6,19,3,2,2,B,E,r,g,5,15,32001,1,3,335.9597,536.8977
1,6,19,3,2,2,B,E,r,g,5,15,33001,1,1,164.8527,232.2073
1,6,19,3,2,2,B,E,r,g,5,15,33001,1,3,152.8452,272.7326
1,6,19,3,2,2,B,E,r,g,5,15,33001,1,3,317.9484,533.8959
1,6,19,3,2,2,B,E,r,g,5,15,34001,1,3,298.4362,523.3893
1,6,19,3,2,2,B,E,r,g,5,15,35001,1,1,188.8677,137.6482
1,6,19,3,2,2,B,E,r,g,5,15,35001,1,3,221.8884,113.6332
1,6,19,3,2,2,B,E,r,g,5,15,36001,1,1,359.9747,434.834
1,6,19,3,2,2,B,E,r,g,5,15,37001,1,1,394.4962,49.0929
1,6,19,3,2,2,B,E,r,g,5,15,38001,1,1,134.834,307.2542
1,6,19,3,2,2,B,E,r,g,5,15,39001,1,1,480.0497,404.8152
1,6,19,3,2,2,B,E,r,g,5,15,40001,1,1,487.5544,410.8189
1,6,19,3,2,2,B,E,r,g,5,15,41001,1,1,151.3443,296.7477
1,6,19,3,2,2,B,E,r,g,5,15,42001,1,1,468.0422,140.6501
1,6,19,3,2,2,B,E,r,g,5,15,43001,1,1,583.6144,395.8096
1,6,19,3,2,2,B,E,r,g,5,15,44001,1,1,302.939,415.3218
1,6,19,3,2,2,B,E,r,g,5,15,45001,1,1,298.4362,413.8208
1,6,19,3,2,2,B,E,r,g,5,15,46001,1,1,257.9109,158.6614
1,6,19,3,2,2,B,E,r,g,5,15,48001,1,1,283.4268,173.6707
1,6,19,3,2,2,B,E,r,g,5,15,48001,1,3,469.5432,511.3818
1,6,19,3,2,2,B,E,r,g,5,15,49001,1,1,406.5038,500.8752
1,6,19,3,2,2,B,E,r,g,5,15,49001,1,3,468.0422,512.8827
1,6,19,3,2,2,B,E,r,g,5,15,50001,1,1,287.9296,532.3949
1,6,19,3,2,2,B,E,r,g,5,15,50001,1,3,603.1266,208.1923
1,6,19,3,2,2,B,E,r,g,5,15,51001,1,3,239.8996,479.8621
1,6,19,3,2,2,B,E,r,g,5,15,51001,1,1,166.3537,194.6839
1,6,19,3,2,2,B,E,r,g,5,15,51001,1,3,600.1248,206.6914
1,6,19,3,2,2,B,E,r,g,5,15,52001,1,1,263.9146,449.8433
1,6,19,3,2,2,B,E,r,g,5,15,52001,1,3,248.9053,499.3743
1,6,19,3,2,2,B,E,r,g,5,15,52001,1,3,600.1248,206.6914
1,6,19,3,2,2,B,E,r,g,5,15,53001,1,3,260.9128,392.8077
1,6,19,3,2,2,B,E,r,g,5,15,53001,1,1,239.8996,316.2598
1,6,19,3,2,2,B,E,r,g,5,15,53001,1,3,526.5788,160.1623
1,6,19,3,2,2,B,E,r,g,5,15,54001,1,3,211.3818,356.7852
1,6,19,3,2,2,B,E,r,g,5,15,54001,1,1,173.8583,308.7552
1,6,19,3,2,2,B,E,r,g,5,15,54001,1,3,444.0272,58.0985
1,6,19,3,2,2,B,E,r,g,5,15,55001,1,1,265.4156,398.8114
1,6,19,3,2,2,B,E,r,g,5,15,55001,1,3,328.455,407.8171
1,6,19,3,2,2,B,E,r,g,5,15,55001,1,3,424.515,44.5901
1,6,19,3,2,2,B,E,r,g,5,15,56001,1,3,331.4568,335.772
1,6,19,3,2,2,B,E,r,g,5,15,56001,1,1,286.4287,335.772
1,6,19,3,2,2,B,E,r,g,5,15,56001,1,3,418.5113,49.0929
1,6,19,3,2,2,B,E,r,g,5,15,57001,1,3,253.4081,392.8077
1,6,19,3,2,2,B,E,r,g,5,15,57001,1,1,232.3949,373.2955
1,6,19,3,2,2,B,E,r,g,5,15,57001,1,3,420.0122,41.5882
1,6,19,3,2,2,B,E,r,g,5,15,58001,1,1,175.3593,256.2223
1,6,19,3,2,2,B,E,r,g,5,15,58001,1,3,145.3405,221.7008
1,6,19,3,2,2,B,E,r,g,5,15,58001,1,3,424.515,52.0947
1,6,19,3,2,2,B,E,r,g,5,15,59001,1,3,445.5281,97.1229
1,6,19,3,2,2,B,E,r,g,5,15,59001,1,1,395.9972,85.1154
1,6,19,3,2,2,B,E,r,g,5,15,59001,1,3,426.0159,50.5938
1,6,19,3,2,2,B,E,r,g,5,15,60001,1,3,254.909,373.2955
1,6,19,3,2,2,B,E,r,g,5,15,60001,1,1,238.3987,292.2448
1,6,19,3,2,2,B,E,r,g,5,15,60001,1,3,415.5094,44.5901
1,6,19,3,2,2,B,E,r,g,5,15,61001,1,3,227.8921,413.8208
1,6,19,3,2,2,B,E,r,g,5,15,61001,1,1,247.4043,352.2824
1,6,19,3,2,2,B,E,r,g,5,15,61001,1,3,412.5075,44.5901
1,6,19,3,2,2,B,E,r,g,5,15,62001,1,1,386.9916,379.2992
1,6,19,3,2,2,B,E,r,g,5,15,64001,1,1,286.4287,77.6107
1,6,19,3,2,2,B,E,r,g,5,15,65001,1,1,579.1116,383.8021
1,6,19,3,2,2,B,E,r,g,5,15,66001,1,1,570.106,338.7739
1,6,19,3,2,2,B,E,r,g,5,15,68001,1,3,347.9672,478.3612
1,6,19,3,2,2,B,E,r,g,5,15,68001,1,1,400.5,529.3931
1,6,19,3,2,2,B,E,r,g,5,15,69001,1,1,459.0366,485.8659
1,6,19,3,2,2,B,E,r,g,5,15,69001,1,3,508.5675,461.8508
1,6,19,3,2,2,B,E,r,g,5,15,70001,1,1,146.8415,248.7176
1,6,19,3,2,2,B,E,r,g,5,15,72001,1,1,616.6351,271.2317
1,6,19,3,2,2,B,E,r,g,5,15,73001,1,1,212.8827,230.7064
1,6,19,3,2,2,B,E,r,g,5,15,74001,1,1,263.9146,421.3255
1,6,19,3,2,2,B,E,r,g,5,15,75001,1,1,317.9484,394.3086
1,6,19,3,2,2,B,E,r,g,5,15,76001,1,3,502.5638,337.273
1,6,19,3,2,2,B,E,r,g,5,15,76001,1,3,424.515,53.5957
1,6,19,3,2,2,B,E,r,g,5,15,77001,1,1,347.9672,259.2242
1,6,19,3,2,2,B,E,r,g,5,15,77001,1,3,326.954,326.7664
1,6,19,3,2,2,B,E,r,g,5,15,77001,1,3,278.924,301.2505
1,6,19,3,2,2,B,E,r,g,5,15,77001,1,3,603.1266,335.772
1,6,19,3,2,2,B,E,r,g,5,15,78001,1,3,317.9484,355.2842
1,6,19,3,2,2,B,E,r,g,5,15,78001,1,3,323.9522,319.2617
1,6,19,3,2,2,B,E,r,g,5,15,78001,1,3,603.1266,389.8058
1,6,19,3,2,2,B,E,r,g,5,15,78001,1,1,607.6295,328.2674
1,6,19,3,2,2,B,E,r,g,5,15,79001,1,3,358.4737,373.2955
1,6,19,3,2,2,B,E,r,g,5,15,79001,1,1,371.9822,413.8208
1,6,19,3,2,2,B,E,r,g,5,15,79001,1,3,359.9747,517.3856
1,6,19,3,2,2,B,E,r,g,5,15,79001,1,3,577.6107,436.3349
1,6,19,3,2,2,B,E,r,g,5,15,80001,1,1,462.0385,467.8546
1,6,19,3,2,2,B,E,r,g,5,15,80001,1,3,253.4081,436.3349
1,6,19,3,2,2,B,E,r,g,5,15,80001,1,3,194.8715,332.7702
1,6,19,3,2,2,B,E,r,g,5,15,81001,1,3,305.9409,424.3274
1,6,19,3,2,2,B,E,r,g,5,15,81001,1,3,405.0028,509.8809
1,6,19,3,2,2,B,E,r,g,5,15,81001,1,3,223.3893,200.6876
1,6,19,3,2,2,B,E,r,g,5,15,81001,1,1,501.0629,62.6013
1,6,19,3,2,2,B,E,r,g,5,15,82001,1,1,469.5432,314.7589
1,6,19,3,2,2,B,E,r,g,5,15,82001,1,3,441.0253,338.7739
1,6,19,3,2,2,B,E,r,g,5,15,82001,1,3,499.5619,452.8452
1,6,19,3,2,2,B,E,r,g,5,15,83001,1,3,499.5619,164.6651
1,6,19,3,2,2,B,E,r,g,5,15,83001,1,1,454.5338,203.6895
1,6,19,3,2,2,B,E,r,g,5,15,83001,1,3,535.5844,425.8283
1,6,19,3,2,2,B,E,r,g,5,15,83001,1,1,504.0647,475.3593
1,6,19,3,2,2,B,E,r,g,5,15,84001,1,3,463.5394,410.8189
1,6,19,3,2,2,B,E,r,g,5,15,84001,1,3,226.3912,113.6332
1,6,19,3,2,2,B,E,r,g,5,15,85001,1,3,329.9559,223.2017
1,6,19,3,2,2,B,E,r,g,5,15,85001,1,1,379.4869,193.1829
1,6,19,3,2,2,B,E,r,g,5,15,85001,1,1,483.0516,290.7439
1,6,19,3,2,2,B,E,r,g,5,15,85001,1,3,214.3837,121.1379
1,6,19,3,2,2,B,E,r,g,5,15,86001,1,3,221.8884,200.6876
1,6,19,3,2,2,B,E,r,g,5,15,86001,1,1,232.3949,458.849
1,6,19,3,2,2,B,E,r,g,5,15,87001,1,3,583.6144,349.2805
1,6,19,3,2,2,B,E,r,g,5,15,88001,1,3,172.3574,379.2992
1,6,19,3,2,2,B,E,r,g,5,15,89001,1,1,238.3987,349.2805
1,6,19,3,2,2,B,E,r,g,5,15,89001,1,3,466.5413,407.8171
1,6,19,3,2,2,B,E,r,g,5,15,90001,1,1,308.9428,377.7983
1,6,19,3,2,2,B,E,r,g,5,15,90001,1,3,343.4644,428.8302
1,6,19,3,2,2,B,E,r,g,5,15,91001,1,1,181.363,331.2692
1,6,19,3,2,2,B,E,r,g,5,15,91001,1,3,193.3705,371.7946
1,6,19,3,2,2,B,E,r,g,5,15,92001,1,1,454.5338,124.1398
1,6,19,3,2,2,B,E,r,g,5,15,93001,1,1,146.8415,160.1623
1,6,19,3,2,2,B,E,r,g,5,15,94001,1,1,220.3874,151.1567
1,6,19,3,2,2,B,E,r,g,5,15,94001,1,3,248.9053,82.1135
1,6,19,3,2,2,B,E,r,g,5,15,95001,1,1,367.4794,35.5844
1,6,19,3,2,2,B,E,r,g,5,15,97001,1,1,598.6238,152.6576
1,6,19,3,2,2,B,E,r,g,5,15,99001,1,1,371.9822,353.7833
1,6,19,3,2,2,B,E,r,g,5,15,100001,1,1,377.9859,355.2842
1,6,19,3,2,2,B,E,r,g,5,15,101001,1,1,382.4887,356.7852
1,6,19,3,2,2,B,E,r,g,5,15,101001,1,1,377.9859,355.2842
1,6,19,3,2,2,B,E,r,g,5,15,103001,1,1,460.5375,515.8846
1,6,19,3,2,2,B,E,r,g,5,15,105001,1,1,474.046,355.2842
1,6,19,3,2,2,B,E,r,g,5,15,106001,1,1,474.046,355.2842
1,6,19,3,2,2,B,E,r,g,5,15,107001,1,1,621.1379,268.2298
