dummy,month,day,period,view,station,fgeno,mgeno,fcol,mcol,nf,nm,frame,something,sex,x,y
1,6,26,4,2,1,B,E,b,y,10,10,1,1,1,717,350
1,6,26,4,2,1,B,E,b,y,10,10,1,1,3,689,331
1,6,26,4,2,1,B,E,b,y,10,10,1,1,3,678,434
1,6,26,4,2,1,B,E,b,y,10,10,1,1,3,346,552
1,6,26,4,2,1,B,E,b,y,10,10,1,1,1,202,203
1,6,26,4,2,1,B,E,b,y,10,10,1001,1,3,716,360
1,6,26,4,2,1,B,E,b,y,10,10,1001,1,3,690,325
1,6,26,4,2,1,B,E,b,y,10,10,1001,1,3,577,334
1,6,26,4,2,1,B,E,b,y,10,10,1001,1,1,608,382
1,6,26,4,2,1,B,E,b,y,10,10,1001,1,3,345,546
1,6,26,4,2,1,B,E,b,y,10,10,1001,1,1,654,506
1,6,26,4,2,1,B,E,b,y,10,10,2001,1,3,602,104
1,6,26,4,2,1,B,E,b,y,10,10,2001,1,3,492,255
1,6,26,4,2,1,B,E,b,y,10,10,2001,1,3,677,315
1,6,26,4,2,1,B,E,b,y,10,10,2001,1,1,570,296
1,6,26,4,2,1,B,E,b,y,10,10,2001,1,1,588,354
1,6,26,4,2,1,B,E,b,y,10,10,2001,1,3,318,550
1,6,26,4,2,1,B,E,b,y,10,10,3001,1,3,609,104
1,6,26,4,2,1,B,E,b,y,10,10,3001,1,3,450,166
1,6,26,4,2,1,B,E,b,y,10,10,3001,1,1,487,166
1,6,26,4,2,1,B,E,b,y,10,10,3001,1,1,726,306
1,6,26,4,2,1,B,E,b,y,10,10,3001,1,3,699,333
1,6,26,4,2,1,B,E,b,y,10,10,3001,1,3,288,540
1,6,26,4,2,1,B,E,b,y,10,10,3001,1,1,344,542
1,6,26,4,2,1,B,E,b,y,10,10,3001,1,3,424,566
1,6,26,4,2,1,B,E,b,y,10,10,4001,1,3,458,111
1,6,26,4,2,1,B,E,b,y,10,10,4001,1,3,697,333
1,6,26,4,2,1,B,E,b,y,10,10,4001,1,3,443,582
1,6,26,4,2,1,B,E,b,y,10,10,4001,1,3,279,515
1,6,26,4,2,1,B,E,b,y,10,10,4001,1,1,253,484
1,6,26,4,2,1,B,E,b,y,10,10,4001,1,1,239,516
1,6,26,4,2,1,B,E,b,y,10,10,5001,1,1,550,176
1,6,26,4,2,1,B,E,b,y,10,10,5001,1,3,587,255
1,6,26,4,2,1,B,E,b,y,10,10,5001,1,3,700,292
1,6,26,4,2,1,B,E,b,y,10,10,5001,1,3,301,519
1,6,26,4,2,1,B,E,b,y,10,10,5001,1,3,379,577
1,6,26,4,2,1,B,E,b,y,10,10,5001,1,1,166,169
1,6,26,4,2,1,B,E,b,y,10,10,6001,1,3,657,364
1,6,26,4,2,1,B,E,b,y,10,10,6001,1,3,426,530
1,6,26,4,2,1,B,E,b,y,10,10,6001,1,3,321,534
1,6,26,4,2,1,B,E,b,y,10,10,6001,1,3,364,570
1,6,26,4,2,1,B,E,b,y,10,10,6001,1,1,449,497
1,6,26,4,2,1,B,E,b,y,10,10,6001,1,1,293,483
1,6,26,4,2,1,B,E,b,y,10,10,7001,1,1,674,239
1,6,26,4,2,1,B,E,b,y,10,10,7001,1,1,713,311
1,6,26,4,2,1,B,E,b,y,10,10,7001,1,3,661,349
1,6,26,4,2,1,B,E,b,y,10,10,7001,1,1,445,493
1,6,26,4,2,1,B,E,b,y,10,10,7001,1,3,463,568
1,6,26,4,2,1,B,E,b,y,10,10,7001,1,3,365,558
1,6,26,4,2,1,B,E,b,y,10,10,7001,1,3,274,527
1,6,26,4,2,1,B,E,b,y,10,10,8001,1,3,700,316
1,6,26,4,2,1,B,E,b,y,10,10,8001,1,3,449,571
1,6,26,4,2,1,B,E,b,y,10,10,8001,1,3,331,535
1,6,26,4,2,1,B,E,b,y,10,10,8001,1,3,269,537
1,6,26,4,2,1,B,E,b,y,10,10,9001,1,3,698,313
1,6,26,4,2,1,B,E,b,y,10,10,9001,1,3,355,580
1,6,26,4,2,1,B,E,b,y,10,10,9001,1,3,324,551
1,6,26,4,2,1,B,E,b,y,10,10,9001,1,3,256,508
1,6,26,4,2,1,B,E,b,y,10,10,9001,1,1,219,146
1,6,26,4,2,1,B,E,b,y,10,10,10001,1,1,234,206
1,6,26,4,2,1,B,E,b,y,10,10,10001,1,3,235,492
1,6,26,4,2,1,B,E,b,y,10,10,10001,1,3,327,556
1,6,26,4,2,1,B,E,b,y,10,10,10001,1,3,402,555
1,6,26,4,2,1,B,E,b,y,10,10,10001,1,3,678,426
1,6,26,4,2,1,B,E,b,y,10,10,10001,1,1,689,374
1,6,26,4,2,1,B,E,b,y,10,10,11001,1,1,159,306
1,6,26,4,2,1,B,E,b,y,10,10,11001,1,3,237,495
1,6,26,4,2,1,B,E,b,y,10,10,11001,1,3,333,563
1,6,26,4,2,1,B,E,b,y,10,10,11001,1,3,388,554
1,6,26,4,2,1,B,E,b,y,10,10,11001,1,3,699,285
1,6,26,4,2,1,B,E,b,y,10,10,12001,1,1,249,120
1,6,26,4,2,1,B,E,b,y,10,10,12001,1,3,221,487
1,6,26,4,2,1,B,E,b,y,10,10,12001,1,3,308,554
1,6,26,4,2,1,B,E,b,y,10,10,12001,1,3,411,570
1,6,26,4,2,1,B,E,b,y,10,10,13001,1,3,697,356
1,6,26,4,2,1,B,E,b,y,10,10,13001,1,3,414,562
1,6,26,4,2,1,B,E,b,y,10,10,13001,1,3,340,558
1,6,26,4,2,1,B,E,b,y,10,10,13001,1,3,221,463
1,6,26,4,2,1,B,E,b,y,10,10,13001,1,1,236,508
1,6,26,4,2,1,B,E,b,y,10,10,13001,1,1,394,50
1,6,26,4,2,1,B,E,b,y,10,10,14001,1,1,645,170
1,6,26,4,2,1,B,E,b,y,10,10,14001,1,3,704,298
1,6,26,4,2,1,B,E,b,y,10,10,14001,1,3,435,570
1,6,26,4,2,1,B,E,b,y,10,10,14001,1,3,346,558
1,6,26,4,2,1,B,E,b,y,10,10,14001,1,3,314,547
1,6,26,4,2,1,B,E,b,y,10,10,15001,1,3,699,303
1,6,26,4,2,1,B,E,b,y,10,10,15001,1,3,423,577
1,6,26,4,2,1,B,E,b,y,10,10,15001,1,3,342,552
1,6,26,4,2,1,B,E,b,y,10,10,15001,1,1,285,540
1,6,26,4,2,1,B,E,b,y,10,10,15001,1,3,260,519
1,6,26,4,2,1,B,E,b,y,10,10,16001,1,3,307,240
1,6,26,4,2,1,B,E,b,y,10,10,16001,1,1,289,293
1,6,26,4,2,1,B,E,b,y,10,10,16001,1,1,653,292
1,6,26,4,2,1,B,E,b,y,10,10,16001,1,3,696,301
1,6,26,4,2,1,B,E,b,y,10,10,16001,1,3,426,570
1,6,26,4,2,1,B,E,b,y,10,10,16001,1,3,408,537
1,6,26,4,2,1,B,E,b,y,10,10,17001,1,3,706,300
1,6,26,4,2,1,B,E,b,y,10,10,17001,1,3,312,189
1,6,26,4,2,1,B,E,b,y,10,10,17001,1,1,328,237
1,6,26,4,2,1,B,E,b,y,10,10,17001,1,1,324,485
1,6,26,4,2,1,B,E,b,y,10,10,17001,1,3,335,532
1,6,26,4,2,1,B,E,b,y,10,10,17001,1,3,499,564
1,6,26,4,2,1,B,E,b,y,10,10,18001,1,3,677,343
1,6,26,4,2,1,B,E,b,y,10,10,18001,1,3,342,549
1,6,26,4,2,1,B,E,b,y,10,10,19001,1,3,689,305
1,6,26,4,2,1,B,E,b,y,10,10,19001,1,3,665,415
1,6,26,4,2,1,B,E,b,y,10,10,19001,1,3,334,552
1,6,26,4,2,1,B,E,b,y,10,10,19001,1,1,219,344
1,6,26,4,2,1,B,E,b,y,10,10,19001,1,1,173,369
1,6,26,4,2,1,B,E,b,y,10,10,19001,1,1,120,332
1,6,26,4,2,1,B,E,b,y,10,10,20001,1,3,701,336
1,6,26,4,2,1,B,E,b,y,10,10,20001,1,3,344,556
1,6,26,4,2,1,B,E,b,y,10,10,20001,1,3,334,360
1,6,26,4,2,1,B,E,b,y,10,10,20001,1,1,398,360
1,6,26,4,2,1,B,E,b,y,10,10,20001,1,1,400,282
1,6,26,4,2,1,B,E,b,y,10,10,20001,1,1,316,86
1,6,26,4,2,1,B,E,b,y,10,10,21001,1,3,701,361
1,6,26,4,2,1,B,E,b,y,10,10,21001,1,1,621,329
1,6,26,4,2,1,B,E,b,y,10,10,21001,1,3,295,295
1,6,26,4,2,1,B,E,b,y,10,10,21001,1,1,196,469
1,6,26,4,2,1,B,E,b,y,10,10,21001,1,3,344,561
1,6,26,4,2,1,B,E,b,y,10,10,21001,1,1,483,524
1,6,26,4,2,1,B,E,b,y,10,10,22001,1,3,304,296
1,6,26,4,2,1,B,E,b,y,10,10,22001,1,3,345,564
1,6,26,4,2,1,B,E,b,y,10,10,22001,1,1,672,400
1,6,26,4,2,1,B,E,b,y,10,10,22001,1,3,694,359
1,6,26,4,2,1,B,E,b,y,10,10,23001,1,3,490,105
1,6,26,4,2,1,B,E,b,y,10,10,23001,1,1,675,216
1,6,26,4,2,1,B,E,b,y,10,10,23001,1,3,692,347
1,6,26,4,2,1,B,E,b,y,10,10,23001,1,1,351,500
1,6,26,4,2,1,B,E,b,y,10,10,23001,1,3,356,538
1,6,26,4,2,1,B,E,b,y,10,10,23001,1,3,344,570
1,6,26,4,2,1,B,E,b,y,10,10,23001,1,1,384,571
1,6,26,4,2,1,B,E,b,y,10,10,24001,1,1,328,400
1,6,26,4,2,1,B,E,b,y,10,10,24001,1,3,520,490
1,6,26,4,2,1,B,E,b,y,10,10,24001,1,3,698,381
1,6,26,4,2,1,B,E,b,y,10,10,24001,1,3,318,565
1,6,26,4,2,1,B,E,b,y,10,10,24001,1,3,370,563
1,6,26,4,2,1,B,E,b,y,10,10,25001,1,1,171,192
1,6,26,4,2,1,B,E,b,y,10,10,25001,1,1,164,385
1,6,26,4,2,1,B,E,b,y,10,10,25001,1,3,178,435
1,6,26,4,2,1,B,E,b,y,10,10,25001,1,3,292,540
1,6,26,4,2,1,B,E,b,y,10,10,25001,1,3,634,495
1,6,26,4,2,1,B,E,b,y,10,10,25001,1,1,581,525
1,6,26,4,2,1,B,E,b,y,10,10,25001,1,3,685,329
1,6,26,4,2,1,B,E,b,y,10,10,26001,1,1,531,103
1,6,26,4,2,1,B,E,b,y,10,10,26001,1,3,689,320
1,6,26,4,2,1,B,E,b,y,10,10,26001,1,3,619,491
1,6,26,4,2,1,B,E,b,y,10,10,26001,1,3,294,507
1,6,26,4,2,1,B,E,b,y,10,10,26001,1,1,234,511
1,6,26,4,2,1,B,E,b,y,10,10,27001,1,1,581,270
1,6,26,4,2,1,B,E,b,y,10,10,27001,1,1,390,389
1,6,26,4,2,1,B,E,b,y,10,10,27001,1,1,692,296
1,6,26,4,2,1,B,E,b,y,10,10,27001,1,3,687,372
1,6,26,4,2,1,B,E,b,y,10,10,27001,1,3,623,503
1,6,26,4,2,1,B,E,b,y,10,10,27001,1,3,310,546
1,6,26,4,2,1,B,E,b,y,10,10,28001,1,1,600,318
1,6,26,4,2,1,B,E,b,y,10,10,28001,1,1,544,498
1,6,26,4,2,1,B,E,b,y,10,10,28001,1,1,592,508
1,6,26,4,2,1,B,E,b,y,10,10,28001,1,3,647,480
1,6,26,4,2,1,B,E,b,y,10,10,28001,1,3,708,338
1,6,26,4,2,1,B,E,b,y,10,10,29001,1,3,693,324
1,6,26,4,2,1,B,E,b,y,10,10,29001,1,3,672,444
1,6,26,4,2,1,B,E,b,y,10,10,29001,1,1,340,520
1,6,26,4,2,1,B,E,b,y,10,10,30001,1,1,652,133
1,6,26,4,2,1,B,E,b,y,10,10,30001,1,1,252,135
1,6,26,4,2,1,B,E,b,y,10,10,30001,1,1,378,14
1,6,26,4,2,1,B,E,b,y,10,10,30001,1,3,696,359
1,6,26,4,2,1,B,E,b,y,10,10,30001,1,3,693,318
1,6,26,4,2,1,B,E,b,y,10,10,31001,1,1,680,172
1,6,26,4,2,1,B,E,b,y,10,10,31001,1,1,602,85
1,6,26,4,2,1,B,E,b,y,10,10,31001,1,1,444,186
1,6,26,4,2,1,B,E,b,y,10,10,31001,1,1,372,573
1,6,26,4,2,1,B,E,b,y,10,10,31001,1,3,699,256
1,6,26,4,2,1,B,E,b,y,10,10,32001,1,3,678,222
1,6,26,4,2,1,B,E,b,y,10,10,32001,1,1,709,261
1,6,26,4,2,1,B,E,b,y,10,10,32001,1,1,570,419
1,6,26,4,2,1,B,E,b,y,10,10,32001,1,1,330,490
1,6,26,4,2,1,B,E,b,y,10,10,33001,1,1,511,51
1,6,26,4,2,1,B,E,b,y,10,10,33001,1,3,490,14
1,6,26,4,2,1,B,E,b,y,10,10,33001,1,1,244,312
1,6,26,4,2,1,B,E,b,y,10,10,33001,1,3,525,461
1,6,26,4,2,1,B,E,b,y,10,10,34001,1,1,403,441
1,6,26,4,2,1,B,E,b,y,10,10,34001,1,1,373,574
1,6,26,4,2,1,B,E,b,y,10,10,34001,1,3,477,527
1,6,26,4,2,1,B,E,b,y,10,10,34001,1,3,460,565
1,6,26,4,2,1,B,E,b,y,10,10,35001,1,1,500,425
1,6,26,4,2,1,B,E,b,y,10,10,35001,1,3,394,578
1,6,26,4,2,1,B,E,b,y,10,10,35001,1,3,468,533
1,6,26,4,2,1,B,E,b,y,10,10,36001,1,1,573,147
1,6,26,4,2,1,B,E,b,y,10,10,36001,1,3,399,579
1,6,26,4,2,1,B,E,b,y,10,10,36001,1,3,469,569
1,6,26,4,2,1,B,E,b,y,10,10,37001,1,1,498,198
1,6,26,4,2,1,B,E,b,y,10,10,37001,1,3,488,574
1,6,26,4,2,1,B,E,b,y,10,10,37001,1,3,370,570
1,6,26,4,2,1,B,E,b,y,10,10,38001,1,1,250,74
1,6,26,4,2,1,B,E,b,y,10,10,38001,1,3,367,564
1,6,26,4,2,1,B,E,b,y,10,10,38001,1,3,487,561
1,6,26,4,2,1,B,E,b,y,10,10,39001,1,3,274,66
1,6,26,4,2,1,B,E,b,y,10,10,39001,1,1,216,246
1,6,26,4,2,1,B,E,b,y,10,10,39001,1,1,667,360
1,6,26,4,2,1,B,E,b,y,10,10,39001,1,3,472,565
1,6,26,4,2,1,B,E,b,y,10,10,39001,1,3,343,564
1,6,26,4,2,1,B,E,b,y,10,10,40001,1,1,420,383
1,6,26,4,2,1,B,E,b,y,10,10,40001,1,3,286,54
1,6,26,4,2,1,B,E,b,y,10,10,40001,1,3,339,571
1,6,26,4,2,1,B,E,b,y,10,10,40001,1,3,482,561
1,6,26,4,2,1,B,E,b,y,10,10,41001,1,3,295,59
1,6,26,4,2,1,B,E,b,y,10,10,41001,1,1,291,411
1,6,26,4,2,1,B,E,b,y,10,10,41001,1,3,344,552
1,6,26,4,2,1,B,E,b,y,10,10,41001,1,3,443,569
1,6,26,4,2,1,B,E,b,y,10,10,42001,1,3,278,58
1,6,26,4,2,1,B,E,b,y,10,10,42001,1,3,306,556
1,6,26,4,2,1,B,E,b,y,10,10,42001,1,3,383,576
1,6,26,4,2,1,B,E,b,y,10,10,42001,1,1,423,569
1,6,26,4,2,1,B,E,b,y,10,10,43001,1,3,341,43
1,6,26,4,2,1,B,E,b,y,10,10,43001,1,1,180,295
1,6,26,4,2,1,B,E,b,y,10,10,43001,1,3,304,552
1,6,26,4,2,1,B,E,b,y,10,10,43001,1,3,316,522
1,6,26,4,2,1,B,E,b,y,10,10,44001,1,3,313,50
1,6,26,4,2,1,B,E,b,y,10,10,44001,1,1,271,112
1,6,26,4,2,1,B,E,b,y,10,10,44001,1,3,274,525
1,6,26,4,2,1,B,E,b,y,10,10,44001,1,3,305,555
1,6,26,4,2,1,B,E,b,y,10,10,45001,1,1,345,22
1,6,26,4,2,1,B,E,b,y,10,10,45001,1,3,212,133
1,6,26,4,2,1,B,E,b,y,10,10,45001,1,3,269,508
1,6,26,4,2,1,B,E,b,y,10,10,45001,1,3,291,554
1,6,26,4,2,1,B,E,b,y,10,10,45001,1,1,342,560
1,6,26,4,2,1,B,E,b,y,10,10,46001,1,1,390,77
1,6,26,4,2,1,B,E,b,y,10,10,46001,1,1,342,26
1,6,26,4,2,1,B,E,b,y,10,10,46001,1,3,223,121
1,6,26,4,2,1,B,E,b,y,10,10,46001,1,3,271,514
1,6,26,4,2,1,B,E,b,y,10,10,46001,1,3,311,559
1,6,26,4,2,1,B,E,b,y,10,10,47001,1,1,497,108
1,6,26,4,2,1,B,E,b,y,10,10,47001,1,3,227,137
1,6,26,4,2,1,B,E,b,y,10,10,47001,1,3,255,505
1,6,26,4,2,1,B,E,b,y,10,10,47001,1,3,320,545
1,6,26,4,2,1,B,E,b,y,10,10,48001,1,1,579,81
1,6,26,4,2,1,B,E,b,y,10,10,48001,1,1,450,385
1,6,26,4,2,1,B,E,b,y,10,10,48001,1,3,213,128
1,6,26,4,2,1,B,E,b,y,10,10,48001,1,3,243,509
1,6,26,4,2,1,B,E,b,y,10,10,48001,1,3,302,522
1,6,26,4,2,1,B,E,b,y,10,10,49001,1,1,555,146
1,6,26,4,2,1,B,E,b,y,10,10,49001,1,1,713,204
1,6,26,4,2,1,B,E,b,y,10,10,49001,1,3,272,525
1,6,26,4,2,1,B,E,b,y,10,10,49001,1,3,248,510
1,6,26,4,2,1,B,E,b,y,10,10,49001,1,3,222,180
1,6,26,4,2,1,B,E,b,y,10,10,50001,1,1,317,185
1,6,26,4,2,1,B,E,b,y,10,10,50001,1,3,169,311
1,6,26,4,2,1,B,E,b,y,10,10,50001,1,3,236,501
1,6,26,4,2,1,B,E,b,y,10,10,50001,1,3,272,527
1,6,26,4,2,1,B,E,b,y,10,10,51001,1,1,324,230
1,6,26,4,2,1,B,E,b,y,10,10,51001,1,3,173,312
1,6,26,4,2,1,B,E,b,y,10,10,51001,1,3,231,495
1,6,26,4,2,1,B,E,b,y,10,10,51001,1,3,281,531
1,6,26,4,2,1,B,E,b,y,10,10,52001,1,3,166,318
1,6,26,4,2,1,B,E,b,y,10,10,52001,1,3,230,494
1,6,26,4,2,1,B,E,b,y,10,10,52001,1,3,269,534
1,6,26,4,2,1,B,E,b,y,10,10,52001,1,1,326,527
1,6,26,4,2,1,B,E,b,y,10,10,53001,1,3,173,314
1,6,26,4,2,1,B,E,b,y,10,10,53001,1,3,213,480
1,6,26,4,2,1,B,E,b,y,10,10,53001,1,3,284,503
1,6,26,4,2,1,B,E,b,y,10,10,53001,1,1,253,480
1,6,26,4,2,1,B,E,b,y,10,10,53001,1,3,273,527
1,6,26,4,2,1,B,E,b,y,10,10,54001,1,1,196,299
1,6,26,4,2,1,B,E,b,y,10,10,54001,1,3,159,354
1,6,26,4,2,1,B,E,b,y,10,10,54001,1,3,202,455
1,6,26,4,2,1,B,E,b,y,10,10,54001,1,3,237,501
1,6,26,4,2,1,B,E,b,y,10,10,54001,1,3,278,522
1,6,26,4,2,1,B,E,b,y,10,10,54001,1,1,412,571
1,6,26,4,2,1,B,E,b,y,10,10,55001,1,1,726,308
1,6,26,4,2,1,B,E,b,y,10,10,55001,1,1,327,450
1,6,26,4,2,1,B,E,b,y,10,10,55001,1,3,268,526
1,6,26,4,2,1,B,E,b,y,10,10,55001,1,3,247,505
1,6,26,4,2,1,B,E,b,y,10,10,55001,1,3,221,482
1,6,26,4,2,1,B,E,b,y,10,10,55001,1,3,163,370
1,6,26,4,2,1,B,E,b,y,10,10,55001,1,1,191,340
1,6,26,4,2,1,B,E,b,y,10,10,56001,1,3,165,305
1,6,26,4,2,1,B,E,b,y,10,10,56001,1,1,165,396
1,6,26,4,2,1,B,E,b,y,10,10,56001,1,3,211,479
1,6,26,4,2,1,B,E,b,y,10,10,56001,1,3,275,521
1,6,26,4,2,1,B,E,b,y,10,10,56001,1,1,320,540
1,6,26,4,2,1,B,E,b,y,10,10,56001,1,1,328,511
1,6,26,4,2,1,B,E,b,y,10,10,57001,1,3,244,469
1,6,26,4,2,1,B,E,b,y,10,10,57001,1,3,215,477
1,6,26,4,2,1,B,E,b,y,10,10,57001,1,3,239,509
1,6,26,4,2,1,B,E,b,y,10,10,57001,1,3,275,530
1,6,26,4,2,1,B,E,b,y,10,10,57001,1,1,312,536
1,6,26,4,2,1,B,E,b,y,10,10,58001,1,1,548,210
1,6,26,4,2,1,B,E,b,y,10,10,58001,1,3,230,499
1,6,26,4,2,1,B,E,b,y,10,10,58001,1,3,230,522
1,6,26,4,2,1,B,E,b,y,10,10,58001,1,3,271,531
1,6,26,4,2,1,B,E,b,y,10,10,58001,1,3,348,555
1,6,26,4,2,1,B,E,b,y,10,10,59001,1,1,401,77
1,6,26,4,2,1,B,E,b,y,10,10,59001,1,3,235,488
1,6,26,4,2,1,B,E,b,y,10,10,59001,1,3,248,529
1,6,26,4,2,1,B,E,b,y,10,10,59001,1,3,280,529
1,6,26,4,2,1,B,E,b,y,10,10,59001,1,3,359,563
1,6,26,4,2,1,B,E,b,y,10,10,60001,1,1,606,354
1,6,26,4,2,1,B,E,b,y,10,10,60001,1,3,214,481
1,6,26,4,2,1,B,E,b,y,10,10,60001,1,3,277,519
1,6,26,4,2,1,B,E,b,y,10,10,60001,1,3,327,552
1,6,26,4,2,1,B,E,b,y,10,10,60001,1,3,407,578
1,6,26,4,2,1,B,E,b,y,10,10,61001,1,3,277,517
1,6,26,4,2,1,B,E,b,y,10,10,61001,1,1,303,532
1,6,26,4,2,1,B,E,b,y,10,10,61001,1,1,326,573
1,6,26,4,2,1,B,E,b,y,10,10,61001,1,3,457,565
1,6,26,4,2,1,B,E,b,y,10,10,62001,1,3,229,485
1,6,26,4,2,1,B,E,b,y,10,10,62001,1,3,283,524
1,6,26,4,2,1,B,E,b,y,10,10,62001,1,3,319,552
1,6,26,4,2,1,B,E,b,y,10,10,62001,1,3,469,573
1,6,26,4,2,1,B,E,b,y,10,10,62001,1,1,314,131
1,6,26,4,2,1,B,E,b,y,10,10,62001,1,1,619,67
1,6,26,4,2,1,B,E,b,y,10,10,63001,1,3,339,567
1,6,26,4,2,1,B,E,b,y,10,10,63001,1,3,258,514
1,6,26,4,2,1,B,E,b,y,10,10,63001,1,3,226,489
1,6,26,4,2,1,B,E,b,y,10,10,63001,1,1,420,525
1,6,26,4,2,1,B,E,b,y,10,10,64001,1,1,537,125
1,6,26,4,2,1,B,E,b,y,10,10,64001,1,1,165,305
1,6,26,4,2,1,B,E,b,y,10,10,64001,1,3,357,428
1,6,26,4,2,1,B,E,b,y,10,10,64001,1,3,253,493
1,6,26,4,2,1,B,E,b,y,10,10,64001,1,3,255,522
1,6,26,4,2,1,B,E,b,y,10,10,64001,1,3,345,554
1,6,26,4,2,1,B,E,b,y,10,10,65001,1,3,301,553
1,6,26,4,2,1,B,E,b,y,10,10,65001,1,3,361,570
1,6,26,4,2,1,B,E,b,y,10,10,65001,1,3,252,504
1,6,26,4,2,1,B,E,b,y,10,10,66001,1,1,613,98
1,6,26,4,2,1,B,E,b,y,10,10,66001,1,3,212,474
1,6,26,4,2,1,B,E,b,y,10,10,66001,1,3,325,566
1,6,26,4,2,1,B,E,b,y,10,10,66001,1,3,372,563
1,6,26,4,2,1,B,E,b,y,10,10,66001,1,1,396,570
1,6,26,4,2,1,B,E,b,y,10,10,67001,1,1,401,218
1,6,26,4,2,1,B,E,b,y,10,10,67001,1,1,189,328
1,6,26,4,2,1,B,E,b,y,10,10,67001,1,3,168,291
1,6,26,4,2,1,B,E,b,y,10,10,67001,1,3,251,521
1,6,26,4,2,1,B,E,b,y,10,10,67001,1,3,363,571
1,6,26,4,2,1,B,E,b,y,10,10,68001,1,1,229,211
1,6,26,4,2,1,B,E,b,y,10,10,68001,1,3,159,287
1,6,26,4,2,1,B,E,b,y,10,10,68001,1,3,238,509
1,6,26,4,2,1,B,E,b,y,10,10,69001,1,1,422,279
1,6,26,4,2,1,B,E,b,y,10,10,69001,1,3,280,498
1,6,26,4,2,1,B,E,b,y,10,10,69001,1,3,273,528
1,6,26,4,2,1,B,E,b,y,10,10,69001,1,3,300,557
1,6,26,4,2,1,B,E,b,y,10,10,70001,1,3,204,475
1,6,26,4,2,1,B,E,b,y,10,10,70001,1,1,232,503
1,6,26,4,2,1,B,E,b,y,10,10,70001,1,3,357,527
1,6,26,4,2,1,B,E,b,y,10,10,70001,1,3,359,570
1,6,26,4,2,1,B,E,b,y,10,10,71001,1,3,394,499
1,6,26,4,2,1,B,E,b,y,10,10,71001,1,3,393,575
1,6,26,4,2,1,B,E,b,y,10,10,71001,1,3,433,586
1,6,26,4,2,1,B,E,b,y,10,10,71001,1,1,444,545
1,6,26,4,2,1,B,E,b,y,10,10,72001,1,1,376,207
1,6,26,4,2,1,B,E,b,y,10,10,72001,1,3,281,204
1,6,26,4,2,1,B,E,b,y,10,10,72001,1,3,401,498
1,6,26,4,2,1,B,E,b,y,10,10,72001,1,3,370,572
1,6,26,4,2,1,B,E,b,y,10,10,73001,1,3,275,199
1,6,26,4,2,1,B,E,b,y,10,10,73001,1,1,318,178
1,6,26,4,2,1,B,E,b,y,10,10,73001,1,3,418,182
1,6,26,4,2,1,B,E,b,y,10,10,73001,1,3,277,539
1,6,26,4,2,1,B,E,b,y,10,10,74001,1,3,425,201
1,6,26,4,2,1,B,E,b,y,10,10,74001,1,3,279,185
1,6,26,4,2,1,B,E,b,y,10,10,74001,1,1,267,142
1,6,26,4,2,1,B,E,b,y,10,10,74001,1,3,259,517
1,6,26,4,2,1,B,E,b,y,10,10,75001,1,1,667,442
1,6,26,4,2,1,B,E,b,y,10,10,75001,1,1,639,482
1,6,26,4,2,1,B,E,b,y,10,10,75001,1,3,251,508
1,6,26,4,2,1,B,E,b,y,10,10,75001,1,3,420,189
1,6,26,4,2,1,B,E,b,y,10,10,75001,1,3,266,183
1,6,26,4,2,1,B,E,b,y,10,10,75001,1,1,271,115
1,6,26,4,2,1,B,E,b,y,10,10,76001,1,3,417,191
1,6,26,4,2,1,B,E,b,y,10,10,76001,1,3,240,502
1,6,26,4,2,1,B,E,b,y,10,10,76001,1,1,397,562
1,6,26,4,2,1,B,E,b,y,10,10,76001,1,1,368,556
1,6,26,4,2,1,B,E,b,y,10,10,76001,1,3,339,562
1,6,26,4,2,1,B,E,b,y,10,10,77001,1,1,618,117
1,6,26,4,2,1,B,E,b,y,10,10,77001,1,3,423,274
1,6,26,4,2,1,B,E,b,y,10,10,77001,1,1,295,241
1,6,26,4,2,1,B,E,b,y,10,10,77001,1,3,148,342
1,6,26,4,2,1,B,E,b,y,10,10,77001,1,3,235,491
1,6,26,4,2,1,B,E,b,y,10,10,78001,1,3,324,315
1,6,26,4,2,1,B,E,b,y,10,10,78001,1,3,223,482
1,6,26,4,2,1,B,E,b,y,10,10,78001,1,3,165,210
1,6,26,4,2,1,B,E,b,y,10,10,78001,1,1,212,205
1,6,26,4,2,1,B,E,b,y,10,10,78001,1,1,174,180
1,6,26,4,2,1,B,E,b,y,10,10,79001,1,3,354,333
1,6,26,4,2,1,B,E,b,y,10,10,79001,1,1,414,38
1,6,26,4,2,1,B,E,b,y,10,10,79001,1,1,386,355
1,6,26,4,2,1,B,E,b,y,10,10,79001,1,3,588,513
1,6,26,4,2,1,B,E,b,y,10,10,79001,1,3,269,526
1,6,26,4,2,1,B,E,b,y,10,10,79001,1,3,231,507
1,6,26,4,2,1,B,E,b,y,10,10,80001,1,1,332,181
1,6,26,4,2,1,B,E,b,y,10,10,80001,1,1,295,181
1,6,26,4,2,1,B,E,b,y,10,10,80001,1,3,452,384
1,6,26,4,2,1,B,E,b,y,10,10,80001,1,3,580,530
1,6,26,4,2,1,B,E,b,y,10,10,80001,1,3,246,501
1,6,26,4,2,1,B,E,b,y,10,10,81001,1,3,506,567
1,6,26,4,2,1,B,E,b,y,10,10,81001,1,1,514,536
1,6,26,4,2,1,B,E,b,y,10,10,81001,1,3,260,488
1,6,26,4,2,1,B,E,b,y,10,10,81001,1,3,235,503
1,6,26,4,2,1,B,E,b,y,10,10,81001,1,3,215,421
1,6,26,4,2,1,B,E,b,y,10,10,81001,1,1,292,549
1,6,26,4,2,1,B,E,b,y,10,10,82001,1,1,629,278
1,6,26,4,2,1,B,E,b,y,10,10,82001,1,3,333,443
1,6,26,4,2,1,B,E,b,y,10,10,82001,1,1,203,410
1,6,26,4,2,1,B,E,b,y,10,10,82001,1,3,206,471
1,6,26,4,2,1,B,E,b,y,10,10,82001,1,3,344,559
1,6,26,4,2,1,B,E,b,y,10,10,82001,1,3,409,578
1,6,26,4,2,1,B,E,b,y,10,10,83001,1,3,430,571
1,6,26,4,2,1,B,E,b,y,10,10,83001,1,3,371,571
1,6,26,4,2,1,B,E,b,y,10,10,83001,1,3,248,419
1,6,26,4,2,1,B,E,b,y,10,10,83001,1,3,238,505
1,6,26,4,2,1,B,E,b,y,10,10,83001,1,1,216,485
1,6,26,4,2,1,B,E,b,y,10,10,83001,1,1,204,375
1,6,26,4,2,1,B,E,b,y,10,10,83001,1,1,237,380
1,6,26,4,2,1,B,E,b,y,10,10,84001,1,3,503,570
1,6,26,4,2,1,B,E,b,y,10,10,84001,1,3,384,574
1,6,26,4,2,1,B,E,b,y,10,10,84001,1,3,245,504
1,6,26,4,2,1,B,E,b,y,10,10,84001,1,3,204,368
1,6,26,4,2,1,B,E,b,y,10,10,85001,1,3,603,513
1,6,26,4,2,1,B,E,b,y,10,10,85001,1,3,377,572
1,6,26,4,2,1,B,E,b,y,10,10,85001,1,3,334,571
1,6,26,4,2,1,B,E,b,y,10,10,85001,1,1,359,590
1,6,26,4,2,1,B,E,b,y,10,10,85001,1,3,189,439
1,6,26,4,2,1,B,E,b,y,10,10,85001,1,1,165,167
1,6,26,4,2,1,B,E,b,y,10,10,86001,1,3,231,269
1,6,26,4,2,1,B,E,b,y,10,10,86001,1,3,174,329
1,6,26,4,2,1,B,E,b,y,10,10,86001,1,1,173,273
1,6,26,4,2,1,B,E,b,y,10,10,86001,1,1,194,448
1,6,26,4,2,1,B,E,b,y,10,10,86001,1,3,328,556
1,6,26,4,2,1,B,E,b,y,10,10,86001,1,3,603,518
1,6,26,4,2,1,B,E,b,y,10,10,87001,1,1,530,65
1,6,26,4,2,1,B,E,b,y,10,10,87001,1,1,697,267
1,6,26,4,2,1,B,E,b,y,10,10,87001,1,3,585,428
1,6,26,4,2,1,B,E,b,y,10,10,87001,1,1,365,485
1,6,26,4,2,1,B,E,b,y,10,10,87001,1,3,241,505
1,6,26,4,2,1,B,E,b,y,10,10,87001,1,3,188,316
1,6,26,4,2,1,B,E,b,y,10,10,87001,1,3,150,284
1,6,26,4,2,1,B,E,b,y,10,10,87001,1,1,223,84
1,6,26,4,2,1,B,E,b,y,10,10,88001,1,1,295,71
1,6,26,4,2,1,B,E,b,y,10,10,88001,1,1,164,170
1,6,26,4,2,1,B,E,b,y,10,10,88001,1,3,173,217
1,6,26,4,2,1,B,E,b,y,10,10,88001,1,3,163,270
1,6,26,4,2,1,B,E,b,y,10,10,88001,1,3,178,331
1,6,26,4,2,1,B,E,b,y,10,10,88001,1,1,298,368
1,6,26,4,2,1,B,E,b,y,10,10,88001,1,3,631,419
1,6,26,4,2,1,B,E,b,y,10,10,89001,1,3,636,435
1,6,26,4,2,1,B,E,b,y,10,10,89001,1,1,635,402
1,6,26,4,2,1,B,E,b,y,10,10,89001,1,1,636,357
1,6,26,4,2,1,B,E,b,y,10,10,89001,1,3,301,189
1,6,26,4,2,1,B,E,b,y,10,10,89001,1,3,180,323
1,6,26,4,2,1,B,E,b,y,10,10,89001,1,3,175,421
1,6,26,4,2,1,B,E,b,y,10,10,89001,1,1,422,552
1,6,26,4,2,1,B,E,b,y,10,10,90001,1,3,673,391
1,6,26,4,2,1,B,E,b,y,10,10,90001,1,1,671,438
1,6,26,4,2,1,B,E,b,y,10,10,90001,1,1,630,467
1,6,26,4,2,1,B,E,b,y,10,10,90001,1,3,445,380
1,6,26,4,2,1,B,E,b,y,10,10,90001,1,3,174,328
1,6,26,4,2,1,B,E,b,y,10,10,90001,1,3,151,296
1,6,26,4,2,1,B,E,b,y,10,10,91001,1,3,673,364
1,6,26,4,2,1,B,E,b,y,10,10,91001,1,3,404,482
1,6,26,4,2,1,B,E,b,y,10,10,91001,1,1,491,305
1,6,26,4,2,1,B,E,b,y,10,10,91001,1,3,170,322
1,6,26,4,2,1,B,E,b,y,10,10,91001,1,3,149,248
1,6,26,4,2,1,B,E,b,y,10,10,92001,1,3,655,426
1,6,26,4,2,1,B,E,b,y,10,10,92001,1,3,405,470
1,6,26,4,2,1,B,E,b,y,10,10,92001,1,3,170,310
1,6,26,4,2,1,B,E,b,y,10,10,92001,1,3,154,262
1,6,26,4,2,1,B,E,b,y,10,10,92001,1,1,145,227
1,6,26,4,2,1,B,E,b,y,10,10,93001,1,3,521,563
1,6,26,4,2,1,B,E,b,y,10,10,93001,1,3,402,478
1,6,26,4,2,1,B,E,b,y,10,10,93001,1,3,186,309
1,6,26,4,2,1,B,E,b,y,10,10,93001,1,3,152,287
1,6,26,4,2,1,B,E,b,y,10,10,93001,1,1,255,104
1,6,26,4,2,1,B,E,b,y,10,10,94001,1,3,469,554
1,6,26,4,2,1,B,E,b,y,10,10,94001,1,3,416,466
1,6,26,4,2,1,B,E,b,y,10,10,94001,1,3,171,334
1,6,26,4,2,1,B,E,b,y,10,10,94001,1,3,155,244
1,6,26,4,2,1,B,E,b,y,10,10,94001,1,1,142,274
1,6,26,4,2,1,B,E,b,y,10,10,95001,1,3,505,409
1,6,26,4,2,1,B,E,b,y,10,10,95001,1,3,485,529
1,6,26,4,2,1,B,E,b,y,10,10,95001,1,3,173,339
1,6,26,4,2,1,B,E,b,y,10,10,95001,1,1,127,328
1,6,26,4,2,1,B,E,b,y,10,10,96001,1,3,269,210
1,6,26,4,2,1,B,E,b,y,10,10,96001,1,3,428,504
1,6,26,4,2,1,B,E,b,y,10,10,96001,1,1,393,482
1,6,26,4,2,1,B,E,b,y,10,10,96001,1,3,586,514
1,6,26,4,2,1,B,E,b,y,10,10,97001,1,3,599,505
1,6,26,4,2,1,B,E,b,y,10,10,97001,1,3,476,541
1,6,26,4,2,1,B,E,b,y,10,10,97001,1,1,343,451
1,6,26,4,2,1,B,E,b,y,10,10,97001,1,3,314,180
1,6,26,4,2,1,B,E,b,y,10,10,98001,1,3,326,251
1,6,26,4,2,1,B,E,b,y,10,10,98001,1,1,274,208
1,6,26,4,2,1,B,E,b,y,10,10,98001,1,3,493,501
1,6,26,4,2,1,B,E,b,y,10,10,98001,1,3,599,513
1,6,26,4,2,1,B,E,b,y,10,10,99001,1,1,657,209
1,6,26,4,2,1,B,E,b,y,10,10,99001,1,3,341,246
1,6,26,4,2,1,B,E,b,y,10,10,99001,1,1,200,122
1,6,26,4,2,1,B,E,b,y,10,10,99001,1,3,481,514
1,6,26,4,2,1,B,E,b,y,10,10,99001,1,3,601,510
1,6,26,4,2,1,B,E,b,y,10,10,100001,1,1,407,16
1,6,26,4,2,1,B,E,b,y,10,10,100001,1,3,302,229
1,6,26,4,2,1,B,E,b,y,10,10,100001,1,3,307,541
1,6,26,4,2,1,B,E,b,y,10,10,100001,1,3,487,521
1,6,26,4,2,1,B,E,b,y,10,10,100001,1,3,634,498
1,6,26,4,2,1,B,E,b,y,10,10,101001,1,3,490,429
1,6,26,4,2,1,B,E,b,y,10,10,101001,1,3,493,538
1,6,26,4,2,1,B,E,b,y,10,10,101001,1,3,553,533
1,6,26,4,2,1,B,E,b,y,10,10,101001,1,3,286,537
1,6,26,4,2,1,B,E,b,y,10,10,101001,1,1,320,546
1,6,26,4,2,1,B,E,b,y,10,10,101001,1,1,323,526
1,6,26,4,2,1,B,E,b,y,10,10,102001,1,3,599,209
1,6,26,4,2,1,B,E,b,y,10,10,102001,1,3,552,454
1,6,26,4,2,1,B,E,b,y,10,10,102001,1,1,473,407
1,6,26,4,2,1,B,E,b,y,10,10,102001,1,1,190,289
1,6,26,4,2,1,B,E,b,y,10,10,102001,1,3,149,277
1,6,26,4,2,1,B,E,b,y,10,10,103001,1,3,286,168
1,6,26,4,2,1,B,E,b,y,10,10,103001,1,3,160,267
1,6,26,4,2,1,B,E,b,y,10,10,103001,1,1,355,278
1,6,26,4,2,1,B,E,b,y,10,10,103001,1,3,541,535
1,6,26,4,2,1,B,E,b,y,10,10,104001,1,3,263,207
1,6,26,4,2,1,B,E,b,y,10,10,104001,1,3,154,209
1,6,26,4,2,1,B,E,b,y,10,10,104001,1,1,297,370
1,6,26,4,2,1,B,E,b,y,10,10,104001,1,1,332,345
1,6,26,4,2,1,B,E,b,y,10,10,104001,1,3,536,559
1,6,26,4,2,1,B,E,b,y,10,10,105001,1,1,343,130
1,6,26,4,2,1,B,E,b,y,10,10,105001,1,3,268,174
1,6,26,4,2,1,B,E,b,y,10,10,105001,1,3,148,255
1,6,26,4,2,1,B,E,b,y,10,10,105001,1,3,505,567
1,6,26,4,2,1,B,E,b,y,10,10,106001,1,3,266,165
1,6,26,4,2,1,B,E,b,y,10,10,106001,1,3,143,256
1,6,26,4,2,1,B,E,b,y,10,10,106001,1,3,491,568
1,6,26,4,2,1,B,E,b,y,10,10,106001,1,1,544,538
1,6,26,4,2,1,B,E,b,y,10,10,106001,1,1,521,519
1,6,26,4,2,1,B,E,b,y,10,10,107001,1,3,258,181
1,6,26,4,2,1,B,E,b,y,10,10,107001,1,3,142,247
1,6,26,4,2,1,B,E,b,y,10,10,107001,1,1,335,22
1,6,26,4,2,1,B,E,b,y,10,10,107001,1,1,304,553
1,6,26,4,2,1,B,E,b,y,10,10,107001,1,3,467,568
