dummy,month,day,period,view,station,fgeno,mgeno,fcol,mcol,nf,nm,frame,something,sex,x,y
1,9,26,4,3,2,B,G,b,y,10,10,1,1,1,383.8622,360.812
1,9,26,4,3,2,B,G,b,y,10,10,1,1,1,435.162,362.1984
1,9,26,4,3,2,B,G,b,y,10,10,1,1,3,407.4324,481.4359
1,9,26,4,3,2,B,G,b,y,10,10,1001,1,1,216.0979,495.3007
1,9,26,4,3,2,B,G,b,y,10,10,1001,1,1,241.0546,464.7981
1,9,26,4,3,2,B,G,b,y,10,10,1001,1,3,389.4081,468.9575
1,9,26,4,3,2,B,G,b,y,10,10,2001,1,1,504.4861,119.5641
1,9,26,4,3,2,B,G,b,y,10,10,2001,1,3,414.3648,442.6144
1,9,26,4,3,2,B,G,b,y,10,10,3001,1,1,455.9593,341.4012
1,9,26,4,3,2,B,G,b,y,10,10,3001,1,3,555.786,247.1205
1,9,26,4,3,2,B,G,b,y,10,10,3001,1,3,343.6542,380.2227
1,9,26,4,3,2,B,G,b,y,10,10,3001,1,1,177.2764,442.6144
1,9,26,4,3,2,B,G,b,y,10,10,4001,1,1,76.0633,183.3423
1,9,26,4,3,2,B,G,b,y,10,10,4001,1,3,281.2626,419.0442
1,9,26,4,3,2,B,G,b,y,10,10,4001,1,1,437.935,109.8588
1,9,26,4,3,2,B,G,b,y,10,10,4001,1,3,464.2782,132.0425
1,9,26,4,3,2,B,G,b,y,10,10,5001,1,1,297.9003,373.2903
1,9,26,4,3,2,B,G,b,y,10,10,5001,1,3,164.7981,409.3388
1,9,26,4,3,2,B,G,b,y,10,10,5001,1,3,429.6161,212.4584
1,9,26,4,3,2,B,G,b,y,10,10,5001,1,1,464.2782,252.6664
1,9,26,4,3,2,B,G,b,y,10,10,5001,1,1,475.37,176.4099
1,9,26,4,3,2,B,G,b,y,10,10,6001,1,3,95.474,409.3388
1,9,26,4,3,2,B,G,b,y,10,10,6001,1,3,408.8189,294.2608
1,9,26,4,3,2,B,G,b,y,10,10,6001,1,1,281.2626,28.0563
1,9,26,4,3,2,B,G,b,y,10,10,7001,1,3,335.3354,90.448
1,9,26,4,3,2,B,G,b,y,10,10,7001,1,3,410.2054,263.7582
1,9,26,4,3,2,B,G,b,y,10,10,7001,1,1,521.1239,327.5364
1,9,26,4,3,2,B,G,b,y,10,10,8001,1,3,368.6109,144.5208
1,9,26,4,3,2,B,G,b,y,10,10,8001,1,3,404.6594,292.8744
1,9,26,4,3,2,B,G,b,y,10,10,8001,1,1,332.5624,308.1256
1,9,26,4,3,2,B,G,b,y,10,10,8001,1,1,139.8414,435.682
1,9,26,4,3,2,B,G,b,y,10,10,9001,1,3,386.6352,123.7236
1,9,26,4,3,2,B,G,b,y,10,10,9001,1,1,408.8189,231.8692
1,9,26,4,3,2,B,G,b,y,10,10,9001,1,3,397.727,283.169
1,9,26,4,3,2,B,G,b,y,10,10,10001,1,3,414.3648,151.4532
1,9,26,4,3,2,B,G,b,y,10,10,10001,1,3,399.1135,276.2366
1,9,26,4,3,2,B,G,b,y,10,10,10001,1,1,132.909,173.6369
1,9,26,4,3,2,B,G,b,y,10,10,11001,1,3,431.0026,151.4532
1,9,26,4,3,2,B,G,b,y,10,10,11001,1,3,451.7998,333.0823
1,9,26,4,3,2,B,G,b,y,10,10,11001,1,1,449.0269,82.1291
1,9,26,4,3,2,B,G,b,y,10,10,12001,1,3,451.7998,161.1586
1,9,26,4,3,2,B,G,b,y,10,10,12001,1,3,460.1187,319.2175
1,9,26,4,3,2,B,G,b,y,10,10,12001,1,1,460.1187,369.1308
1,9,26,4,3,2,B,G,b,y,10,10,13001,1,1,98.247,255.4393
1,9,26,4,3,2,B,G,b,y,10,10,13001,1,3,479.5295,313.6716
1,9,26,4,3,2,B,G,b,y,10,10,13001,1,3,460.1187,168.091
1,9,26,4,3,2,B,G,b,y,10,10,14001,1,1,449.0269,181.9558
1,9,26,4,3,2,B,G,b,y,10,10,14001,1,3,418.5243,129.2695
1,9,26,4,3,2,B,G,b,y,10,10,14001,1,3,453.1863,359.4255
1,9,26,4,3,2,B,G,b,y,10,10,15001,1,1,397.727,507.779
1,9,26,4,3,2,B,G,b,y,10,10,15001,1,3,407.4324,529.9627
1,9,26,4,3,2,B,G,b,y,10,10,15001,1,3,415.7513,120.9506
1,9,26,4,3,2,B,G,b,y,10,10,16001,1,3,375.5433,198.5936
1,9,26,4,3,2,B,G,b,y,10,10,16001,1,3,431.0026,151.4532
1,9,26,4,3,2,B,G,b,y,10,10,16001,1,1,358.9055,130.656
1,9,26,4,3,2,B,G,b,y,10,10,17001,1,3,249.3735,359.4255
1,9,26,4,3,2,B,G,b,y,10,10,17001,1,1,231.3492,338.6282
1,9,26,4,3,2,B,G,b,y,10,10,17001,1,3,432.3891,134.8154
1,9,26,4,3,2,B,G,b,y,10,10,18001,1,3,432.3891,134.8154
1,9,26,4,3,2,B,G,b,y,10,10,18001,1,3,393.5676,310.8986
1,9,26,4,3,2,B,G,b,y,10,10,18001,1,3,389.4081,258.2123
1,9,26,4,3,2,B,G,b,y,10,10,19001,1,3,421.2972,132.0425
1,9,26,4,3,2,B,G,b,y,10,10,19001,1,3,518.351,260.9853
1,9,26,4,3,2,B,G,b,y,10,10,19001,1,3,415.7513,371.9038
1,9,26,4,3,2,B,G,b,y,10,10,19001,1,1,450.4133,523.0303
1,9,26,4,3,2,B,G,b,y,10,10,20001,1,3,439.3215,176.4099
1,9,26,4,3,2,B,G,b,y,10,10,20001,1,1,383.8622,205.526
1,9,26,4,3,2,B,G,b,y,10,10,20001,1,3,429.6161,256.8258
1,9,26,4,3,2,B,G,b,y,10,10,20001,1,3,468.4376,352.4931
1,9,26,4,3,2,B,G,b,y,10,10,20001,1,1,455.9593,474.5035
1,9,26,4,3,2,B,G,b,y,10,10,21001,1,3,425.4567,176.4099
1,9,26,4,3,2,B,G,b,y,10,10,21001,1,1,446.2539,226.3232
1,9,26,4,3,2,B,G,b,y,10,10,21001,1,3,471.2106,321.9905
1,9,26,4,3,2,B,G,b,y,10,10,21001,1,1,465.6646,471.7305
1,9,26,4,3,2,B,G,b,y,10,10,22001,1,3,442.0945,180.5693
1,9,26,4,3,2,B,G,b,y,10,10,22001,1,1,429.6161,265.1447
1,9,26,4,3,2,B,G,b,y,10,10,22001,1,3,479.5295,294.2608
1,9,26,4,3,2,B,G,b,y,10,10,22001,1,1,469.8241,464.7981
1,9,26,4,3,2,B,G,b,y,10,10,23001,1,1,404.6594,224.9367
1,9,26,4,3,2,B,G,b,y,10,10,23001,1,3,454.5728,238.8016
1,9,26,4,3,2,B,G,b,y,10,10,23001,1,3,465.6646,306.7392
1,9,26,4,3,2,B,G,b,y,10,10,23001,1,1,501.7132,412.1118
1,9,26,4,3,2,B,G,b,y,10,10,24001,1,3,482.3024,272.0771
1,9,26,4,3,2,B,G,b,y,10,10,24001,1,3,468.4376,480.0494
1,9,26,4,3,2,B,G,b,y,10,10,24001,1,1,321.4705,577.1031
1,9,26,4,3,2,B,G,b,y,10,10,25001,1,1,435.162,119.5641
1,9,26,4,3,2,B,G,b,y,10,10,25001,1,3,475.37,241.5745
1,9,26,4,3,2,B,G,b,y,10,10,25001,1,3,473.9835,388.5416
1,9,26,4,3,2,B,G,b,y,10,10,26001,1,1,289.5815,251.2799
1,9,26,4,3,2,B,G,b,y,10,10,26001,1,3,186.9818,323.3769
1,9,26,4,3,2,B,G,b,y,10,10,26001,1,3,396.3406,279.0095
1,9,26,4,3,2,B,G,b,y,10,10,26001,1,3,467.0511,388.5416
1,9,26,4,3,2,B,G,b,y,10,10,26001,1,1,550.24,356.6525
1,9,26,4,3,2,B,G,b,y,10,10,27001,1,1,145.3873,201.3666
1,9,26,4,3,2,B,G,b,y,10,10,27001,1,3,386.6352,359.4255
1,9,26,4,3,2,B,G,b,y,10,10,27001,1,3,422.6837,345.5607
1,9,26,4,3,2,B,G,b,y,10,10,27001,1,3,451.7998,310.8986
1,9,26,4,3,2,B,G,b,y,10,10,27001,1,1,492.0078,370.5173
1,9,26,4,3,2,B,G,b,y,10,10,28001,1,1,339.4948,254.0529
1,9,26,4,3,2,B,G,b,y,10,10,28001,1,3,363.065,285.9419
1,9,26,4,3,2,B,G,b,y,10,10,28001,1,3,392.1811,358.039
1,9,26,4,3,2,B,G,b,y,10,10,28001,1,1,489.2348,394.0875
1,9,26,4,3,2,B,G,b,y,10,10,29001,1,1,393.5676,269.3042
1,9,26,4,3,2,B,G,b,y,10,10,29001,1,3,457.3458,299.8068
1,9,26,4,3,2,B,G,b,y,10,10,29001,1,3,397.727,389.9281
1,9,26,4,3,2,B,G,b,y,10,10,29001,1,1,489.2348,412.1118
1,9,26,4,3,2,B,G,b,y,10,10,30001,1,3,442.0945,388.5416
1,9,26,4,3,2,B,G,b,y,10,10,30001,1,1,486.4619,445.3873
1,9,26,4,3,2,B,G,b,y,10,10,30001,1,1,245.214,125.1101
1,9,26,4,3,2,B,G,b,y,10,10,30001,1,3,238.2816,62.7184
1,9,26,4,3,2,B,G,b,y,10,10,31001,1,1,74.6768,371.9038
1,9,26,4,3,2,B,G,b,y,10,10,31001,1,1,482.3024,480.0494
1,9,26,4,3,2,B,G,b,y,10,10,31001,1,3,490.6213,272.0771
1,9,26,4,3,2,B,G,b,y,10,10,32001,1,1,411.5919,507.779
1,9,26,4,3,2,B,G,b,y,10,10,32001,1,1,149.5468,259.5988
1,9,26,4,3,2,B,G,b,y,10,10,32001,1,3,408.8189,143.1343
1,9,26,4,3,2,B,G,b,y,10,10,32001,1,3,490.6213,267.9177
1,9,26,4,3,2,B,G,b,y,10,10,33001,1,1,142.6144,259.5988
1,9,26,4,3,2,B,G,b,y,10,10,33001,1,3,392.1811,273.4636
1,9,26,4,3,2,B,G,b,y,10,10,33001,1,3,497.5537,284.5555
1,9,26,4,3,2,B,G,b,y,10,10,33001,1,1,261.8518,554.9194
1,9,26,4,3,2,B,G,b,y,10,10,34001,1,3,396.3406,312.2851
1,9,26,4,3,2,B,G,b,y,10,10,34001,1,3,494.7808,249.8934
1,9,26,4,3,2,B,G,b,y,10,10,34001,1,1,80.2227,298.4203
1,9,26,4,3,2,B,G,b,y,10,10,35001,1,1,496.1672,97.3804
1,9,26,4,3,2,B,G,b,y,10,10,35001,1,3,487.8484,294.2608
1,9,26,4,3,2,B,G,b,y,10,10,35001,1,3,418.5243,308.1256
1,9,26,4,3,2,B,G,b,y,10,10,35001,1,1,153.7062,444.0009
1,9,26,4,3,2,B,G,b,y,10,10,36001,1,1,486.4619,125.1101
1,9,26,4,3,2,B,G,b,y,10,10,36001,1,3,497.5537,330.3094
1,9,26,4,3,2,B,G,b,y,10,10,36001,1,1,379.7028,453.7062
1,9,26,4,3,2,B,G,b,y,10,10,37001,1,1,490.6213,163.9315
1,9,26,4,3,2,B,G,b,y,10,10,37001,1,3,490.6213,414.8847
1,9,26,4,3,2,B,G,b,y,10,10,37001,1,1,388.0217,460.6386
1,9,26,4,3,2,B,G,b,y,10,10,38001,1,1,493.3943,208.299
1,9,26,4,3,2,B,G,b,y,10,10,38001,1,3,480.9159,428.7496
1,9,26,4,3,2,B,G,b,y,10,10,38001,1,1,202.2331,438.4549
1,9,26,4,3,2,B,G,b,y,10,10,39001,1,1,505.8726,234.6421
1,9,26,4,3,2,B,G,b,y,10,10,39001,1,3,500.3267,427.3631
1,9,26,4,3,2,B,G,b,y,10,10,39001,1,1,231.3492,444.0009
1,9,26,4,3,2,B,G,b,y,10,10,40001,1,1,485.0754,315.0581
1,9,26,4,3,2,B,G,b,y,10,10,40001,1,3,460.1187,463.4116
1,9,26,4,3,2,B,G,b,y,10,10,40001,1,1,249.3735,431.5225
1,9,26,4,3,2,B,G,b,y,10,10,41001,1,1,487.8484,330.3094
1,9,26,4,3,2,B,G,b,y,10,10,41001,1,3,449.0269,448.1603
1,9,26,4,3,2,B,G,b,y,10,10,41001,1,1,241.0546,435.682
1,9,26,4,3,2,B,G,b,y,10,10,42001,1,1,483.6889,323.3769
1,9,26,4,3,2,B,G,b,y,10,10,42001,1,3,414.3648,360.812
1,9,26,4,3,2,B,G,b,y,10,10,42001,1,1,234.1222,424.5901
1,9,26,4,3,2,B,G,b,y,10,10,43001,1,3,498.9402,273.4636
1,9,26,4,3,2,B,G,b,y,10,10,43001,1,1,415.7513,456.4792
1,9,26,4,3,2,B,G,b,y,10,10,43001,1,1,221.6438,396.8605
1,9,26,4,3,2,B,G,b,y,10,10,44001,1,1,412.9783,385.7686
1,9,26,4,3,2,B,G,b,y,10,10,44001,1,1,442.0945,452.3198
1,9,26,4,3,2,B,G,b,y,10,10,44001,1,3,189.7548,406.5659
1,9,26,4,3,2,B,G,b,y,10,10,45001,1,1,379.7028,327.5364
1,9,26,4,3,2,B,G,b,y,10,10,45001,1,1,243.8276,437.0685
1,9,26,4,3,2,B,G,b,y,10,10,45001,1,1,442.0945,520.2574
1,9,26,4,3,2,B,G,b,y,10,10,45001,1,3,152.3198,445.3873
1,9,26,4,3,2,B,G,b,y,10,10,46001,1,1,274.3302,82.1291
1,9,26,4,3,2,B,G,b,y,10,10,46001,1,3,203.6196,188.8882
1,9,26,4,3,2,B,G,b,y,10,10,46001,1,1,433.7756,546.6005
1,9,26,4,3,2,B,G,b,y,10,10,47001,1,1,293.7409,93.221
1,9,26,4,3,2,B,G,b,y,10,10,47001,1,3,200.8466,204.1395
1,9,26,4,3,2,B,G,b,y,10,10,47001,1,1,428.2296,539.6681
1,9,26,4,3,2,B,G,b,y,10,10,48001,1,1,360.292,133.4289
1,9,26,4,3,2,B,G,b,y,10,10,48001,1,3,211.9385,195.8206
1,9,26,4,3,2,B,G,b,y,10,10,48001,1,1,436.5485,525.8033
1,9,26,4,3,2,B,G,b,y,10,10,49001,1,1,216.0979,170.864
1,9,26,4,3,2,B,G,b,y,10,10,49001,1,3,202.2331,256.8258
1,9,26,4,3,2,B,G,b,y,10,10,49001,1,1,246.6005,509.1655
1,9,26,4,3,2,B,G,b,y,10,10,50001,1,1,407.4324,72.4237
1,9,26,4,3,2,B,G,b,y,10,10,50001,1,3,225.8033,298.4203
1,9,26,4,3,2,B,G,b,y,10,10,51001,1,1,406.0459,205.526
1,9,26,4,3,2,B,G,b,y,10,10,51001,1,3,300.6733,100.1534
1,9,26,4,3,2,B,G,b,y,10,10,52001,1,1,464.2782,276.2366
1,9,26,4,3,2,B,G,b,y,10,10,52001,1,3,360.292,118.1776
1,9,26,4,3,2,B,G,b,y,10,10,53001,1,1,475.37,299.8068
1,9,26,4,3,2,B,G,b,y,10,10,53001,1,3,376.9298,91.8345
1,9,26,4,3,2,B,G,b,y,10,10,54001,1,1,482.3024,313.6716
1,9,26,4,3,2,B,G,b,y,10,10,54001,1,3,411.5919,151.4532
1,9,26,4,3,2,B,G,b,y,10,10,55001,1,1,497.5537,321.9905
1,9,26,4,3,2,B,G,b,y,10,10,55001,1,3,425.4567,159.7721
1,9,26,4,3,2,B,G,b,y,10,10,56001,1,1,440.708,259.5988
1,9,26,4,3,2,B,G,b,y,10,10,56001,1,3,496.1672,248.5069
1,9,26,4,3,2,B,G,b,y,10,10,57001,1,1,431.0026,234.6421
1,9,26,4,3,2,B,G,b,y,10,10,57001,1,3,539.1482,321.9905
1,9,26,4,3,2,B,G,b,y,10,10,58001,1,1,385.2487,187.5017
1,9,26,4,3,2,B,G,b,y,10,10,58001,1,3,461.5052,385.7686
1,9,26,4,3,2,B,G,b,y,10,10,59001,1,1,378.3163,181.9558
1,9,26,4,3,2,B,G,b,y,10,10,59001,1,3,450.4133,382.9957
1,9,26,4,3,2,B,G,b,y,10,10,60001,1,1,411.5919,277.6231
1,9,26,4,3,2,B,G,b,y,10,10,60001,1,3,426.8432,337.2418
1,9,26,4,3,2,B,G,b,y,10,10,61001,1,1,311.7652,301.1932
1,9,26,4,3,2,B,G,b,y,10,10,61001,1,1,128.7496,360.812
1,9,26,4,3,2,B,G,b,y,10,10,61001,1,3,551.6265,299.8068
1,9,26,4,3,2,B,G,b,y,10,10,62001,1,1,304.8328,312.2851
1,9,26,4,3,2,B,G,b,y,10,10,62001,1,1,124.5901,366.3579
1,9,26,4,3,2,B,G,b,y,10,10,62001,1,3,482.3024,381.6092
1,9,26,4,3,2,B,G,b,y,10,10,63001,1,1,74.6768,299.8068
1,9,26,4,3,2,B,G,b,y,10,10,63001,1,1,274.3302,328.9229
1,9,26,4,3,2,B,G,b,y,10,10,63001,1,3,102.4064,213.8449
1,9,26,4,3,2,B,G,b,y,10,10,64001,1,1,295.1274,241.5745
1,9,26,4,3,2,B,G,b,y,10,10,64001,1,3,182.8224,306.7392
1,9,26,4,3,2,B,G,b,y,10,10,65001,1,1,392.1811,362.1984
1,9,26,4,3,2,B,G,b,y,10,10,65001,1,3,211.9385,342.7877
1,9,26,4,3,2,B,G,b,y,10,10,66001,1,1,468.4376,303.9662
1,9,26,4,3,2,B,G,b,y,10,10,66001,1,3,182.8224,345.5607
1,9,26,4,3,2,B,G,b,y,10,10,67001,1,1,471.2106,310.8986
1,9,26,4,3,2,B,G,b,y,10,10,67001,1,3,192.5277,374.6768
1,9,26,4,3,2,B,G,b,y,10,10,68001,1,1,453.1863,247.1205
1,9,26,4,3,2,B,G,b,y,10,10,68001,1,3,223.0303,444.0009
1,9,26,4,3,2,B,G,b,y,10,10,69001,1,1,473.9835,242.961
1,9,26,4,3,2,B,G,b,y,10,10,69001,1,3,234.1222,456.4792
1,9,26,4,3,2,B,G,b,y,10,10,70001,1,1,465.6646,237.4151
1,9,26,4,3,2,B,G,b,y,10,10,70001,1,1,149.5468,166.7045
1,9,26,4,3,2,B,G,b,y,10,10,70001,1,3,231.3492,456.4792
1,9,26,4,3,2,B,G,b,y,10,10,71001,1,1,468.4376,254.0529
1,9,26,4,3,2,B,G,b,y,10,10,71001,1,1,160.6386,274.8501
1,9,26,4,3,2,B,G,b,y,10,10,71001,1,3,299.2868,406.5659
1,9,26,4,3,2,B,G,b,y,10,10,72001,1,1,339.4948,345.5607
1,9,26,4,3,2,B,G,b,y,10,10,72001,1,1,203.6196,407.9523
1,9,26,4,3,2,B,G,b,y,10,10,72001,1,3,311.7652,384.3821
1,9,26,4,3,2,B,G,b,y,10,10,73001,1,1,284.0355,424.5901
1,9,26,4,3,2,B,G,b,y,10,10,73001,1,1,478.143,156.9991
1,9,26,4,3,2,B,G,b,y,10,10,73001,1,3,313.1516,369.1308
1,9,26,4,3,2,B,G,b,y,10,10,74001,1,1,443.4809,183.3423
1,9,26,4,3,2,B,G,b,y,10,10,74001,1,1,241.0546,382.9957
1,9,26,4,3,2,B,G,b,y,10,10,74001,1,3,321.4705,384.3821
1,9,26,4,3,2,B,G,b,y,10,10,75001,1,1,455.9593,176.4099
1,9,26,4,3,2,B,G,b,y,10,10,75001,1,1,178.6629,240.188
1,9,26,4,3,2,B,G,b,y,10,10,75001,1,1,146.7738,270.6906
1,9,26,4,3,2,B,G,b,y,10,10,75001,1,3,346.4272,377.4497
1,9,26,4,3,2,B,G,b,y,10,10,76001,1,3,368.6109,312.2851
1,9,26,4,3,2,B,G,b,y,10,10,76001,1,1,297.9003,410.7253
1,9,26,4,3,2,B,G,b,y,10,10,76001,1,1,281.2626,445.3873
1,9,26,4,3,2,B,G,b,y,10,10,76001,1,1,365.838,539.6681
1,9,26,4,3,2,B,G,b,y,10,10,77001,1,3,363.065,302.5797
1,9,26,4,3,2,B,G,b,y,10,10,77001,1,1,308.9922,342.7877
1,9,26,4,3,2,B,G,b,y,10,10,78001,1,3,371.3839,303.9662
1,9,26,4,3,2,B,G,b,y,10,10,78001,1,1,315.9246,340.0147
1,9,26,4,3,2,B,G,b,y,10,10,79001,1,3,382.4757,306.7392
1,9,26,4,3,2,B,G,b,y,10,10,79001,1,1,313.1516,337.2418
1,9,26,4,3,2,B,G,b,y,10,10,80001,1,3,375.5433,292.8744
1,9,26,4,3,2,B,G,b,y,10,10,80001,1,1,313.1516,334.4688
1,9,26,4,3,2,B,G,b,y,10,10,81001,1,3,419.9107,315.0581
1,9,26,4,3,2,B,G,b,y,10,10,81001,1,3,440.708,431.5225
1,9,26,4,3,2,B,G,b,y,10,10,81001,1,1,412.9783,486.9818
1,9,26,4,3,2,B,G,b,y,10,10,82001,1,3,435.162,290.1014
1,9,26,4,3,2,B,G,b,y,10,10,82001,1,3,181.4359,137.5884
1,9,26,4,3,2,B,G,b,y,10,10,82001,1,1,432.3891,474.5035
1,9,26,4,3,2,B,G,b,y,10,10,83001,1,3,418.5243,272.0771
1,9,26,4,3,2,B,G,b,y,10,10,83001,1,3,504.4861,303.9662
1,9,26,4,3,2,B,G,b,y,10,10,83001,1,1,476.7565,456.4792
1,9,26,4,3,2,B,G,b,y,10,10,84001,1,3,431.0026,256.8258
1,9,26,4,3,2,B,G,b,y,10,10,84001,1,3,490.6213,123.7236
1,9,26,4,3,2,B,G,b,y,10,10,84001,1,1,461.5052,388.5416
1,9,26,4,3,2,B,G,b,y,10,10,85001,1,3,406.0459,240.188
1,9,26,4,3,2,B,G,b,y,10,10,85001,1,3,480.9159,137.5884
1,9,26,4,3,2,B,G,b,y,10,10,85001,1,1,461.5052,331.6958
1,9,26,4,3,2,B,G,b,y,10,10,85001,1,48,461.5052,331.6958
1,9,26,4,3,2,B,G,b,y,10,10,86001,1,1,376.9298,292.8744
1,9,26,4,3,2,B,G,b,y,10,10,86001,1,3,396.3406,213.8449
1,9,26,4,3,2,B,G,b,y,10,10,86001,1,3,483.6889,130.656
1,9,26,4,3,2,B,G,b,y,10,10,87001,1,3,289.5815,473.117
1,9,26,4,3,2,B,G,b,y,10,10,87001,1,1,297.9003,424.5901
1,9,26,4,3,2,B,G,b,y,10,10,87001,1,3,414.3648,176.4099
1,9,26,4,3,2,B,G,b,y,10,10,88001,1,1,246.6005,531.3492
1,9,26,4,3,2,B,G,b,y,10,10,88001,1,3,408.8189,186.1153
1,9,26,4,3,2,B,G,b,y,10,10,89001,1,1,236.8951,535.5087
1,9,26,4,3,2,B,G,b,y,10,10,89001,1,3,401.8865,169.4775
1,9,26,4,3,2,B,G,b,y,10,10,90001,1,1,236.8951,536.8951
1,9,26,4,3,2,B,G,b,y,10,10,90001,1,3,394.9541,150.0667
1,9,26,4,3,2,B,G,b,y,10,10,91001,1,1,239.6681,517.4844
1,9,26,4,3,2,B,G,b,y,10,10,91001,1,3,412.9783,205.526
1,9,26,4,3,2,B,G,b,y,10,10,92001,1,1,300.6733,392.701
1,9,26,4,3,2,B,G,b,y,10,10,92001,1,3,415.7513,143.1343
1,9,26,4,3,2,B,G,b,y,10,10,93001,1,1,216.0979,431.5225
1,9,26,4,3,2,B,G,b,y,10,10,93001,1,3,374.1568,183.3423
1,9,26,4,3,2,B,G,b,y,10,10,93001,1,1,397.727,152.8397
1,9,26,4,3,2,B,G,b,y,10,10,94001,1,1,200.8466,104.3128
1,9,26,4,3,2,B,G,b,y,10,10,94001,1,3,353.3596,233.2556
1,9,26,4,3,2,B,G,b,y,10,10,94001,1,1,300.6733,424.5901
1,9,26,4,3,2,B,G,b,y,10,10,95001,1,1,285.422,263.7582
1,9,26,4,3,2,B,G,b,y,10,10,95001,1,3,331.1759,263.7582
1,9,26,4,3,2,B,G,b,y,10,10,95001,1,1,203.6196,462.0251
1,9,26,4,3,2,B,G,b,y,10,10,96001,1,3,339.4948,276.2366
1,9,26,4,3,2,B,G,b,y,10,10,96001,1,1,537.7617,423.2036
1,9,26,4,3,2,B,G,b,y,10,10,97001,1,1,308.9922,321.9905
1,9,26,4,3,2,B,G,b,y,10,10,97001,1,3,455.9593,312.2851
1,9,26,4,3,2,B,G,b,y,10,10,98001,1,1,229.9627,369.1308
1,9,26,4,3,2,B,G,b,y,10,10,98001,1,3,447.6404,328.9229
1,9,26,4,3,2,B,G,b,y,10,10,99001,1,1,229.9627,367.7444
1,9,26,4,3,2,B,G,b,y,10,10,99001,1,3,476.7565,324.7634
1,9,26,4,3,2,B,G,b,y,10,10,100001,1,1,235.5087,358.039
1,9,26,4,3,2,B,G,b,y,10,10,100001,1,3,507.2591,323.3769
1,9,26,4,3,2,B,G,b,y,10,10,101001,1,1,264.6248,371.9038
1,9,26,4,3,2,B,G,b,y,10,10,101001,1,3,486.4619,321.9905
1,9,26,4,3,2,B,G,b,y,10,10,102001,1,1,266.0113,323.3769
1,9,26,4,3,2,B,G,b,y,10,10,102001,1,3,492.0078,310.8986
1,9,26,4,3,2,B,G,b,y,10,10,103001,1,1,259.0789,303.9662
1,9,26,4,3,2,B,G,b,y,10,10,103001,1,3,497.5537,273.4636
1,9,26,4,3,2,B,G,b,y,10,10,104001,1,1,166.1846,148.6802
1,9,26,4,3,2,B,G,b,y,10,10,104001,1,1,410.2054,310.8986
1,9,26,4,3,2,B,G,b,y,10,10,104001,1,3,503.0997,269.3042
1,9,26,4,3,2,B,G,b,y,10,10,105001,1,1,300.6733,489.7548
1,9,26,4,3,2,B,G,b,y,10,10,105001,1,1,432.3891,559.0789
1,9,26,4,3,2,B,G,b,y,10,10,105001,1,3,497.5537,262.3718
1,9,26,4,3,2,B,G,b,y,10,10,106001,1,1,245.214,410.7253
1,9,26,4,3,2,B,G,b,y,10,10,106001,1,3,492.0078,259.5988
1,9,26,4,3,2,B,G,b,y,10,10,107001,1,1,292.3544,382.9957
1,9,26,4,3,2,B,G,b,y,10,10,107001,1,3,486.4619,269.3042
