dummy,month,day,period,view,station,fgeno,mgeno,fcol,mcol,nf,nm,frame,something,sex,x,y
1,6,19,2,0,2,B,E,r,g,5,15,1,1,1,519.0741,476.8602
1,6,19,2,0,2,B,E,r,g,5,15,1,1,1,573.1079,460.3499
1,6,19,2,0,2,B,E,r,g,5,15,1001,1,1,226.3912,172.1698
1,6,19,2,0,2,B,E,r,g,5,15,2001,1,1,355.4719,50.5938
1,6,19,2,0,2,B,E,r,g,5,15,3001,1,1,529.5807,346.2786
1,6,19,2,0,2,B,E,r,g,5,15,4001,1,1,227.8921,463.3518
1,6,19,2,0,2,B,E,r,g,5,15,4001,1,1,383.9897,475.3593
1,6,19,2,0,2,B,E,r,g,5,15,5001,1,1,281.9259,46.091
1,6,19,2,0,2,B,E,r,g,5,15,6001,1,1,281.9259,67.1041
1,6,19,2,0,2,B,E,r,g,5,15,8001,1,1,235.3968,190.1811
1,6,19,2,0,2,B,E,r,g,5,15,9001,1,1,196.3724,115.1341
1,6,19,2,0,2,B,E,r,g,5,15,11001,1,1,346.4662,497.8734
1,6,19,2,0,2,B,E,r,g,5,15,12001,1,1,438.0235,205.1904
1,6,19,2,0,2,B,E,r,g,5,15,14001,1,1,474.046,458.849
1,6,19,2,0,2,B,E,r,g,5,15,15001,1,1,573.1079,208.1923
1,6,19,2,0,2,B,E,r,g,5,15,17001,1,1,199.3743,281.7383
1,6,19,2,0,2,B,E,r,g,5,15,18001,1,1,119.8246,307.2542
1,6,19,2,0,2,B,E,r,g,5,15,19001,1,1,385.4906,283.2392
1,6,19,2,0,2,B,E,r,g,5,15,20001,1,1,340.4625,101.6257
1,6,19,2,0,2,B,E,r,g,5,15,22001,1,1,561.1004,239.712
1,6,19,2,0,2,B,E,r,g,5,15,23001,1,1,489.0553,106.1285
1,6,19,2,0,2,B,E,r,g,5,15,24001,1,1,248.9053,131.6445
1,6,19,2,0,2,B,E,r,g,5,15,27001,1,1,406.5038,68.6051
1,6,19,2,0,2,B,E,r,g,5,15,28001,1,1,377.9859,500.8752
1,6,19,2,0,2,B,E,r,g,5,15,28001,1,1,269.9184,479.8621
1,6,19,2,0,2,B,E,r,g,5,15,29001,1,1,127.3293,280.2373
1,6,19,2,0,2,B,E,r,g,5,15,30001,1,1,284.9278,101.6257
1,6,19,2,0,2,B,E,r,g,5,15,30001,1,1,310.4437,82.1135
1,6,19,2,0,2,B,E,r,g,5,15,32001,1,1,386.9916,475.3593
1,6,19,2,0,2,B,E,r,g,5,15,32001,1,1,316.4475,542.9015
1,6,19,2,0,2,B,E,r,g,5,15,32001,1,1,271.4193,529.3931
1,6,19,2,0,2,B,E,r,g,5,15,33001,1,1,178.3612,448.3424
1,6,19,2,0,2,B,E,r,g,5,15,33001,1,1,475.5469,88.1173
1,6,19,2,0,2,B,E,r,g,5,15,33001,1,1,622.6388,311.757
1,6,19,2,0,2,B,E,r,g,5,15,34001,1,1,158.849,406.3161
1,6,19,2,0,2,B,E,r,g,5,15,35001,1,1,241.4006,83.6144
1,6,19,2,0,2,B,E,r,g,5,15,36001,1,1,146.8415,281.7383
1,6,19,2,0,2,B,E,r,g,5,15,37001,1,1,271.4193,206.6914
1,6,19,2,0,2,B,E,r,g,5,15,38001,1,1,456.0347,343.2767
1,6,19,2,0,2,B,E,r,g,5,15,39001,1,1,308.9428,91.1191
1,6,19,2,0,2,B,E,r,g,5,15,40001,1,1,185.8659,404.8152
1,6,19,2,0,2,B,E,r,g,5,15,41001,1,1,510.0685,232.2073
1,6,19,2,0,2,B,E,r,g,5,15,41001,1,1,570.106,305.7533
1,6,19,2,0,2,B,E,r,g,5,15,42001,1,1,564.1023,230.7064
1,6,19,2,0,2,B,E,r,g,5,15,43001,1,1,520.575,88.1173
1,6,19,2,0,2,B,E,r,g,5,15,44001,1,1,499.5619,175.1717
1,6,19,2,0,2,B,E,r,g,5,15,45001,1,1,304.44,397.3105
1,6,19,2,0,2,B,E,r,g,5,15,45001,1,1,235.3968,526.3912
1,6,19,2,0,2,B,E,r,g,5,15,45001,1,1,298.4362,542.9015
1,6,19,2,0,2,B,E,r,g,5,15,48001,1,1,268.4174,500.8752
1,6,19,2,0,2,B,E,r,g,5,15,49001,1,1,335.9597,65.6032
1,6,19,2,0,2,B,E,r,g,5,15,49001,1,1,163.3518,167.667
1,6,19,2,0,2,B,E,r,g,5,15,50001,1,1,128.8302,295.2467
1,6,19,2,0,2,B,E,r,g,5,15,51001,1,1,358.4737,469.3555
1,6,19,2,0,2,B,E,r,g,5,15,52001,1,1,323.9522,53.5957
1,6,19,2,0,2,B,E,r,g,5,15,53001,1,1,178.3612,202.1886
1,6,19,2,0,2,B,E,r,g,5,15,54001,1,1,391.4944,155.6595
1,6,19,2,0,2,B,E,r,g,5,15,54001,1,1,537.0854,221.7008
1,6,19,2,0,2,B,E,r,g,5,15,55001,1,1,505.5657,97.1229
1,6,19,2,0,2,B,E,r,g,5,15,56001,1,1,317.9484,95.622
1,6,19,2,0,2,B,E,r,g,5,15,57001,1,1,412.5075,34.0835
1,6,19,2,0,2,B,E,r,g,5,15,58001,1,1,293.9334,65.6032
1,6,19,2,0,2,B,E,r,g,5,15,58001,1,1,489.0553,317.7608
1,6,19,2,0,2,B,E,r,g,5,15,60001,1,1,149.8433,353.7833
1,6,19,2,0,2,B,E,r,g,5,15,61001,1,1,134.834,359.7871
1,6,19,2,0,2,B,E,r,g,5,15,62001,1,1,355.4719,475.3593
1,6,19,2,0,2,B,E,r,g,5,15,63001,1,1,558.0985,155.6595
1,6,19,2,0,2,B,E,r,g,5,15,64001,1,1,438.0235,238.2111
1,6,19,2,0,2,B,E,r,g,5,15,65001,1,1,531.0816,383.8021
1,6,19,2,0,2,B,E,r,g,5,15,66001,1,1,374.9841,41.5882
1,6,19,2,0,2,B,E,r,g,5,15,67001,1,1,418.5113,253.2205
1,6,19,2,0,2,B,E,r,g,5,15,69001,1,1,110.8189,239.712
1,6,19,2,0,2,B,E,r,g,5,15,70001,1,1,269.9184,58.0985
1,6,19,2,0,2,B,E,r,g,5,15,71001,1,1,528.0797,236.7101
1,6,19,2,0,2,B,E,r,g,5,15,71001,1,1,420.0122,490.3687
1,6,19,2,0,2,B,E,r,g,5,15,72001,1,1,344.9653,403.3143
1,6,19,2,0,2,B,E,r,g,5,15,73001,1,1,526.5788,80.6126
1,6,19,2,0,2,B,E,r,g,5,15,74001,1,1,328.455,86.6163
1,6,19,2,0,2,B,E,r,g,5,15,75001,1,1,304.44,95.622
1,6,19,2,0,2,B,E,r,g,5,15,77001,1,1,307.4418,77.6107
1,6,19,2,0,2,B,E,r,g,5,15,78001,1,1,454.5338,43.0891
1,6,19,2,0,2,B,E,r,g,5,15,79001,1,1,211.3818,257.7233
1,6,19,2,0,2,B,E,r,g,5,15,80001,1,1,432.0197,55.0966
1,6,19,2,0,2,B,E,r,g,5,15,81001,1,1,534.0835,344.7777
1,6,19,2,0,2,B,E,r,g,5,15,83001,1,1,151.3443,269.7308
1,6,19,2,0,2,B,E,r,g,5,15,84001,1,1,486.0535,184.1773
1,6,19,2,0,2,B,E,r,g,5,15,85001,1,1,445.5281,508.3799
1,6,19,2,0,2,B,E,r,g,5,15,85001,1,3,477.0478,506.879
1,6,19,2,0,2,B,E,r,g,5,15,86001,1,1,232.3949,310.2561
1,6,19,2,0,2,B,E,r,g,5,15,86001,1,1,250.4062,359.7871
1,6,19,2,0,2,B,E,r,g,5,15,87001,1,1,187.3668,166.166
1,6,19,2,0,2,B,E,r,g,5,15,89001,1,1,200.8752,410.8189
1,6,19,2,0,2,B,E,r,g,5,15,90001,1,1,543.0891,376.2974
1,6,19,2,0,2,B,E,r,g,5,15,92001,1,1,436.5225,100.1248
1,6,19,2,0,2,B,E,r,g,5,15,93001,1,1,543.0891,161.6632
1,6,19,2,0,2,B,E,r,g,5,15,94001,1,1,227.8921,163.1642
1,6,19,2,0,2,B,E,r,g,5,15,94001,1,1,415.5094,517.3856
1,6,19,2,0,2,B,E,r,g,5,15,95001,1,1,457.5356,364.2899
1,6,19,2,0,2,B,E,r,g,5,15,96001,1,1,124.3274,263.727
1,6,19,2,0,2,B,E,r,g,5,15,98001,1,1,277.4231,175.1717
1,6,19,2,0,2,B,E,r,g,5,15,100001,1,1,331.4568,475.3593
1,6,19,2,0,2,B,E,r,g,5,15,100001,1,1,341.9634,490.3687
1,6,19,2,0,2,B,E,r,g,5,15,101001,1,1,277.4231,44.5901
1,6,19,2,0,2,B,E,r,g,5,15,102001,1,1,214.3837,242.7139
1,6,19,2,0,2,B,E,r,g,5,15,104001,1,1,244.4024,397.3105
1,6,19,2,0,2,B,E,r,g,5,15,105001,1,1,519.0741,202.1886
1,6,19,2,0,2,B,E,r,g,5,15,106001,1,1,134.834,358.2861
1,6,19,2,0,2,B,E,r,g,5,15,107001,1,1,316.4475,46.091
1,6,19,2,0,2,B,E,r,g,5,15,107001,1,1,358.4737,25.0779
