dummy,month,day,period,view,station,fgeno,mgeno,fcol,mcol,nf,nm,frame,something,sex,x,y
1,7,14,1,0,2,B,F,g,r,5,15,1,1,3,233.8863,442.9483
1,7,14,1,0,2,B,F,g,r,5,15,1001,1,3,263.1391,258.5286
1,7,14,1,0,2,B,F,g,r,5,15,2001,1,3,457.7337,102.0898
1,7,14,1,0,2,B,F,g,r,5,15,2001,1,1,425.9372,48.6717
1,7,14,1,0,2,B,F,g,r,5,15,3001,1,3,484.4428,380.6272
1,7,14,1,0,2,B,F,g,r,5,15,3001,1,3,570.9293,422.5986
1,7,14,1,0,2,B,F,g,r,5,15,3001,1,1,597.6383,386.9865
1,7,14,1,0,2,B,F,g,r,5,15,3001,1,1,612.9006,365.3649
1,7,14,1,0,2,B,F,g,r,5,15,4001,1,3,366.1598,247.0819
1,7,14,1,0,2,B,F,g,r,5,15,4001,1,3,217.3521,454.3951
1,7,14,1,0,2,B,F,g,r,5,15,5001,1,1,176.6526,211.4698
1,7,14,1,0,2,B,F,g,r,5,15,5001,1,1,334.3633,234.3633
1,7,14,1,0,2,B,F,g,r,5,15,7001,1,3,177.7901,299.9275
1,7,14,1,0,2,B,F,g,r,5,15,7001,1,3,485.8053,464.813
1,7,14,1,0,2,B,F,g,r,5,15,8001,1,3,387.3321,231.2252
1,7,14,1,0,2,B,F,g,r,5,15,8001,1,3,465.1947,506.0344
1,7,14,1,0,2,B,F,g,r,5,15,8001,1,1,482.3702,477.4084
1,7,14,1,0,2,B,F,g,r,5,15,9001,1,3,470.9198,422.4466
1,7,14,1,0,2,B,F,g,r,5,15,9001,1,3,382.7519,542.6756
1,7,14,1,0,2,B,F,g,r,5,15,9001,1,1,467.4847,376.645
1,7,14,1,0,2,B,F,g,r,5,15,10001,1,3,236.187,433.8969
1,7,14,1,0,2,B,F,g,r,5,15,10001,1,3,513.2863,271.3015
1,7,14,1,0,2,B,F,g,r,5,15,11001,1,3,421.6832,484.2786
1,7,14,1,0,2,B,F,g,r,5,15,11001,1,3,470.9198,528.9351
1,7,14,1,0,2,B,F,g,r,5,15,12001,1,3,165.1947,203.7443
1,7,14,1,0,2,B,F,g,r,5,15,12001,1,3,209.8511,446.4924
1,7,14,1,0,2,B,F,g,r,5,15,13001,1,3,210.9962,241.5305
1,7,14,1,0,2,B,F,g,r,5,15,13001,1,3,362.1412,131.6069
1,7,14,1,0,2,B,F,g,r,5,15,13001,1,1,318.6298,124.7366
1,7,14,1,0,2,B,F,g,r,5,15,14001,1,3,323.2099,116.7214
1,7,14,1,0,2,B,F,g,r,5,15,14001,1,3,513.2863,341.1489
1,7,14,1,0,2,B,F,g,r,5,15,15001,1,3,405.6527,415.5763
1,7,14,1,0,2,B,F,g,r,5,15,15001,1,3,502.9809,155.6527
1,7,14,1,0,2,B,F,g,r,5,15,16001,1,3,547.6374,365.1947
1,7,14,1,0,2,B,F,g,r,5,15,16001,1,3,275.1183,93.8206
1,7,14,1,0,2,B,F,g,r,5,15,17001,1,3,410.2328,496.874
1,7,14,1,0,2,B,F,g,r,5,15,18001,1,3,287.7137,457.9427
1,7,14,1,0,2,B,F,g,r,5,15,19001,1,3,232.3555,440.4015
1,7,14,1,0,2,B,F,g,r,5,15,19001,1,3,144.3424,358.9565
1,7,14,1,0,2,B,F,g,r,5,15,20001,1,3,313.8005,395.7381
1,7,14,1,0,2,B,F,g,r,5,15,20001,1,1,301.9778,456.165
1,7,14,1,0,2,B,F,g,r,5,15,20001,1,3,192.9466,217.0846
1,7,14,1,0,2,B,F,g,r,5,15,21001,1,3,191.633,249.9253
1,7,14,1,0,2,B,F,g,r,5,15,21001,1,3,442.5361,135.6396
1,7,14,1,0,2,B,F,g,r,5,15,21001,1,1,256.0008,244.6708
1,7,14,1,0,2,B,F,g,r,5,15,22001,1,3,225.7874,293.275
1,7,14,1,0,2,B,F,g,r,5,15,22001,1,3,416.2635,534.9828
1,7,14,1,0,2,B,F,g,r,5,15,23001,1,3,216.592,428.5788
1,7,14,1,0,2,B,F,g,r,5,15,23001,1,3,208.7102,188.1847
1,7,14,1,0,2,B,F,g,r,5,15,24001,1,3,189.0057,259.1207
1,7,14,1,0,2,B,F,g,r,5,15,24001,1,3,254.6872,188.1847
1,7,14,1,0,2,B,F,g,r,5,15,25001,1,3,344.014,46.3128
1,7,14,1,0,2,B,F,g,r,5,15,25001,1,3,345.3276,156.6576
1,7,14,1,0,2,B,F,g,r,5,15,26001,1,3,336.1322,209.2028
1,7,14,1,0,2,B,F,g,r,5,15,26001,1,3,527.922,318.234
1,7,14,1,0,2,B,F,g,r,5,15,27001,1,3,212.6511,272.257
1,7,14,1,0,2,B,F,g,r,5,15,27001,1,3,375.5411,521.8465
1,7,14,1,0,2,B,F,g,r,5,15,28001,1,3,266.5099,428.5788
1,7,14,1,0,2,B,F,g,r,5,15,28001,1,3,278.3325,113.3079
1,7,14,1,0,2,B,F,g,r,5,15,28001,1,1,225.7874,98.858
1,7,14,1,0,2,B,F,g,r,5,15,29001,1,1,414.9499,242.0435
1,7,14,1,0,2,B,F,g,r,5,15,29001,1,3,298.0369,164.5394
1,7,14,1,0,2,B,F,g,r,5,15,29001,1,2,597.5443,165.853
1,7,14,1,0,2,B,F,g,r,5,15,30001,1,3,359.7775,415.4425
1,7,14,1,0,2,B,F,g,r,5,15,30001,1,3,195.5739,344.5066
1,7,14,1,0,2,B,F,g,r,5,15,30001,1,1,156.165,357.6429
1,7,14,1,0,2,B,F,g,r,5,15,31001,1,3,228.4146,494.2603
1,7,14,1,0,2,B,F,g,r,5,15,31001,1,3,422.8317,406.2471
1,7,14,1,0,2,B,F,g,r,5,15,31001,1,1,280.9598,511.3374
1,7,14,1,0,2,B,F,g,r,5,15,32001,1,3,284.9007,512.6511
1,7,14,1,0,2,B,F,g,r,5,15,32001,1,1,322.9959,479.8103
1,7,14,1,0,2,B,F,g,r,5,15,34001,1,3,211.3374,393.1108
1,7,14,1,0,2,B,F,g,r,5,15,34001,1,1,292.7824,389.17
1,7,14,1,0,2,B,F,g,r,5,15,34001,1,1,412.3227,59.4491
1,7,14,1,0,2,B,F,g,r,5,15,35001,1,3,208.7102,311.6658
1,7,14,1,0,2,B,F,g,r,5,15,36001,1,3,345.3276,94.9171
1,7,14,1,0,2,B,F,g,r,5,15,36001,1,1,227.101,96.2307
1,7,14,1,0,2,B,F,g,r,5,15,38001,1,1,179.8103,496.8875
1,7,14,1,0,2,B,F,g,r,5,15,40001,1,1,181.124,406.2471
1,7,14,1,0,2,B,F,g,r,5,15,42001,1,1,583.0944,461.4195
1,7,14,1,0,2,B,F,g,r,5,15,44001,1,1,552.881,239.4163
1,7,14,1,0,2,B,F,g,r,5,15,52001,1,3,508.2176,345.8202
1,7,14,1,0,2,B,F,g,r,5,15,53001,1,1,152.2241,273.5706
1,7,14,1,0,2,B,F,g,r,5,15,53001,1,1,439.9089,429.8924
1,7,14,1,0,2,B,F,g,r,5,15,53001,1,3,433.3407,467.9877
1,7,14,1,0,2,B,F,g,r,5,15,54001,1,3,439.9089,478.4967
1,7,14,1,0,2,B,F,g,r,5,15,55001,1,3,219.2192,382.6018
1,7,14,1,0,2,B,F,g,r,5,15,55001,1,1,571.2718,175.0484
1,7,14,1,0,2,B,F,g,r,5,15,56001,1,3,292.7824,385.2291
1,7,14,1,0,2,B,F,g,r,5,15,57001,1,3,249.4327,146.1486
1,7,14,1,0,2,B,F,g,r,5,15,58001,1,3,476.6905,110.6806
1,7,14,1,0,2,B,F,g,r,5,15,59001,1,3,526.6084,370.7791
1,7,14,1,0,2,B,F,g,r,5,15,59001,1,1,521.3539,326.1158
1,7,14,1,0,2,B,F,g,r,5,15,59001,1,1,573.899,351.0747
1,7,14,1,0,2,B,F,g,r,5,15,60001,1,3,258.6281,521.8465
1,7,14,1,0,2,B,F,g,r,5,15,60001,1,1,397.8727,512.6511
1,7,14,1,0,2,B,F,g,r,5,15,61001,1,3,164.0468,242.0435
1,7,14,1,0,2,B,F,g,r,5,15,62001,1,1,162.7332,154.0304
1,7,14,1,0,2,B,F,g,r,5,15,62001,1,3,290.1552,54.1946
1,7,14,1,0,2,B,F,g,r,5,15,63001,1,3,456.986,184.2438
1,7,14,1,0,2,B,F,g,r,5,15,64001,1,3,552.881,239.4163
1,7,14,1,0,2,B,F,g,r,5,15,65001,1,3,520.0402,285.3933
1,7,14,1,0,2,B,F,g,r,5,15,65001,1,1,575.2126,239.4163
1,7,14,1,0,2,B,F,g,r,5,15,66001,1,3,399.1864,524.4737
1,7,14,1,0,2,B,F,g,r,5,15,67001,1,3,203.4557,466.6741
1,7,14,1,0,2,B,F,g,r,5,15,67001,1,1,241.5509,504.7693
1,7,14,1,0,2,B,F,g,r,5,15,68001,1,3,324.3095,169.7939
1,7,14,1,0,2,B,F,g,r,5,15,68001,1,1,349.2685,139.5805
1,7,14,1,0,2,B,F,g,r,5,15,68001,1,1,368.9729,164.5394
1,7,14,1,0,2,B,F,g,r,5,15,69001,1,1,185.0649,218.3982
1,7,14,1,0,2,B,F,g,r,5,15,70001,1,3,449.1043,285.3933
1,7,14,1,0,2,B,F,g,r,5,15,71001,1,3,537.1174,403.6199
1,7,14,1,0,2,B,F,g,r,5,15,71001,1,1,522.6675,357.6429
1,7,14,1,0,2,B,F,g,r,5,15,71001,1,1,453.0452,104.1125
1,7,14,1,0,2,B,F,g,r,5,15,74001,1,1,165.3604,154.0304
1,7,14,1,0,2,B,F,g,r,5,15,80001,1,1,294.0961,330.0567
1,7,14,1,0,2,B,F,g,r,5,15,81001,1,1,179.8103,408.8744
1,7,14,1,0,2,B,F,g,r,5,15,91001,1,1,231.0419,322.1749
1,7,14,1,0,2,B,F,g,r,5,15,94001,1,1,261.2553,182.9302
1,7,14,1,0,2,B,F,g,r,5,15,94001,1,1,195.5739,93.6034
1,7,14,1,0,2,B,F,g,r,5,15,95001,1,1,435.968,125.1305
1,7,14,1,0,2,B,F,g,r,5,15,96001,1,1,388.6773,441.7151
1,7,14,1,0,2,B,F,g,r,5,15,96001,1,3,405.7545,486.3785
1,7,14,1,0,2,B,F,g,r,5,15,97001,1,1,413.6363,119.876
1,7,14,1,0,2,B,F,g,r,5,15,97001,1,3,446.477,383.9154
1,7,14,1,0,2,B,F,g,r,5,15,98001,1,3,418.8908,439.0878
1,7,14,1,0,2,B,F,g,r,5,15,99001,1,1,424.1453,151.4031
1,7,14,1,0,2,B,F,g,r,5,15,99001,1,3,451.7315,513.9647
1,7,14,1,0,2,B,F,g,r,5,15,100001,1,1,543.6856,358.9565
1,7,14,1,0,2,B,F,g,r,5,15,100001,1,3,300.6642,453.5378
1,7,14,1,0,2,B,F,g,r,5,15,101001,1,1,344.014,351.0747
1,7,14,1,0,2,B,F,g,r,5,15,101001,1,3,374.2274,324.8021
1,7,14,1,0,2,B,F,g,r,5,15,102001,1,1,345.3276,289.3342
1,7,14,1,0,2,B,F,g,r,5,15,102001,1,3,405.7545,255.1798
1,7,14,1,0,2,B,F,g,r,5,15,103001,1,1,463.5542,219.7118
1,7,14,1,0,2,B,F,g,r,5,15,103001,1,1,413.6363,213.1437
1,7,14,1,0,2,B,F,g,r,5,15,103001,1,3,437.2816,177.6757
1,7,14,1,0,2,B,F,g,r,5,15,104001,1,1,502.9631,130.3851
1,7,14,1,0,2,B,F,g,r,5,15,104001,1,3,508.2176,160.5985
1,7,14,1,0,2,B,F,g,r,5,15,105001,1,3,380.7956,200.0074
1,7,14,1,0,2,B,F,g,r,5,15,105001,1,1,518.7266,481.124
1,7,14,1,0,2,B,F,g,r,5,15,106001,1,3,280.9598,295.9023
1,7,14,1,0,2,B,F,g,r,5,15,106001,1,1,265.1962,256.4934
1,7,14,1,0,2,B,F,g,r,5,15,106001,1,1,542.3719,356.3292
1,7,14,1,0,2,B,F,g,r,5,15,107001,1,1,295.4097,368.1519
1,7,14,1,0,2,B,F,g,r,5,15,107001,1,1,279.6461,323.4885
1,7,14,1,0,2,B,F,g,r,5,15,107001,1,3,244.1782,378.6609
