dummy,month,day,period,view,station,fgeno,mgeno,fcol,mcol,nf,nm,frame,something,sex,x,y
1,6,24,3,3,1,A,G,b,y,10,10,1,1,3,516,199
1,6,24,3,3,1,A,G,b,y,10,10,1,1,1,451,220
1,6,24,3,3,1,A,G,b,y,10,10,1001,1,1,451,203
1,6,24,3,3,1,A,G,b,y,10,10,2001,1,1,461,206
1,6,24,3,3,1,A,G,b,y,10,10,3001,1,1,451,204
1,6,24,3,3,1,A,G,b,y,10,10,4001,1,1,452,204
1,6,24,3,3,1,A,G,b,y,10,10,5001,1,1,463,221
1,6,24,3,3,1,A,G,b,y,10,10,6001,1,3,607,97
1,6,24,3,3,1,A,G,b,y,10,10,6001,1,1,501,340
1,6,24,3,3,1,A,G,b,y,10,10,7001,1,3,512,192
1,6,24,3,3,1,A,G,b,y,10,10,7001,1,1,507,340
1,6,24,3,3,1,A,G,b,y,10,10,8001,1,1,646,254
1,6,24,3,3,1,A,G,b,y,10,10,8001,1,1,489,9
1,6,24,3,3,1,A,G,b,y,10,10,9001,1,1,445,284
1,6,24,3,3,1,A,G,b,y,10,10,9001,1,1,361,222
1,6,24,3,3,1,A,G,b,y,10,10,9001,1,3,385,270
1,6,24,3,3,1,A,G,b,y,10,10,10001,1,3,580,380
1,6,24,3,3,1,A,G,b,y,10,10,10001,1,3,294,274
1,6,24,3,3,1,A,G,b,y,10,10,10001,1,1,355,287
1,6,24,3,3,1,A,G,b,y,10,10,11001,1,1,547,200
1,6,24,3,3,1,A,G,b,y,10,10,11001,1,1,509,333
1,6,24,3,3,1,A,G,b,y,10,10,11001,1,3,396,359
1,6,24,3,3,1,A,G,b,y,10,10,11001,1,3,484,98
1,6,24,3,3,1,A,G,b,y,10,10,11001,1,1,312,41
1,6,24,3,3,1,A,G,b,y,10,10,12001,1,1,627,183
1,6,24,3,3,1,A,G,b,y,10,10,12001,1,1,484,26
1,6,24,3,3,1,A,G,b,y,10,10,12001,1,1,371,231
1,6,24,3,3,1,A,G,b,y,10,10,12001,1,3,520,236
1,6,24,3,3,1,A,G,b,y,10,10,12001,1,3,452,384
1,6,24,3,3,1,A,G,b,y,10,10,13001,1,1,478,21
1,6,24,3,3,1,A,G,b,y,10,10,13001,1,3,361,245
1,6,24,3,3,1,A,G,b,y,10,10,13001,1,3,426,367
1,6,24,3,3,1,A,G,b,y,10,10,13001,1,1,424,317
1,6,24,3,3,1,A,G,b,y,10,10,14001,1,1,665,111
1,6,24,3,3,1,A,G,b,y,10,10,14001,1,3,739,303
1,6,24,3,3,1,A,G,b,y,10,10,14001,1,3,429,250
1,6,24,3,3,1,A,G,b,y,10,10,14001,1,1,459,252
1,6,24,3,3,1,A,G,b,y,10,10,14001,1,1,385,42
1,6,24,3,3,1,A,G,b,y,10,10,14001,1,1,312,51
1,6,24,3,3,1,A,G,b,y,10,10,15001,1,1,581,308
1,6,24,3,3,1,A,G,b,y,10,10,15001,1,1,516,246
1,6,24,3,3,1,A,G,b,y,10,10,15001,1,3,450,298
1,6,24,3,3,1,A,G,b,y,10,10,15001,1,3,231,120
1,6,24,3,3,1,A,G,b,y,10,10,15001,1,1,296,101
1,6,24,3,3,1,A,G,b,y,10,10,16001,1,3,311,447
1,6,24,3,3,1,A,G,b,y,10,10,16001,1,3,449,296
1,6,24,3,3,1,A,G,b,y,10,10,16001,1,1,411,136
1,6,24,3,3,1,A,G,b,y,10,10,16001,1,1,361,86
1,6,24,3,3,1,A,G,b,y,10,10,16001,1,1,315,106
1,6,24,3,3,1,A,G,b,y,10,10,17001,1,3,385,309
1,6,24,3,3,1,A,G,b,y,10,10,17001,1,3,217,451
1,6,24,3,3,1,A,G,b,y,10,10,17001,1,1,263,454
1,6,24,3,3,1,A,G,b,y,10,10,17001,1,1,545,20
1,6,24,3,3,1,A,G,b,y,10,10,18001,1,3,681,363
1,6,24,3,3,1,A,G,b,y,10,10,18001,1,1,491,227
1,6,24,3,3,1,A,G,b,y,10,10,18001,1,1,463,257
1,6,24,3,3,1,A,G,b,y,10,10,19001,1,3,573,511
1,6,24,3,3,1,A,G,b,y,10,10,19001,1,1,550,461
1,6,24,3,3,1,A,G,b,y,10,10,19001,1,3,234,151
1,6,24,3,3,1,A,G,b,y,10,10,20001,1,3,675,205
1,6,24,3,3,1,A,G,b,y,10,10,20001,1,3,502,369
1,6,24,3,3,1,A,G,b,y,10,10,20001,1,1,545,365
1,6,24,3,3,1,A,G,b,y,10,10,20001,1,1,573,441
1,6,24,3,3,1,A,G,b,y,10,10,21001,1,1,576,190
1,6,24,3,3,1,A,G,b,y,10,10,21001,1,3,251,132
1,6,24,3,3,1,A,G,b,y,10,10,21001,1,3,536,342
1,6,24,3,3,1,A,G,b,y,10,10,22001,1,3,261,233
1,6,24,3,3,1,A,G,b,y,10,10,22001,1,1,558,565
1,6,24,3,3,1,A,G,b,y,10,10,23001,1,3,499,34
1,6,24,3,3,1,A,G,b,y,10,10,23001,1,1,586,574
1,6,24,3,3,1,A,G,b,y,10,10,24001,1,3,372,201
1,6,24,3,3,1,A,G,b,y,10,10,24001,1,3,666,360
1,6,24,3,3,1,A,G,b,y,10,10,24001,1,1,317,170
1,6,24,3,3,1,A,G,b,y,10,10,25001,1,3,451,335
1,6,24,3,3,1,A,G,b,y,10,10,25001,1,1,525,368
1,6,24,3,3,1,A,G,b,y,10,10,26001,1,3,508,333
1,6,24,3,3,1,A,G,b,y,10,10,26001,1,1,445,354
1,6,24,3,3,1,A,G,b,y,10,10,27001,1,3,507,303
1,6,24,3,3,1,A,G,b,y,10,10,27001,1,1,511,258
1,6,24,3,3,1,A,G,b,y,10,10,28001,1,3,530,303
1,6,24,3,3,1,A,G,b,y,10,10,28001,1,1,526,340
1,6,24,3,3,1,A,G,b,y,10,10,29001,1,1,523,262
1,6,24,3,3,1,A,G,b,y,10,10,29001,1,3,522,322
1,6,24,3,3,1,A,G,b,y,10,10,30001,1,1,532,253
1,6,24,3,3,1,A,G,b,y,10,10,30001,1,3,472,269
1,6,24,3,3,1,A,G,b,y,10,10,31001,1,1,484,362
1,6,24,3,3,1,A,G,b,y,10,10,31001,1,1,473,404
1,6,24,3,3,1,A,G,b,y,10,10,32001,1,1,679,405
1,6,24,3,3,1,A,G,b,y,10,10,33001,1,1,345,170
1,6,24,3,3,1,A,G,b,y,10,10,34001,1,1,498,510
1,6,24,3,3,1,A,G,b,y,10,10,35001,1,1,157,282
1,6,24,3,3,1,A,G,b,y,10,10,36001,1,1,594,525
1,6,24,3,3,1,A,G,b,y,10,10,37001,1,1,427,240
1,6,24,3,3,1,A,G,b,y,10,10,38001,1,1,629,547
1,6,24,3,3,1,A,G,b,y,10,10,39001,1,1,460,52
1,6,24,3,3,1,A,G,b,y,10,10,40001,1,1,630,89
1,6,24,3,3,1,A,G,b,y,10,10,40001,1,3,612,55
1,6,24,3,3,1,A,G,b,y,10,10,41001,1,3,437,267
1,6,24,3,3,1,A,G,b,y,10,10,41001,1,1,480,229
1,6,24,3,3,1,A,G,b,y,10,10,42001,1,3,471,303
1,6,24,3,3,1,A,G,b,y,10,10,42001,1,1,455,271
1,6,24,3,3,1,A,G,b,y,10,10,43001,1,3,481,433
1,6,24,3,3,1,A,G,b,y,10,10,43001,1,1,415,435
1,6,24,3,3,1,A,G,b,y,10,10,44001,1,3,485,411
1,6,24,3,3,1,A,G,b,y,10,10,44001,1,1,481,364
1,6,24,3,3,1,A,G,b,y,10,10,45001,1,1,504,299
1,6,24,3,3,1,A,G,b,y,10,10,45001,1,3,488,348
1,6,24,3,3,1,A,G,b,y,10,10,46001,1,1,523,249
1,6,24,3,3,1,A,G,b,y,10,10,46001,1,3,465,250
1,6,24,3,3,1,A,G,b,y,10,10,47001,1,1,483,193
1,6,24,3,3,1,A,G,b,y,10,10,47001,1,3,457,230
1,6,24,3,3,1,A,G,b,y,10,10,48001,1,1,480,272
1,6,24,3,3,1,A,G,b,y,10,10,48001,1,3,411,267
1,6,24,3,3,1,A,G,b,y,10,10,49001,1,3,406,159
1,6,24,3,3,1,A,G,b,y,10,10,49001,1,1,387,111
1,6,24,3,3,1,A,G,b,y,10,10,50001,1,1,469,4
1,6,24,3,3,1,A,G,b,y,10,10,51001,1,1,364,61
1,6,24,3,3,1,A,G,b,y,10,10,52001,1,1,394,432
1,6,24,3,3,1,A,G,b,y,10,10,53001,1,1,665,468
1,6,24,3,3,1,A,G,b,y,10,10,53001,1,1,663,404
1,6,24,3,3,1,A,G,b,y,10,10,54001,1,1,500,102
1,6,24,3,3,1,A,G,b,y,10,10,55001,1,1,223,232
1,6,24,3,3,1,A,G,b,y,10,10,56001,1,1,424,241
1,6,24,3,3,1,A,G,b,y,10,10,57001,1,1,549,66
1,6,24,3,3,1,A,G,b,y,10,10,58001,1,1,552,307
1,6,24,3,3,1,A,G,b,y,10,10,59001,1,1,742,274
1,6,24,3,3,1,A,G,b,y,10,10,60001,1,1,718,168
1,6,24,3,3,1,A,G,b,y,10,10,61001,1,1,704,152
1,6,24,3,3,1,A,G,b,y,10,10,62001,1,1,711,165
1,6,24,3,3,1,A,G,b,y,10,10,63001,1,1,710,165
1,6,24,3,3,1,A,G,b,y,10,10,64001,1,1,370,412
1,6,24,3,3,1,A,G,b,y,10,10,65001,1,1,634,99
1,6,24,3,3,1,A,G,b,y,10,10,66001,1,1,628,88
1,6,24,3,3,1,A,G,b,y,10,10,66001,1,3,197,174
1,6,24,3,3,1,A,G,b,y,10,10,67001,1,3,265,223
1,6,24,3,3,1,A,G,b,y,10,10,67001,1,1,226,179
1,6,24,3,3,1,A,G,b,y,10,10,69001,1,3,475,73
1,6,24,3,3,1,A,G,b,y,10,10,69001,1,1,430,85
1,6,24,3,3,1,A,G,b,y,10,10,70001,1,1,650,499
1,6,24,3,3,1,A,G,b,y,10,10,71001,1,1,423,193
1,6,24,3,3,1,A,G,b,y,10,10,71001,1,3,437,247
1,6,24,3,3,1,A,G,b,y,10,10,72001,1,1,500,336
1,6,24,3,3,1,A,G,b,y,10,10,72001,1,3,452,324
1,6,24,3,3,1,A,G,b,y,10,10,73001,1,1,447,45
1,6,24,3,3,1,A,G,b,y,10,10,73001,1,3,424,366
1,6,24,3,3,1,A,G,b,y,10,10,74001,1,3,647,336
1,6,24,3,3,1,A,G,b,y,10,10,74001,1,3,420,394
1,6,24,3,3,1,A,G,b,y,10,10,74001,1,1,441,256
1,6,24,3,3,1,A,G,b,y,10,10,75001,1,3,506,362
1,6,24,3,3,1,A,G,b,y,10,10,75001,1,1,465,373
1,6,24,3,3,1,A,G,b,y,10,10,75001,1,3,236,172
1,6,24,3,3,1,A,G,b,y,10,10,77001,1,1,682,293
1,6,24,3,3,1,A,G,b,y,10,10,78001,1,1,670,224
1,6,24,3,3,1,A,G,b,y,10,10,79001,1,1,294,289
1,6,24,3,3,1,A,G,b,y,10,10,80001,1,1,621,203
1,6,24,3,3,1,A,G,b,y,10,10,81001,1,1,624,210
1,6,24,3,3,1,A,G,b,y,10,10,82001,1,1,399,75
1,6,24,3,3,1,A,G,b,y,10,10,83001,1,1,688,140
1,6,24,3,3,1,A,G,b,y,10,10,84001,1,1,689,141
1,6,24,3,3,1,A,G,b,y,10,10,85001,1,1,725,343
1,6,24,3,3,1,A,G,b,y,10,10,86001,1,1,684,417
1,6,24,3,3,1,A,G,b,y,10,10,87001,1,1,667,382
1,6,24,3,3,1,A,G,b,y,10,10,88001,1,1,676,113
1,6,24,3,3,1,A,G,b,y,10,10,89001,1,1,288,349
1,6,24,3,3,1,A,G,b,y,10,10,90001,1,1,724,236
1,6,24,3,3,1,A,G,b,y,10,10,91001,1,1,659,130
1,6,24,3,3,1,A,G,b,y,10,10,92001,1,1,692,122
1,6,24,3,3,1,A,G,b,y,10,10,96001,1,1,730,219
1,6,24,3,3,1,A,G,b,y,10,10,97001,1,1,680,205
1,6,24,3,3,1,A,G,b,y,10,10,98001,1,1,588,152
1,6,24,3,3,1,A,G,b,y,10,10,99001,1,1,575,323
1,6,24,3,3,1,A,G,b,y,10,10,99001,1,3,426,313
1,6,24,3,3,1,A,G,b,y,10,10,100001,1,3,452,372
1,6,24,3,3,1,A,G,b,y,10,10,100001,1,1,429,264
1,6,24,3,3,1,A,G,b,y,10,10,101001,1,3,563,326
1,6,24,3,3,1,A,G,b,y,10,10,101001,1,1,645,271
1,6,24,3,3,1,A,G,b,y,10,10,102001,1,3,494,200
1,6,24,3,3,1,A,G,b,y,10,10,102001,1,1,327,251
1,6,24,3,3,1,A,G,b,y,10,10,103001,1,1,536,131
1,6,24,3,3,1,A,G,b,y,10,10,103001,1,3,536,584
1,6,24,3,3,1,A,G,b,y,10,10,104001,1,1,537,125
1,6,24,3,3,1,A,G,b,y,10,10,104001,1,3,527,568
1,6,24,3,3,1,A,G,b,y,10,10,105001,1,1,548,76
1,6,24,3,3,1,A,G,b,y,10,10,105001,1,3,502,570
1,6,24,3,3,1,A,G,b,y,10,10,106001,1,3,195,297
1,6,24,3,3,1,A,G,b,y,10,10,106001,1,1,736,312
1,6,24,3,3,1,A,G,b,y,10,10,107001,1,1,744,303
