dummy,month,day,period,view,station,fgeno,mgeno,fcol,mcol,nf,nm,frame,something,sex,x,y
1,7,20,1,1,2,C,F,b,y,15,5,27001,1,1,149.8433,379.2992
1,7,20,1,1,2,C,F,b,y,15,5,30001,1,1,400.5,352.2824
1,7,20,1,1,2,C,F,b,y,15,5,60001,1,1,296.9353,331.2692
1,7,20,1,1,2,C,F,b,y,15,5,74001,1,3,311.9447,440.8377
1,7,20,1,1,2,C,F,b,y,15,5,75001,1,3,517.5732,280.2373
1,7,20,1,1,2,C,F,b,y,15,5,76001,1,3,371.9822,41.5882
1,7,20,1,1,2,C,F,b,y,15,5,76001,1,1,427.5169,53.5957
1,7,20,1,1,2,C,F,b,y,15,5,78001,1,3,203.8771,166.166
1,7,20,1,1,2,C,F,b,y,15,5,78001,1,2,232.3949,148.1548
1,7,20,1,1,2,C,F,b,y,15,5,78001,1,3,424.515,550.4062
1,7,20,1,1,2,C,F,b,y,15,5,79001,1,3,305.9409,256.2223
1,7,20,1,1,2,C,F,b,y,15,5,79001,1,1,292.4325,286.2411
1,7,20,1,1,2,C,F,b,y,15,5,80001,1,1,426.0159,314.7589
1,7,20,1,1,2,C,F,b,y,15,5,80001,1,3,426.0159,350.7814
1,7,20,1,1,2,C,F,b,y,15,5,80001,1,3,106.3161,226.2036
1,7,20,1,1,2,C,F,b,y,15,5,81001,1,3,277.4231,59.5994
1,7,20,1,1,2,C,F,b,y,15,5,81001,1,3,215.8846,335.772
1,7,20,1,1,2,C,F,b,y,15,5,81001,1,1,226.3912,382.3011
1,7,20,1,1,2,C,F,b,y,15,5,82001,1,3,621.1379,211.1942
1,7,20,1,1,2,C,F,b,y,15,5,82001,1,1,610.6313,241.2129
1,7,20,1,1,2,C,F,b,y,15,5,100001,1,1,205.378,526.3912
1,7,20,1,1,2,C,F,b,y,15,5,106001,1,1,531.0816,218.6989
