dummy,month,day,period,view,station,fgeno,mgeno,fcol,mcol,nf,nm,frame,something,sex,x,y
1,6,26,2,3,1,B,E,b,y,10,10,1,1,3,597,511
1,6,26,2,3,1,B,E,b,y,10,10,1,1,1,505,541
1,6,26,2,3,1,B,E,b,y,10,10,1001,1,3,635,411
1,6,26,2,3,1,B,E,b,y,10,10,1001,1,1,625,437
1,6,26,2,3,1,B,E,b,y,10,10,2001,1,3,252,246
1,6,26,2,3,1,B,E,b,y,10,10,2001,1,1,668,392
1,6,26,2,3,1,B,E,b,y,10,10,3001,1,3,567,334
1,6,26,2,3,1,B,E,b,y,10,10,3001,1,3,321,91
1,6,26,2,3,1,B,E,b,y,10,10,3001,1,1,555,390
1,6,26,2,3,1,B,E,b,y,10,10,4001,1,1,293,171
1,6,26,2,3,1,B,E,b,y,10,10,4001,1,3,251,214
1,6,26,2,3,1,B,E,b,y,10,10,5001,1,3,358,231
1,6,26,2,3,1,B,E,b,y,10,10,5001,1,3,168,434
1,6,26,2,3,1,B,E,b,y,10,10,5001,1,1,135,410
1,6,26,2,3,1,B,E,b,y,10,10,5001,1,1,109,426
1,6,26,2,3,1,B,E,b,y,10,10,6001,1,3,420,184
1,6,26,2,3,1,B,E,b,y,10,10,7001,1,3,346,117
1,6,26,2,3,1,B,E,b,y,10,10,7001,1,1,685,249
1,6,26,2,3,1,B,E,b,y,10,10,8001,1,1,373,66
1,6,26,2,3,1,B,E,b,y,10,10,8001,1,3,220,220
1,6,26,2,3,1,B,E,b,y,10,10,9001,1,1,402,163
1,6,26,2,3,1,B,E,b,y,10,10,9001,1,3,265,339
1,6,26,2,3,1,B,E,b,y,10,10,10001,1,3,285,269
1,6,26,2,3,1,B,E,b,y,10,10,11001,1,3,333,315
1,6,26,2,3,1,B,E,b,y,10,10,11001,1,1,269,333
1,6,26,2,3,1,B,E,b,y,10,10,12001,1,3,249,507
1,6,26,2,3,1,B,E,b,y,10,10,13001,1,3,210,383
1,6,26,2,3,1,B,E,b,y,10,10,14001,1,1,362,29
1,6,26,2,3,1,B,E,b,y,10,10,14001,1,3,190,298
1,6,26,2,3,1,B,E,b,y,10,10,15001,1,1,678,217
1,6,26,2,3,1,B,E,b,y,10,10,15001,1,3,194,316
1,6,26,2,3,1,B,E,b,y,10,10,16001,1,1,680,400
1,6,26,2,3,1,B,E,b,y,10,10,16001,1,3,186,426
1,6,26,2,3,1,B,E,b,y,10,10,17001,1,1,159,149
1,6,26,2,3,1,B,E,b,y,10,10,17001,1,3,261,463
1,6,26,2,3,1,B,E,b,y,10,10,18001,1,1,354,68
1,6,26,2,3,1,B,E,b,y,10,10,18001,1,3,229,406
1,6,26,2,3,1,B,E,b,y,10,10,19001,1,1,382,350
1,6,26,2,3,1,B,E,b,y,10,10,19001,1,3,274,354
1,6,26,2,3,1,B,E,b,y,10,10,19001,1,3,349,466
1,6,26,2,3,1,B,E,b,y,10,10,20001,1,3,639,271
1,6,26,2,3,1,B,E,b,y,10,10,20001,1,3,235,378
1,6,26,2,3,1,B,E,b,y,10,10,20001,1,1,664,306
1,6,26,2,3,1,B,E,b,y,10,10,21001,1,1,511,375
1,6,26,2,3,1,B,E,b,y,10,10,21001,1,3,512,471
1,6,26,2,3,1,B,E,b,y,10,10,22001,1,3,518,276
1,6,26,2,3,1,B,E,b,y,10,10,22001,1,1,194,485
1,6,26,2,3,1,B,E,b,y,10,10,23001,1,3,375,186
1,6,26,2,3,1,B,E,b,y,10,10,24001,1,3,397,318
1,6,26,2,3,1,B,E,b,y,10,10,24001,1,3,686,388
1,6,26,2,3,1,B,E,b,y,10,10,25001,1,3,565,320
1,6,26,2,3,1,B,E,b,y,10,10,25001,1,1,448,66
1,6,26,2,3,1,B,E,b,y,10,10,26001,1,3,393,133
1,6,26,2,3,1,B,E,b,y,10,10,27001,1,3,568,241
1,6,26,2,3,1,B,E,b,y,10,10,28001,1,3,474,415
1,6,26,2,3,1,B,E,b,y,10,10,28001,1,1,642,429
1,6,26,2,3,1,B,E,b,y,10,10,29001,1,1,408,138
1,6,26,2,3,1,B,E,b,y,10,10,29001,1,3,578,320
1,6,26,2,3,1,B,E,b,y,10,10,30001,1,3,468,376
1,6,26,2,3,1,B,E,b,y,10,10,31001,1,3,425,427
1,6,26,2,3,1,B,E,b,y,10,10,32001,1,3,208,332
1,6,26,2,3,1,B,E,b,y,10,10,32001,1,3,476,574
1,6,26,2,3,1,B,E,b,y,10,10,33001,1,3,518,526
1,6,26,2,3,1,B,E,b,y,10,10,33001,1,3,351,403
1,6,26,2,3,1,B,E,b,y,10,10,33001,1,1,547,557
1,6,26,2,3,1,B,E,b,y,10,10,34001,1,1,601,370
1,6,26,2,3,1,B,E,b,y,10,10,34001,1,3,267,515
1,6,26,2,3,1,B,E,b,y,10,10,35001,1,1,386,74
1,6,26,2,3,1,B,E,b,y,10,10,35001,1,3,442,464
1,6,26,2,3,1,B,E,b,y,10,10,36001,1,1,599,375
1,6,26,2,3,1,B,E,b,y,10,10,36001,1,3,547,374
1,6,26,2,3,1,B,E,b,y,10,10,36001,1,3,459,581
1,6,26,2,3,1,B,E,b,y,10,10,37001,1,1,166,135
1,6,26,2,3,1,B,E,b,y,10,10,37001,1,1,335,275
1,6,26,2,3,1,B,E,b,y,10,10,37001,1,3,371,467
1,6,26,2,3,1,B,E,b,y,10,10,38001,1,3,444,339
1,6,26,2,3,1,B,E,b,y,10,10,39001,1,3,413,438
1,6,26,2,3,1,B,E,b,y,10,10,39001,1,1,406,542
1,6,26,2,3,1,B,E,b,y,10,10,40001,1,3,389,184
1,6,26,2,3,1,B,E,b,y,10,10,40001,1,1,151,357
1,6,26,2,3,1,B,E,b,y,10,10,41001,1,3,534,252
1,6,26,2,3,1,B,E,b,y,10,10,42001,1,3,685,318
1,6,26,2,3,1,B,E,b,y,10,10,42001,1,3,448,504
1,6,26,2,3,1,B,E,b,y,10,10,43001,1,3,443,378
1,6,26,2,3,1,B,E,b,y,10,10,43001,1,1,440,418
1,6,26,2,3,1,B,E,b,y,10,10,44001,1,3,483,128
1,6,26,2,3,1,B,E,b,y,10,10,44001,1,1,401,79
1,6,26,2,3,1,B,E,b,y,10,10,45001,1,1,373,62
1,6,26,2,3,1,B,E,b,y,10,10,45001,1,3,235,164
1,6,26,2,3,1,B,E,b,y,10,10,46001,1,3,433,384
1,6,26,2,3,1,B,E,b,y,10,10,47001,1,3,521,397
1,6,26,2,3,1,B,E,b,y,10,10,48001,1,3,433,167
1,6,26,2,3,1,B,E,b,y,10,10,48001,1,1,462,522
1,6,26,2,3,1,B,E,b,y,10,10,49001,1,3,349,483
1,6,26,2,3,1,B,E,b,y,10,10,50001,1,1,503,443
1,6,26,2,3,1,B,E,b,y,10,10,50001,1,1,378,346
1,6,26,2,3,1,B,E,b,y,10,10,50001,1,3,287,395
1,6,26,2,3,1,B,E,b,y,10,10,51001,1,3,475,212
1,6,26,2,3,1,B,E,b,y,10,10,51001,1,1,328,92
1,6,26,2,3,1,B,E,b,y,10,10,52001,1,3,604,451
1,6,26,2,3,1,B,E,b,y,10,10,53001,1,3,426,205
1,6,26,2,3,1,B,E,b,y,10,10,54001,1,3,329,186
1,6,26,2,3,1,B,E,b,y,10,10,54001,1,1,349,111
1,6,26,2,3,1,B,E,b,y,10,10,55001,1,1,635,206
1,6,26,2,3,1,B,E,b,y,10,10,55001,1,1,226,56
1,6,26,2,3,1,B,E,b,y,10,10,55001,1,3,244,311
1,6,26,2,3,1,B,E,b,y,10,10,56001,1,1,427,30
1,6,26,2,3,1,B,E,b,y,10,10,56001,1,1,349,192
1,6,26,2,3,1,B,E,b,y,10,10,56001,1,3,437,415
1,6,26,2,3,1,B,E,b,y,10,10,57001,1,3,584,263
1,6,26,2,3,1,B,E,b,y,10,10,58001,1,3,473,131
1,6,26,2,3,1,B,E,b,y,10,10,58001,1,1,521,534
1,6,26,2,3,1,B,E,b,y,10,10,59001,1,1,346,103
1,6,26,2,3,1,B,E,b,y,10,10,59001,1,3,345,307
1,6,26,2,3,1,B,E,b,y,10,10,60001,1,1,427,232
1,6,26,2,3,1,B,E,b,y,10,10,60001,1,3,376,237
1,6,26,2,3,1,B,E,b,y,10,10,61001,1,3,418,100
1,6,26,2,3,1,B,E,b,y,10,10,62001,1,3,609,332
1,6,26,2,3,1,B,E,b,y,10,10,63001,1,3,352,156
1,6,26,2,3,1,B,E,b,y,10,10,64001,1,3,172,179
1,6,26,2,3,1,B,E,b,y,10,10,65001,1,3,137,289
1,6,26,2,3,1,B,E,b,y,10,10,66001,1,3,295,484
1,6,26,2,3,1,B,E,b,y,10,10,67001,1,3,508,565
1,6,26,2,3,1,B,E,b,y,10,10,68001,1,3,636,421
1,6,26,2,3,1,B,E,b,y,10,10,68001,1,1,489,28
1,6,26,2,3,1,B,E,b,y,10,10,69001,1,3,591,333
1,6,26,2,3,1,B,E,b,y,10,10,70001,1,3,376,148
1,6,26,2,3,1,B,E,b,y,10,10,71001,1,3,294,306
1,6,26,2,3,1,B,E,b,y,10,10,72001,1,3,389,346
1,6,26,2,3,1,B,E,b,y,10,10,73001,1,3,499,423
1,6,26,2,3,1,B,E,b,y,10,10,74001,1,3,587,365
1,6,26,2,3,1,B,E,b,y,10,10,75001,1,3,575,203
1,6,26,2,3,1,B,E,b,y,10,10,75001,1,1,139,147
1,6,26,2,3,1,B,E,b,y,10,10,76001,1,3,551,174
1,6,26,2,3,1,B,E,b,y,10,10,77001,1,3,586,149
1,6,26,2,3,1,B,E,b,y,10,10,78001,1,3,458,34
1,6,26,2,3,1,B,E,b,y,10,10,79001,1,3,337,132
1,6,26,2,3,1,B,E,b,y,10,10,80001,1,3,248,271
1,6,26,2,3,1,B,E,b,y,10,10,81001,1,1,433,318
1,6,26,2,3,1,B,E,b,y,10,10,81001,1,3,300,453
1,6,26,2,3,1,B,E,b,y,10,10,82001,1,1,641,186
1,6,26,2,3,1,B,E,b,y,10,10,82001,1,3,395,573
1,6,26,2,3,1,B,E,b,y,10,10,83001,1,3,533,505
1,6,26,2,3,1,B,E,b,y,10,10,84001,1,3,571,422
1,6,26,2,3,1,B,E,b,y,10,10,85001,1,1,336,132
1,6,26,2,3,1,B,E,b,y,10,10,85001,1,3,648,380
1,6,26,2,3,1,B,E,b,y,10,10,86001,1,3,537,167
1,6,26,2,3,1,B,E,b,y,10,10,87001,1,3,260,113
1,6,26,2,3,1,B,E,b,y,10,10,88001,1,3,260,532
1,6,26,2,3,1,B,E,b,y,10,10,89001,1,3,400,499
1,6,26,2,3,1,B,E,b,y,10,10,90001,1,3,526,557
1,6,26,2,3,1,B,E,b,y,10,10,91001,1,3,590,483
1,6,26,2,3,1,B,E,b,y,10,10,92001,1,3,657,331
1,6,26,2,3,1,B,E,b,y,10,10,93001,1,3,671,372
1,6,26,2,3,1,B,E,b,y,10,10,93001,1,1,271,444
1,6,26,2,3,1,B,E,b,y,10,10,94001,1,3,671,386
1,6,26,2,3,1,B,E,b,y,10,10,95001,1,3,563,450
1,6,26,2,3,1,B,E,b,y,10,10,96001,1,3,502,385
1,6,26,2,3,1,B,E,b,y,10,10,97001,1,3,402,333
1,6,26,2,3,1,B,E,b,y,10,10,98001,1,3,129,288
1,6,26,2,3,1,B,E,b,y,10,10,99001,1,3,91,246
1,6,26,2,3,1,B,E,b,y,10,10,100001,1,3,196,168
1,6,26,2,3,1,B,E,b,y,10,10,101001,1,3,137,336
1,6,26,2,3,1,B,E,b,y,10,10,102001,1,3,118,380
1,6,26,2,3,1,B,E,b,y,10,10,103001,1,3,126,385
1,6,26,2,3,1,B,E,b,y,10,10,104001,1,3,134,454
1,6,26,2,3,1,B,E,b,y,10,10,105001,1,3,203,497
1,6,26,2,3,1,B,E,b,y,10,10,106001,1,3,292,564
1,6,26,2,3,1,B,E,b,y,10,10,107001,1,3,368,556
