dummy,month,day,period,view,station,fgeno,mgeno,fcol,mcol,nf,nm,frame,something,sex,x,y
1,7,16,1,1,2,C,G,g,r,5,15,1,1,1,170.3473,105.271
1,7,16,1,1,2,C,G,g,r,5,15,1,1,1,242.4847,230.0802
1,7,16,1,1,2,C,G,g,r,5,15,1,1,3,233.3244,271.3015
1,7,16,1,1,2,C,G,g,r,5,15,1,1,1,415.3855,346.874
1,7,16,1,1,2,C,G,g,r,5,15,1,1,1,587.1412,346.874
1,7,16,1,1,2,C,G,g,r,5,15,1001,1,1,236.7595,160.2328
1,7,16,1,1,2,C,G,g,r,5,15,1001,1,3,297.4466,160.2328
1,7,16,1,1,2,C,G,g,r,5,15,1001,1,1,534.4695,288.4771
1,7,16,1,1,2,C,G,g,r,5,15,2001,1,1,263.0954,51.4542
1,7,16,1,1,2,C,G,g,r,5,15,2001,1,1,383.3244,215.1947
1,7,16,1,1,2,C,G,g,r,5,15,2001,1,3,400.5,167.1031
1,7,16,1,1,2,C,G,g,r,5,15,3001,1,1,478.3626,121.3015
1,7,16,1,1,2,C,G,g,r,5,15,3001,1,1,576.8359,175.1183
1,7,16,1,1,2,C,G,g,r,5,15,3001,1,3,354.6985,436.187
1,7,16,1,1,2,C,G,g,r,5,15,4001,1,1,511.5687,101.8359
1,7,16,1,1,2,C,G,g,r,5,15,4001,1,3,235.6145,437.3321
1,7,16,1,1,2,C,G,g,r,5,15,4001,1,1,255.0802,519.7748
1,7,16,1,1,2,C,G,g,r,5,15,5001,1,3,172.6374,337.7137
1,7,16,1,1,2,C,G,g,r,5,15,5001,1,1,255.0802,439.6221
1,7,16,1,1,2,C,G,g,r,5,15,5001,1,2,224.1641,432.7519
1,7,16,1,1,2,C,G,g,r,5,15,6001,1,3,170.3473,269.0115
1,7,16,1,1,2,C,G,g,r,5,15,6001,1,1,281.416,428.1718
1,7,16,1,1,2,C,G,g,r,5,15,6001,1,1,133.7061,321.6832
1,7,16,1,1,2,C,G,g,r,5,15,7001,1,1,367.2939,375.5
1,7,16,1,1,2,C,G,g,r,5,15,7001,1,1,263.0954,486.5687
1,7,16,1,1,2,C,G,g,r,5,15,7001,1,3,110.8053,230.0802
1,7,16,1,1,2,C,G,g,r,5,15,8001,1,1,526.4542,160.2328
1,7,16,1,1,2,C,G,g,r,5,15,8001,1,1,124.5458,263.2863
1,7,16,1,1,2,C,G,g,r,5,15,8001,1,3,142.8664,325.1183
1,7,16,1,1,2,C,G,g,r,5,15,8001,1,1,497.8282,495.729
1,7,16,1,1,2,C,G,g,r,5,15,9001,1,1,229.8893,407.5611
1,7,16,1,1,2,C,G,g,r,5,15,9001,1,1,464.6221,364.0496
1,7,16,1,1,2,C,G,g,r,5,15,9001,1,3,346.6832,373.2099
1,7,16,1,1,2,C,G,g,r,5,15,10001,1,1,397.0649,301.0725
1,7,16,1,1,2,C,G,g,r,5,15,10001,1,1,424.5458,438.4771
1,7,16,1,1,2,C,G,g,r,5,15,10001,1,3,414.2405,501.4542
1,7,16,1,1,2,C,G,g,r,5,15,11001,1,1,379.8893,470.5382
1,7,16,1,1,2,C,G,g,r,5,15,12001,1,1,288.2863,456.7977
1,7,16,1,1,2,C,G,g,r,5,15,12001,1,1,628.3626,266.7214
1,7,16,1,1,2,C,G,g,r,5,15,13001,1,1,315.7672,74.355
1,7,16,1,1,2,C,G,g,r,5,15,13001,1,1,232.1794,560.9962
1,7,16,1,1,2,C,G,g,r,5,15,14001,1,2,91.3397,277.0267
1,7,16,1,1,2,C,G,g,r,5,15,15001,1,1,300.8817,190.0038
1,7,16,1,1,2,C,G,g,r,5,15,15001,1,1,615.7672,338.8588
1,7,16,1,1,2,C,G,g,r,5,15,16001,1,1,368.4389,203.7443
1,7,16,1,1,2,C,G,g,r,5,15,16001,1,1,572.2557,235.8053
1,7,16,1,1,2,C,G,g,r,5,15,17001,1,1,454.3168,519.7748
1,7,16,1,1,2,C,G,g,r,5,15,17001,1,1,324.9275,514.0496
1,7,16,1,1,2,C,G,g,r,5,15,18001,1,1,263.0954,313.6679
1,7,16,1,1,2,C,G,g,r,5,15,18001,1,1,255.0802,266.7214
1,7,16,1,1,2,C,G,g,r,5,15,19001,1,1,566.5305,191.1489
1,7,16,1,1,2,C,G,g,r,5,15,19001,1,1,471.4924,73.2099
1,7,16,1,1,2,C,G,g,r,5,15,20001,1,1,433.7061,160.2328
1,7,16,1,1,2,C,G,g,r,5,15,20001,1,1,294.0115,44.584
1,7,16,1,1,2,C,G,g,r,5,15,22001,1,1,510.4237,207.1794
1,7,16,1,1,2,C,G,g,r,5,15,23001,1,1,391.3397,38.8588
1,7,16,1,1,2,C,G,g,r,5,15,26001,1,1,219.584,511.7595
1,7,16,1,1,2,C,G,g,r,5,15,27001,1,1,429.126,69.7748
1,7,16,1,1,2,C,G,g,r,5,15,28001,1,1,426.8359,67.4847
1,7,16,1,1,2,C,G,g,r,5,15,29001,1,1,248.2099,57.1794
1,7,16,1,1,2,C,G,g,r,5,15,30001,1,1,245.9198,56.0344
1,7,16,1,1,2,C,G,g,r,5,15,31001,1,1,403.9351,58.3244
1,7,16,1,1,2,C,G,g,r,5,15,32001,1,1,462.3321,57.1794
1,7,16,1,1,2,C,G,g,r,5,15,33001,1,1,272.2557,30.8435
1,7,16,1,1,2,C,G,g,r,5,15,34001,1,1,629.5076,291.9122
1,7,16,1,1,2,C,G,g,r,5,15,35001,1,1,511.5687,68.6298
1,7,16,1,1,2,C,G,g,r,5,15,36001,1,1,502.4084,66.3397
1,7,16,1,1,2,C,G,g,r,5,15,37001,1,1,504.6985,76.645
1,7,16,1,1,2,C,G,g,r,5,15,37001,1,1,210.4237,83.5153
1,7,16,1,1,2,C,G,g,r,5,15,38001,1,1,153.1718,333.1336
1,7,16,1,1,2,C,G,g,r,5,15,39001,1,1,338.6679,33.1336
1,7,16,1,1,2,C,G,g,r,5,15,40001,1,1,337.5229,550.6908
1,7,16,1,1,2,C,G,g,r,5,15,41001,1,1,129.126,285.042
1,7,16,1,1,2,C,G,g,r,5,15,44001,1,1,584.8511,224.355
1,7,16,1,1,2,C,G,g,r,5,15,45001,1,1,488.6679,90.3855
1,7,16,1,1,2,C,G,g,r,5,15,46001,1,1,226.4542,390.3855
1,7,16,1,1,2,C,G,g,r,5,15,46001,1,1,202.4084,457.9427
1,7,16,1,1,2,C,G,g,r,5,15,47001,1,1,122.2557,366.3397
1,7,16,1,1,2,C,G,g,r,5,15,49001,1,1,515.0038,157.9427
1,7,16,1,1,2,C,G,g,r,5,15,49001,1,3,478.3626,149.9275
1,7,16,1,1,2,C,G,g,r,5,15,50001,1,1,533.3244,173.9733
1,7,16,1,1,2,C,G,g,r,5,15,50001,1,3,492.1031,207.1794
1,7,16,1,1,2,C,G,g,r,5,15,51001,1,1,401.645,91.5305
1,7,16,1,1,2,C,G,g,r,5,15,51001,1,1,485.2328,510.6145
1,7,16,1,1,2,C,G,g,r,5,15,53001,1,1,550.5,120.1565
1,7,16,1,1,2,C,G,g,r,5,15,54001,1,1,503.5534,77.7901
1,7,16,1,1,2,C,G,g,r,5,15,55001,1,1,425.6908,46.874
1,7,16,1,1,2,C,G,g,r,5,15,55001,1,1,482.9427,69.7748
1,7,16,1,1,2,C,G,g,r,5,15,57001,1,1,614.6221,215.1947
1,7,16,1,1,2,C,G,g,r,5,15,58001,1,1,486.3779,114.4313
1,7,16,1,1,2,C,G,g,r,5,15,59001,1,1,486.3779,76.645
1,7,16,1,1,2,C,G,g,r,5,15,60001,1,1,526.4542,251.8359
1,7,16,1,1,2,C,G,g,r,5,15,61001,1,2,121.1107,287.3321
1,7,16,1,1,2,C,G,g,r,5,15,62001,1,1,547.0649,406.416
1,7,16,1,1,2,C,G,g,r,5,15,62001,1,3,512.7137,364.0496
1,7,16,1,1,2,C,G,g,r,5,15,63001,1,3,639.813,265.5763
1,7,16,1,1,2,C,G,g,r,5,15,63001,1,1,589.4313,275.8817
1,7,16,1,1,2,C,G,g,r,5,15,64001,1,3,480.6527,62.9046
1,7,16,1,1,2,C,G,g,r,5,15,64001,1,2,510.4237,66.3397
1,7,16,1,1,2,C,G,g,r,5,15,65001,1,1,605.4618,180.8435
1,7,16,1,1,2,C,G,g,r,5,15,66001,1,1,145.1565,138.4771
1,7,16,1,1,2,C,G,g,r,5,15,67001,1,2,296.3015,28.5534
1,7,16,1,1,2,C,G,g,r,5,15,68001,1,1,487.5229,517.4847
1,7,16,1,1,2,C,G,g,r,5,15,69001,1,1,313.4771,354.8893
1,7,16,1,1,2,C,G,g,r,5,15,69001,1,1,304.3168,463.6679
1,7,16,1,1,2,C,G,g,r,5,15,69001,1,1,569.9656,183.1336
1,7,16,1,1,2,C,G,g,r,5,15,70001,1,1,448.5916,506.0344
1,7,16,1,1,2,C,G,g,r,5,15,70001,1,1,635.2328,329.6985
1,7,16,1,1,2,C,G,g,r,5,15,71001,1,1,362.7137,137.3321
1,7,16,1,1,2,C,G,g,r,5,15,71001,1,1,366.1489,43.4389
1,7,16,1,1,2,C,G,g,r,5,15,71001,1,1,510.4237,98.4008
1,7,16,1,1,2,C,G,g,r,5,15,72001,1,1,381.0344,94.9656
1,7,16,1,1,2,C,G,g,r,5,15,73001,1,1,144.0115,136.187
1,7,16,1,1,2,C,G,g,r,5,15,73001,1,1,365.0038,22.8282
1,7,16,1,1,2,C,G,g,r,5,15,74001,1,1,334.0878,552.9809
1,7,16,1,1,2,C,G,g,r,5,15,75001,1,1,313.4771,290.7672
1,7,16,1,1,2,C,G,g,r,5,15,76001,1,1,336.3779,188.8588
1,7,16,1,1,2,C,G,g,r,5,15,76001,1,1,316.9122,35.4237
1,7,16,1,1,2,C,G,g,r,5,15,76001,1,1,611.187,315.958
1,7,16,1,1,2,C,G,g,r,5,15,77001,1,1,493.2481,107.5611
1,7,16,1,1,2,C,G,g,r,5,15,77001,1,1,463.4771,27.4084
1,7,16,1,1,2,C,G,g,r,5,15,77001,1,1,169.2023,310.2328
1,7,16,1,1,2,C,G,g,r,5,15,78001,1,1,336.3779,438.4771
1,7,16,1,1,2,C,G,g,r,5,15,78001,1,1,373.0191,477.4084
1,7,16,1,1,2,C,G,g,r,5,15,79001,1,1,411.9504,320.5382
1,7,16,1,1,2,C,G,g,r,5,15,79001,1,1,469.2023,404.126
1,7,16,1,1,2,C,G,g,r,5,15,80001,1,1,465.7672,194.584
1,7,16,1,1,2,C,G,g,r,5,15,80001,1,1,606.6069,257.5611
1,7,16,1,1,2,C,G,g,r,5,15,81001,1,1,370.729,76.645
1,7,16,1,1,2,C,G,g,r,5,15,81001,1,1,544.7748,322.8282
1,7,16,1,1,2,C,G,g,r,5,15,82001,1,1,376.4542,361.7595
1,7,16,1,1,2,C,G,g,r,5,15,82001,1,1,354.6985,410.9962
1,7,16,1,1,2,C,G,g,r,5,15,83001,1,1,294.0115,168.2481
1,7,16,1,1,2,C,G,g,r,5,15,83001,1,1,529.8893,125.8817
1,7,16,1,1,2,C,G,g,r,5,15,84001,1,1,432.5611,46.874
1,7,16,1,1,2,C,G,g,r,5,15,84001,1,1,408.5153,203.7443
1,7,16,1,1,2,C,G,g,r,5,15,84001,1,1,560.8053,340.0038
1,7,16,1,1,2,C,G,g,r,5,15,85001,1,1,516.1489,389.2405
1,7,16,1,1,2,C,G,g,r,5,15,86001,1,1,259.6603,122.4466
1,7,16,1,1,2,C,G,g,r,5,15,86001,1,1,585.9962,430.4618
1,7,16,1,1,2,C,G,g,r,5,15,87001,1,1,411.9504,361.7595
1,7,16,1,1,2,C,G,g,r,5,15,87001,1,1,463.4771,455.6527
1,7,16,1,1,2,C,G,g,r,5,15,87001,1,1,551.645,429.3168
1,7,16,1,1,2,C,G,g,r,5,15,87001,1,1,547.0649,383.5153
1,7,16,1,1,2,C,G,g,r,5,15,87001,1,1,584.8511,385.8053
1,7,16,1,1,2,C,G,g,r,5,15,88001,1,1,269.9656,108.7061
1,7,16,1,1,2,C,G,g,r,5,15,88001,1,1,498.9733,160.2328
1,7,16,1,1,2,C,G,g,r,5,15,88001,1,1,501.2634,109.8511
1,7,16,1,1,2,C,G,g,r,5,15,89001,1,1,550.5,271.3015
1,7,16,1,1,2,C,G,g,r,5,15,89001,1,1,577.9809,350.3092
1,7,16,1,1,2,C,G,g,r,5,15,90001,1,1,549.355,114.4313
1,7,16,1,1,2,C,G,g,r,5,15,91001,1,1,581.416,296.4924
1,7,16,1,1,2,C,G,g,r,5,15,91001,1,1,100.5,320.5382
1,7,16,1,1,2,C,G,g,r,5,15,92001,1,1,403.9351,240.3855
1,7,16,1,1,2,C,G,g,r,5,15,92001,1,1,433.7061,297.6374
1,7,16,1,1,2,C,G,g,r,5,15,93001,1,1,472.6374,82.3702
1,7,16,1,1,2,C,G,g,r,5,15,94001,1,1,208.1336,143.0573
1,7,16,1,1,2,C,G,g,r,5,15,94001,1,1,304.3168,94.9656
1,7,16,1,1,2,C,G,g,r,5,15,96001,1,1,457.7519,90.3855
1,7,16,1,1,2,C,G,g,r,5,15,97001,1,1,203.5534,215.1947
1,7,16,1,1,2,C,G,g,r,5,15,98001,1,1,268.8206,88.0954
1,7,16,1,1,2,C,G,g,r,5,15,99001,1,1,527.5992,93.8206
1,7,16,1,1,2,C,G,g,r,5,15,100001,1,1,553.9351,446.4924
1,7,16,1,1,2,C,G,g,r,5,15,101001,1,2,470.3473,37.7137
1,7,16,1,1,2,C,G,g,r,5,15,102001,1,1,577.9809,181.9885
1,7,16,1,1,2,C,G,g,r,5,15,103001,1,1,610.042,168.2481
1,7,16,1,1,2,C,G,g,r,5,15,105001,1,1,189.813,172.8282
1,7,16,1,1,2,C,G,g,r,5,15,106001,1,1,424.5458,60.6145
1,7,16,1,1,2,C,G,g,r,5,15,107001,1,1,368.4389,81.2252
