dummy,month,day,period,view,station,fgeno,mgeno,fcol,mcol,nf,nm,frame,something,sex,x,y
1,7,16,1,2,2,C,G,g,r,5,15,1,1,3,327.5428,102.6401
1,7,16,1,2,2,C,G,g,r,5,15,1,1,1,537.6595,393.3016
1,7,16,1,2,2,C,G,g,r,5,15,1001,1,3,335.714,263.7296
1,7,16,1,2,2,C,G,g,r,5,15,1001,1,1,271.5117,315.0914
1,7,16,1,2,2,C,G,g,r,5,15,2001,1,3,338.0486,454.0019
1,7,16,1,2,2,C,G,g,r,5,15,2001,1,1,458.2821,445.8307
1,7,16,1,2,2,C,G,g,r,5,15,3001,1,3,462.9514,366.4533
1,7,16,1,2,2,C,G,g,r,5,15,3001,1,1,426.7646,261.3949
1,7,16,1,2,2,C,G,g,r,5,15,4001,1,3,530.6556,375.7918
1,7,16,1,2,2,C,G,g,r,5,15,4001,1,3,453.6128,387.465
1,7,16,1,2,2,C,G,g,r,5,15,4001,1,1,262.1732,249.7218
1,7,16,1,2,2,C,G,g,r,5,15,5001,1,3,515.4805,219.3716
1,7,16,1,2,2,C,G,g,r,5,15,5001,1,3,534.1576,392.1342
1,7,16,1,2,2,C,G,g,r,5,15,5001,1,1,541.1615,344.2743
1,7,16,1,2,2,C,G,g,r,5,15,6001,1,3,561.0058,152.8346
1,7,16,1,2,2,C,G,g,r,5,15,6001,1,1,289.0214,88.6323
1,7,16,1,2,2,C,G,g,r,5,15,6001,1,3,429.0992,429.4883
1,7,16,1,2,2,C,G,g,r,5,15,7001,1,1,403.4183,172.679
1,7,16,1,2,2,C,G,g,r,5,15,7001,1,3,272.679,364.1187
1,7,16,1,2,2,C,G,g,r,5,15,7001,1,3,453.6128,411.9786
1,7,16,1,2,2,C,G,g,r,5,15,8001,1,1,324.0409,253.2237
1,7,16,1,2,2,C,G,g,r,5,15,8001,1,3,272.679,278.9047
1,7,16,1,2,2,C,G,g,r,5,15,8001,1,3,401.0837,507.6984
1,7,16,1,2,2,C,G,g,r,5,15,9001,1,3,347.3872,217.037
1,7,16,1,2,2,C,G,g,r,5,15,10001,1,3,572.679,254.3911
1,7,16,1,2,2,C,G,g,r,5,15,10001,1,3,476.9591,86.2977
1,7,16,1,2,2,C,G,g,r,5,15,11001,1,3,527.1537,159.8385
1,7,16,1,2,2,C,G,g,r,5,15,11001,1,1,406.9202,101.4728
1,7,16,1,2,2,C,G,g,r,5,15,11001,1,3,362.5623,541.5506
1,7,16,1,2,2,C,G,g,r,5,15,12001,1,3,667.2315,213.535
1,7,16,1,2,2,C,G,g,r,5,15,12001,1,3,420.928,86.2977
1,7,16,1,2,2,C,G,g,r,5,15,12001,1,1,284.3521,228.7101
1,7,16,1,2,2,C,G,g,r,5,15,13001,1,3,482.7957,114.3132
1,7,16,1,2,2,C,G,g,r,5,15,13001,1,3,557.5039,267.2315
1,7,16,1,2,2,C,G,g,r,5,15,13001,1,1,546.9981,459.8385
1,7,16,1,2,2,C,G,g,r,5,15,14001,1,1,317.037,102.6401
1,7,16,1,2,2,C,G,g,r,5,15,14001,1,3,577.3482,468.0097
1,7,16,1,2,2,C,G,g,r,5,15,15001,1,1,304.1965,96.8035
1,7,16,1,2,2,C,G,g,r,5,15,15001,1,3,628.7101,306.9202
1,7,16,1,2,2,C,G,g,r,5,15,16001,1,1,618.2043,205.3638
1,7,16,1,2,2,C,G,g,r,5,15,16001,1,3,626.3755,169.177
1,7,16,1,2,2,C,G,g,r,5,15,17001,1,3,550.5,99.1381
1,7,16,1,2,2,C,G,g,r,5,15,17001,1,1,654.3911,154.0019
1,7,16,1,2,2,C,G,g,r,5,15,18001,1,3,391.7451,235.714
1,7,16,1,2,2,C,G,g,r,5,15,19001,1,1,548.1654,316.2588
1,7,16,1,2,2,C,G,g,r,5,15,19001,1,3,318.2043,287.0759
1,7,16,1,2,2,C,G,g,r,5,15,20001,1,2,687.0759,270.7335
1,7,16,1,2,2,C,G,g,r,5,15,20001,1,3,395.2471,471.5117
1,7,16,1,2,2,C,G,g,r,5,15,21001,1,1,573.8463,416.6479
1,7,16,1,2,2,C,G,g,r,5,15,21001,1,3,434.9358,534.5467
1,7,16,1,2,2,C,G,g,r,5,15,21001,1,1,363.7296,527.5428
1,7,16,1,2,2,C,G,g,r,5,15,22001,1,3,227.1537,190.1887
1,7,16,1,2,2,C,G,g,r,5,15,22001,1,1,504.9747,413.1459
1,7,16,1,2,2,C,G,g,r,5,15,22001,1,2,680.072,219.3716
1,7,16,1,2,2,C,G,g,r,5,15,23001,1,3,380.072,89.7996
1,7,16,1,2,2,C,G,g,r,5,15,23001,1,1,364.8969,144.6634
1,7,16,1,2,2,C,G,g,r,5,15,23001,1,1,487.465,400.3054
1,7,16,1,2,2,C,G,g,r,5,15,24001,1,3,436.1031,131.823
1,7,16,1,2,2,C,G,g,r,5,15,24001,1,1,634.5467,143.4961
1,7,16,1,2,2,C,G,g,r,5,15,25001,1,3,460.6167,194.858
1,7,16,1,2,2,C,G,g,r,5,15,25001,1,1,339.216,83.963
1,7,16,1,2,2,C,G,g,r,5,15,26001,1,3,481.6284,102.6401
1,7,16,1,2,2,C,G,g,r,5,15,26001,1,1,349.7218,121.3171
1,7,16,1,2,2,C,G,g,r,5,15,27001,1,3,590.1887,261.3949
1,7,16,1,2,2,C,G,g,r,5,15,27001,1,1,335.714,137.6595
1,7,16,1,2,2,C,G,g,r,5,15,28001,1,3,606.5311,372.2899
1,7,16,1,2,2,C,G,g,r,5,15,28001,1,1,666.0642,332.6012
1,7,16,1,2,2,C,G,g,r,5,15,28001,1,1,356.7257,577.7374
1,7,16,1,2,2,C,G,g,r,5,15,29001,1,3,489.7996,415.4805
1,7,16,1,2,2,C,G,g,r,5,15,30001,1,1,180.4611,214.7023
1,7,16,1,2,2,C,G,g,r,5,15,30001,1,3,458.2821,508.8658
1,7,16,1,2,2,C,G,g,r,5,15,31001,1,1,529.4883,395.6362
1,7,16,1,2,2,C,G,g,r,5,15,31001,1,3,611.2004,347.7763
1,7,16,1,2,2,C,G,g,r,5,15,32001,1,3,599.5272,403.8074
1,7,16,1,2,2,C,G,g,r,5,15,33001,1,3,632.2121,471.5117
1,7,16,1,2,2,C,G,g,r,5,15,33001,1,1,495.6362,493.6907
1,7,16,1,2,2,C,G,g,r,5,15,34001,1,3,510.8113,399.1381
1,7,16,1,2,2,C,G,g,r,5,15,34001,1,3,301.8619,518.2043
1,7,16,1,2,2,C,G,g,r,5,15,34001,1,1,329.8774,486.6868
1,7,16,1,2,2,C,G,g,r,5,15,35001,1,3,502.6401,304.5856
1,7,16,1,2,2,C,G,g,r,5,15,36001,1,3,577.3482,76.9591
1,7,16,1,2,2,C,G,g,r,5,15,36001,1,1,662.5623,425.9864
1,7,16,1,2,2,C,G,g,r,5,15,36001,1,2,582.0175,457.5039
1,7,16,1,2,2,C,G,g,r,5,15,37001,1,1,266.8424,129.4883
1,7,16,1,2,2,C,G,g,r,5,15,38001,1,1,213.1459,219.3716
1,7,16,1,2,2,C,G,g,r,5,15,39001,1,2,445.4416,11.5895
1,7,16,1,2,2,C,G,g,r,5,15,44001,1,1,390.5778,359.4494
1,7,16,1,2,2,C,G,g,r,5,15,45001,1,1,604.1965,476.1809
1,7,16,1,2,2,C,G,g,r,5,15,46001,1,1,556.3366,294.0798
1,7,16,1,2,2,C,G,g,r,5,15,47001,1,1,617.037,443.4961
1,7,16,1,2,2,C,G,g,r,5,15,48001,1,1,306.5311,196.0253
1,7,16,1,2,2,C,G,g,r,5,15,48001,1,1,300.6946,234.5467
1,7,16,1,2,2,C,G,g,r,5,15,48001,1,1,242.3288,239.216
1,7,16,1,2,2,C,G,g,r,5,15,49001,1,1,290.1887,157.5039
1,7,16,1,2,2,C,G,g,r,5,15,49001,1,1,356.7257,234.5467
1,7,16,1,2,2,C,G,g,r,5,15,50001,1,1,444.2743,90.9669
1,7,16,1,2,2,C,G,g,r,5,15,50001,1,1,554.0019,205.3638
1,7,16,1,2,2,C,G,g,r,5,15,51001,1,1,236.4922,177.3482
1,7,16,1,2,2,C,G,g,r,5,15,51001,1,1,296.0253,226.3755
1,7,16,1,2,2,C,G,g,r,5,15,52001,1,1,266.8424,197.1926
1,7,16,1,2,2,C,G,g,r,5,15,52001,1,1,371.9008,222.8735
1,7,16,1,2,2,C,G,g,r,5,15,52001,1,1,371.9008,165.6751
1,7,16,1,2,2,C,G,g,r,5,15,53001,1,1,466.4533,282.4066
1,7,16,1,2,2,C,G,g,r,5,15,53001,1,1,537.6595,249.7218
1,7,16,1,2,2,C,G,g,r,5,15,53001,1,1,605.3638,515.8696
1,7,16,1,2,2,C,G,g,r,5,15,59001,1,1,601.8619,374.6245
1,7,16,1,2,2,C,G,g,r,5,15,60001,1,1,605.3638,458.6712
1,7,16,1,2,2,C,G,g,r,5,15,61001,1,1,591.356,388.6323
1,7,16,1,2,2,C,G,g,r,5,15,62001,1,1,468.7879,232.2121
1,7,16,1,2,2,C,G,g,r,5,15,63001,1,1,639.216,318.5934
1,7,16,1,2,2,C,G,g,r,5,15,63001,1,3,382.4066,479.6829
1,7,16,1,2,2,C,G,g,r,5,15,64001,1,1,412.7568,228.7101
1,7,16,1,2,2,C,G,g,r,5,15,64001,1,3,396.4144,297.5817
1,7,16,1,2,2,C,G,g,r,5,15,65001,1,1,587.8541,192.5233
1,7,16,1,2,2,C,G,g,r,5,15,65001,1,3,596.0253,266.0642
1,7,16,1,2,2,C,G,g,r,5,15,66001,1,1,318.2043,82.7957
1,7,16,1,2,2,C,G,g,r,5,15,66001,1,3,369.5661,221.7062
1,7,16,1,2,2,C,G,g,r,5,15,67001,1,3,252.8346,208.8658
1,7,16,1,2,2,C,G,g,r,5,15,67001,1,1,671.9008,189.0214
1,7,16,1,2,2,C,G,g,r,5,15,68001,1,1,439.6051,290.5778
1,7,16,1,2,2,C,G,g,r,5,15,68001,1,3,405.7529,364.1187
1,7,16,1,2,2,C,G,g,r,5,15,69001,1,1,366.0642,101.4728
1,7,16,1,2,2,C,G,g,r,5,15,69001,1,3,356.7257,496.0253
1,7,16,1,2,2,C,G,g,r,5,15,70001,1,3,485.1304,512.3677
1,7,16,1,2,2,C,G,g,r,5,15,71001,1,1,244.6634,141.1615
1,7,16,1,2,2,C,G,g,r,5,15,71001,1,3,606.5311,421.3171
1,7,16,1,2,2,C,G,g,r,5,15,71001,1,2,697.5817,253.2237
1,7,16,1,2,2,C,G,g,r,5,15,72001,1,3,608.8658,137.6595
1,7,16,1,2,2,C,G,g,r,5,15,73001,1,3,438.4377,125.9864
1,7,16,1,2,2,C,G,g,r,5,15,73001,1,1,523.6518,83.963
1,7,16,1,2,2,C,G,g,r,5,15,74001,1,3,294.858,205.3638
1,7,16,1,2,2,C,G,g,r,5,15,74001,1,3,542.3288,505.3638
1,7,16,1,2,2,C,G,g,r,5,15,74001,1,2,492.1342,489.0214
1,7,16,1,2,2,C,G,g,r,5,15,75001,1,3,308.8658,274.2354
1,7,16,1,2,2,C,G,g,r,5,15,75001,1,1,564.5078,274.2354
1,7,16,1,2,2,C,G,g,r,5,15,76001,1,3,395.2471,443.4961
1,7,16,1,2,2,C,G,g,r,5,15,76001,1,1,254.0019,500.6946
1,7,16,1,2,2,C,G,g,r,5,15,76001,1,1,471.1226,20.928
1,7,16,1,2,2,C,G,g,r,5,15,77001,1,1,341.5506,131.823
1,7,16,1,2,2,C,G,g,r,5,15,77001,1,1,664.8969,407.3093
1,7,16,1,2,2,C,G,g,r,5,15,77001,1,3,509.644,444.6634
1,7,16,1,2,2,C,G,g,r,5,15,78001,1,1,167.6206,310.4222
1,7,16,1,2,2,C,G,g,r,5,15,78001,1,3,464.1187,484.3521
1,7,16,1,2,2,C,G,g,r,5,15,79001,1,3,565.6751,532.2121
1,7,16,1,2,2,C,G,g,r,5,15,80001,1,3,604.1965,439.9942
1,7,16,1,2,2,C,G,g,r,5,15,80001,1,1,343.8852,344.2743
1,7,16,1,2,2,C,G,g,r,5,15,80001,1,1,380.072,354.7802
1,7,16,1,2,2,C,G,g,r,5,15,81001,1,1,532.9903,510.0331
1,7,16,1,2,2,C,G,g,r,5,15,81001,1,1,571.5117,473.8463
1,7,16,1,2,2,C,G,g,r,5,15,81001,1,3,659.0603,421.3171
1,7,16,1,2,2,C,G,g,r,5,15,82001,1,1,364.8969,524.0409
1,7,16,1,2,2,C,G,g,r,5,15,82001,1,3,634.5467,291.7451
1,7,16,1,2,2,C,G,g,r,5,15,82001,1,1,667.2315,261.3949
1,7,16,1,2,2,C,G,g,r,5,15,83001,1,1,406.9202,534.5467
1,7,16,1,2,2,C,G,g,r,5,15,83001,1,3,575.0136,149.3327
1,7,16,1,2,2,C,G,g,r,5,15,84001,1,3,401.0837,166.8424
1,7,16,1,2,2,C,G,g,r,5,15,84001,1,1,444.2743,448.1654
1,7,16,1,2,2,C,G,g,r,5,15,85001,1,3,325.2082,142.3288
1,7,16,1,2,2,C,G,g,r,5,15,85001,1,1,164.1187,245.0525
1,7,16,1,2,2,C,G,g,r,5,15,86001,1,3,382.4066,80.4611
1,7,16,1,2,2,C,G,g,r,5,15,86001,1,1,683.5739,247.3872
1,7,16,1,2,2,C,G,g,r,5,15,87001,1,3,483.963,236.8813
1,7,16,1,2,2,C,G,g,r,5,15,87001,1,1,627.5428,475.0136
1,7,16,1,2,2,C,G,g,r,5,15,88001,1,1,471.1226,54.7802
1,7,16,1,2,2,C,G,g,r,5,15,88001,1,3,537.6595,305.7529
1,7,16,1,2,2,C,G,g,r,5,15,89001,1,1,225.9864,197.1926
1,7,16,1,2,2,C,G,g,r,5,15,89001,1,3,431.4339,320.928
1,7,16,1,2,2,C,G,g,r,5,15,90001,1,3,343.8852,294.0798
1,7,16,1,2,2,C,G,g,r,5,15,90001,1,1,287.8541,473.8463
1,7,16,1,2,2,C,G,g,r,5,15,91001,1,3,431.4339,171.5117
1,7,16,1,2,2,C,G,g,r,5,15,91001,1,1,390.5778,301.0837
1,7,16,1,2,2,C,G,g,r,5,15,92001,1,3,614.7023,150.5
1,7,16,1,2,2,C,G,g,r,5,15,92001,1,1,511.9786,249.7218
1,7,16,1,2,2,C,G,g,r,5,15,93001,1,3,504.9747,109.644
1,7,16,1,2,2,C,G,g,r,5,15,93001,1,1,650.8891,362.9514
1,7,16,1,2,2,C,G,g,r,5,15,94001,1,3,346.2198,141.1615
1,7,16,1,2,2,C,G,g,r,5,15,94001,1,1,530.6556,45.4416
1,7,16,1,2,2,C,G,g,r,5,15,95001,1,3,329.8774,271.9008
1,7,16,1,2,2,C,G,g,r,5,15,95001,1,1,607.6984,472.679
1,7,16,1,2,2,C,G,g,r,5,15,96001,1,3,269.177,378.1265
1,7,16,1,2,2,C,G,g,r,5,15,96001,1,1,334.5467,68.7879
1,7,16,1,2,2,C,G,g,r,5,15,97001,1,3,384.7412,298.749
1,7,16,1,2,2,C,G,g,r,5,15,97001,1,1,482.7957,329.0992
1,7,16,1,2,2,C,G,g,r,5,15,98001,1,1,675.4027,347.7763
1,7,16,1,2,2,C,G,g,r,5,15,99001,1,1,368.3988,204.1965
1,7,16,1,2,2,C,G,g,r,5,15,99001,1,3,343.8852,271.9008
1,7,16,1,2,2,C,G,g,r,5,15,100001,1,1,558.6712,296.4144
1,7,16,1,2,2,C,G,g,r,5,15,100001,1,3,488.6323,312.7568
1,7,16,1,2,2,C,G,g,r,5,15,101001,1,1,506.142,375.7918
1,7,16,1,2,2,C,G,g,r,5,15,101001,1,3,582.0175,431.823
1,7,16,1,2,2,C,G,g,r,5,15,102001,1,1,614.7023,461.0058
1,7,16,1,2,2,C,G,g,r,5,15,102001,1,3,640.3833,421.3171
1,7,16,1,2,2,C,G,g,r,5,15,103001,1,1,235.3249,143.4961
1,7,16,1,2,2,C,G,g,r,5,15,103001,1,3,663.7296,388.6323
1,7,16,1,2,2,C,G,g,r,5,15,104001,1,1,453.6128,496.0253
1,7,16,1,2,2,C,G,g,r,5,15,104001,1,3,626.3755,247.3872
1,7,16,1,2,2,C,G,g,r,5,15,105001,1,1,578.5156,344.2743
1,7,16,1,2,2,C,G,g,r,5,15,105001,1,3,478.1265,176.1809
1,7,16,1,2,2,C,G,g,r,5,15,106001,1,3,443.107,79.2938
1,7,16,1,2,2,C,G,g,r,5,15,106001,1,3,568.0097,80.4611
1,7,16,1,2,2,C,G,g,r,5,15,106001,1,2,583.1848,71.1226
1,7,16,1,2,2,C,G,g,r,5,15,107001,1,3,322.8735,213.535
1,7,16,1,2,2,C,G,g,r,5,15,107001,1,3,398.749,493.6907
1,7,16,1,2,2,C,G,g,r,5,15,107001,1,1,412.7568,456.3366
