dummy,month,day,period,view,station,fgeno,mgeno,fcol,mcol,nf,nm,frame,something,sex,x,y
1,7,10,3,1,3,C,E,b,y,5,15,1,1,3,229,301
1,7,10,3,1,3,C,E,b,y,5,15,1001,1,3,228,299
1,7,10,3,1,3,C,E,b,y,5,15,2001,1,3,630,295
1,7,10,3,1,3,C,E,b,y,5,15,3001,1,3,578,371
1,7,10,3,1,3,C,E,b,y,5,15,3001,1,3,635,426
1,7,10,3,1,3,C,E,b,y,5,15,4001,1,3,287,253
1,7,10,3,1,3,C,E,b,y,5,15,4001,1,3,407,521
1,7,10,3,1,3,C,E,b,y,5,15,5001,1,3,148,269
1,7,10,3,1,3,C,E,b,y,5,15,5001,1,3,614,388
1,7,10,3,1,3,C,E,b,y,5,15,6001,1,3,388,538
1,7,10,3,1,3,C,E,b,y,5,15,6001,1,3,516,348
1,7,10,3,1,3,C,E,b,y,5,15,7001,1,3,536,281
1,7,10,3,1,3,C,E,b,y,5,15,8001,1,3,377,216
1,7,10,3,1,3,C,E,b,y,5,15,8001,1,3,532,277
1,7,10,3,1,3,C,E,b,y,5,15,9001,1,3,539,286
1,7,10,3,1,3,C,E,b,y,5,15,10001,1,3,532,285
1,7,10,3,1,3,C,E,b,y,5,15,11001,1,3,535,279
1,7,10,3,1,3,C,E,b,y,5,15,12001,1,3,221,453
1,7,10,3,1,3,C,E,b,y,5,15,12001,1,3,171,389
1,7,10,3,1,3,C,E,b,y,5,15,12001,1,3,517,162
1,7,10,3,1,3,C,E,b,y,5,15,13001,1,3,225,419
1,7,10,3,1,3,C,E,b,y,5,15,13001,1,3,599,265
1,7,10,3,1,3,C,E,b,y,5,15,15001,1,3,455,365
1,7,10,3,1,3,C,E,b,y,5,15,16001,1,3,443,149
1,7,10,3,1,3,C,E,b,y,5,15,17001,1,3,447,152
1,7,10,3,1,3,C,E,b,y,5,15,18001,1,3,442,158
1,7,10,3,1,3,C,E,b,y,5,15,19001,1,3,438,158
1,7,10,3,1,3,C,E,b,y,5,15,20001,1,3,403,111
1,7,10,3,1,3,C,E,b,y,5,15,20001,1,3,386,49
1,7,10,3,1,3,C,E,b,y,5,15,21001,1,3,288,434
1,7,10,3,1,3,C,E,b,y,5,15,21001,1,3,486,542
1,7,10,3,1,3,C,E,b,y,5,15,22001,1,3,521,167
1,7,10,3,1,3,C,E,b,y,5,15,23001,1,3,137,176
1,7,10,3,1,3,C,E,b,y,5,15,23001,1,3,122,137
1,7,10,3,1,3,C,E,b,y,5,15,24001,1,3,491,488
1,7,10,3,1,3,C,E,b,y,5,15,24001,1,3,399,67
1,7,10,3,1,3,C,E,b,y,5,15,25001,1,3,334,403
1,7,10,3,1,3,C,E,b,y,5,15,25001,1,3,440,464
1,7,10,3,1,3,C,E,b,y,5,15,26001,1,3,279,100
1,7,10,3,1,3,C,E,b,y,5,15,27001,1,3,541,197
1,7,10,3,1,3,C,E,b,y,5,15,28001,1,3,532,168
1,7,10,3,1,3,C,E,b,y,5,15,29001,1,3,567,87
1,7,10,3,1,3,C,E,b,y,5,15,30001,1,3,557,155
1,7,10,3,1,3,C,E,b,y,5,15,31001,1,3,560,154
1,7,10,3,1,3,C,E,b,y,5,15,32001,1,3,561,158
1,7,10,3,1,3,C,E,b,y,5,15,33001,1,3,614,352
1,7,10,3,1,3,C,E,b,y,5,15,34001,1,3,426,331
1,7,10,3,1,3,C,E,b,y,5,15,35001,1,3,428,429
1,7,10,3,1,3,C,E,b,y,5,15,36001,1,3,122,331
1,7,10,3,1,3,C,E,b,y,5,15,37001,1,3,554,372
1,7,10,3,1,3,C,E,b,y,5,15,38001,1,3,181,291
1,7,10,3,1,3,C,E,b,y,5,15,39001,1,3,536,257
1,7,10,3,1,3,C,E,b,y,5,15,40001,1,3,270,143
1,7,10,3,1,3,C,E,b,y,5,15,41001,1,3,280,152
1,7,10,3,1,3,C,E,b,y,5,15,42001,1,3,404,129
1,7,10,3,1,3,C,E,b,y,5,15,42001,1,1,632,359
1,7,10,3,1,3,C,E,b,y,5,15,43001,1,1,270,424
1,7,10,3,1,3,C,E,b,y,5,15,43001,1,3,274,461
1,7,10,3,1,3,C,E,b,y,5,15,44001,1,3,287,424
1,7,10,3,1,3,C,E,b,y,5,15,45001,1,3,504,139
1,7,10,3,1,3,C,E,b,y,5,15,46001,1,3,181,251
1,7,10,3,1,3,C,E,b,y,5,15,47001,1,3,571,463
1,7,10,3,1,3,C,E,b,y,5,15,48001,1,3,427,520
1,7,10,3,1,3,C,E,b,y,5,15,49001,1,3,441,258
1,7,10,3,1,3,C,E,b,y,5,15,50001,1,3,442,252
1,7,10,3,1,3,C,E,b,y,5,15,51001,1,3,400,141
1,7,10,3,1,3,C,E,b,y,5,15,52001,1,3,397,158
1,7,10,3,1,3,C,E,b,y,5,15,53001,1,3,314,50
1,7,10,3,1,3,C,E,b,y,5,15,54001,1,3,403,85
1,7,10,3,1,3,C,E,b,y,5,15,55001,1,3,476,315
1,7,10,3,1,3,C,E,b,y,5,15,56001,1,3,408,443
1,7,10,3,1,3,C,E,b,y,5,15,57001,1,3,466,333
1,7,10,3,1,3,C,E,b,y,5,15,58001,1,3,477,340
1,7,10,3,1,3,C,E,b,y,5,15,59001,1,3,475,342
1,7,10,3,1,3,C,E,b,y,5,15,59001,1,3,378,356
1,7,10,3,1,3,C,E,b,y,5,15,60001,1,3,230,238
1,7,10,3,1,3,C,E,b,y,5,15,60001,1,3,168,216
1,7,10,3,1,3,C,E,b,y,5,15,62001,1,3,261,164
1,7,10,3,1,3,C,E,b,y,5,15,63001,1,3,277,166
1,7,10,3,1,3,C,E,b,y,5,15,64001,1,3,268,162
1,7,10,3,1,3,C,E,b,y,5,15,65001,1,3,294,146
1,7,10,3,1,3,C,E,b,y,5,15,66001,1,3,468,168
1,7,10,3,1,3,C,E,b,y,5,15,66001,1,3,528,153
1,7,10,3,1,3,C,E,b,y,5,15,67001,1,3,357,337
1,7,10,3,1,3,C,E,b,y,5,15,68001,1,3,514,174
1,7,10,3,1,3,C,E,b,y,5,15,69001,1,3,253,90
1,7,10,3,1,3,C,E,b,y,5,15,69001,1,3,381,20
1,7,10,3,1,3,C,E,b,y,5,15,70001,1,3,401,278
1,7,10,3,1,3,C,E,b,y,5,15,70001,1,3,475,524
1,7,10,3,1,3,C,E,b,y,5,15,71001,1,3,436,103
1,7,10,3,1,3,C,E,b,y,5,15,72001,1,3,276,242
1,7,10,3,1,3,C,E,b,y,5,15,73001,1,3,383,407
1,7,10,3,1,3,C,E,b,y,5,15,74001,1,3,489,453
1,7,10,3,1,3,C,E,b,y,5,15,74001,1,3,546,500
1,7,10,3,1,3,C,E,b,y,5,15,75001,1,3,521,231
1,7,10,3,1,3,C,E,b,y,5,15,76001,1,3,592,337
1,7,10,3,1,3,C,E,b,y,5,15,77001,1,3,531,176
1,7,10,3,1,3,C,E,b,y,5,15,78001,1,3,446,252
1,7,10,3,1,3,C,E,b,y,5,15,79001,1,3,452,249
1,7,10,3,1,3,C,E,b,y,5,15,79001,1,3,474,513
1,7,10,3,1,3,C,E,b,y,5,15,80001,1,3,439,251
1,7,10,3,1,3,C,E,b,y,5,15,80001,1,3,468,507
1,7,10,3,1,3,C,E,b,y,5,15,81001,1,3,349,289
1,7,10,3,1,3,C,E,b,y,5,15,81001,1,3,471,511
1,7,10,3,1,3,C,E,b,y,5,15,82001,1,3,417,231
1,7,10,3,1,3,C,E,b,y,5,15,82001,1,3,240,165
1,7,10,3,1,3,C,E,b,y,5,15,82001,1,3,325,80
1,7,10,3,1,3,C,E,b,y,5,15,83001,1,3,426,83
1,7,10,3,1,3,C,E,b,y,5,15,83001,1,3,280,467
1,7,10,3,1,3,C,E,b,y,5,15,84001,1,3,398,287
1,7,10,3,1,3,C,E,b,y,5,15,85001,1,3,524,416
1,7,10,3,1,3,C,E,b,y,5,15,86001,1,3,568,187
1,7,10,3,1,3,C,E,b,y,5,15,86001,1,3,183,273
1,7,10,3,1,3,C,E,b,y,5,15,87001,1,3,542,166
1,7,10,3,1,3,C,E,b,y,5,15,88001,1,3,312,435
1,7,10,3,1,3,C,E,b,y,5,15,89001,1,3,319,437
1,7,10,3,1,3,C,E,b,y,5,15,90001,1,3,322,382
1,7,10,3,1,3,C,E,b,y,5,15,91001,1,3,253,137
1,7,10,3,1,3,C,E,b,y,5,15,92001,1,3,250,145
1,7,10,3,1,3,C,E,b,y,5,15,93001,1,3,258,142
1,7,10,3,1,3,C,E,b,y,5,15,94001,1,3,381,197
1,7,10,3,1,3,C,E,b,y,5,15,95001,1,3,426,272
1,7,10,3,1,3,C,E,b,y,5,15,96001,1,3,461,380
1,7,10,3,1,3,C,E,b,y,5,15,97001,1,3,459,378
1,7,10,3,1,3,C,E,b,y,5,15,98001,1,3,488,205
1,7,10,3,1,3,C,E,b,y,5,15,99001,1,3,347,421
1,7,10,3,1,3,C,E,b,y,5,15,100001,1,3,506,305
1,7,10,3,1,3,C,E,b,y,5,15,101001,1,3,505,131
1,7,10,3,1,3,C,E,b,y,5,15,102001,1,3,277,95
1,7,10,3,1,3,C,E,b,y,5,15,103001,1,3,260,92
1,7,10,3,1,3,C,E,b,y,5,15,104001,1,3,266,90
1,7,10,3,1,3,C,E,b,y,5,15,105001,1,3,275,90
1,7,10,3,1,3,C,E,b,y,5,15,106001,1,3,277,99
1,7,10,3,1,3,C,E,b,y,5,15,106001,1,3,414,406
1,7,10,3,1,3,C,E,b,y,5,15,107001,1,3,419,392
1,7,10,3,1,3,C,E,b,y,5,15,107001,1,3,268,90
