dummy,month,day,period,view,station,fgeno,mgeno,fcol,mcol,nf,nm,frame,something,sex,x,y
1,7,14,1,1,1,C,G,g,r,15,5,9001,1,3,295,223
1,7,14,1,1,1,C,G,g,r,15,5,10001,1,3,481,42
1,7,14,1,1,1,C,G,g,r,15,5,10001,1,1,465,552
1,7,14,1,1,1,C,G,g,r,15,5,11001,1,1,619,173
1,7,14,1,1,1,C,G,g,r,15,5,11001,1,3,612,496
1,7,14,1,1,1,C,G,g,r,15,5,12001,1,1,640,61
1,7,14,1,1,1,C,G,g,r,15,5,13001,1,1,644,45
1,7,14,1,1,1,C,G,g,r,15,5,14001,1,1,688,372
1,7,14,1,1,1,C,G,g,r,15,5,15001,1,1,516,555
1,7,14,1,1,1,C,G,g,r,15,5,16001,1,1,266,219
1,7,14,1,1,1,C,G,g,r,15,5,17001,1,1,249,199
1,7,14,1,1,1,C,G,g,r,15,5,22001,1,3,577,557
1,7,14,1,1,1,C,G,g,r,15,5,27001,1,1,609,55
1,7,14,1,1,1,C,G,g,r,15,5,31001,1,1,633,83
1,7,14,1,1,1,C,G,g,r,15,5,33001,1,1,421,131
1,7,14,1,1,1,C,G,g,r,15,5,34001,1,1,406,130
1,7,14,1,1,1,C,G,g,r,15,5,35001,1,1,246,236
1,7,14,1,1,1,C,G,g,r,15,5,36001,1,1,665,74
1,7,14,1,1,1,C,G,g,r,15,5,37001,1,1,408,218
1,7,14,1,1,1,C,G,g,r,15,5,38001,1,1,530,60
1,7,14,1,1,1,C,G,g,r,15,5,39001,1,1,528,63
1,7,14,1,1,1,C,G,g,r,15,5,40001,1,1,634,33
1,7,14,1,1,1,C,G,g,r,15,5,41001,1,1,313,137
1,7,14,1,1,1,C,G,g,r,15,5,42001,1,1,282,196
1,7,14,1,1,1,C,G,g,r,15,5,43001,1,1,270,212
1,7,14,1,1,1,C,G,g,r,15,5,44001,1,1,256,280
1,7,14,1,1,1,C,G,g,r,15,5,45001,1,1,252,291
1,7,14,1,1,1,C,G,g,r,15,5,46001,1,1,257,289
1,7,14,1,1,1,C,G,g,r,15,5,47001,1,1,256,287
1,7,14,1,1,1,C,G,g,r,15,5,48001,1,1,260,288
1,7,14,1,1,1,C,G,g,r,15,5,49001,1,1,412,327
1,7,14,1,1,1,C,G,g,r,15,5,50001,1,1,648,135
1,7,14,1,1,1,C,G,g,r,15,5,51001,1,1,562,213
1,7,14,1,1,1,C,G,g,r,15,5,51001,1,1,487,131
1,7,14,1,1,1,C,G,g,r,15,5,52001,1,1,263,406
1,7,14,1,1,1,C,G,g,r,15,5,52001,1,1,697,491
1,7,14,1,1,1,C,G,g,r,15,5,53001,1,1,587,502
1,7,14,1,1,1,C,G,g,r,15,5,54001,1,1,700,468
1,7,14,1,1,1,C,G,g,r,15,5,55001,1,1,783,282
1,7,14,1,1,1,C,G,g,r,15,5,56001,1,1,788,289
1,7,14,1,1,1,C,G,g,r,15,5,57001,1,1,783,283
1,7,14,1,1,1,C,G,g,r,15,5,58001,1,1,787,284
1,7,14,1,1,1,C,G,g,r,15,5,59001,1,1,570,244
1,7,14,1,1,1,C,G,g,r,15,5,59001,1,1,535,284
1,7,14,1,1,1,C,G,g,r,15,5,60001,1,1,479,13
1,7,14,1,1,1,C,G,g,r,15,5,64001,1,1,688,318
1,7,14,1,1,1,C,G,g,r,15,5,65001,1,1,640,350
1,7,14,1,1,1,C,G,g,r,15,5,66001,1,1,334,169
1,7,14,1,1,1,C,G,g,r,15,5,66001,1,3,339,450
1,7,14,1,1,1,C,G,g,r,15,5,67001,1,1,368,68
1,7,14,1,1,1,C,G,g,r,15,5,67001,1,3,265,162
1,7,14,1,1,1,C,G,g,r,15,5,68001,1,1,469,22
1,7,14,1,1,1,C,G,g,r,15,5,69001,1,1,702,257
1,7,14,1,1,1,C,G,g,r,15,5,71001,1,1,604,123
1,7,14,1,1,1,C,G,g,r,15,5,72001,1,1,621,113
1,7,14,1,1,1,C,G,g,r,15,5,73001,1,1,608,130
1,7,14,1,1,1,C,G,g,r,15,5,74001,1,1,597,140
1,7,14,1,1,1,C,G,g,r,15,5,75001,1,1,611,134
1,7,14,1,1,1,C,G,g,r,15,5,76001,1,1,615,134
1,7,14,1,1,1,C,G,g,r,15,5,77001,1,1,611,124
1,7,14,1,1,1,C,G,g,r,15,5,78001,1,1,608,131
1,7,14,1,1,1,C,G,g,r,15,5,79001,1,1,618,126
1,7,14,1,1,1,C,G,g,r,15,5,80001,1,1,619,127
1,7,14,1,1,1,C,G,g,r,15,5,81001,1,1,611,127
1,7,14,1,1,1,C,G,g,r,15,5,82001,1,1,714,103
1,7,14,1,1,1,C,G,g,r,15,5,83001,1,1,422,238
1,7,14,1,1,1,C,G,g,r,15,5,83001,1,1,340,59
1,7,14,1,1,1,C,G,g,r,15,5,84001,1,1,515,69
1,7,14,1,1,1,C,G,g,r,15,5,85001,1,1,251,243
1,7,14,1,1,1,C,G,g,r,15,5,86001,1,1,696,159
1,7,14,1,1,1,C,G,g,r,15,5,87001,1,1,272,312
1,7,14,1,1,1,C,G,g,r,15,5,88001,1,1,285,267
1,7,14,1,1,1,C,G,g,r,15,5,89001,1,1,476,89
1,7,14,1,1,1,C,G,g,r,15,5,89001,1,1,468,43
1,7,14,1,1,1,C,G,g,r,15,5,90001,1,1,532,57
1,7,14,1,1,1,C,G,g,r,15,5,91001,1,1,584,82
1,7,14,1,1,1,C,G,g,r,15,5,92001,1,1,508,94
1,7,14,1,1,1,C,G,g,r,15,5,93001,1,1,645,500
1,7,14,1,1,1,C,G,g,r,15,5,94001,1,1,470,101
1,7,14,1,1,1,C,G,g,r,15,5,94001,1,1,694,493
1,7,14,1,1,1,C,G,g,r,15,5,95001,1,1,666,105
1,7,14,1,1,1,C,G,g,r,15,5,96001,1,1,299,208
1,7,14,1,1,1,C,G,g,r,15,5,97001,1,1,455,269
1,7,14,1,1,1,C,G,g,r,15,5,98001,1,1,483,492
1,7,14,1,1,1,C,G,g,r,15,5,99001,1,1,751,164
1,7,14,1,1,1,C,G,g,r,15,5,100001,1,1,343,366
1,7,14,1,1,1,C,G,g,r,15,5,101001,1,1,319,153
1,7,14,1,1,1,C,G,g,r,15,5,102001,1,1,732,424
1,7,14,1,1,1,C,G,g,r,15,5,104001,1,1,256,212
1,7,14,1,1,1,C,G,g,r,15,5,105001,1,1,407,223
1,7,14,1,1,1,C,G,g,r,15,5,105001,1,1,324,291
1,7,14,1,1,1,C,G,g,r,15,5,106001,1,1,324,315
1,7,14,1,1,1,C,G,g,r,15,5,107001,1,1,456,335
