dummy,month,day,period,view,station,fgeno,mgeno,fcol,mcol,nf,nm,frame,something,sex,x,y
1,7,3,2,3,3,C,G,y,b,10,10,1,1,3,334,75
1,7,3,2,3,3,C,G,y,b,10,10,1,1,1,324,431
1,7,3,2,3,3,C,G,y,b,10,10,1,1,1,608,300
1,7,3,2,3,3,C,G,y,b,10,10,1001,1,1,188,435
1,7,3,2,3,3,C,G,y,b,10,10,1001,1,3,597,106
1,7,3,2,3,3,C,G,y,b,10,10,2001,1,3,169,158
1,7,3,2,3,3,C,G,y,b,10,10,2001,1,1,477,389
1,7,3,2,3,3,C,G,y,b,10,10,3001,1,3,254,191
1,7,3,2,3,3,C,G,y,b,10,10,3001,1,1,210,251
1,7,3,2,3,3,C,G,y,b,10,10,4001,1,1,505,309
1,7,3,2,3,3,C,G,y,b,10,10,4001,1,3,563,251
1,7,3,2,3,3,C,G,y,b,10,10,5001,1,1,363,123
1,7,3,2,3,3,C,G,y,b,10,10,5001,1,3,565,165
1,7,3,2,3,3,C,G,y,b,10,10,5001,1,3,294,121
1,7,3,2,3,3,C,G,y,b,10,10,6001,1,1,393,157
1,7,3,2,3,3,C,G,y,b,10,10,6001,1,3,404,117
1,7,3,2,3,3,C,G,y,b,10,10,6001,1,3,432,147
1,7,3,2,3,3,C,G,y,b,10,10,7001,1,3,256,458
1,7,3,2,3,3,C,G,y,b,10,10,8001,1,3,645,227
1,7,3,2,3,3,C,G,y,b,10,10,9001,1,3,647,231
1,7,3,2,3,3,C,G,y,b,10,10,10001,1,3,154,407
1,7,3,2,3,3,C,G,y,b,10,10,10001,1,1,235,421
1,7,3,2,3,3,C,G,y,b,10,10,10001,1,3,495,265
1,7,3,2,3,3,C,G,y,b,10,10,11001,1,3,290,126
1,7,3,2,3,3,C,G,y,b,10,10,11001,1,1,348,366
1,7,3,2,3,3,C,G,y,b,10,10,12001,1,1,274,475
1,7,3,2,3,3,C,G,y,b,10,10,12001,1,3,325,492
1,7,3,2,3,3,C,G,y,b,10,10,13001,1,1,193,255
1,7,3,2,3,3,C,G,y,b,10,10,13001,1,3,339,66
1,7,3,2,3,3,C,G,y,b,10,10,13001,1,3,609,280
1,7,3,2,3,3,C,G,y,b,10,10,14001,1,1,251,411
1,7,3,2,3,3,C,G,y,b,10,10,14001,1,3,277,340
1,7,3,2,3,3,C,G,y,b,10,10,14001,1,3,347,171
1,7,3,2,3,3,C,G,y,b,10,10,15001,1,3,588,312
1,7,3,2,3,3,C,G,y,b,10,10,15001,1,3,589,242
1,7,3,2,3,3,C,G,y,b,10,10,16001,1,3,525,158
1,7,3,2,3,3,C,G,y,b,10,10,16001,1,3,150,223
1,7,3,2,3,3,C,G,y,b,10,10,17001,1,3,191,300
1,7,3,2,3,3,C,G,y,b,10,10,17001,1,3,143,305
1,7,3,2,3,3,C,G,y,b,10,10,18001,1,3,232,319
1,7,3,2,3,3,C,G,y,b,10,10,18001,1,3,295,70
1,7,3,2,3,3,C,G,y,b,10,10,18001,1,3,467,276
1,7,3,2,3,3,C,G,y,b,10,10,18001,1,1,515,303
1,7,3,2,3,3,C,G,y,b,10,10,19001,1,3,351,210
1,7,3,2,3,3,C,G,y,b,10,10,19001,1,3,396,186
1,7,3,2,3,3,C,G,y,b,10,10,19001,1,1,594,196
1,7,3,2,3,3,C,G,y,b,10,10,20001,1,3,527,84
1,7,3,2,3,3,C,G,y,b,10,10,20001,1,3,536,135
1,7,3,2,3,3,C,G,y,b,10,10,20001,1,1,413,106
1,7,3,2,3,3,C,G,y,b,10,10,21001,1,3,378,237
1,7,3,2,3,3,C,G,y,b,10,10,21001,1,3,403,260
1,7,3,2,3,3,C,G,y,b,10,10,21001,1,1,350,253
1,7,3,2,3,3,C,G,y,b,10,10,22001,1,3,276,252
1,7,3,2,3,3,C,G,y,b,10,10,22001,1,3,357,388
1,7,3,2,3,3,C,G,y,b,10,10,22001,1,1,201,375
1,7,3,2,3,3,C,G,y,b,10,10,23001,1,3,325,195
1,7,3,2,3,3,C,G,y,b,10,10,23001,1,3,636,409
1,7,3,2,3,3,C,G,y,b,10,10,23001,1,1,187,281
1,7,3,2,3,3,C,G,y,b,10,10,24001,1,3,204,223
1,7,3,2,3,3,C,G,y,b,10,10,24001,1,1,265,228
1,7,3,2,3,3,C,G,y,b,10,10,25001,1,3,404,27
1,7,3,2,3,3,C,G,y,b,10,10,26001,1,3,412,250
1,7,3,2,3,3,C,G,y,b,10,10,27001,1,3,246,293
1,7,3,2,3,3,C,G,y,b,10,10,27001,1,3,344,537
1,7,3,2,3,3,C,G,y,b,10,10,29001,1,3,633,388
1,7,3,2,3,3,C,G,y,b,10,10,29001,1,3,652,199
1,7,3,2,3,3,C,G,y,b,10,10,30001,1,3,300,69
1,7,3,2,3,3,C,G,y,b,10,10,31001,1,3,596,206
1,7,3,2,3,3,C,G,y,b,10,10,32001,1,3,497,136
1,7,3,2,3,3,C,G,y,b,10,10,33001,1,3,458,93
1,7,3,2,3,3,C,G,y,b,10,10,34001,1,3,373,500
1,7,3,2,3,3,C,G,y,b,10,10,35001,1,3,416,71
1,7,3,2,3,3,C,G,y,b,10,10,36001,1,3,513,76
1,7,3,2,3,3,C,G,y,b,10,10,37001,1,3,496,78
1,7,3,2,3,3,C,G,y,b,10,10,41001,1,3,161,226
1,7,3,2,3,3,C,G,y,b,10,10,42001,1,3,361,67
1,7,3,2,3,3,C,G,y,b,10,10,43001,1,3,198,137
1,7,3,2,3,3,C,G,y,b,10,10,43001,1,1,226,207
1,7,3,2,3,3,C,G,y,b,10,10,44001,1,1,271,258
1,7,3,2,3,3,C,G,y,b,10,10,44001,1,3,371,51
1,7,3,2,3,3,C,G,y,b,10,10,45001,1,1,414,220
1,7,3,2,3,3,C,G,y,b,10,10,45001,1,3,359,245
1,7,3,2,3,3,C,G,y,b,10,10,46001,1,1,488,219
1,7,3,2,3,3,C,G,y,b,10,10,46001,1,3,463,186
1,7,3,2,3,3,C,G,y,b,10,10,46001,1,3,542,224
1,7,3,2,3,3,C,G,y,b,10,10,47001,1,1,517,282
1,7,3,2,3,3,C,G,y,b,10,10,47001,1,1,316,498
1,7,3,2,3,3,C,G,y,b,10,10,48001,1,1,319,313
1,7,3,2,3,3,C,G,y,b,10,10,48001,1,1,471,354
1,7,3,2,3,3,C,G,y,b,10,10,49001,1,1,244,253
1,7,3,2,3,3,C,G,y,b,10,10,49001,1,1,339,403
1,7,3,2,3,3,C,G,y,b,10,10,50001,1,1,202,291
1,7,3,2,3,3,C,G,y,b,10,10,50001,1,1,304,154
1,7,3,2,3,3,C,G,y,b,10,10,50001,1,1,289,475
1,7,3,2,3,3,C,G,y,b,10,10,51001,1,1,171,301
1,7,3,2,3,3,C,G,y,b,10,10,51001,1,1,201,277
1,7,3,2,3,3,C,G,y,b,10,10,51001,1,1,515,146
1,7,3,2,3,3,C,G,y,b,10,10,52001,1,1,257,273
1,7,3,2,3,3,C,G,y,b,10,10,52001,1,1,253,316
1,7,3,2,3,3,C,G,y,b,10,10,52001,1,1,415,393
1,7,3,2,3,3,C,G,y,b,10,10,52001,1,3,472,374
1,7,3,2,3,3,C,G,y,b,10,10,53001,1,1,286,221
1,7,3,2,3,3,C,G,y,b,10,10,53001,1,1,495,350
1,7,3,2,3,3,C,G,y,b,10,10,53001,1,1,567,280
1,7,3,2,3,3,C,G,y,b,10,10,53001,1,3,468,393
1,7,3,2,3,3,C,G,y,b,10,10,54001,1,1,230,200
1,7,3,2,3,3,C,G,y,b,10,10,54001,1,1,360,186
1,7,3,2,3,3,C,G,y,b,10,10,54001,1,1,570,113
1,7,3,2,3,3,C,G,y,b,10,10,55001,1,1,252,246
1,7,3,2,3,3,C,G,y,b,10,10,55001,1,1,291,200
1,7,3,2,3,3,C,G,y,b,10,10,55001,1,1,652,306
1,7,3,2,3,3,C,G,y,b,10,10,56001,1,1,290,278
1,7,3,2,3,3,C,G,y,b,10,10,56001,1,1,413,163
1,7,3,2,3,3,C,G,y,b,10,10,56001,1,1,591,433
1,7,3,2,3,3,C,G,y,b,10,10,57001,1,1,425,274
1,7,3,2,3,3,C,G,y,b,10,10,57001,1,1,229,375
1,7,3,2,3,3,C,G,y,b,10,10,57001,1,1,436,531
1,7,3,2,3,3,C,G,y,b,10,10,58001,1,1,262,334
1,7,3,2,3,3,C,G,y,b,10,10,58001,1,1,325,415
1,7,3,2,3,3,C,G,y,b,10,10,58001,1,1,359,532
1,7,3,2,3,3,C,G,y,b,10,10,59001,1,1,331,415
1,7,3,2,3,3,C,G,y,b,10,10,59001,1,1,231,313
1,7,3,2,3,3,C,G,y,b,10,10,59001,1,1,263,295
1,7,3,2,3,3,C,G,y,b,10,10,60001,1,1,230,316
1,7,3,2,3,3,C,G,y,b,10,10,60001,1,1,290,224
1,7,3,2,3,3,C,G,y,b,10,10,60001,1,1,510,201
1,7,3,2,3,3,C,G,y,b,10,10,61001,1,1,183,338
1,7,3,2,3,3,C,G,y,b,10,10,61001,1,1,248,250
1,7,3,2,3,3,C,G,y,b,10,10,61001,1,3,293,207
1,7,3,2,3,3,C,G,y,b,10,10,61001,1,1,521,475
1,7,3,2,3,3,C,G,y,b,10,10,62001,1,1,230,244
1,7,3,2,3,3,C,G,y,b,10,10,62001,1,3,404,133
1,7,3,2,3,3,C,G,y,b,10,10,62001,1,1,327,396
1,7,3,2,3,3,C,G,y,b,10,10,62001,1,1,429,479
1,7,3,2,3,3,C,G,y,b,10,10,63001,1,3,190,250
1,7,3,2,3,3,C,G,y,b,10,10,63001,1,1,231,243
1,7,3,2,3,3,C,G,y,b,10,10,63001,1,1,328,401
1,7,3,2,3,3,C,G,y,b,10,10,63001,1,1,302,498
1,7,3,2,3,3,C,G,y,b,10,10,64001,1,1,228,309
1,7,3,2,3,3,C,G,y,b,10,10,64001,1,1,258,231
1,7,3,2,3,3,C,G,y,b,10,10,64001,1,1,357,304
1,7,3,2,3,3,C,G,y,b,10,10,64001,1,3,337,335
1,7,3,2,3,3,C,G,y,b,10,10,65001,1,1,224,286
1,7,3,2,3,3,C,G,y,b,10,10,65001,1,1,281,239
1,7,3,2,3,3,C,G,y,b,10,10,65001,1,1,447,268
1,7,3,2,3,3,C,G,y,b,10,10,65001,1,3,410,267
1,7,3,2,3,3,C,G,y,b,10,10,66001,1,1,308,212
1,7,3,2,3,3,C,G,y,b,10,10,66001,1,1,299,124
1,7,3,2,3,3,C,G,y,b,10,10,66001,1,1,523,285
1,7,3,2,3,3,C,G,y,b,10,10,66001,1,3,453,348
1,7,3,2,3,3,C,G,y,b,10,10,67001,1,1,175,321
1,7,3,2,3,3,C,G,y,b,10,10,67001,1,1,217,267
1,7,3,2,3,3,C,G,y,b,10,10,67001,1,1,216,119
1,7,3,2,3,3,C,G,y,b,10,10,67001,1,3,399,46
1,7,3,2,3,3,C,G,y,b,10,10,68001,1,1,216,253
1,7,3,2,3,3,C,G,y,b,10,10,68001,1,3,419,427
1,7,3,2,3,3,C,G,y,b,10,10,68001,1,1,526,83
1,7,3,2,3,3,C,G,y,b,10,10,68001,1,1,493,31
1,7,3,2,3,3,C,G,y,b,10,10,68001,1,3,571,98
1,7,3,2,3,3,C,G,y,b,10,10,69001,1,1,384,378
1,7,3,2,3,3,C,G,y,b,10,10,69001,1,1,206,253
1,7,3,2,3,3,C,G,y,b,10,10,69001,1,1,642,244
1,7,3,2,3,3,C,G,y,b,10,10,70001,1,1,231,245
1,7,3,2,3,3,C,G,y,b,10,10,70001,1,3,261,58
1,7,3,2,3,3,C,G,y,b,10,10,70001,1,1,525,341
1,7,3,2,3,3,C,G,y,b,10,10,70001,1,1,643,334
1,7,3,2,3,3,C,G,y,b,10,10,71001,1,1,233,248
1,7,3,2,3,3,C,G,y,b,10,10,71001,1,3,256,410
1,7,3,2,3,3,C,G,y,b,10,10,71001,1,1,641,301
1,7,3,2,3,3,C,G,y,b,10,10,72001,1,1,251,244
1,7,3,2,3,3,C,G,y,b,10,10,72001,1,1,429,287
1,7,3,2,3,3,C,G,y,b,10,10,72001,1,3,518,113
1,7,3,2,3,3,C,G,y,b,10,10,72001,1,3,300,418
1,7,3,2,3,3,C,G,y,b,10,10,72001,1,1,266,445
1,7,3,2,3,3,C,G,y,b,10,10,73001,1,1,266,220
1,7,3,2,3,3,C,G,y,b,10,10,73001,1,1,369,194
1,7,3,2,3,3,C,G,y,b,10,10,73001,1,1,559,394
1,7,3,2,3,3,C,G,y,b,10,10,73001,1,3,526,389
1,7,3,2,3,3,C,G,y,b,10,10,73001,1,3,506,364
1,7,3,2,3,3,C,G,y,b,10,10,74001,1,1,288,299
1,7,3,2,3,3,C,G,y,b,10,10,74001,1,1,245,230
1,7,3,2,3,3,C,G,y,b,10,10,74001,1,1,200,208
1,7,3,2,3,3,C,G,y,b,10,10,74001,1,3,202,164
1,7,3,2,3,3,C,G,y,b,10,10,75001,1,3,370,107
1,7,3,2,3,3,C,G,y,b,10,10,75001,1,1,252,219
1,7,3,2,3,3,C,G,y,b,10,10,75001,1,3,376,323
1,7,3,2,3,3,C,G,y,b,10,10,75001,1,1,397,361
1,7,3,2,3,3,C,G,y,b,10,10,75001,1,1,397,391
1,7,3,2,3,3,C,G,y,b,10,10,75001,1,3,387,437
1,7,3,2,3,3,C,G,y,b,10,10,76001,1,3,276,128
1,7,3,2,3,3,C,G,y,b,10,10,76001,1,3,286,39
1,7,3,2,3,3,C,G,y,b,10,10,76001,1,1,235,240
1,7,3,2,3,3,C,G,y,b,10,10,76001,1,1,503,431
1,7,3,2,3,3,C,G,y,b,10,10,77001,1,2,385,20
1,7,3,2,3,3,C,G,y,b,10,10,77001,1,3,229,147
1,7,3,2,3,3,C,G,y,b,10,10,77001,1,3,111,334
1,7,3,2,3,3,C,G,y,b,10,10,77001,1,1,220,253
1,7,3,2,3,3,C,G,y,b,10,10,77001,1,1,440,517
1,7,3,2,3,3,C,G,y,b,10,10,78001,1,3,272,65
1,7,3,2,3,3,C,G,y,b,10,10,78001,1,1,241,206
1,7,3,2,3,3,C,G,y,b,10,10,78001,1,3,263,247
1,7,3,2,3,3,C,G,y,b,10,10,78001,1,1,384,410
1,7,3,2,3,3,C,G,y,b,10,10,79001,1,3,182,164
1,7,3,2,3,3,C,G,y,b,10,10,79001,1,3,193,310
1,7,3,2,3,3,C,G,y,b,10,10,79001,1,1,306,194
1,7,3,2,3,3,C,G,y,b,10,10,79001,1,1,514,358
1,7,3,2,3,3,C,G,y,b,10,10,79001,1,3,500,442
1,7,3,2,3,3,C,G,y,b,10,10,80001,1,3,173,179
1,7,3,2,3,3,C,G,y,b,10,10,80001,1,3,289,184
1,7,3,2,3,3,C,G,y,b,10,10,80001,1,1,183,230
1,7,3,2,3,3,C,G,y,b,10,10,80001,1,1,569,257
1,7,3,2,3,3,C,G,y,b,10,10,80001,1,1,614,243
1,7,3,2,3,3,C,G,y,b,10,10,81001,1,1,449,161
1,7,3,2,3,3,C,G,y,b,10,10,81001,1,1,479,264
1,7,3,2,3,3,C,G,y,b,10,10,81001,1,3,656,316
1,7,3,2,3,3,C,G,y,b,10,10,81001,1,3,471,313
1,7,3,2,3,3,C,G,y,b,10,10,81001,1,3,380,341
1,7,3,2,3,3,C,G,y,b,10,10,81001,1,3,382,290
1,7,3,2,3,3,C,G,y,b,10,10,81001,1,1,473,408
1,7,3,2,3,3,C,G,y,b,10,10,82001,1,3,214,81
1,7,3,2,3,3,C,G,y,b,10,10,82001,1,3,189,150
1,7,3,2,3,3,C,G,y,b,10,10,82001,1,1,260,114
1,7,3,2,3,3,C,G,y,b,10,10,82001,1,1,253,249
1,7,3,2,3,3,C,G,y,b,10,10,82001,1,1,282,230
1,7,3,2,3,3,C,G,y,b,10,10,82001,1,3,323,246
1,7,3,2,3,3,C,G,y,b,10,10,82001,1,3,474,73
1,7,3,2,3,3,C,G,y,b,10,10,82001,1,1,490,321
1,7,3,2,3,3,C,G,y,b,10,10,83001,1,1,197,166
1,7,3,2,3,3,C,G,y,b,10,10,83001,1,3,219,216
1,7,3,2,3,3,C,G,y,b,10,10,83001,1,3,272,203
1,7,3,2,3,3,C,G,y,b,10,10,83001,1,1,221,248
1,7,3,2,3,3,C,G,y,b,10,10,83001,1,1,259,245
1,7,3,2,3,3,C,G,y,b,10,10,83001,1,1,555,381
1,7,3,2,3,3,C,G,y,b,10,10,84001,1,1,237,198
1,7,3,2,3,3,C,G,y,b,10,10,84001,1,3,263,226
1,7,3,2,3,3,C,G,y,b,10,10,84001,1,1,443,62
1,7,3,2,3,3,C,G,y,b,10,10,84001,1,3,602,358
1,7,3,2,3,3,C,G,y,b,10,10,84001,1,1,625,308
1,7,3,2,3,3,C,G,y,b,10,10,84001,1,1,641,271
1,7,3,2,3,3,C,G,y,b,10,10,85001,1,1,241,210
1,7,3,2,3,3,C,G,y,b,10,10,85001,1,1,428,180
1,7,3,2,3,3,C,G,y,b,10,10,85001,1,1,514,220
1,7,3,2,3,3,C,G,y,b,10,10,85001,1,3,604,227
1,7,3,2,3,3,C,G,y,b,10,10,85001,1,1,528,282
1,7,3,2,3,3,C,G,y,b,10,10,85001,1,3,553,331
1,7,3,2,3,3,C,G,y,b,10,10,85001,1,3,686,287
1,7,3,2,3,3,C,G,y,b,10,10,86001,1,1,222,230
1,7,3,2,3,3,C,G,y,b,10,10,86001,1,1,252,202
1,7,3,2,3,3,C,G,y,b,10,10,86001,1,1,290,233
1,7,3,2,3,3,C,G,y,b,10,10,86001,1,3,290,191
1,7,3,2,3,3,C,G,y,b,10,10,86001,1,3,362,77
1,7,3,2,3,3,C,G,y,b,10,10,86001,1,1,489,353
1,7,3,2,3,3,C,G,y,b,10,10,87001,1,1,253,262
1,7,3,2,3,3,C,G,y,b,10,10,87001,1,3,400,225
1,7,3,2,3,3,C,G,y,b,10,10,87001,1,3,494,228
1,7,3,2,3,3,C,G,y,b,10,10,87001,1,1,511,257
1,7,3,2,3,3,C,G,y,b,10,10,87001,1,1,568,364
1,7,3,2,3,3,C,G,y,b,10,10,88001,1,1,239,231
1,7,3,2,3,3,C,G,y,b,10,10,88001,1,3,341,106
1,7,3,2,3,3,C,G,y,b,10,10,88001,1,3,403,127
1,7,3,2,3,3,C,G,y,b,10,10,88001,1,1,616,251
1,7,3,2,3,3,C,G,y,b,10,10,89001,1,1,195,363
1,7,3,2,3,3,C,G,y,b,10,10,89001,1,3,225,338
1,7,3,2,3,3,C,G,y,b,10,10,89001,1,1,211,225
1,7,3,2,3,3,C,G,y,b,10,10,89001,1,3,349,102
1,7,3,2,3,3,C,G,y,b,10,10,89001,1,1,496,177
1,7,3,2,3,3,C,G,y,b,10,10,89001,1,3,500,304
1,7,3,2,3,3,C,G,y,b,10,10,90001,1,1,181,267
1,7,3,2,3,3,C,G,y,b,10,10,90001,1,1,220,265
1,7,3,2,3,3,C,G,y,b,10,10,90001,1,3,372,174
1,7,3,2,3,3,C,G,y,b,10,10,90001,1,1,411,252
1,7,3,2,3,3,C,G,y,b,10,10,90001,1,3,438,275
1,7,3,2,3,3,C,G,y,b,10,10,90001,1,3,427,348
1,7,3,2,3,3,C,G,y,b,10,10,90001,1,3,450,383
1,7,3,2,3,3,C,G,y,b,10,10,91001,1,3,226,105
1,7,3,2,3,3,C,G,y,b,10,10,91001,1,3,251,119
1,7,3,2,3,3,C,G,y,b,10,10,91001,1,3,259,154
1,7,3,2,3,3,C,G,y,b,10,10,91001,1,1,224,220
1,7,3,2,3,3,C,G,y,b,10,10,91001,1,1,334,309
1,7,3,2,3,3,C,G,y,b,10,10,91001,1,1,395,278
1,7,3,2,3,3,C,G,y,b,10,10,91001,1,3,379,341
1,7,3,2,3,3,C,G,y,b,10,10,91001,1,3,522,238
1,7,3,2,3,3,C,G,y,b,10,10,92001,1,3,232,87
1,7,3,2,3,3,C,G,y,b,10,10,92001,1,3,328,87
1,7,3,2,3,3,C,G,y,b,10,10,92001,1,1,262,226
1,7,3,2,3,3,C,G,y,b,10,10,92001,1,3,261,277
1,7,3,2,3,3,C,G,y,b,10,10,92001,1,3,222,262
1,7,3,2,3,3,C,G,y,b,10,10,92001,1,1,350,401
1,7,3,2,3,3,C,G,y,b,10,10,92001,1,1,446,373
1,7,3,2,3,3,C,G,y,b,10,10,93001,1,1,185,200
1,7,3,2,3,3,C,G,y,b,10,10,93001,1,1,222,251
1,7,3,2,3,3,C,G,y,b,10,10,93001,1,3,444,162
1,7,3,2,3,3,C,G,y,b,10,10,93001,1,3,632,202
1,7,3,2,3,3,C,G,y,b,10,10,93001,1,3,305,420
1,7,3,2,3,3,C,G,y,b,10,10,93001,1,3,357,447
1,7,3,2,3,3,C,G,y,b,10,10,93001,1,1,424,505
1,7,3,2,3,3,C,G,y,b,10,10,94001,1,1,263,202
1,7,3,2,3,3,C,G,y,b,10,10,94001,1,3,304,135
1,7,3,2,3,3,C,G,y,b,10,10,94001,1,1,353,128
1,7,3,2,3,3,C,G,y,b,10,10,94001,1,1,501,217
1,7,3,2,3,3,C,G,y,b,10,10,94001,1,3,561,306
1,7,3,2,3,3,C,G,y,b,10,10,94001,1,3,425,516
1,7,3,2,3,3,C,G,y,b,10,10,95001,1,3,176,144
1,7,3,2,3,3,C,G,y,b,10,10,95001,1,1,226,144
1,7,3,2,3,3,C,G,y,b,10,10,95001,1,1,283,212
1,7,3,2,3,3,C,G,y,b,10,10,95001,1,3,455,294
1,7,3,2,3,3,C,G,y,b,10,10,95001,1,1,461,349
1,7,3,2,3,3,C,G,y,b,10,10,95001,1,3,584,276
1,7,3,2,3,3,C,G,y,b,10,10,96001,1,1,254,242
1,7,3,2,3,3,C,G,y,b,10,10,96001,1,1,323,385
1,7,3,2,3,3,C,G,y,b,10,10,96001,1,1,484,537
1,7,3,2,3,3,C,G,y,b,10,10,96001,1,3,386,203
1,7,3,2,3,3,C,G,y,b,10,10,96001,1,3,446,213
1,7,3,2,3,3,C,G,y,b,10,10,96001,1,1,423,167
1,7,3,2,3,3,C,G,y,b,10,10,96001,1,1,492,167
1,7,3,2,3,3,C,G,y,b,10,10,97001,1,1,338,61
1,7,3,2,3,3,C,G,y,b,10,10,97001,1,3,338,208
1,7,3,2,3,3,C,G,y,b,10,10,97001,1,1,327,242
1,7,3,2,3,3,C,G,y,b,10,10,97001,1,1,221,305
1,7,3,2,3,3,C,G,y,b,10,10,97001,1,1,363,339
1,7,3,2,3,3,C,G,y,b,10,10,97001,1,1,505,293
1,7,3,2,3,3,C,G,y,b,10,10,98001,1,1,173,172
1,7,3,2,3,3,C,G,y,b,10,10,98001,1,1,247,207
1,7,3,2,3,3,C,G,y,b,10,10,98001,1,3,243,165
1,7,3,2,3,3,C,G,y,b,10,10,98001,1,3,373,520
1,7,3,2,3,3,C,G,y,b,10,10,98001,1,1,492,470
1,7,3,2,3,3,C,G,y,b,10,10,99001,1,1,354,99
1,7,3,2,3,3,C,G,y,b,10,10,99001,1,3,405,211
1,7,3,2,3,3,C,G,y,b,10,10,99001,1,3,448,251
1,7,3,2,3,3,C,G,y,b,10,10,99001,1,3,593,149
1,7,3,2,3,3,C,G,y,b,10,10,100001,1,1,344,105
1,7,3,2,3,3,C,G,y,b,10,10,100001,1,3,333,56
1,7,3,2,3,3,C,G,y,b,10,10,100001,1,3,179,259
1,7,3,2,3,3,C,G,y,b,10,10,101001,1,1,472,116
1,7,3,2,3,3,C,G,y,b,10,10,101001,1,3,513,133
1,7,3,2,3,3,C,G,y,b,10,10,101001,1,3,189,434
1,7,3,2,3,3,C,G,y,b,10,10,102001,1,1,282,173
1,7,3,2,3,3,C,G,y,b,10,10,103001,1,1,264,249
1,7,3,2,3,3,C,G,y,b,10,10,103001,1,3,264,289
1,7,3,2,3,3,C,G,y,b,10,10,103001,1,3,160,300
1,7,3,2,3,3,C,G,y,b,10,10,103001,1,1,233,459
1,7,3,2,3,3,C,G,y,b,10,10,103001,1,1,565,263
1,7,3,2,3,3,C,G,y,b,10,10,103001,1,1,567,161
1,7,3,2,3,3,C,G,y,b,10,10,104001,1,1,161,353
1,7,3,2,3,3,C,G,y,b,10,10,104001,1,3,175,395
1,7,3,2,3,3,C,G,y,b,10,10,104001,1,3,361,169
1,7,3,2,3,3,C,G,y,b,10,10,104001,1,1,350,101
1,7,3,2,3,3,C,G,y,b,10,10,104001,1,1,441,131
1,7,3,2,3,3,C,G,y,b,10,10,104001,1,1,487,195
1,7,3,2,3,3,C,G,y,b,10,10,104001,1,1,476,247
1,7,3,2,3,3,C,G,y,b,10,10,105001,1,1,249,248
1,7,3,2,3,3,C,G,y,b,10,10,105001,1,1,267,238
1,7,3,2,3,3,C,G,y,b,10,10,105001,1,3,269,188
1,7,3,2,3,3,C,G,y,b,10,10,105001,1,1,533,164
1,7,3,2,3,3,C,G,y,b,10,10,105001,1,3,520,121
1,7,3,2,3,3,C,G,y,b,10,10,105001,1,3,588,126
1,7,3,2,3,3,C,G,y,b,10,10,105001,1,1,613,118
1,7,3,2,3,3,C,G,y,b,10,10,105001,1,1,622,182
1,7,3,2,3,3,C,G,y,b,10,10,105001,1,1,619,334
1,7,3,2,3,3,C,G,y,b,10,10,105001,1,3,588,361
1,7,3,2,3,3,C,G,y,b,10,10,106001,1,1,186,230
1,7,3,2,3,3,C,G,y,b,10,10,106001,1,3,157,274
1,7,3,2,3,3,C,G,y,b,10,10,106001,1,1,142,326
1,7,3,2,3,3,C,G,y,b,10,10,106001,1,3,240,233
1,7,3,2,3,3,C,G,y,b,10,10,106001,1,1,269,226
1,7,3,2,3,3,C,G,y,b,10,10,106001,1,1,260,299
1,7,3,2,3,3,C,G,y,b,10,10,106001,1,1,519,300
1,7,3,2,3,3,C,G,y,b,10,10,106001,1,3,546,410
1,7,3,2,3,3,C,G,y,b,10,10,106001,1,3,589,364
1,7,3,2,3,3,C,G,y,b,10,10,107001,1,1,207,238
1,7,3,2,3,3,C,G,y,b,10,10,107001,1,1,262,237
1,7,3,2,3,3,C,G,y,b,10,10,107001,1,3,275,270
1,7,3,2,3,3,C,G,y,b,10,10,107001,1,3,287,224
1,7,3,2,3,3,C,G,y,b,10,10,107001,1,3,274,331
1,7,3,2,3,3,C,G,y,b,10,10,107001,1,1,259,398
1,7,3,2,3,3,C,G,y,b,10,10,107001,1,1,364,134
1,7,3,2,3,3,C,G,y,b,10,10,107001,1,1,492,141
1,7,3,2,3,3,C,G,y,b,10,10,107001,1,1,634,179
