dummy,month,day,period,view,station,fgeno,mgeno,fcol,mcol,nf,nm,frame,something,sex,x,y
1,6,18,4,3,2,B,G,b,y,10,10,1,1,3,239.8996,82.1135
1,6,18,4,3,2,B,G,b,y,10,10,1,1,1,175.3593,167.667
1,6,18,4,3,2,B,G,b,y,10,10,1,1,3,175.3593,248.7176
1,6,18,4,3,2,B,G,b,y,10,10,1,1,1,254.909,259.2242
1,6,18,4,3,2,B,G,b,y,10,10,1,1,3,299.9371,394.3086
1,6,18,4,3,2,B,G,b,y,10,10,1,1,3,456.0347,466.3537
1,6,18,4,3,2,B,G,b,y,10,10,1001,1,1,266.9165,269.7308
1,6,18,4,3,2,B,G,b,y,10,10,1001,1,1,179.8621,167.667
1,6,18,4,3,2,B,G,b,y,10,10,1001,1,3,242.9015,88.1173
1,6,18,4,3,2,B,G,b,y,10,10,1001,1,3,169.3555,244.2148
1,6,18,4,3,2,B,G,b,y,10,10,1001,1,3,211.3818,391.3068
1,6,18,4,3,2,B,G,b,y,10,10,1001,1,3,405.0028,473.8583
1,6,18,4,3,2,B,G,b,y,10,10,2001,1,3,409.5056,469.3555
1,6,18,4,3,2,B,G,b,y,10,10,2001,1,3,223.3893,353.7833
1,6,18,4,3,2,B,G,b,y,10,10,2001,1,1,265.4156,262.2261
1,6,18,4,3,2,B,G,b,y,10,10,2001,1,3,166.3537,250.2186
1,6,18,4,3,2,B,G,b,y,10,10,2001,1,1,170.8565,155.6595
1,6,18,4,3,2,B,G,b,y,10,10,2001,1,3,239.8996,88.1173
1,6,18,4,3,2,B,G,b,y,10,10,3001,1,1,409.5056,470.8565
1,6,18,4,3,2,B,G,b,y,10,10,3001,1,3,535.5844,382.3011
1,6,18,4,3,2,B,G,b,y,10,10,3001,1,3,218.8865,352.2824
1,6,18,4,3,2,B,G,b,y,10,10,3001,1,3,199.3743,317.7608
1,6,18,4,3,2,B,G,b,y,10,10,3001,1,1,211.3818,133.1454
1,6,18,4,3,2,B,G,b,y,10,10,3001,1,3,239.8996,82.1135
1,6,18,4,3,2,B,G,b,y,10,10,4001,1,3,323.9522,302.7514
1,6,18,4,3,2,B,G,b,y,10,10,4001,1,3,224.8902,286.2411
1,6,18,4,3,2,B,G,b,y,10,10,4001,1,1,268.4174,137.6482
1,6,18,4,3,2,B,G,b,y,10,10,4001,1,3,209.8809,418.3236
1,6,18,4,3,2,B,G,b,y,10,10,4001,1,1,403.5019,467.8546
1,6,18,4,3,2,B,G,b,y,10,10,4001,1,3,529.5807,380.8002
1,6,18,4,3,2,B,G,b,y,10,10,5001,1,3,257.9109,62.6013
1,6,18,4,3,2,B,G,b,y,10,10,5001,1,3,238.3987,142.151
1,6,18,4,3,2,B,G,b,y,10,10,5001,1,1,170.8565,166.166
1,6,18,4,3,2,B,G,b,y,10,10,5001,1,3,209.8809,223.2017
1,6,18,4,3,2,B,G,b,y,10,10,5001,1,1,385.4906,383.8021
1,6,18,4,3,2,B,G,b,y,10,10,5001,1,3,550.5938,380.8002
1,6,18,4,3,2,B,G,b,y,10,10,6001,1,3,289.4306,457.348
1,6,18,4,3,2,B,G,b,y,10,10,6001,1,3,601.6257,289.243
1,6,18,4,3,2,B,G,b,y,10,10,6001,1,3,302.939,104.6276
1,6,18,4,3,2,B,G,b,y,10,10,6001,1,3,220.3874,185.6782
1,6,18,4,3,2,B,G,b,y,10,10,7001,1,1,265.4156,197.6857
1,6,18,4,3,2,B,G,b,y,10,10,7001,1,3,265.4156,263.727
1,6,18,4,3,2,B,G,b,y,10,10,7001,1,3,236.8977,370.2936
1,6,18,4,3,2,B,G,b,y,10,10,7001,1,3,205.378,398.8114
1,6,18,4,3,2,B,G,b,y,10,10,7001,1,1,380.9878,421.3255
1,6,18,4,3,2,B,G,b,y,10,10,8001,1,3,367.4794,376.2974
1,6,18,4,3,2,B,G,b,y,10,10,8001,1,3,402.0009,212.6951
1,6,18,4,3,2,B,G,b,y,10,10,8001,1,1,238.3987,176.6726
1,6,18,4,3,2,B,G,b,y,10,10,8001,1,1,157.348,245.7158
1,6,18,4,3,2,B,G,b,y,10,10,8001,1,3,196.3724,365.7908
1,6,18,4,3,2,B,G,b,y,10,10,9001,1,3,323.9522,406.3161
1,6,18,4,3,2,B,G,b,y,10,10,9001,1,3,411.0066,352.2824
1,6,18,4,3,2,B,G,b,y,10,10,9001,1,3,268.4174,317.7608
1,6,18,4,3,2,B,G,b,y,10,10,9001,1,1,514.5713,463.3518
1,6,18,4,3,2,B,G,b,y,10,10,10001,1,3,223.3893,350.7814
1,6,18,4,3,2,B,G,b,y,10,10,10001,1,3,176.8602,394.3086
1,6,18,4,3,2,B,G,b,y,10,10,10001,1,1,161.8508,352.2824
1,6,18,4,3,2,B,G,b,y,10,10,10001,1,1,194.8715,158.6614
1,6,18,4,3,2,B,G,b,y,10,10,11001,1,3,290.9315,403.3143
1,6,18,4,3,2,B,G,b,y,10,10,11001,1,3,438.0235,445.3405
1,6,18,4,3,2,B,G,b,y,10,10,11001,1,3,487.5544,533.8959
1,6,18,4,3,2,B,G,b,y,10,10,11001,1,1,564.1023,284.7402
1,6,18,4,3,2,B,G,b,y,10,10,12001,1,3,435.0216,418.3236
1,6,18,4,3,2,B,G,b,y,10,10,12001,1,3,466.5413,436.3349
1,6,18,4,3,2,B,G,b,y,10,10,12001,1,3,517.5732,431.8321
1,6,18,4,3,2,B,G,b,y,10,10,12001,1,1,277.4231,352.2824
1,6,18,4,3,2,B,G,b,y,10,10,13001,1,3,397.4981,368.7927
1,6,18,4,3,2,B,G,b,y,10,10,13001,1,3,540.0872,392.8077
1,6,18,4,3,2,B,G,b,y,10,10,13001,1,3,549.0929,440.8377
1,6,18,4,3,2,B,G,b,y,10,10,13001,1,1,268.4174,356.7852
1,6,18,4,3,2,B,G,b,y,10,10,14001,1,3,513.0704,292.2448
1,6,18,4,3,2,B,G,b,y,10,10,14001,1,3,567.1041,373.2955
1,6,18,4,3,2,B,G,b,y,10,10,14001,1,3,541.5882,443.8396
1,6,18,4,3,2,B,G,b,y,10,10,14001,1,1,402.0009,121.1379
1,6,18,4,3,2,B,G,b,y,10,10,15001,1,3,549.0929,437.8358
1,6,18,4,3,2,B,G,b,y,10,10,15001,1,3,565.6032,404.8152
1,6,18,4,3,2,B,G,b,y,10,10,15001,1,3,522.076,89.6182
1,6,18,4,3,2,B,G,b,y,10,10,15001,1,1,392.9953,22.076
1,6,18,4,3,2,B,G,b,y,10,10,16001,1,3,418.5113,97.1229
1,6,18,4,3,2,B,G,b,y,10,10,16001,1,1,262.4137,98.6238
1,6,18,4,3,2,B,G,b,y,10,10,16001,1,3,577.6107,355.2842
1,6,18,4,3,2,B,G,b,y,10,10,16001,1,3,538.5863,443.8396
1,6,18,4,3,2,B,G,b,y,10,10,17001,1,3,244.4024,94.121
1,6,18,4,3,2,B,G,b,y,10,10,17001,1,1,358.4737,223.2017
1,6,18,4,3,2,B,G,b,y,10,10,17001,1,3,576.1098,343.2767
1,6,18,4,3,2,B,G,b,y,10,10,17001,1,3,550.5938,464.8527
1,6,18,4,3,2,B,G,b,y,10,10,18001,1,3,471.0441,284.7402
1,6,18,4,3,2,B,G,b,y,10,10,18001,1,1,628.6426,298.2486
1,6,18,4,3,2,B,G,b,y,10,10,18001,1,3,547.5919,436.3349
1,6,18,4,3,2,B,G,b,y,10,10,18001,1,3,242.9015,136.1473
1,6,18,4,3,2,B,G,b,y,10,10,19001,1,3,289.4306,205.1904
1,6,18,4,3,2,B,G,b,y,10,10,19001,1,3,386.9916,254.7214
1,6,18,4,3,2,B,G,b,y,10,10,19001,1,3,495.0591,455.8471
1,6,18,4,3,2,B,G,b,y,10,10,19001,1,1,559.5994,277.2355
1,6,18,4,3,2,B,G,b,y,10,10,19001,1,1,507.0666,209.6932
1,6,18,4,3,2,B,G,b,y,10,10,20001,1,3,340.4625,197.6857
1,6,18,4,3,2,B,G,b,y,10,10,20001,1,3,426.0159,173.6707
1,6,18,4,3,2,B,G,b,y,10,10,20001,1,1,457.5356,110.6313
1,6,18,4,3,2,B,G,b,y,10,10,20001,1,1,218.8865,385.303
1,6,18,4,3,2,B,G,b,y,10,10,20001,1,3,433.5206,541.4006
1,6,18,4,3,2,B,G,b,y,10,10,21001,1,3,346.4662,263.727
1,6,18,4,3,2,B,G,b,y,10,10,21001,1,3,423.0141,175.1717
1,6,18,4,3,2,B,G,b,y,10,10,21001,1,1,325.4531,134.6463
1,6,18,4,3,2,B,G,b,y,10,10,21001,1,1,380.9878,107.6295
1,6,18,4,3,2,B,G,b,y,10,10,21001,1,1,370.4812,497.8734
1,6,18,4,3,2,B,G,b,y,10,10,21001,1,3,335.9597,518.8865
1,6,18,4,3,2,B,G,b,y,10,10,22001,1,3,227.8921,460.3499
1,6,18,4,3,2,B,G,b,y,10,10,22001,1,3,408.0047,352.2824
1,6,18,4,3,2,B,G,b,y,10,10,22001,1,1,355.4719,221.7008
1,6,18,4,3,2,B,G,b,y,10,10,22001,1,1,325.4531,137.6482
1,6,18,4,3,2,B,G,b,y,10,10,22001,1,3,415.5094,169.1679
1,6,18,4,3,2,B,G,b,y,10,10,22001,1,1,469.5432,224.7026
1,6,18,4,3,2,B,G,b,y,10,10,23001,1,1,367.4794,194.6839
1,6,18,4,3,2,B,G,b,y,10,10,23001,1,1,325.4531,133.1454
1,6,18,4,3,2,B,G,b,y,10,10,23001,1,1,382.4887,67.1041
1,6,18,4,3,2,B,G,b,y,10,10,23001,1,3,217.3856,202.1886
1,6,18,4,3,2,B,G,b,y,10,10,23001,1,3,200.8752,332.7702
1,6,18,4,3,2,B,G,b,y,10,10,23001,1,3,361.4756,367.2917
1,6,18,4,3,2,B,G,b,y,10,10,24001,1,3,320.9503,400.3124
1,6,18,4,3,2,B,G,b,y,10,10,24001,1,1,322.4512,323.7645
1,6,18,4,3,2,B,G,b,y,10,10,24001,1,3,301.4381,118.136
1,6,18,4,3,2,B,G,b,y,10,10,24001,1,1,347.9672,98.6238
1,6,18,4,3,2,B,G,b,y,10,10,25001,1,3,278.924,404.8152
1,6,18,4,3,2,B,G,b,y,10,10,25001,1,1,313.4456,256.2223
1,6,18,4,3,2,B,G,b,y,10,10,25001,1,1,441.0253,137.6482
1,6,18,4,3,2,B,G,b,y,10,10,25001,1,3,307.4418,112.1323
1,6,18,4,3,2,B,G,b,y,10,10,25001,1,1,377.9859,37.0854
1,6,18,4,3,2,B,G,b,y,10,10,26001,1,1,271.4193,370.2936
1,6,18,4,3,2,B,G,b,y,10,10,26001,1,3,205.378,382.3011
1,6,18,4,3,2,B,G,b,y,10,10,26001,1,1,340.4625,214.1961
1,6,18,4,3,2,B,G,b,y,10,10,26001,1,3,301.4381,106.1285
1,6,18,4,3,2,B,G,b,y,10,10,26001,1,1,474.046,104.6276
1,6,18,4,3,2,B,G,b,y,10,10,26001,1,3,639.1492,220.1998
1,6,18,4,3,2,B,G,b,y,10,10,27001,1,3,218.8865,383.8021
1,6,18,4,3,2,B,G,b,y,10,10,27001,1,1,205.378,199.1867
1,6,18,4,3,2,B,G,b,y,10,10,27001,1,1,220.3874,157.1604
1,6,18,4,3,2,B,G,b,y,10,10,27001,1,3,302.939,107.6295
1,6,18,4,3,2,B,G,b,y,10,10,27001,1,1,477.0478,103.1266
1,6,18,4,3,2,B,G,b,y,10,10,27001,1,3,636.1473,212.6951
1,6,18,4,3,2,B,G,b,y,10,10,28001,1,3,218.8865,379.2992
1,6,18,4,3,2,B,G,b,y,10,10,28001,1,1,197.8734,193.1829
1,6,18,4,3,2,B,G,b,y,10,10,28001,1,1,218.8865,149.6557
1,6,18,4,3,2,B,G,b,y,10,10,28001,1,3,323.9522,112.1323
1,6,18,4,3,2,B,G,b,y,10,10,28001,1,1,475.5469,109.1304
1,6,18,4,3,2,B,G,b,y,10,10,28001,1,3,639.1492,215.697
1,6,18,4,3,2,B,G,b,y,10,10,29001,1,3,232.3949,361.288
1,6,18,4,3,2,B,G,b,y,10,10,29001,1,1,203.8771,205.1904
1,6,18,4,3,2,B,G,b,y,10,10,29001,1,3,347.9672,124.1398
1,6,18,4,3,2,B,G,b,y,10,10,29001,1,1,403.5019,116.6351
1,6,18,4,3,2,B,G,b,y,10,10,29001,1,3,639.1492,217.1979
1,6,18,4,3,2,B,G,b,y,10,10,30001,1,3,223.3893,349.2805
1,6,18,4,3,2,B,G,b,y,10,10,30001,1,1,242.9015,167.667
1,6,18,4,3,2,B,G,b,y,10,10,30001,1,3,347.9672,128.6426
1,6,18,4,3,2,B,G,b,y,10,10,30001,1,1,613.6332,175.1717
1,6,18,4,3,2,B,G,b,y,10,10,30001,1,3,637.6482,208.1923
1,6,18,4,3,2,B,G,b,y,10,10,31001,1,3,197.8734,334.2711
1,6,18,4,3,2,B,G,b,y,10,10,31001,1,1,248.9053,398.8114
1,6,18,4,3,2,B,G,b,y,10,10,31001,1,3,346.4662,124.1398
1,6,18,4,3,2,B,G,b,y,10,10,31001,1,1,612.1323,185.6782
1,6,18,4,3,2,B,G,b,y,10,10,31001,1,3,640.6501,205.1904
1,6,18,4,3,2,B,G,b,y,10,10,32001,1,1,317.9484,367.2917
1,6,18,4,3,2,B,G,b,y,10,10,32001,1,3,368.9803,305.7533
1,6,18,4,3,2,B,G,b,y,10,10,32001,1,3,347.9672,125.6407
1,6,18,4,3,2,B,G,b,y,10,10,32001,1,1,615.1341,164.6651
1,6,18,4,3,2,B,G,b,y,10,10,32001,1,3,639.1492,203.6895
1,6,18,4,3,2,B,G,b,y,10,10,33001,1,1,320.9503,488.8677
1,6,18,4,3,2,B,G,b,y,10,10,33001,1,3,380.9878,326.7664
1,6,18,4,3,2,B,G,b,y,10,10,33001,1,1,298.4362,308.7552
1,6,18,4,3,2,B,G,b,y,10,10,33001,1,3,349.4681,124.1398
1,6,18,4,3,2,B,G,b,y,10,10,34001,1,1,299.9371,484.3649
1,6,18,4,3,2,B,G,b,y,10,10,34001,1,1,322.4512,457.348
1,6,18,4,3,2,B,G,b,y,10,10,34001,1,3,444.0272,365.7908
1,6,18,4,3,2,B,G,b,y,10,10,34001,1,3,353.9709,139.1492
1,6,18,4,3,2,B,G,b,y,10,10,34001,1,3,278.924,85.1154
1,6,18,4,3,2,B,G,b,y,10,10,35001,1,1,286.4287,509.8809
1,6,18,4,3,2,B,G,b,y,10,10,35001,1,3,559.5994,355.2842
1,6,18,4,3,2,B,G,b,y,10,10,35001,1,3,389.9934,140.6501
1,6,18,4,3,2,B,G,b,y,10,10,35001,1,3,262.4137,82.1135
1,6,18,4,3,2,B,G,b,y,10,10,35001,1,1,221.8884,95.622
1,6,18,4,3,2,B,G,b,y,10,10,36001,1,1,275.9221,509.8809
1,6,18,4,3,2,B,G,b,y,10,10,36001,1,3,558.0985,292.2448
1,6,18,4,3,2,B,G,b,y,10,10,36001,1,3,456.0347,170.6689
1,6,18,4,3,2,B,G,b,y,10,10,36001,1,3,277.4231,70.106
1,6,18,4,3,2,B,G,b,y,10,10,36001,1,1,227.8921,95.622
1,6,18,4,3,2,B,G,b,y,10,10,37001,1,1,280.425,500.8752
1,6,18,4,3,2,B,G,b,y,10,10,37001,1,3,486.0535,257.7233
1,6,18,4,3,2,B,G,b,y,10,10,37001,1,3,537.0854,280.2373
1,6,18,4,3,2,B,G,b,y,10,10,37001,1,1,242.9015,184.1773
1,6,18,4,3,2,B,G,b,y,10,10,37001,1,3,281.9259,70.106
1,6,18,4,3,2,B,G,b,y,10,10,38001,1,1,350.969,299.7495
1,6,18,4,3,2,B,G,b,y,10,10,38001,1,1,388.4925,307.2542
1,6,18,4,3,2,B,G,b,y,10,10,38001,1,3,481.5507,293.7458
1,6,18,4,3,2,B,G,b,y,10,10,38001,1,3,459.0366,112.1323
1,6,18,4,3,2,B,G,b,y,10,10,38001,1,3,283.4268,68.6051
1,6,18,4,3,2,B,G,b,y,10,10,39001,1,3,469.5432,299.7495
1,6,18,4,3,2,B,G,b,y,10,10,39001,1,1,436.5225,115.1341
1,6,18,4,3,2,B,G,b,y,10,10,39001,1,3,424.515,74.6088
1,6,18,4,3,2,B,G,b,y,10,10,39001,1,3,287.9296,58.0985
1,6,18,4,3,2,B,G,b,y,10,10,40001,1,3,460.5375,334.2711
1,6,18,4,3,2,B,G,b,y,10,10,40001,1,3,323.9522,236.7101
1,6,18,4,3,2,B,G,b,y,10,10,40001,1,1,262.4137,106.1285
1,6,18,4,3,2,B,G,b,y,10,10,40001,1,3,535.5844,59.5994
1,6,18,4,3,2,B,G,b,y,10,10,41001,1,3,478.5488,365.7908
1,6,18,4,3,2,B,G,b,y,10,10,41001,1,3,414.0084,532.3949
1,6,18,4,3,2,B,G,b,y,10,10,41001,1,1,184.3649,236.7101
1,6,18,4,3,2,B,G,b,y,10,10,41001,1,1,215.8846,218.6989
1,6,18,4,3,2,B,G,b,y,10,10,41001,1,3,199.3743,116.6351
1,6,18,4,3,2,B,G,b,y,10,10,42001,1,1,284.9278,434.834
1,6,18,4,3,2,B,G,b,y,10,10,42001,1,1,376.485,433.333
1,6,18,4,3,2,B,G,b,y,10,10,42001,1,3,353.9709,535.3968
1,6,18,4,3,2,B,G,b,y,10,10,42001,1,3,421.5131,550.4062
1,6,18,4,3,2,B,G,b,y,10,10,42001,1,3,481.5507,368.7927
1,6,18,4,3,2,B,G,b,y,10,10,43001,1,3,430.5188,374.7964
1,6,18,4,3,2,B,G,b,y,10,10,43001,1,1,280.425,431.8321
1,6,18,4,3,2,B,G,b,y,10,10,43001,1,3,296.9353,518.8865
1,6,18,4,3,2,B,G,b,y,10,10,43001,1,3,525.0779,356.7852
1,6,18,4,3,2,B,G,b,y,10,10,43001,1,1,586.6163,232.2073
1,6,18,4,3,2,B,G,b,y,10,10,44001,1,3,221.8884,365.7908
1,6,18,4,3,2,B,G,b,y,10,10,44001,1,1,220.3874,146.6538
1,6,18,4,3,2,B,G,b,y,10,10,44001,1,1,353.9709,296.7477
1,6,18,4,3,2,B,G,b,y,10,10,44001,1,3,520.575,395.8096
1,6,18,4,3,2,B,G,b,y,10,10,44001,1,3,639.1492,199.1867
1,6,18,4,3,2,B,G,b,y,10,10,45001,1,3,293.9334,323.7645
1,6,18,4,3,2,B,G,b,y,10,10,45001,1,3,229.3931,253.2205
1,6,18,4,3,2,B,G,b,y,10,10,45001,1,1,224.8902,143.652
1,6,18,4,3,2,B,G,b,y,10,10,45001,1,1,395.9972,311.757
1,6,18,4,3,2,B,G,b,y,10,10,45001,1,3,474.046,458.849
1,6,18,4,3,2,B,G,b,y,10,10,46001,1,3,436.5225,419.8246
1,6,18,4,3,2,B,G,b,y,10,10,46001,1,3,262.4137,247.2167
1,6,18,4,3,2,B,G,b,y,10,10,46001,1,3,205.378,235.2092
1,6,18,4,3,2,B,G,b,y,10,10,46001,1,1,179.8621,164.6651
1,6,18,4,3,2,B,G,b,y,10,10,46001,1,1,423.0141,161.6632
1,6,18,4,3,2,B,G,b,y,10,10,47001,1,3,403.5019,455.8471
1,6,18,4,3,2,B,G,b,y,10,10,47001,1,1,463.5394,385.303
1,6,18,4,3,2,B,G,b,y,10,10,47001,1,3,229.3931,229.2054
1,6,18,4,3,2,B,G,b,y,10,10,47001,1,3,618.136,149.6557
1,6,18,4,3,2,B,G,b,y,10,10,48001,1,1,232.3949,334.2711
1,6,18,4,3,2,B,G,b,y,10,10,48001,1,3,275.9221,220.1998
1,6,18,4,3,2,B,G,b,y,10,10,48001,1,3,193.3705,172.1698
1,6,18,4,3,2,B,G,b,y,10,10,48001,1,3,259.4118,152.6576
1,6,18,4,3,2,B,G,b,y,10,10,48001,1,1,224.8902,104.6276
1,6,18,4,3,2,B,G,b,y,10,10,48001,1,3,453.0328,199.1867
1,6,18,4,3,2,B,G,b,y,10,10,49001,1,1,307.4418,536.8977
1,6,18,4,3,2,B,G,b,y,10,10,49001,1,3,238.3987,263.727
1,6,18,4,3,2,B,G,b,y,10,10,49001,1,3,265.4156,239.712
1,6,18,4,3,2,B,G,b,y,10,10,49001,1,3,444.0272,251.7195
1,6,18,4,3,2,B,G,b,y,10,10,49001,1,3,280.425,151.1567
1,6,18,4,3,2,B,G,b,y,10,10,49001,1,1,313.4456,82.1135
1,6,18,4,3,2,B,G,b,y,10,10,50001,1,3,269.9184,241.2129
1,6,18,4,3,2,B,G,b,y,10,10,50001,1,3,444.0272,280.2373
1,6,18,4,3,2,B,G,b,y,10,10,50001,1,3,459.0366,257.7233
1,6,18,4,3,2,B,G,b,y,10,10,50001,1,3,281.9259,148.1548
1,6,18,4,3,2,B,G,b,y,10,10,50001,1,1,220.3874,115.1341
1,6,18,4,3,2,B,G,b,y,10,10,51001,1,3,272.9203,239.712
1,6,18,4,3,2,B,G,b,y,10,10,51001,1,1,251.9071,197.6857
1,6,18,4,3,2,B,G,b,y,10,10,51001,1,3,325.4531,161.6632
1,6,18,4,3,2,B,G,b,y,10,10,51001,1,3,510.0685,176.6726
1,6,18,4,3,2,B,G,b,y,10,10,51001,1,3,522.076,419.8246
1,6,18,4,3,2,B,G,b,y,10,10,51001,1,1,367.4794,509.8809
1,6,18,4,3,2,B,G,b,y,10,10,52001,1,3,332.9578,314.7589
1,6,18,4,3,2,B,G,b,y,10,10,52001,1,3,350.969,122.6388
1,6,18,4,3,2,B,G,b,y,10,10,52001,1,3,519.0741,178.1735
1,6,18,4,3,2,B,G,b,y,10,10,52001,1,1,415.5094,448.3424
1,6,18,4,3,2,B,G,b,y,10,10,52001,1,3,320.9503,502.3762
1,6,18,4,3,2,B,G,b,y,10,10,53001,1,3,398.9991,251.7195
1,6,18,4,3,2,B,G,b,y,10,10,53001,1,3,519.0741,184.1773
1,6,18,4,3,2,B,G,b,y,10,10,53001,1,3,355.4719,125.6407
1,6,18,4,3,2,B,G,b,y,10,10,53001,1,3,293.9334,202.1886
1,6,18,4,3,2,B,G,b,y,10,10,53001,1,1,226.3912,188.6801
1,6,18,4,3,2,B,G,b,y,10,10,54001,1,3,344.9653,167.667
1,6,18,4,3,2,B,G,b,y,10,10,54001,1,3,408.0047,164.6651
1,6,18,4,3,2,B,G,b,y,10,10,54001,1,3,523.5769,173.6707
1,6,18,4,3,2,B,G,b,y,10,10,55001,1,3,483.0516,242.7139
1,6,18,4,3,2,B,G,b,y,10,10,55001,1,3,454.5338,110.6313
1,6,18,4,3,2,B,G,b,y,10,10,55001,1,3,319.4493,194.6839
1,6,18,4,3,2,B,G,b,y,10,10,55001,1,1,319.4493,62.6013
1,6,18,4,3,2,B,G,b,y,10,10,55001,1,1,471.0441,301.2505
1,6,18,4,3,2,B,G,b,y,10,10,56001,1,3,260.9128,266.7289
1,6,18,4,3,2,B,G,b,y,10,10,56001,1,1,305.9409,344.7777
1,6,18,4,3,2,B,G,b,y,10,10,56001,1,3,603.1266,347.7795
1,6,18,4,3,2,B,G,b,y,10,10,56001,1,1,652.6576,298.2486
1,6,18,4,3,2,B,G,b,y,10,10,56001,1,3,403.5019,52.0947
1,6,18,4,3,2,B,G,b,y,10,10,57001,1,3,549.0929,383.8021
1,6,18,4,3,2,B,G,b,y,10,10,57001,1,3,436.5225,152.6576
1,6,18,4,3,2,B,G,b,y,10,10,57001,1,1,383.9897,97.1229
1,6,18,4,3,2,B,G,b,y,10,10,57001,1,3,244.4024,68.6051
1,6,18,4,3,2,B,G,b,y,10,10,57001,1,1,205.378,236.7101
1,6,18,4,3,2,B,G,b,y,10,10,58001,1,3,553.5957,389.8058
1,6,18,4,3,2,B,G,b,y,10,10,58001,1,3,460.5375,241.2129
1,6,18,4,3,2,B,G,b,y,10,10,58001,1,1,382.4887,91.1191
1,6,18,4,3,2,B,G,b,y,10,10,58001,1,3,245.9034,62.6013
1,6,18,4,3,2,B,G,b,y,10,10,58001,1,1,200.8752,230.7064
1,6,18,4,3,2,B,G,b,y,10,10,59001,1,3,244.4024,77.6107
1,6,18,4,3,2,B,G,b,y,10,10,59001,1,3,465.0403,250.2186
1,6,18,4,3,2,B,G,b,y,10,10,59001,1,3,486.0535,380.8002
1,6,18,4,3,2,B,G,b,y,10,10,59001,1,1,658.6614,295.2467
1,6,18,4,3,2,B,G,b,y,10,10,60001,1,3,474.046,311.757
1,6,18,4,3,2,B,G,b,y,10,10,60001,1,3,454.5338,254.7214
1,6,18,4,3,2,B,G,b,y,10,10,60001,1,1,181.363,188.6801
1,6,18,4,3,2,B,G,b,y,10,10,60001,1,3,242.9015,76.1098
1,6,18,4,3,2,B,G,b,y,10,10,61001,1,3,484.5525,290.7439
1,6,18,4,3,2,B,G,b,y,10,10,61001,1,3,427.5169,268.2298
1,6,18,4,3,2,B,G,b,y,10,10,61001,1,1,257.9109,398.8114
1,6,18,4,3,2,B,G,b,y,10,10,61001,1,3,238.3987,76.1098
1,6,18,4,3,2,B,G,b,y,10,10,62001,1,3,475.5469,361.288
1,6,18,4,3,2,B,G,b,y,10,10,62001,1,3,450.031,251.7195
1,6,18,4,3,2,B,G,b,y,10,10,62001,1,3,238.3987,76.1098
1,6,18,4,3,2,B,G,b,y,10,10,62001,1,1,251.9071,394.3086
1,6,18,4,3,2,B,G,b,y,10,10,63001,1,3,487.5544,467.8546
1,6,18,4,3,2,B,G,b,y,10,10,63001,1,1,570.106,344.7777
1,6,18,4,3,2,B,G,b,y,10,10,63001,1,3,445.5281,245.7158
1,6,18,4,3,2,B,G,b,y,10,10,63001,1,3,235.3968,80.6126
1,6,18,4,3,2,B,G,b,y,10,10,64001,1,3,460.5375,218.6989
1,6,18,4,3,2,B,G,b,y,10,10,64001,1,3,450.031,434.834
1,6,18,4,3,2,B,G,b,y,10,10,64001,1,1,197.8734,160.1623
1,6,18,4,3,2,B,G,b,y,10,10,64001,1,3,170.8565,143.652
1,6,18,4,3,2,B,G,b,y,10,10,65001,1,3,463.5394,191.682
1,6,18,4,3,2,B,G,b,y,10,10,65001,1,3,337.4606,287.742
1,6,18,4,3,2,B,G,b,y,10,10,65001,1,1,151.3443,200.6876
1,6,18,4,3,2,B,G,b,y,10,10,66001,1,1,555.0966,431.8321
1,6,18,4,3,2,B,G,b,y,10,10,66001,1,3,460.5375,139.1492
1,6,18,4,3,2,B,G,b,y,10,10,66001,1,3,406.5038,89.6182
1,6,18,4,3,2,B,G,b,y,10,10,67001,1,3,451.5319,127.1417
1,6,18,4,3,2,B,G,b,y,10,10,67001,1,3,406.5038,80.6126
1,6,18,4,3,2,B,G,b,y,10,10,68001,1,3,451.5319,106.1285
1,6,18,4,3,2,B,G,b,y,10,10,68001,1,3,284.9278,142.151
1,6,18,4,3,2,B,G,b,y,10,10,68001,1,1,385.4906,358.2861
1,6,18,4,3,2,B,G,b,y,10,10,69001,1,1,194.8715,119.637
1,6,18,4,3,2,B,G,b,y,10,10,69001,1,3,226.3912,257.7233
1,6,18,4,3,2,B,G,b,y,10,10,69001,1,3,435.0216,148.1548
1,6,18,4,3,2,B,G,b,y,10,10,70001,1,3,439.5244,208.1923
1,6,18,4,3,2,B,G,b,y,10,10,70001,1,1,280.425,347.7795
1,6,18,4,3,2,B,G,b,y,10,10,70001,1,3,295.4343,443.8396
1,6,18,4,3,2,B,G,b,y,10,10,71001,1,3,286.4287,343.2767
1,6,18,4,3,2,B,G,b,y,10,10,71001,1,1,173.8583,209.6932
1,6,18,4,3,2,B,G,b,y,10,10,71001,1,3,403.5019,278.7364
1,6,18,4,3,2,B,G,b,y,10,10,72001,1,3,359.9747,322.2636
1,6,18,4,3,2,B,G,b,y,10,10,72001,1,3,322.4512,281.7383
1,6,18,4,3,2,B,G,b,y,10,10,72001,1,1,205.378,101.6257
1,6,18,4,3,2,B,G,b,y,10,10,73001,1,3,338.9615,253.2205
1,6,18,4,3,2,B,G,b,y,10,10,73001,1,3,335.9597,443.8396
1,6,18,4,3,2,B,G,b,y,10,10,73001,1,1,203.8771,107.6295
1,6,18,4,3,2,B,G,b,y,10,10,74001,1,3,334.4587,205.1904
1,6,18,4,3,2,B,G,b,y,10,10,74001,1,3,298.4362,392.8077
1,6,18,4,3,2,B,G,b,y,10,10,75001,1,3,352.47,119.637
1,6,18,4,3,2,B,G,b,y,10,10,75001,1,1,185.8659,227.7045
1,6,18,4,3,2,B,G,b,y,10,10,75001,1,3,134.834,334.2711
1,6,18,4,3,2,B,G,b,y,10,10,76001,1,1,238.3987,338.7739
1,6,18,4,3,2,B,G,b,y,10,10,76001,1,3,353.9709,125.6407
1,6,18,4,3,2,B,G,b,y,10,10,76001,1,3,420.0122,536.8977
1,6,18,4,3,2,B,G,b,y,10,10,77001,1,3,355.4719,119.637
1,6,18,4,3,2,B,G,b,y,10,10,77001,1,3,451.5319,526.3912
1,6,18,4,3,2,B,G,b,y,10,10,78001,1,3,454.5338,520.3874
1,6,18,4,3,2,B,G,b,y,10,10,78001,1,1,380.9878,194.6839
1,6,18,4,3,2,B,G,b,y,10,10,78001,1,3,402.0009,145.1529
1,6,18,4,3,2,B,G,b,y,10,10,79001,1,3,409.5056,139.1492
1,6,18,4,3,2,B,G,b,y,10,10,79001,1,1,474.046,95.622
1,6,18,4,3,2,B,G,b,y,10,10,79001,1,1,230.894,122.6388
1,6,18,4,3,2,B,G,b,y,10,10,79001,1,3,459.0366,511.3818
1,6,18,4,3,2,B,G,b,y,10,10,80001,1,3,414.0084,158.6614
1,6,18,4,3,2,B,G,b,y,10,10,80001,1,1,359.9747,484.3649
1,6,18,4,3,2,B,G,b,y,10,10,80001,1,3,459.0366,506.879
1,6,18,4,3,2,B,G,b,y,10,10,81001,1,3,483.0516,520.3874
1,6,18,4,3,2,B,G,b,y,10,10,81001,1,1,579.1116,187.1792
1,6,18,4,3,2,B,G,b,y,10,10,81001,1,3,403.5019,83.6144
1,6,18,4,3,2,B,G,b,y,10,10,82001,1,3,340.4625,56.5976
1,6,18,4,3,2,B,G,b,y,10,10,82001,1,1,588.1173,142.151
1,6,18,4,3,2,B,G,b,y,10,10,82001,1,1,402.0009,487.3668
1,6,18,4,3,2,B,G,b,y,10,10,82001,1,3,486.0535,512.8827
1,6,18,4,3,2,B,G,b,y,10,10,83001,1,3,517.5732,499.3743
1,6,18,4,3,2,B,G,b,y,10,10,83001,1,1,598.6238,139.1492
1,6,18,4,3,2,B,G,b,y,10,10,83001,1,3,337.4606,61.1004
1,6,18,4,3,2,B,G,b,y,10,10,83001,1,1,209.8809,280.2373
1,6,18,4,3,2,B,G,b,y,10,10,84001,1,1,214.3837,287.742
1,6,18,4,3,2,B,G,b,y,10,10,84001,1,3,337.4606,55.0966
1,6,18,4,3,2,B,G,b,y,10,10,84001,1,3,529.5807,490.3687
1,6,18,4,3,2,B,G,b,y,10,10,85001,1,3,340.4625,125.6407
1,6,18,4,3,2,B,G,b,y,10,10,85001,1,1,601.6257,169.1679
1,6,18,4,3,2,B,G,b,y,10,10,85001,1,3,517.5732,460.3499
1,6,18,4,3,2,B,G,b,y,10,10,85001,1,1,313.4456,403.3143
1,6,18,4,3,2,B,G,b,y,10,10,86001,1,1,550.5938,233.7083
1,6,18,4,3,2,B,G,b,y,10,10,86001,1,1,487.5544,73.1079
1,6,18,4,3,2,B,G,b,y,10,10,86001,1,3,338.9615,127.1417
1,6,18,4,3,2,B,G,b,y,10,10,86001,1,3,520.575,454.3462
1,6,18,4,3,2,B,G,b,y,10,10,87001,1,3,350.969,115.1341
1,6,18,4,3,2,B,G,b,y,10,10,87001,1,1,209.8809,274.2336
1,6,18,4,3,2,B,G,b,y,10,10,87001,1,1,187.3668,284.7402
1,6,18,4,3,2,B,G,b,y,10,10,87001,1,1,224.8902,353.7833
1,6,18,4,3,2,B,G,b,y,10,10,87001,1,3,528.0797,422.8265
1,6,18,4,3,2,B,G,b,y,10,10,88001,1,1,353.9709,443.8396
1,6,18,4,3,2,B,G,b,y,10,10,88001,1,1,534.0835,470.8565
1,6,18,4,3,2,B,G,b,y,10,10,88001,1,3,532.5826,421.3255
1,6,18,4,3,2,B,G,b,y,10,10,88001,1,3,392.9953,184.1773
1,6,18,4,3,2,B,G,b,y,10,10,88001,1,1,143.8396,301.2505
1,6,18,4,3,2,B,G,b,y,10,10,89001,1,3,146.8415,388.3049
1,6,18,4,3,2,B,G,b,y,10,10,89001,1,1,340.4625,199.1867
1,6,18,4,3,2,B,G,b,y,10,10,89001,1,3,430.5188,233.7083
1,6,18,4,3,2,B,G,b,y,10,10,89001,1,3,549.0929,415.3218
1,6,18,4,3,2,B,G,b,y,10,10,89001,1,1,400.5,548.9053
1,6,18,4,3,2,B,G,b,y,10,10,90001,1,1,403.5019,245.7158
1,6,18,4,3,2,B,G,b,y,10,10,90001,1,3,442.5263,229.2054
1,6,18,4,3,2,B,G,b,y,10,10,90001,1,1,511.5694,355.2842
1,6,18,4,3,2,B,G,b,y,10,10,90001,1,3,561.1004,416.8227
1,6,18,4,3,2,B,G,b,y,10,10,91001,1,3,460.5375,248.7176
1,6,18,4,3,2,B,G,b,y,10,10,91001,1,3,571.6069,406.3161
1,6,18,4,3,2,B,G,b,y,10,10,91001,1,1,585.1154,442.3386
1,6,18,4,3,2,B,G,b,y,10,10,91001,1,1,408.0047,461.8508
1,6,18,4,3,2,B,G,b,y,10,10,91001,1,1,379.4869,503.8771
1,6,18,4,3,2,B,G,b,y,10,10,92001,1,3,465.0403,125.6407
1,6,18,4,3,2,B,G,b,y,10,10,92001,1,1,292.4325,122.6388
1,6,18,4,3,2,B,G,b,y,10,10,92001,1,1,462.0385,416.8227
1,6,18,4,3,2,B,G,b,y,10,10,92001,1,3,579.1116,376.2974
1,6,18,4,3,2,B,G,b,y,10,10,92001,1,1,627.1417,434.834
1,6,18,4,3,2,B,G,b,y,10,10,93001,1,3,412.5075,146.6538
1,6,18,4,3,2,B,G,b,y,10,10,93001,1,3,591.1191,371.7946
1,6,18,4,3,2,B,G,b,y,10,10,93001,1,1,152.8452,353.7833
1,6,18,4,3,2,B,G,b,y,10,10,94001,1,3,595.622,364.2899
1,6,18,4,3,2,B,G,b,y,10,10,94001,1,1,173.8583,353.7833
1,6,18,4,3,2,B,G,b,y,10,10,94001,1,3,344.9653,127.1417
1,6,18,4,3,2,B,G,b,y,10,10,95001,1,3,271.4193,223.2017
1,6,18,4,3,2,B,G,b,y,10,10,95001,1,3,573.1079,328.2674
1,6,18,4,3,2,B,G,b,y,10,10,95001,1,1,559.5994,389.8058
1,6,18,4,3,2,B,G,b,y,10,10,96001,1,1,281.9259,274.2336
1,6,18,4,3,2,B,G,b,y,10,10,96001,1,3,238.3987,464.8527
1,6,18,4,3,2,B,G,b,y,10,10,96001,1,3,529.5807,326.7664
1,6,18,4,3,2,B,G,b,y,10,10,97001,1,3,534.0835,427.3293
1,6,18,4,3,2,B,G,b,y,10,10,97001,1,3,233.8959,367.2917
1,6,18,4,3,2,B,G,b,y,10,10,97001,1,1,205.378,254.7214
1,6,18,4,3,2,B,G,b,y,10,10,98001,1,3,278.924,248.7176
1,6,18,4,3,2,B,G,b,y,10,10,98001,1,1,205.378,197.6857
1,6,18,4,3,2,B,G,b,y,10,10,98001,1,3,537.0854,424.3274
1,6,18,4,3,2,B,G,b,y,10,10,99001,1,3,317.9484,203.6895
1,6,18,4,3,2,B,G,b,y,10,10,99001,1,1,304.44,124.1398
1,6,18,4,3,2,B,G,b,y,10,10,99001,1,3,558.0985,427.3293
1,6,18,4,3,2,B,G,b,y,10,10,100001,1,3,547.5919,425.8283
1,6,18,4,3,2,B,G,b,y,10,10,100001,1,1,248.9053,307.2542
1,6,18,4,3,2,B,G,b,y,10,10,100001,1,3,316.4475,211.1942
1,6,18,4,3,2,B,G,b,y,10,10,101001,1,3,549.0929,419.8246
1,6,18,4,3,2,B,G,b,y,10,10,101001,1,1,241.4006,296.7477
1,6,18,4,3,2,B,G,b,y,10,10,101001,1,3,316.4475,200.6876
1,6,18,4,3,2,B,G,b,y,10,10,102001,1,3,550.5938,419.8246
1,6,18,4,3,2,B,G,b,y,10,10,102001,1,1,233.8959,292.2448
1,6,18,4,3,2,B,G,b,y,10,10,102001,1,3,311.9447,202.1886
1,6,18,4,3,2,B,G,b,y,10,10,103001,1,3,565.6032,415.3218
1,6,18,4,3,2,B,G,b,y,10,10,103001,1,1,239.8996,293.7458
1,6,18,4,3,2,B,G,b,y,10,10,103001,1,3,362.9765,175.1717
1,6,18,4,3,2,B,G,b,y,10,10,104001,1,3,553.5957,406.3161
1,6,18,4,3,2,B,G,b,y,10,10,104001,1,1,229.3931,299.7495
1,6,18,4,3,2,B,G,b,y,10,10,104001,1,1,355.4719,136.1473
1,6,18,4,3,2,B,G,b,y,10,10,104001,1,3,408.0047,104.6276
1,6,18,4,3,2,B,G,b,y,10,10,105001,1,3,540.0872,352.2824
1,6,18,4,3,2,B,G,b,y,10,10,105001,1,1,268.4174,308.7552
1,6,18,4,3,2,B,G,b,y,10,10,105001,1,1,353.9709,131.6445
1,6,18,4,3,2,B,G,b,y,10,10,105001,1,3,398.9991,76.1098
1,6,18,4,3,2,B,G,b,y,10,10,106001,1,3,546.091,356.7852
1,6,18,4,3,2,B,G,b,y,10,10,106001,1,1,310.4437,206.6914
1,6,18,4,3,2,B,G,b,y,10,10,106001,1,3,376.485,112.1323
1,6,18,4,3,2,B,G,b,y,10,10,107001,1,3,538.5863,352.2824
1,6,18,4,3,2,B,G,b,y,10,10,107001,1,1,362.9765,208.1923
1,6,18,4,3,2,B,G,b,y,10,10,107001,1,3,388.4925,190.1811
