dummy,month,day,period,view,station,fgeno,mgeno,fcol,mcol,nf,nm,frame,something,sex,x,y
1,6,25,4,2,1,C,G,b,y,5,15,1,1,1,244,401
1,6,25,4,2,1,C,G,b,y,5,15,1001,1,1,251,102
1,6,25,4,2,1,C,G,b,y,5,15,2001,1,1,252,84
1,6,25,4,2,1,C,G,b,y,5,15,3001,1,1,240,95
1,6,25,4,2,1,C,G,b,y,5,15,4001,1,1,261,87
1,6,25,4,2,1,C,G,b,y,5,15,5001,1,1,236,95
1,6,25,4,2,1,C,G,b,y,5,15,6001,1,1,529,340
1,6,25,4,2,1,C,G,b,y,5,15,7001,1,1,136,246
1,6,25,4,2,1,C,G,b,y,5,15,8001,1,1,151,247
1,6,25,4,2,1,C,G,b,y,5,15,9001,1,1,141,250
1,6,25,4,2,1,C,G,b,y,5,15,10001,1,1,142,254
1,6,25,4,2,1,C,G,b,y,5,15,11001,1,1,181,149
1,6,25,4,2,1,C,G,b,y,5,15,19001,1,1,210,147
1,6,25,4,2,1,C,G,b,y,5,15,20001,1,1,237,141
1,6,25,4,2,1,C,G,b,y,5,15,21001,1,1,222,148
1,6,25,4,2,1,C,G,b,y,5,15,22001,1,1,220,157
1,6,25,4,2,1,C,G,b,y,5,15,23001,1,1,213,143
1,6,25,4,2,1,C,G,b,y,5,15,24001,1,1,219,146
1,6,25,4,2,1,C,G,b,y,5,15,25001,1,1,211,146
1,6,25,4,2,1,C,G,b,y,5,15,26001,1,1,217,145
1,6,25,4,2,1,C,G,b,y,5,15,27001,1,1,215,142
1,6,25,4,2,1,C,G,b,y,5,15,28001,1,1,212,144
1,6,25,4,2,1,C,G,b,y,5,15,29001,1,1,215,141
1,6,25,4,2,1,C,G,b,y,5,15,30001,1,1,214,142
1,6,25,4,2,1,C,G,b,y,5,15,31001,1,1,215,138
1,6,25,4,2,1,C,G,b,y,5,15,32001,1,1,216,141
1,6,25,4,2,1,C,G,b,y,5,15,35001,1,1,321,41
1,6,25,4,2,1,C,G,b,y,5,15,36001,1,1,335,42
1,6,25,4,2,1,C,G,b,y,5,15,37001,1,1,333,47
1,6,25,4,2,1,C,G,b,y,5,15,38001,1,1,334,46
1,6,25,4,2,1,C,G,b,y,5,15,39001,1,1,337,48
1,6,25,4,2,1,C,G,b,y,5,15,40001,1,1,334,46
1,6,25,4,2,1,C,G,b,y,5,15,41001,1,1,336,45
1,6,25,4,2,1,C,G,b,y,5,15,42001,1,1,333,39
1,6,25,4,2,1,C,G,b,y,5,15,43001,1,1,539,245
1,6,25,4,2,1,C,G,b,y,5,15,44001,1,1,542,245
1,6,25,4,2,1,C,G,b,y,5,15,45001,1,1,540,246
1,6,25,4,2,1,C,G,b,y,5,15,46001,1,1,538,255
1,6,25,4,2,1,C,G,b,y,5,15,47001,1,1,535,257
1,6,25,4,2,1,C,G,b,y,5,15,48001,1,1,548,255
1,6,25,4,2,1,C,G,b,y,5,15,49001,1,1,543,261
1,6,25,4,2,1,C,G,b,y,5,15,50001,1,1,539,267
1,6,25,4,2,1,C,G,b,y,5,15,51001,1,1,542,259
1,6,25,4,2,1,C,G,b,y,5,15,52001,1,1,547,262
1,6,25,4,2,1,C,G,b,y,5,15,53001,1,1,537,263
1,6,25,4,2,1,C,G,b,y,5,15,54001,1,1,345,464
1,6,25,4,2,1,C,G,b,y,5,15,55001,1,1,338,457
1,6,25,4,2,1,C,G,b,y,5,15,56001,1,1,248,303
1,6,25,4,2,1,C,G,b,y,5,15,57001,1,1,287,57
1,6,25,4,2,1,C,G,b,y,5,15,58001,1,1,290,58
1,6,25,4,2,1,C,G,b,y,5,15,59001,1,1,291,60
1,6,25,4,2,1,C,G,b,y,5,15,60001,1,1,288,55
1,6,25,4,2,1,C,G,b,y,5,15,61001,1,1,288,56
1,6,25,4,2,1,C,G,b,y,5,15,62001,1,1,288,60
1,6,25,4,2,1,C,G,b,y,5,15,63001,1,1,288,61
1,6,25,4,2,1,C,G,b,y,5,15,64001,1,1,296,46
1,6,25,4,2,1,C,G,b,y,5,15,65001,1,1,292,59
1,6,25,4,2,1,C,G,b,y,5,15,66001,1,1,292,61
1,6,25,4,2,1,C,G,b,y,5,15,67001,1,1,286,61
1,6,25,4,2,1,C,G,b,y,5,15,68001,1,1,291,61
1,6,25,4,2,1,C,G,b,y,5,15,69001,1,1,293,61
1,6,25,4,2,1,C,G,b,y,5,15,70001,1,1,365,22
1,6,25,4,2,1,C,G,b,y,5,15,71001,1,1,371,23
1,6,25,4,2,1,C,G,b,y,5,15,72001,1,1,372,22
1,6,25,4,2,1,C,G,b,y,5,15,73001,1,1,371,27
1,6,25,4,2,1,C,G,b,y,5,15,74001,1,1,367,25
1,6,25,4,2,1,C,G,b,y,5,15,75001,1,1,371,25
1,6,25,4,2,1,C,G,b,y,5,15,76001,1,1,370,23
1,6,25,4,2,1,C,G,b,y,5,15,77001,1,1,377,26
1,6,25,4,2,1,C,G,b,y,5,15,78001,1,1,372,23
1,6,25,4,2,1,C,G,b,y,5,15,79001,1,1,374,26
1,6,25,4,2,1,C,G,b,y,5,15,80001,1,1,373,23
1,6,25,4,2,1,C,G,b,y,5,15,81001,1,1,375,27
1,6,25,4,2,1,C,G,b,y,5,15,82001,1,1,375,24
1,6,25,4,2,1,C,G,b,y,5,15,83001,1,1,380,21
1,6,25,4,2,1,C,G,b,y,5,15,84001,1,1,376,24
1,6,25,4,2,1,C,G,b,y,5,15,85001,1,1,575,245
1,6,25,4,2,1,C,G,b,y,5,15,89001,1,1,155,304
1,6,25,4,2,1,C,G,b,y,5,15,90001,1,1,150,305
1,6,25,4,2,1,C,G,b,y,5,15,91001,1,1,159,315
1,6,25,4,2,1,C,G,b,y,5,15,92001,1,1,155,306
1,6,25,4,2,1,C,G,b,y,5,15,93001,1,1,164,303
1,6,25,4,2,1,C,G,b,y,5,15,94001,1,1,152,308
1,6,25,4,2,1,C,G,b,y,5,15,95001,1,1,170,310
1,6,25,4,2,1,C,G,b,y,5,15,96001,1,1,151,306
1,6,25,4,2,1,C,G,b,y,5,15,97001,1,1,159,314
1,6,25,4,2,1,C,G,b,y,5,15,98001,1,1,166,306
1,6,25,4,2,1,C,G,b,y,5,15,99001,1,1,157,308
1,6,25,4,2,1,C,G,b,y,5,15,100001,1,1,156,307
1,6,25,4,2,1,C,G,b,y,5,15,101001,1,1,160,312
1,6,25,4,2,1,C,G,b,y,5,15,102001,1,1,158,309
1,6,25,4,2,1,C,G,b,y,5,15,103001,1,1,161,310
1,6,25,4,2,1,C,G,b,y,5,15,104001,1,1,154,312
1,6,25,4,2,1,C,G,b,y,5,15,105001,1,1,162,303
1,6,25,4,2,1,C,G,b,y,5,15,106001,1,1,157,311
1,6,25,4,2,1,C,G,b,y,5,15,107001,1,1,164,311
