dummy,month,day,period,view,station,fgeno,mgeno,fcol,mcol,nf,nm,frame,something,sex,x,y
1,6,25,4,0,1,C,G,b,y,5,15,1,1,1,415,67
1,6,25,4,0,1,C,G,b,y,5,15,1,1,1,319,93
1,6,25,4,0,1,C,G,b,y,5,15,1,1,3,564,198
1,6,25,4,0,1,C,G,b,y,5,15,1,1,3,607,188
1,6,25,4,0,1,C,G,b,y,5,15,1,1,3,515,506
1,6,25,4,0,1,C,G,b,y,5,15,1,1,1,328,406
1,6,25,4,0,1,C,G,b,y,5,15,1,1,1,173,419
1,6,25,4,0,1,C,G,b,y,5,15,1001,1,1,416,68
1,6,25,4,0,1,C,G,b,y,5,15,1001,1,1,329,92
1,6,25,4,0,1,C,G,b,y,5,15,1001,1,3,179,341
1,6,25,4,0,1,C,G,b,y,5,15,1001,1,1,195,424
1,6,25,4,0,1,C,G,b,y,5,15,1001,1,1,578,453
1,6,25,4,0,1,C,G,b,y,5,15,1001,1,3,611,192
1,6,25,4,0,1,C,G,b,y,5,15,1001,1,3,559,199
1,6,25,4,0,1,C,G,b,y,5,15,2001,1,3,610,191
1,6,25,4,0,1,C,G,b,y,5,15,2001,1,3,560,194
1,6,25,4,0,1,C,G,b,y,5,15,2001,1,1,598,453
1,6,25,4,0,1,C,G,b,y,5,15,2001,1,1,211,420
1,6,25,4,0,1,C,G,b,y,5,15,2001,1,1,302,123
1,6,25,4,0,1,C,G,b,y,5,15,2001,1,1,386,114
1,6,25,4,0,1,C,G,b,y,5,15,2001,1,3,350,60
1,6,25,4,0,1,C,G,b,y,5,15,3001,1,3,611,203
1,6,25,4,0,1,C,G,b,y,5,15,3001,1,3,553,193
1,6,25,4,0,1,C,G,b,y,5,15,3001,1,1,590,455
1,6,25,4,0,1,C,G,b,y,5,15,3001,1,1,215,434
1,6,25,4,0,1,C,G,b,y,5,15,3001,1,1,281,123
1,6,25,4,0,1,C,G,b,y,5,15,3001,1,1,389,113
1,6,25,4,0,1,C,G,b,y,5,15,3001,1,1,335,70
1,6,25,4,0,1,C,G,b,y,5,15,3001,1,3,262,89
1,6,25,4,0,1,C,G,b,y,5,15,4001,1,3,599,193
1,6,25,4,0,1,C,G,b,y,5,15,4001,1,3,558,194
1,6,25,4,0,1,C,G,b,y,5,15,4001,1,1,524,193
1,6,25,4,0,1,C,G,b,y,5,15,4001,1,1,384,82
1,6,25,4,0,1,C,G,b,y,5,15,4001,1,1,340,79
1,6,25,4,0,1,C,G,b,y,5,15,4001,1,1,284,126
1,6,25,4,0,1,C,G,b,y,5,15,4001,1,3,201,157
1,6,25,4,0,1,C,G,b,y,5,15,4001,1,1,194,430
1,6,25,4,0,1,C,G,b,y,5,15,5001,1,3,579,169
1,6,25,4,0,1,C,G,b,y,5,15,5001,1,3,555,190
1,6,25,4,0,1,C,G,b,y,5,15,5001,1,3,364,177
1,6,25,4,0,1,C,G,b,y,5,15,5001,1,1,204,421
1,6,25,4,0,1,C,G,b,y,5,15,5001,1,1,272,129
1,6,25,4,0,1,C,G,b,y,5,15,5001,1,1,333,106
1,6,25,4,0,1,C,G,b,y,5,15,5001,1,1,335,82
1,6,25,4,0,1,C,G,b,y,5,15,5001,1,1,392,118
1,6,25,4,0,1,C,G,b,y,5,15,6001,1,3,563,191
1,6,25,4,0,1,C,G,b,y,5,15,6001,1,3,491,126
1,6,25,4,0,1,C,G,b,y,5,15,6001,1,1,520,173
1,6,25,4,0,1,C,G,b,y,5,15,6001,1,1,483,178
1,6,25,4,0,1,C,G,b,y,5,15,6001,1,1,492,232
1,6,25,4,0,1,C,G,b,y,5,15,6001,1,1,378,258
1,6,25,4,0,1,C,G,b,y,5,15,6001,1,1,355,213
1,6,25,4,0,1,C,G,b,y,5,15,6001,1,1,200,428
1,6,25,4,0,1,C,G,b,y,5,15,6001,1,3,398,139
1,6,25,4,0,1,C,G,b,y,5,15,7001,1,3,555,200
1,6,25,4,0,1,C,G,b,y,5,15,7001,1,3,439,130
1,6,25,4,0,1,C,G,b,y,5,15,7001,1,3,353,89
1,6,25,4,0,1,C,G,b,y,5,15,7001,1,1,378,115
1,6,25,4,0,1,C,G,b,y,5,15,7001,1,1,177,251
1,6,25,4,0,1,C,G,b,y,5,15,7001,1,1,151,257
1,6,25,4,0,1,C,G,b,y,5,15,7001,1,1,297,355
1,6,25,4,0,1,C,G,b,y,5,15,7001,1,1,257,390
1,6,25,4,0,1,C,G,b,y,5,15,8001,1,3,556,205
1,6,25,4,0,1,C,G,b,y,5,15,8001,1,3,441,119
1,6,25,4,0,1,C,G,b,y,5,15,8001,1,3,304,129
1,6,25,4,0,1,C,G,b,y,5,15,8001,1,1,461,84
1,6,25,4,0,1,C,G,b,y,5,15,8001,1,1,357,51
1,6,25,4,0,1,C,G,b,y,5,15,8001,1,1,418,187
1,6,25,4,0,1,C,G,b,y,5,15,8001,1,1,314,334
1,6,25,4,0,1,C,G,b,y,5,15,8001,1,1,261,391
1,6,25,4,0,1,C,G,b,y,5,15,8001,1,1,560,509
1,6,25,4,0,1,C,G,b,y,5,15,9001,1,3,549,201
1,6,25,4,0,1,C,G,b,y,5,15,9001,1,3,443,129
1,6,25,4,0,1,C,G,b,y,5,15,9001,1,1,470,64
1,6,25,4,0,1,C,G,b,y,5,15,9001,1,1,425,73
1,6,25,4,0,1,C,G,b,y,5,15,9001,1,3,309,139
1,6,25,4,0,1,C,G,b,y,5,15,9001,1,1,410,176
1,6,25,4,0,1,C,G,b,y,5,15,9001,1,1,315,329
1,6,25,4,0,1,C,G,b,y,5,15,9001,1,1,232,328
1,6,25,4,0,1,C,G,b,y,5,15,9001,1,1,258,381
1,6,25,4,0,1,C,G,b,y,5,15,9001,1,1,564,505
1,6,25,4,0,1,C,G,b,y,5,15,10001,1,3,564,194
1,6,25,4,0,1,C,G,b,y,5,15,10001,1,3,460,132
1,6,25,4,0,1,C,G,b,y,5,15,10001,1,1,466,62
1,6,25,4,0,1,C,G,b,y,5,15,10001,1,1,425,71
1,6,25,4,0,1,C,G,b,y,5,15,10001,1,3,301,132
1,6,25,4,0,1,C,G,b,y,5,15,10001,1,1,408,178
1,6,25,4,0,1,C,G,b,y,5,15,10001,1,1,223,336
1,6,25,4,0,1,C,G,b,y,5,15,10001,1,1,257,386
1,6,25,4,0,1,C,G,b,y,5,15,10001,1,1,306,332
1,6,25,4,0,1,C,G,b,y,5,15,10001,1,1,564,506
1,6,25,4,0,1,C,G,b,y,5,15,11001,1,1,564,511
1,6,25,4,0,1,C,G,b,y,5,15,11001,1,3,561,203
1,6,25,4,0,1,C,G,b,y,5,15,11001,1,1,471,58
1,6,25,4,0,1,C,G,b,y,5,15,11001,1,1,421,72
1,6,25,4,0,1,C,G,b,y,5,15,11001,1,1,413,173
1,6,25,4,0,1,C,G,b,y,5,15,11001,1,1,375,207
1,6,25,4,0,1,C,G,b,y,5,15,11001,1,3,293,130
1,6,25,4,0,1,C,G,b,y,5,15,11001,1,1,216,334
1,6,25,4,0,1,C,G,b,y,5,15,11001,1,1,261,381
1,6,25,4,0,1,C,G,b,y,5,15,12001,1,1,562,510
1,6,25,4,0,1,C,G,b,y,5,15,12001,1,3,556,197
1,6,25,4,0,1,C,G,b,y,5,15,12001,1,3,548,120
1,6,25,4,0,1,C,G,b,y,5,15,12001,1,1,522,69
1,6,25,4,0,1,C,G,b,y,5,15,12001,1,1,402,199
1,6,25,4,0,1,C,G,b,y,5,15,12001,1,1,370,154
1,6,25,4,0,1,C,G,b,y,5,15,12001,1,3,299,199
1,6,25,4,0,1,C,G,b,y,5,15,12001,1,1,218,339
1,6,25,4,0,1,C,G,b,y,5,15,12001,1,1,252,381
1,6,25,4,0,1,C,G,b,y,5,15,13001,1,3,568,367
1,6,25,4,0,1,C,G,b,y,5,15,13001,1,3,545,215
1,6,25,4,0,1,C,G,b,y,5,15,13001,1,1,521,445
1,6,25,4,0,1,C,G,b,y,5,15,13001,1,1,273,395
1,6,25,4,0,1,C,G,b,y,5,15,13001,1,3,292,309
1,6,25,4,0,1,C,G,b,y,5,15,13001,1,1,277,265
1,6,25,4,0,1,C,G,b,y,5,15,13001,1,1,395,227
1,6,25,4,0,1,C,G,b,y,5,15,13001,1,1,447,143
1,6,25,4,0,1,C,G,b,y,5,15,13001,1,1,457,101
1,6,25,4,0,1,C,G,b,y,5,15,13001,1,1,314,99
1,6,25,4,0,1,C,G,b,y,5,15,14001,1,1,611,383
1,6,25,4,0,1,C,G,b,y,5,15,14001,1,1,436,312
1,6,25,4,0,1,C,G,b,y,5,15,14001,1,3,355,488
1,6,25,4,0,1,C,G,b,y,5,15,14001,1,3,546,210
1,6,25,4,0,1,C,G,b,y,5,15,14001,1,1,445,148
1,6,25,4,0,1,C,G,b,y,5,15,14001,1,1,437,83
1,6,25,4,0,1,C,G,b,y,5,15,14001,1,1,325,103
1,6,25,4,0,1,C,G,b,y,5,15,14001,1,3,337,231
1,6,25,4,0,1,C,G,b,y,5,15,14001,1,1,222,377
1,6,25,4,0,1,C,G,b,y,5,15,14001,1,1,229,404
1,6,25,4,0,1,C,G,b,y,5,15,15001,1,1,608,387
1,6,25,4,0,1,C,G,b,y,5,15,15001,1,3,554,207
1,6,25,4,0,1,C,G,b,y,5,15,15001,1,3,439,397
1,6,25,4,0,1,C,G,b,y,5,15,15001,1,1,423,351
1,6,25,4,0,1,C,G,b,y,5,15,15001,1,1,236,410
1,6,25,4,0,1,C,G,b,y,5,15,15001,1,1,436,186
1,6,25,4,0,1,C,G,b,y,5,15,15001,1,3,434,118
1,6,25,4,0,1,C,G,b,y,5,15,15001,1,1,432,83
1,6,25,4,0,1,C,G,b,y,5,15,15001,1,1,356,35
1,6,25,4,0,1,C,G,b,y,5,15,16001,1,1,606,381
1,6,25,4,0,1,C,G,b,y,5,15,16001,1,1,494,306
1,6,25,4,0,1,C,G,b,y,5,15,16001,1,1,413,375
1,6,25,4,0,1,C,G,b,y,5,15,16001,1,1,235,413
1,6,25,4,0,1,C,G,b,y,5,15,16001,1,3,541,215
1,6,25,4,0,1,C,G,b,y,5,15,16001,1,3,407,196
1,6,25,4,0,1,C,G,b,y,5,15,16001,1,3,230,211
1,6,25,4,0,1,C,G,b,y,5,15,16001,1,1,354,57
1,6,25,4,0,1,C,G,b,y,5,15,16001,1,1,405,47
1,6,25,4,0,1,C,G,b,y,5,15,16001,1,1,373,19
1,6,25,4,0,1,C,G,b,y,5,15,17001,1,1,603,381
1,6,25,4,0,1,C,G,b,y,5,15,17001,1,1,503,315
1,6,25,4,0,1,C,G,b,y,5,15,17001,1,1,421,377
1,6,25,4,0,1,C,G,b,y,5,15,17001,1,1,239,408
1,6,25,4,0,1,C,G,b,y,5,15,17001,1,3,546,213
1,6,25,4,0,1,C,G,b,y,5,15,17001,1,1,467,155
1,6,25,4,0,1,C,G,b,y,5,15,17001,1,1,447,42
1,6,25,4,0,1,C,G,b,y,5,15,17001,1,3,371,78
1,6,25,4,0,1,C,G,b,y,5,15,17001,1,1,295,103
1,6,25,4,0,1,C,G,b,y,5,15,17001,1,1,329,27
1,6,25,4,0,1,C,G,b,y,5,15,18001,1,1,606,382
1,6,25,4,0,1,C,G,b,y,5,15,18001,1,1,555,324
1,6,25,4,0,1,C,G,b,y,5,15,18001,1,1,433,371
1,6,25,4,0,1,C,G,b,y,5,15,18001,1,1,229,411
1,6,25,4,0,1,C,G,b,y,5,15,18001,1,1,140,290
1,6,25,4,0,1,C,G,b,y,5,15,18001,1,3,587,282
1,6,25,4,0,1,C,G,b,y,5,15,18001,1,3,547,217
1,6,25,4,0,1,C,G,b,y,5,15,18001,1,3,525,109
1,6,25,4,0,1,C,G,b,y,5,15,18001,1,1,458,118
1,6,25,4,0,1,C,G,b,y,5,15,18001,1,1,445,37
1,6,25,4,0,1,C,G,b,y,5,15,19001,1,3,635,414
1,6,25,4,0,1,C,G,b,y,5,15,19001,1,3,520,340
1,6,25,4,0,1,C,G,b,y,5,15,19001,1,1,546,298
1,6,25,4,0,1,C,G,b,y,5,15,19001,1,3,551,226
1,6,25,4,0,1,C,G,b,y,5,15,19001,1,1,512,202
1,6,25,4,0,1,C,G,b,y,5,15,19001,1,1,431,142
1,6,25,4,0,1,C,G,b,y,5,15,19001,1,1,449,57
1,6,25,4,0,1,C,G,b,y,5,15,19001,1,1,409,373
1,6,25,4,0,1,C,G,b,y,5,15,19001,1,1,228,382
1,6,25,4,0,1,C,G,b,y,5,15,19001,1,1,181,276
1,6,25,4,0,1,C,G,b,y,5,15,20001,1,1,447,44
1,6,25,4,0,1,C,G,b,y,5,15,20001,1,1,510,148
1,6,25,4,0,1,C,G,b,y,5,15,20001,1,1,508,243
1,6,25,4,0,1,C,G,b,y,5,15,20001,1,1,411,154
1,6,25,4,0,1,C,G,b,y,5,15,20001,1,3,566,220
1,6,25,4,0,1,C,G,b,y,5,15,20001,1,1,471,390
1,6,25,4,0,1,C,G,b,y,5,15,20001,1,3,448,438
1,6,25,4,0,1,C,G,b,y,5,15,20001,1,1,222,388
1,6,25,4,0,1,C,G,b,y,5,15,20001,1,1,146,267
1,6,25,4,0,1,C,G,b,y,5,15,20001,1,3,199,178
1,6,25,4,0,1,C,G,b,y,5,15,21001,1,3,571,234
1,6,25,4,0,1,C,G,b,y,5,15,21001,1,1,484,398
1,6,25,4,0,1,C,G,b,y,5,15,21001,1,3,393,455
1,6,25,4,0,1,C,G,b,y,5,15,21001,1,1,510,254
1,6,25,4,0,1,C,G,b,y,5,15,21001,1,1,507,157
1,6,25,4,0,1,C,G,b,y,5,15,21001,1,1,404,147
1,6,25,4,0,1,C,G,b,y,5,15,21001,1,1,446,41
1,6,25,4,0,1,C,G,b,y,5,15,21001,1,1,189,197
1,6,25,4,0,1,C,G,b,y,5,15,21001,1,3,147,301
1,6,25,4,0,1,C,G,b,y,5,15,21001,1,1,221,383
1,6,25,4,0,1,C,G,b,y,5,15,22001,1,3,478,460
1,6,25,4,0,1,C,G,b,y,5,15,22001,1,3,401,468
1,6,25,4,0,1,C,G,b,y,5,15,22001,1,1,459,388
1,6,25,4,0,1,C,G,b,y,5,15,22001,1,1,446,336
1,6,25,4,0,1,C,G,b,y,5,15,22001,1,3,521,292
1,6,25,4,0,1,C,G,b,y,5,15,22001,1,1,506,154
1,6,25,4,0,1,C,G,b,y,5,15,22001,1,1,416,156
1,6,25,4,0,1,C,G,b,y,5,15,22001,1,1,446,51
1,6,25,4,0,1,C,G,b,y,5,15,22001,1,1,194,200
1,6,25,4,0,1,C,G,b,y,5,15,22001,1,1,192,353
1,6,25,4,0,1,C,G,b,y,5,15,23001,1,3,546,466
1,6,25,4,0,1,C,G,b,y,5,15,23001,1,3,529,381
1,6,25,4,0,1,C,G,b,y,5,15,23001,1,3,407,480
1,6,25,4,0,1,C,G,b,y,5,15,23001,1,1,447,377
1,6,25,4,0,1,C,G,b,y,5,15,23001,1,1,442,340
1,6,25,4,0,1,C,G,b,y,5,15,23001,1,1,512,162
1,6,25,4,0,1,C,G,b,y,5,15,23001,1,1,411,152
1,6,25,4,0,1,C,G,b,y,5,15,23001,1,1,442,36
1,6,25,4,0,1,C,G,b,y,5,15,23001,1,1,199,193
1,6,25,4,0,1,C,G,b,y,5,15,23001,1,1,199,351
1,6,25,4,0,1,C,G,b,y,5,15,24001,1,3,539,467
1,6,25,4,0,1,C,G,b,y,5,15,24001,1,3,528,367
1,6,25,4,0,1,C,G,b,y,5,15,24001,1,3,402,473
1,6,25,4,0,1,C,G,b,y,5,15,24001,1,1,453,391
1,6,25,4,0,1,C,G,b,y,5,15,24001,1,1,445,344
1,6,25,4,0,1,C,G,b,y,5,15,24001,1,1,510,158
1,6,25,4,0,1,C,G,b,y,5,15,24001,1,1,418,154
1,6,25,4,0,1,C,G,b,y,5,15,24001,1,1,447,39
1,6,25,4,0,1,C,G,b,y,5,15,24001,1,1,191,193
1,6,25,4,0,1,C,G,b,y,5,15,24001,1,1,193,352
1,6,25,4,0,1,C,G,b,y,5,15,25001,1,3,537,465
1,6,25,4,0,1,C,G,b,y,5,15,25001,1,3,520,364
1,6,25,4,0,1,C,G,b,y,5,15,25001,1,3,404,471
1,6,25,4,0,1,C,G,b,y,5,15,25001,1,1,455,390
1,6,25,4,0,1,C,G,b,y,5,15,25001,1,1,448,335
1,6,25,4,0,1,C,G,b,y,5,15,25001,1,1,519,163
1,6,25,4,0,1,C,G,b,y,5,15,25001,1,1,412,159
1,6,25,4,0,1,C,G,b,y,5,15,25001,1,1,444,43
1,6,25,4,0,1,C,G,b,y,5,15,25001,1,1,185,198
1,6,25,4,0,1,C,G,b,y,5,15,25001,1,1,191,355
1,6,25,4,0,1,C,G,b,y,5,15,26001,1,3,534,457
1,6,25,4,0,1,C,G,b,y,5,15,26001,1,3,523,375
1,6,25,4,0,1,C,G,b,y,5,15,26001,1,3,406,469
1,6,25,4,0,1,C,G,b,y,5,15,26001,1,1,449,388
1,6,25,4,0,1,C,G,b,y,5,15,26001,1,1,444,347
1,6,25,4,0,1,C,G,b,y,5,15,26001,1,1,512,169
1,6,25,4,0,1,C,G,b,y,5,15,26001,1,1,422,160
1,6,25,4,0,1,C,G,b,y,5,15,26001,1,1,452,37
1,6,25,4,0,1,C,G,b,y,5,15,26001,1,1,187,199
1,6,25,4,0,1,C,G,b,y,5,15,26001,1,1,188,355
1,6,25,4,0,1,C,G,b,y,5,15,27001,1,3,538,460
1,6,25,4,0,1,C,G,b,y,5,15,27001,1,3,527,363
1,6,25,4,0,1,C,G,b,y,5,15,27001,1,3,408,471
1,6,25,4,0,1,C,G,b,y,5,15,27001,1,1,448,387
1,6,25,4,0,1,C,G,b,y,5,15,27001,1,1,451,347
1,6,25,4,0,1,C,G,b,y,5,15,27001,1,1,512,160
1,6,25,4,0,1,C,G,b,y,5,15,27001,1,1,415,154
1,6,25,4,0,1,C,G,b,y,5,15,27001,1,1,444,41
1,6,25,4,0,1,C,G,b,y,5,15,27001,1,1,192,195
1,6,25,4,0,1,C,G,b,y,5,15,27001,1,1,189,355
1,6,25,4,0,1,C,G,b,y,5,15,28001,1,3,539,457
1,6,25,4,0,1,C,G,b,y,5,15,28001,1,3,528,364
1,6,25,4,0,1,C,G,b,y,5,15,28001,1,3,405,474
1,6,25,4,0,1,C,G,b,y,5,15,28001,1,1,459,383
1,6,25,4,0,1,C,G,b,y,5,15,28001,1,1,444,347
1,6,25,4,0,1,C,G,b,y,5,15,28001,1,1,516,162
1,6,25,4,0,1,C,G,b,y,5,15,28001,1,1,410,160
1,6,25,4,0,1,C,G,b,y,5,15,28001,1,1,440,37
1,6,25,4,0,1,C,G,b,y,5,15,28001,1,1,187,197
1,6,25,4,0,1,C,G,b,y,5,15,28001,1,1,192,358
1,6,25,4,0,1,C,G,b,y,5,15,29001,1,3,545,465
1,6,25,4,0,1,C,G,b,y,5,15,29001,1,3,524,365
1,6,25,4,0,1,C,G,b,y,5,15,29001,1,3,397,477
1,6,25,4,0,1,C,G,b,y,5,15,29001,1,1,460,389
1,6,25,4,0,1,C,G,b,y,5,15,29001,1,1,449,352
1,6,25,4,0,1,C,G,b,y,5,15,29001,1,1,512,154
1,6,25,4,0,1,C,G,b,y,5,15,29001,1,1,413,154
1,6,25,4,0,1,C,G,b,y,5,15,29001,1,1,445,40
1,6,25,4,0,1,C,G,b,y,5,15,29001,1,1,161,164
1,6,25,4,0,1,C,G,b,y,5,15,29001,1,1,193,352
1,6,25,4,0,1,C,G,b,y,5,15,30001,1,3,541,460
1,6,25,4,0,1,C,G,b,y,5,15,30001,1,3,520,360
1,6,25,4,0,1,C,G,b,y,5,15,30001,1,3,391,475
1,6,25,4,0,1,C,G,b,y,5,15,30001,1,1,455,382
1,6,25,4,0,1,C,G,b,y,5,15,30001,1,1,456,342
1,6,25,4,0,1,C,G,b,y,5,15,30001,1,1,507,161
1,6,25,4,0,1,C,G,b,y,5,15,30001,1,1,415,155
1,6,25,4,0,1,C,G,b,y,5,15,30001,1,1,447,45
1,6,25,4,0,1,C,G,b,y,5,15,30001,1,1,155,158
1,6,25,4,0,1,C,G,b,y,5,15,30001,1,1,192,353
1,6,25,4,0,1,C,G,b,y,5,15,31001,1,3,543,462
1,6,25,4,0,1,C,G,b,y,5,15,31001,1,3,514,362
1,6,25,4,0,1,C,G,b,y,5,15,31001,1,3,394,480
1,6,25,4,0,1,C,G,b,y,5,15,31001,1,1,450,391
1,6,25,4,0,1,C,G,b,y,5,15,31001,1,1,452,347
1,6,25,4,0,1,C,G,b,y,5,15,31001,1,1,514,154
1,6,25,4,0,1,C,G,b,y,5,15,31001,1,1,445,39
1,6,25,4,0,1,C,G,b,y,5,15,31001,1,1,420,144
1,6,25,4,0,1,C,G,b,y,5,15,31001,1,1,157,168
1,6,25,4,0,1,C,G,b,y,5,15,31001,1,1,190,355
1,6,25,4,0,1,C,G,b,y,5,15,32001,1,3,542,460
1,6,25,4,0,1,C,G,b,y,5,15,32001,1,3,522,365
1,6,25,4,0,1,C,G,b,y,5,15,32001,1,3,398,486
1,6,25,4,0,1,C,G,b,y,5,15,32001,1,1,457,387
1,6,25,4,0,1,C,G,b,y,5,15,32001,1,1,457,338
1,6,25,4,0,1,C,G,b,y,5,15,32001,1,1,505,158
1,6,25,4,0,1,C,G,b,y,5,15,32001,1,1,409,150
1,6,25,4,0,1,C,G,b,y,5,15,32001,1,1,450,36
1,6,25,4,0,1,C,G,b,y,5,15,32001,1,1,301,92
1,6,25,4,0,1,C,G,b,y,5,15,32001,1,1,192,356
1,6,25,4,0,1,C,G,b,y,5,15,33001,1,3,537,450
1,6,25,4,0,1,C,G,b,y,5,15,33001,1,3,522,362
1,6,25,4,0,1,C,G,b,y,5,15,33001,1,3,400,479
1,6,25,4,0,1,C,G,b,y,5,15,33001,1,1,193,344
1,6,25,4,0,1,C,G,b,y,5,15,33001,1,1,453,391
1,6,25,4,0,1,C,G,b,y,5,15,33001,1,1,457,340
1,6,25,4,0,1,C,G,b,y,5,15,33001,1,1,509,158
1,6,25,4,0,1,C,G,b,y,5,15,33001,1,1,409,145
1,6,25,4,0,1,C,G,b,y,5,15,33001,1,1,403,83
1,6,25,4,0,1,C,G,b,y,5,15,33001,1,1,429,44
1,6,25,4,0,1,C,G,b,y,5,15,34001,1,3,540,445
1,6,25,4,0,1,C,G,b,y,5,15,34001,1,3,519,358
1,6,25,4,0,1,C,G,b,y,5,15,34001,1,3,399,473
1,6,25,4,0,1,C,G,b,y,5,15,34001,1,1,452,392
1,6,25,4,0,1,C,G,b,y,5,15,34001,1,1,482,210
1,6,25,4,0,1,C,G,b,y,5,15,34001,1,1,406,139
1,6,25,4,0,1,C,G,b,y,5,15,34001,1,1,211,351
1,6,25,4,0,1,C,G,b,y,5,15,34001,1,1,178,335
1,6,25,4,0,1,C,G,b,y,5,15,35001,1,3,538,443
1,6,25,4,0,1,C,G,b,y,5,15,35001,1,3,526,355
1,6,25,4,0,1,C,G,b,y,5,15,35001,1,1,471,461
1,6,25,4,0,1,C,G,b,y,5,15,35001,1,3,391,479
1,6,25,4,0,1,C,G,b,y,5,15,35001,1,1,221,350
1,6,25,4,0,1,C,G,b,y,5,15,35001,1,1,245,333
1,6,25,4,0,1,C,G,b,y,5,15,35001,1,1,174,289
1,6,25,4,0,1,C,G,b,y,5,15,35001,1,1,479,211
1,6,25,4,0,1,C,G,b,y,5,15,35001,1,1,424,156
1,6,25,4,0,1,C,G,b,y,5,15,36001,1,3,537,443
1,6,25,4,0,1,C,G,b,y,5,15,36001,1,3,531,332
1,6,25,4,0,1,C,G,b,y,5,15,36001,1,3,405,476
1,6,25,4,0,1,C,G,b,y,5,15,36001,1,1,482,461
1,6,25,4,0,1,C,G,b,y,5,15,36001,1,1,440,565
1,6,25,4,0,1,C,G,b,y,5,15,36001,1,1,162,276
1,6,25,4,0,1,C,G,b,y,5,15,36001,1,1,457,248
1,6,25,4,0,1,C,G,b,y,5,15,36001,1,1,480,215
1,6,25,4,0,1,C,G,b,y,5,15,36001,1,1,421,155
1,6,25,4,0,1,C,G,b,y,5,15,37001,1,3,568,272
1,6,25,4,0,1,C,G,b,y,5,15,37001,1,3,542,437
1,6,25,4,0,1,C,G,b,y,5,15,37001,1,3,401,487
1,6,25,4,0,1,C,G,b,y,5,15,37001,1,1,456,474
1,6,25,4,0,1,C,G,b,y,5,15,37001,1,1,438,568
1,6,25,4,0,1,C,G,b,y,5,15,37001,1,1,279,367
1,6,25,4,0,1,C,G,b,y,5,15,37001,1,1,153,252
1,6,25,4,0,1,C,G,b,y,5,15,37001,1,1,478,232
1,6,25,4,0,1,C,G,b,y,5,15,37001,1,1,420,153
1,6,25,4,0,1,C,G,b,y,5,15,38001,1,3,527,261
1,6,25,4,0,1,C,G,b,y,5,15,38001,1,3,549,429
1,6,25,4,0,1,C,G,b,y,5,15,38001,1,1,472,423
1,6,25,4,0,1,C,G,b,y,5,15,38001,1,1,432,461
1,6,25,4,0,1,C,G,b,y,5,15,38001,1,1,435,568
1,6,25,4,0,1,C,G,b,y,5,15,38001,1,3,397,486
1,6,25,4,0,1,C,G,b,y,5,15,38001,1,1,434,134
1,6,25,4,0,1,C,G,b,y,5,15,38001,1,1,292,70
1,6,25,4,0,1,C,G,b,y,5,15,39001,1,3,537,422
1,6,25,4,0,1,C,G,b,y,5,15,39001,1,1,465,424
1,6,25,4,0,1,C,G,b,y,5,15,39001,1,1,431,458
1,6,25,4,0,1,C,G,b,y,5,15,39001,1,1,433,569
1,6,25,4,0,1,C,G,b,y,5,15,39001,1,3,389,476
1,6,25,4,0,1,C,G,b,y,5,15,39001,1,1,528,227
1,6,25,4,0,1,C,G,b,y,5,15,39001,1,1,486,179
1,6,25,4,0,1,C,G,b,y,5,15,39001,1,3,375,148
1,6,25,4,0,1,C,G,b,y,5,15,39001,1,1,250,107
1,6,25,4,0,1,C,G,b,y,5,15,40001,1,1,438,570
1,6,25,4,0,1,C,G,b,y,5,15,40001,1,1,466,432
1,6,25,4,0,1,C,G,b,y,5,15,40001,1,1,421,461
1,6,25,4,0,1,C,G,b,y,5,15,40001,1,3,384,488
1,6,25,4,0,1,C,G,b,y,5,15,40001,1,3,540,407
1,6,25,4,0,1,C,G,b,y,5,15,40001,1,1,564,241
1,6,25,4,0,1,C,G,b,y,5,15,40001,1,1,483,169
1,6,25,4,0,1,C,G,b,y,5,15,40001,1,1,315,226
1,6,25,4,0,1,C,G,b,y,5,15,40001,1,3,157,208
1,6,25,4,0,1,C,G,b,y,5,15,41001,1,1,434,574
1,6,25,4,0,1,C,G,b,y,5,15,41001,1,1,474,427
1,6,25,4,0,1,C,G,b,y,5,15,41001,1,1,436,463
1,6,25,4,0,1,C,G,b,y,5,15,41001,1,3,395,486
1,6,25,4,0,1,C,G,b,y,5,15,41001,1,3,541,400
1,6,25,4,0,1,C,G,b,y,5,15,41001,1,1,560,260
1,6,25,4,0,1,C,G,b,y,5,15,41001,1,1,506,145
1,6,25,4,0,1,C,G,b,y,5,15,41001,1,1,362,164
1,6,25,4,0,1,C,G,b,y,5,15,41001,1,3,458,114
1,6,25,4,0,1,C,G,b,y,5,15,42001,1,1,503,146
1,6,25,4,0,1,C,G,b,y,5,15,42001,1,1,199,122
1,6,25,4,0,1,C,G,b,y,5,15,42001,1,3,226,177
1,6,25,4,0,1,C,G,b,y,5,15,42001,1,3,548,387
1,6,25,4,0,1,C,G,b,y,5,15,42001,1,1,537,479
1,6,25,4,0,1,C,G,b,y,5,15,42001,1,1,432,449
1,6,25,4,0,1,C,G,b,y,5,15,42001,1,3,398,473
1,6,25,4,0,1,C,G,b,y,5,15,42001,1,1,440,568
1,6,25,4,0,1,C,G,b,y,5,15,43001,1,1,191,119
1,6,25,4,0,1,C,G,b,y,5,15,43001,1,1,499,140
1,6,25,4,0,1,C,G,b,y,5,15,43001,1,3,388,362
1,6,25,4,0,1,C,G,b,y,5,15,43001,1,3,550,370
1,6,25,4,0,1,C,G,b,y,5,15,43001,1,1,485,416
1,6,25,4,0,1,C,G,b,y,5,15,43001,1,1,439,463
1,6,25,4,0,1,C,G,b,y,5,15,43001,1,3,394,486
1,6,25,4,0,1,C,G,b,y,5,15,43001,1,1,497,509
1,6,25,4,0,1,C,G,b,y,5,15,43001,1,1,531,482
1,6,25,4,0,1,C,G,b,y,5,15,44001,1,1,504,147
1,6,25,4,0,1,C,G,b,y,5,15,44001,1,1,196,113
1,6,25,4,0,1,C,G,b,y,5,15,44001,1,1,387,418
1,6,25,4,0,1,C,G,b,y,5,15,44001,1,1,501,364
1,6,25,4,0,1,C,G,b,y,5,15,44001,1,3,542,367
1,6,25,4,0,1,C,G,b,y,5,15,44001,1,3,590,398
1,6,25,4,0,1,C,G,b,y,5,15,44001,1,3,384,489
1,6,25,4,0,1,C,G,b,y,5,15,44001,1,1,482,484
1,6,25,4,0,1,C,G,b,y,5,15,44001,1,1,578,484
1,6,25,4,0,1,C,G,b,y,5,15,45001,1,1,193,115
1,6,25,4,0,1,C,G,b,y,5,15,45001,1,1,523,142
1,6,25,4,0,1,C,G,b,y,5,15,45001,1,3,458,189
1,6,25,4,0,1,C,G,b,y,5,15,45001,1,3,553,352
1,6,25,4,0,1,C,G,b,y,5,15,45001,1,1,501,362
1,6,25,4,0,1,C,G,b,y,5,15,45001,1,1,575,457
1,6,25,4,0,1,C,G,b,y,5,15,45001,1,1,481,479
1,6,25,4,0,1,C,G,b,y,5,15,45001,1,1,385,419
1,6,25,4,0,1,C,G,b,y,5,15,45001,1,3,384,484
1,6,25,4,0,1,C,G,b,y,5,15,46001,1,1,550,402
1,6,25,4,0,1,C,G,b,y,5,15,46001,1,1,499,356
1,6,25,4,0,1,C,G,b,y,5,15,46001,1,3,534,347
1,6,25,4,0,1,C,G,b,y,5,15,46001,1,1,448,413
1,6,25,4,0,1,C,G,b,y,5,15,46001,1,1,383,415
1,6,25,4,0,1,C,G,b,y,5,15,46001,1,3,381,487
1,6,25,4,0,1,C,G,b,y,5,15,46001,1,1,521,141
1,6,25,4,0,1,C,G,b,y,5,15,46001,1,3,249,117
1,6,25,4,0,1,C,G,b,y,5,15,46001,1,1,195,115
1,6,25,4,0,1,C,G,b,y,5,15,47001,1,1,524,146
1,6,25,4,0,1,C,G,b,y,5,15,47001,1,1,459,165
1,6,25,4,0,1,C,G,b,y,5,15,47001,1,1,193,116
1,6,25,4,0,1,C,G,b,y,5,15,47001,1,1,409,327
1,6,25,4,0,1,C,G,b,y,5,15,47001,1,1,380,416
1,6,25,4,0,1,C,G,b,y,5,15,47001,1,1,443,394
1,6,25,4,0,1,C,G,b,y,5,15,47001,1,3,381,482
1,6,25,4,0,1,C,G,b,y,5,15,47001,1,3,530,346
1,6,25,4,0,1,C,G,b,y,5,15,47001,1,3,490,58
1,6,25,4,0,1,C,G,b,y,5,15,48001,1,1,520,135
1,6,25,4,0,1,C,G,b,y,5,15,48001,1,1,456,167
1,6,25,4,0,1,C,G,b,y,5,15,48001,1,1,188,117
1,6,25,4,0,1,C,G,b,y,5,15,48001,1,3,274,195
1,6,25,4,0,1,C,G,b,y,5,15,48001,1,1,451,256
1,6,25,4,0,1,C,G,b,y,5,15,48001,1,3,516,338
1,6,25,4,0,1,C,G,b,y,5,15,48001,1,1,443,395
1,6,25,4,0,1,C,G,b,y,5,15,48001,1,1,366,414
1,6,25,4,0,1,C,G,b,y,5,15,48001,1,3,388,483
1,6,25,4,0,1,C,G,b,y,5,15,49001,1,1,521,137
1,6,25,4,0,1,C,G,b,y,5,15,49001,1,1,457,168
1,6,25,4,0,1,C,G,b,y,5,15,49001,1,1,195,121
1,6,25,4,0,1,C,G,b,y,5,15,49001,1,3,519,342
1,6,25,4,0,1,C,G,b,y,5,15,49001,1,1,457,352
1,6,25,4,0,1,C,G,b,y,5,15,49001,1,3,410,353
1,6,25,4,0,1,C,G,b,y,5,15,49001,1,1,364,394
1,6,25,4,0,1,C,G,b,y,5,15,49001,1,1,399,390
1,6,25,4,0,1,C,G,b,y,5,15,49001,1,3,381,484
1,6,25,4,0,1,C,G,b,y,5,15,50001,1,1,516,141
1,6,25,4,0,1,C,G,b,y,5,15,50001,1,1,451,163
1,6,25,4,0,1,C,G,b,y,5,15,50001,1,1,200,122
1,6,25,4,0,1,C,G,b,y,5,15,50001,1,3,651,220
1,6,25,4,0,1,C,G,b,y,5,15,50001,1,3,514,334
1,6,25,4,0,1,C,G,b,y,5,15,50001,1,1,446,344
1,6,25,4,0,1,C,G,b,y,5,15,50001,1,1,355,352
1,6,25,4,0,1,C,G,b,y,5,15,50001,1,1,343,404
1,6,25,4,0,1,C,G,b,y,5,15,50001,1,3,378,481
1,6,25,4,0,1,C,G,b,y,5,15,51001,1,1,527,125
1,6,25,4,0,1,C,G,b,y,5,15,51001,1,1,451,193
1,6,25,4,0,1,C,G,b,y,5,15,51001,1,3,423,154
1,6,25,4,0,1,C,G,b,y,5,15,51001,1,1,204,206
1,6,25,4,0,1,C,G,b,y,5,15,51001,1,1,350,353
1,6,25,4,0,1,C,G,b,y,5,15,51001,1,1,454,344
1,6,25,4,0,1,C,G,b,y,5,15,51001,1,1,350,399
1,6,25,4,0,1,C,G,b,y,5,15,51001,1,3,499,323
1,6,25,4,0,1,C,G,b,y,5,15,51001,1,3,380,480
1,6,25,4,0,1,C,G,b,y,5,15,52001,1,3,462,91
1,6,25,4,0,1,C,G,b,y,5,15,52001,1,1,524,128
1,6,25,4,0,1,C,G,b,y,5,15,52001,1,1,453,191
1,6,25,4,0,1,C,G,b,y,5,15,52001,1,1,434,142
1,6,25,4,0,1,C,G,b,y,5,15,52001,1,3,498,328
1,6,25,4,0,1,C,G,b,y,5,15,52001,1,1,442,338
1,6,25,4,0,1,C,G,b,y,5,15,52001,1,1,352,351
1,6,25,4,0,1,C,G,b,y,5,15,52001,1,1,346,397
1,6,25,4,0,1,C,G,b,y,5,15,52001,1,3,379,481
1,6,25,4,0,1,C,G,b,y,5,15,53001,1,1,522,128
1,6,25,4,0,1,C,G,b,y,5,15,53001,1,1,445,193
1,6,25,4,0,1,C,G,b,y,5,15,53001,1,1,377,96
1,6,25,4,0,1,C,G,b,y,5,15,53001,1,3,326,111
1,6,25,4,0,1,C,G,b,y,5,15,53001,1,3,494,330
1,6,25,4,0,1,C,G,b,y,5,15,53001,1,1,447,338
1,6,25,4,0,1,C,G,b,y,5,15,53001,1,1,348,356
1,6,25,4,0,1,C,G,b,y,5,15,53001,1,1,347,401
1,6,25,4,0,1,C,G,b,y,5,15,53001,1,3,381,483
1,6,25,4,0,1,C,G,b,y,5,15,54001,1,1,524,129
1,6,25,4,0,1,C,G,b,y,5,15,54001,1,1,451,195
1,6,25,4,0,1,C,G,b,y,5,15,54001,1,1,353,129
1,6,25,4,0,1,C,G,b,y,5,15,54001,1,3,257,199
1,6,25,4,0,1,C,G,b,y,5,15,54001,1,3,492,326
1,6,25,4,0,1,C,G,b,y,5,15,54001,1,1,436,341
1,6,25,4,0,1,C,G,b,y,5,15,54001,1,1,353,345
1,6,25,4,0,1,C,G,b,y,5,15,54001,1,1,347,401
1,6,25,4,0,1,C,G,b,y,5,15,54001,1,3,378,482
1,6,25,4,0,1,C,G,b,y,5,15,55001,1,1,525,127
1,6,25,4,0,1,C,G,b,y,5,15,55001,1,1,448,191
1,6,25,4,0,1,C,G,b,y,5,15,55001,1,1,355,128
1,6,25,4,0,1,C,G,b,y,5,15,55001,1,3,242,266
1,6,25,4,0,1,C,G,b,y,5,15,55001,1,3,501,325
1,6,25,4,0,1,C,G,b,y,5,15,55001,1,1,436,337
1,6,25,4,0,1,C,G,b,y,5,15,55001,1,1,352,351
1,6,25,4,0,1,C,G,b,y,5,15,55001,1,1,341,401
1,6,25,4,0,1,C,G,b,y,5,15,55001,1,3,378,482
1,6,25,4,0,1,C,G,b,y,5,15,56001,1,1,525,128
1,6,25,4,0,1,C,G,b,y,5,15,56001,1,1,452,194
1,6,25,4,0,1,C,G,b,y,5,15,56001,1,1,353,126
1,6,25,4,0,1,C,G,b,y,5,15,56001,1,3,238,259
1,6,25,4,0,1,C,G,b,y,5,15,56001,1,3,497,322
1,6,25,4,0,1,C,G,b,y,5,15,56001,1,1,441,333
1,6,25,4,0,1,C,G,b,y,5,15,56001,1,1,353,351
1,6,25,4,0,1,C,G,b,y,5,15,56001,1,1,340,403
1,6,25,4,0,1,C,G,b,y,5,15,56001,1,3,376,480
1,6,25,4,0,1,C,G,b,y,5,15,57001,1,1,527,120
1,6,25,4,0,1,C,G,b,y,5,15,57001,1,1,451,191
1,6,25,4,0,1,C,G,b,y,5,15,57001,1,3,251,254
1,6,25,4,0,1,C,G,b,y,5,15,57001,1,3,493,334
1,6,25,4,0,1,C,G,b,y,5,15,57001,1,1,412,337
1,6,25,4,0,1,C,G,b,y,5,15,57001,1,1,359,351
1,6,25,4,0,1,C,G,b,y,5,15,57001,1,1,421,396
1,6,25,4,0,1,C,G,b,y,5,15,57001,1,1,339,399
1,6,25,4,0,1,C,G,b,y,5,15,57001,1,3,377,480
1,6,25,4,0,1,C,G,b,y,5,15,58001,1,1,528,122
1,6,25,4,0,1,C,G,b,y,5,15,58001,1,1,450,187
1,6,25,4,0,1,C,G,b,y,5,15,58001,1,3,493,329
1,6,25,4,0,1,C,G,b,y,5,15,58001,1,3,251,258
1,6,25,4,0,1,C,G,b,y,5,15,58001,1,1,361,312
1,6,25,4,0,1,C,G,b,y,5,15,58001,1,1,375,368
1,6,25,4,0,1,C,G,b,y,5,15,58001,1,1,335,397
1,6,25,4,0,1,C,G,b,y,5,15,58001,1,3,368,483
1,6,25,4,0,1,C,G,b,y,5,15,58001,1,1,268,553
1,6,25,4,0,1,C,G,b,y,5,15,59001,1,1,525,123
1,6,25,4,0,1,C,G,b,y,5,15,59001,1,1,449,195
1,6,25,4,0,1,C,G,b,y,5,15,59001,1,1,364,318
1,6,25,4,0,1,C,G,b,y,5,15,59001,1,3,444,339
1,6,25,4,0,1,C,G,b,y,5,15,59001,1,3,255,254
1,6,25,4,0,1,C,G,b,y,5,15,59001,1,3,368,479
1,6,25,4,0,1,C,G,b,y,5,15,59001,1,1,302,499
1,6,25,4,0,1,C,G,b,y,5,15,59001,1,1,267,555
1,6,25,4,0,1,C,G,b,y,5,15,59001,1,1,360,577
1,6,25,4,0,1,C,G,b,y,5,15,60001,1,1,511,65
1,6,25,4,0,1,C,G,b,y,5,15,60001,1,1,405,55
1,6,25,4,0,1,C,G,b,y,5,15,60001,1,1,531,192
1,6,25,4,0,1,C,G,b,y,5,15,60001,1,1,507,174
1,6,25,4,0,1,C,G,b,y,5,15,60001,1,3,427,177
1,6,25,4,0,1,C,G,b,y,5,15,60001,1,3,251,259
1,6,25,4,0,1,C,G,b,y,5,15,60001,1,1,203,164
1,6,25,4,0,1,C,G,b,y,5,15,60001,1,3,368,484
1,6,25,4,0,1,C,G,b,y,5,15,60001,1,1,265,554
1,6,25,4,0,1,C,G,b,y,5,15,61001,1,3,510,145
1,6,25,4,0,1,C,G,b,y,5,15,61001,1,1,489,65
1,6,25,4,0,1,C,G,b,y,5,15,61001,1,1,467,114
1,6,25,4,0,1,C,G,b,y,5,15,61001,1,1,403,52
1,6,25,4,0,1,C,G,b,y,5,15,61001,1,1,270,136
1,6,25,4,0,1,C,G,b,y,5,15,61001,1,1,204,163
1,6,25,4,0,1,C,G,b,y,5,15,61001,1,3,247,259
1,6,25,4,0,1,C,G,b,y,5,15,61001,1,3,370,486
1,6,25,4,0,1,C,G,b,y,5,15,61001,1,1,267,554
1,6,25,4,0,1,C,G,b,y,5,15,62001,1,1,460,104
1,6,25,4,0,1,C,G,b,y,5,15,62001,1,1,397,55
1,6,25,4,0,1,C,G,b,y,5,15,62001,1,1,275,142
1,6,25,4,0,1,C,G,b,y,5,15,62001,1,1,232,208
1,6,25,4,0,1,C,G,b,y,5,15,62001,1,3,166,176
1,6,25,4,0,1,C,G,b,y,5,15,62001,1,3,246,256
1,6,25,4,0,1,C,G,b,y,5,15,62001,1,1,401,375
1,6,25,4,0,1,C,G,b,y,5,15,62001,1,3,378,488
1,6,25,4,0,1,C,G,b,y,5,15,62001,1,1,266,557
1,6,25,4,0,1,C,G,b,y,5,15,63001,1,1,658,223
1,6,25,4,0,1,C,G,b,y,5,15,63001,1,1,462,102
1,6,25,4,0,1,C,G,b,y,5,15,63001,1,1,402,55
1,6,25,4,0,1,C,G,b,y,5,15,63001,1,3,410,101
1,6,25,4,0,1,C,G,b,y,5,15,63001,1,1,275,134
1,6,25,4,0,1,C,G,b,y,5,15,63001,1,3,251,246
1,6,25,4,0,1,C,G,b,y,5,15,63001,1,1,324,446
1,6,25,4,0,1,C,G,b,y,5,15,63001,1,3,380,491
1,6,25,4,0,1,C,G,b,y,5,15,63001,1,1,268,555
1,6,25,4,0,1,C,G,b,y,5,15,64001,1,3,487,78
1,6,25,4,0,1,C,G,b,y,5,15,64001,1,1,376,63
1,6,25,4,0,1,C,G,b,y,5,15,64001,1,1,273,140
1,6,25,4,0,1,C,G,b,y,5,15,64001,1,1,300,258
1,6,25,4,0,1,C,G,b,y,5,15,64001,1,3,246,250
1,6,25,4,0,1,C,G,b,y,5,15,64001,1,1,139,314
1,6,25,4,0,1,C,G,b,y,5,15,64001,1,1,268,559
1,6,25,4,0,1,C,G,b,y,5,15,64001,1,3,375,481
1,6,25,4,0,1,C,G,b,y,5,15,65001,1,3,408,44
1,6,25,4,0,1,C,G,b,y,5,15,65001,1,1,387,228
1,6,25,4,0,1,C,G,b,y,5,15,65001,1,3,243,254
1,6,25,4,0,1,C,G,b,y,5,15,65001,1,1,118,281
1,6,25,4,0,1,C,G,b,y,5,15,65001,1,1,144,311
1,6,25,4,0,1,C,G,b,y,5,15,65001,1,1,272,554
1,6,25,4,0,1,C,G,b,y,5,15,65001,1,3,373,466
1,6,25,4,0,1,C,G,b,y,5,15,66001,1,3,410,49
1,6,25,4,0,1,C,G,b,y,5,15,66001,1,1,360,274
1,6,25,4,0,1,C,G,b,y,5,15,66001,1,3,243,252
1,6,25,4,0,1,C,G,b,y,5,15,66001,1,1,123,277
1,6,25,4,0,1,C,G,b,y,5,15,66001,1,1,154,294
1,6,25,4,0,1,C,G,b,y,5,15,66001,1,1,265,552
1,6,25,4,0,1,C,G,b,y,5,15,66001,1,3,373,465
1,6,25,4,0,1,C,G,b,y,5,15,67001,1,3,412,47
1,6,25,4,0,1,C,G,b,y,5,15,67001,1,3,245,252
1,6,25,4,0,1,C,G,b,y,5,15,67001,1,1,358,279
1,6,25,4,0,1,C,G,b,y,5,15,67001,1,3,383,472
1,6,25,4,0,1,C,G,b,y,5,15,67001,1,1,267,556
1,6,25,4,0,1,C,G,b,y,5,15,67001,1,1,153,301
1,6,25,4,0,1,C,G,b,y,5,15,67001,1,1,121,275
1,6,25,4,0,1,C,G,b,y,5,15,68001,1,3,410,49
1,6,25,4,0,1,C,G,b,y,5,15,68001,1,3,245,250
1,6,25,4,0,1,C,G,b,y,5,15,68001,1,1,357,285
1,6,25,4,0,1,C,G,b,y,5,15,68001,1,1,117,277
1,6,25,4,0,1,C,G,b,y,5,15,68001,1,1,153,302
1,6,25,4,0,1,C,G,b,y,5,15,68001,1,1,267,557
1,6,25,4,0,1,C,G,b,y,5,15,68001,1,3,379,468
1,6,25,4,0,1,C,G,b,y,5,15,69001,1,3,411,51
1,6,25,4,0,1,C,G,b,y,5,15,69001,1,3,248,252
1,6,25,4,0,1,C,G,b,y,5,15,69001,1,1,152,300
1,6,25,4,0,1,C,G,b,y,5,15,69001,1,1,521,388
1,6,25,4,0,1,C,G,b,y,5,15,69001,1,3,392,479
1,6,25,4,0,1,C,G,b,y,5,15,69001,1,1,268,556
1,6,25,4,0,1,C,G,b,y,5,15,70001,1,3,384,45
1,6,25,4,0,1,C,G,b,y,5,15,70001,1,3,245,255
1,6,25,4,0,1,C,G,b,y,5,15,70001,1,1,145,289
1,6,25,4,0,1,C,G,b,y,5,15,70001,1,1,268,553
1,6,25,4,0,1,C,G,b,y,5,15,70001,1,3,411,453
1,6,25,4,0,1,C,G,b,y,5,15,70001,1,1,520,389
1,6,25,4,0,1,C,G,b,y,5,15,71001,1,3,298,68
1,6,25,4,0,1,C,G,b,y,5,15,71001,1,3,249,254
1,6,25,4,0,1,C,G,b,y,5,15,71001,1,1,194,228
1,6,25,4,0,1,C,G,b,y,5,15,71001,1,1,518,384
1,6,25,4,0,1,C,G,b,y,5,15,71001,1,3,369,442
1,6,25,4,0,1,C,G,b,y,5,15,71001,1,1,262,553
1,6,25,4,0,1,C,G,b,y,5,15,72001,1,1,528,387
1,6,25,4,0,1,C,G,b,y,5,15,72001,1,1,255,490
1,6,25,4,0,1,C,G,b,y,5,15,72001,1,3,283,385
1,6,25,4,0,1,C,G,b,y,5,15,72001,1,3,250,247
1,6,25,4,0,1,C,G,b,y,5,15,72001,1,3,294,71
1,6,25,4,0,1,C,G,b,y,5,15,72001,1,1,198,231
1,6,25,4,0,1,C,G,b,y,5,15,73001,1,1,520,386
1,6,25,4,0,1,C,G,b,y,5,15,73001,1,1,252,484
1,6,25,4,0,1,C,G,b,y,5,15,73001,1,3,152,301
1,6,25,4,0,1,C,G,b,y,5,15,73001,1,3,252,249
1,6,25,4,0,1,C,G,b,y,5,15,73001,1,1,195,225
1,6,25,4,0,1,C,G,b,y,5,15,73001,1,3,293,70
1,6,25,4,0,1,C,G,b,y,5,15,74001,1,3,494,442
1,6,25,4,0,1,C,G,b,y,5,15,74001,1,1,401,426
1,6,25,4,0,1,C,G,b,y,5,15,74001,1,1,268,468
1,6,25,4,0,1,C,G,b,y,5,15,74001,1,3,242,184
1,6,25,4,0,1,C,G,b,y,5,15,74001,1,3,247,251
1,6,25,4,0,1,C,G,b,y,5,15,74001,1,1,211,209
1,6,25,4,0,1,C,G,b,y,5,15,75001,1,1,492,478
1,6,25,4,0,1,C,G,b,y,5,15,75001,1,1,148,425
1,6,25,4,0,1,C,G,b,y,5,15,75001,1,3,545,454
1,6,25,4,0,1,C,G,b,y,5,15,75001,1,3,215,293
1,6,25,4,0,1,C,G,b,y,5,15,75001,1,3,262,259
1,6,25,4,0,1,C,G,b,y,5,15,75001,1,1,223,199
1,6,25,4,0,1,C,G,b,y,5,15,75001,1,1,207,164
1,6,25,4,0,1,C,G,b,y,5,15,76001,1,3,549,314
1,6,25,4,0,1,C,G,b,y,5,15,76001,1,3,341,249
1,6,25,4,0,1,C,G,b,y,5,15,76001,1,3,229,328
1,6,25,4,0,1,C,G,b,y,5,15,76001,1,1,495,481
1,6,25,4,0,1,C,G,b,y,5,15,76001,1,1,144,423
1,6,25,4,0,1,C,G,b,y,5,15,76001,1,1,210,212
1,6,25,4,0,1,C,G,b,y,5,15,76001,1,1,208,163
1,6,25,4,0,1,C,G,b,y,5,15,77001,1,3,555,301
1,6,25,4,0,1,C,G,b,y,5,15,77001,1,1,570,373
1,6,25,4,0,1,C,G,b,y,5,15,77001,1,1,494,477
1,6,25,4,0,1,C,G,b,y,5,15,77001,1,1,143,420
1,6,25,4,0,1,C,G,b,y,5,15,77001,1,3,279,370
1,6,25,4,0,1,C,G,b,y,5,15,77001,1,3,233,335
1,6,25,4,0,1,C,G,b,y,5,15,77001,1,1,329,218
1,6,25,4,0,1,C,G,b,y,5,15,77001,1,1,356,82
1,6,25,4,0,1,C,G,b,y,5,15,78001,1,1,356,78
1,6,25,4,0,1,C,G,b,y,5,15,78001,1,1,350,167
1,6,25,4,0,1,C,G,b,y,5,15,78001,1,3,234,335
1,6,25,4,0,1,C,G,b,y,5,15,78001,1,3,251,429
1,6,25,4,0,1,C,G,b,y,5,15,78001,1,1,154,422
1,6,25,4,0,1,C,G,b,y,5,15,78001,1,3,542,266
1,6,25,4,0,1,C,G,b,y,5,15,78001,1,1,575,374
1,6,25,4,0,1,C,G,b,y,5,15,78001,1,1,492,477
1,6,25,4,0,1,C,G,b,y,5,15,79001,1,1,353,81
1,6,25,4,0,1,C,G,b,y,5,15,79001,1,1,350,173
1,6,25,4,0,1,C,G,b,y,5,15,79001,1,3,232,331
1,6,25,4,0,1,C,G,b,y,5,15,79001,1,3,246,430
1,6,25,4,0,1,C,G,b,y,5,15,79001,1,1,155,421
1,6,25,4,0,1,C,G,b,y,5,15,79001,1,1,494,482
1,6,25,4,0,1,C,G,b,y,5,15,79001,1,1,571,371
1,6,25,4,0,1,C,G,b,y,5,15,79001,1,3,542,269
1,6,25,4,0,1,C,G,b,y,5,15,80001,1,1,574,371
1,6,25,4,0,1,C,G,b,y,5,15,80001,1,1,494,480
1,6,25,4,0,1,C,G,b,y,5,15,80001,1,3,538,266
1,6,25,4,0,1,C,G,b,y,5,15,80001,1,1,354,79
1,6,25,4,0,1,C,G,b,y,5,15,80001,1,1,349,168
1,6,25,4,0,1,C,G,b,y,5,15,80001,1,3,235,332
1,6,25,4,0,1,C,G,b,y,5,15,80001,1,3,249,430
1,6,25,4,0,1,C,G,b,y,5,15,80001,1,1,158,425
1,6,25,4,0,1,C,G,b,y,5,15,81001,1,3,547,267
1,6,25,4,0,1,C,G,b,y,5,15,81001,1,3,252,429
1,6,25,4,0,1,C,G,b,y,5,15,81001,1,3,236,337
1,6,25,4,0,1,C,G,b,y,5,15,81001,1,1,158,420
1,6,25,4,0,1,C,G,b,y,5,15,81001,1,1,508,476
1,6,25,4,0,1,C,G,b,y,5,15,81001,1,1,573,369
1,6,25,4,0,1,C,G,b,y,5,15,81001,1,1,348,169
1,6,25,4,0,1,C,G,b,y,5,15,81001,1,1,358,81
1,6,25,4,0,1,C,G,b,y,5,15,82001,1,3,627,266
1,6,25,4,0,1,C,G,b,y,5,15,82001,1,3,542,263
1,6,25,4,0,1,C,G,b,y,5,15,82001,1,1,352,77
1,6,25,4,0,1,C,G,b,y,5,15,82001,1,1,353,171
1,6,25,4,0,1,C,G,b,y,5,15,82001,1,1,536,346
1,6,25,4,0,1,C,G,b,y,5,15,82001,1,1,493,482
1,6,25,4,0,1,C,G,b,y,5,15,82001,1,1,155,419
1,6,25,4,0,1,C,G,b,y,5,15,82001,1,3,232,333
1,6,25,4,0,1,C,G,b,y,5,15,83001,1,3,540,250
1,6,25,4,0,1,C,G,b,y,5,15,83001,1,3,337,91
1,6,25,4,0,1,C,G,b,y,5,15,83001,1,1,324,45
1,6,25,4,0,1,C,G,b,y,5,15,83001,1,3,238,335
1,6,25,4,0,1,C,G,b,y,5,15,83001,1,1,156,423
1,6,25,4,0,1,C,G,b,y,5,15,83001,1,1,557,382
1,6,25,4,0,1,C,G,b,y,5,15,83001,1,1,548,351
1,6,25,4,0,1,C,G,b,y,5,15,83001,1,1,495,479
1,6,25,4,0,1,C,G,b,y,5,15,84001,1,3,538,250
1,6,25,4,0,1,C,G,b,y,5,15,84001,1,3,261,182
1,6,25,4,0,1,C,G,b,y,5,15,84001,1,1,324,41
1,6,25,4,0,1,C,G,b,y,5,15,84001,1,1,237,261
1,6,25,4,0,1,C,G,b,y,5,15,84001,1,3,235,341
1,6,25,4,0,1,C,G,b,y,5,15,84001,1,1,151,423
1,6,25,4,0,1,C,G,b,y,5,15,84001,1,1,492,483
1,6,25,4,0,1,C,G,b,y,5,15,85001,1,3,539,251
1,6,25,4,0,1,C,G,b,y,5,15,85001,1,3,327,125
1,6,25,4,0,1,C,G,b,y,5,15,85001,1,1,322,40
1,6,25,4,0,1,C,G,b,y,5,15,85001,1,1,508,291
1,6,25,4,0,1,C,G,b,y,5,15,85001,1,1,493,485
1,6,25,4,0,1,C,G,b,y,5,15,85001,1,1,156,422
1,6,25,4,0,1,C,G,b,y,5,15,85001,1,3,234,343
1,6,25,4,0,1,C,G,b,y,5,15,86001,1,3,512,229
1,6,25,4,0,1,C,G,b,y,5,15,86001,1,3,326,130
1,6,25,4,0,1,C,G,b,y,5,15,86001,1,3,233,343
1,6,25,4,0,1,C,G,b,y,5,15,86001,1,1,159,422
1,6,25,4,0,1,C,G,b,y,5,15,86001,1,1,494,402
1,6,25,4,0,1,C,G,b,y,5,15,86001,1,1,494,478
1,6,25,4,0,1,C,G,b,y,5,15,86001,1,1,325,44
1,6,25,4,0,1,C,G,b,y,5,15,87001,1,3,491,240
1,6,25,4,0,1,C,G,b,y,5,15,87001,1,3,330,128
1,6,25,4,0,1,C,G,b,y,5,15,87001,1,3,248,344
1,6,25,4,0,1,C,G,b,y,5,15,87001,1,1,158,419
1,6,25,4,0,1,C,G,b,y,5,15,87001,1,1,492,400
1,6,25,4,0,1,C,G,b,y,5,15,87001,1,1,492,479
1,6,25,4,0,1,C,G,b,y,5,15,87001,1,1,323,46
1,6,25,4,0,1,C,G,b,y,5,15,88001,1,1,490,480
1,6,25,4,0,1,C,G,b,y,5,15,88001,1,1,311,339
1,6,25,4,0,1,C,G,b,y,5,15,88001,1,1,157,422
1,6,25,4,0,1,C,G,b,y,5,15,88001,1,3,376,379
1,6,25,4,0,1,C,G,b,y,5,15,88001,1,3,444,219
1,6,25,4,0,1,C,G,b,y,5,15,88001,1,3,308,130
1,6,25,4,0,1,C,G,b,y,5,15,88001,1,1,318,48
1,6,25,4,0,1,C,G,b,y,5,15,89001,1,3,367,137
1,6,25,4,0,1,C,G,b,y,5,15,89001,1,3,214,128
1,6,25,4,0,1,C,G,b,y,5,15,89001,1,3,386,337
1,6,25,4,0,1,C,G,b,y,5,15,89001,1,1,318,41
1,6,25,4,0,1,C,G,b,y,5,15,89001,1,1,277,538
1,6,25,4,0,1,C,G,b,y,5,15,89001,1,1,141,442
1,6,25,4,0,1,C,G,b,y,5,15,89001,1,1,492,480
1,6,25,4,0,1,C,G,b,y,5,15,90001,1,3,491,85
1,6,25,4,0,1,C,G,b,y,5,15,90001,1,3,201,132
1,6,25,4,0,1,C,G,b,y,5,15,90001,1,3,338,420
1,6,25,4,0,1,C,G,b,y,5,15,90001,1,1,495,479
1,6,25,4,0,1,C,G,b,y,5,15,90001,1,1,311,523
1,6,25,4,0,1,C,G,b,y,5,15,90001,1,1,161,452
1,6,25,4,0,1,C,G,b,y,5,15,90001,1,1,325,49
1,6,25,4,0,1,C,G,b,y,5,15,91001,1,3,473,328
1,6,25,4,0,1,C,G,b,y,5,15,91001,1,1,506,376
1,6,25,4,0,1,C,G,b,y,5,15,91001,1,1,374,398
1,6,25,4,0,1,C,G,b,y,5,15,91001,1,3,442,457
1,6,25,4,0,1,C,G,b,y,5,15,91001,1,1,198,448
1,6,25,4,0,1,C,G,b,y,5,15,91001,1,3,209,132
1,6,25,4,0,1,C,G,b,y,5,15,91001,1,1,327,40
1,6,25,4,0,1,C,G,b,y,5,15,92001,1,3,545,72
1,6,25,4,0,1,C,G,b,y,5,15,92001,1,1,295,45
1,6,25,4,0,1,C,G,b,y,5,15,92001,1,3,434,246
1,6,25,4,0,1,C,G,b,y,5,15,92001,1,3,238,245
1,6,25,4,0,1,C,G,b,y,5,15,92001,1,1,288,268
1,6,25,4,0,1,C,G,b,y,5,15,92001,1,1,196,436
1,6,25,4,0,1,C,G,b,y,5,15,92001,1,1,417,391
1,6,25,4,0,1,C,G,b,y,5,15,93001,1,1,289,47
1,6,25,4,0,1,C,G,b,y,5,15,93001,1,3,193,156
1,6,25,4,0,1,C,G,b,y,5,15,93001,1,3,178,194
1,6,25,4,0,1,C,G,b,y,5,15,93001,1,1,259,227
1,6,25,4,0,1,C,G,b,y,5,15,93001,1,1,299,416
1,6,25,4,0,1,C,G,b,y,5,15,93001,1,1,431,406
1,6,25,4,0,1,C,G,b,y,5,15,93001,1,1,438,383
1,6,25,4,0,1,C,G,b,y,5,15,93001,1,3,507,521
1,6,25,4,0,1,C,G,b,y,5,15,94001,1,1,534,76
1,6,25,4,0,1,C,G,b,y,5,15,94001,1,1,291,56
1,6,25,4,0,1,C,G,b,y,5,15,94001,1,3,144,238
1,6,25,4,0,1,C,G,b,y,5,15,94001,1,3,185,233
1,6,25,4,0,1,C,G,b,y,5,15,94001,1,3,350,382
1,6,25,4,0,1,C,G,b,y,5,15,94001,1,1,444,480
1,6,25,4,0,1,C,G,b,y,5,15,95001,1,1,290,50
1,6,25,4,0,1,C,G,b,y,5,15,95001,1,3,216,180
1,6,25,4,0,1,C,G,b,y,5,15,95001,1,3,169,224
1,6,25,4,0,1,C,G,b,y,5,15,95001,1,3,376,217
1,6,25,4,0,1,C,G,b,y,5,15,95001,1,1,368,266
1,6,25,4,0,1,C,G,b,y,5,15,95001,1,1,445,503
1,6,25,4,0,1,C,G,b,y,5,15,96001,1,3,476,34
1,6,25,4,0,1,C,G,b,y,5,15,96001,1,3,149,226
1,6,25,4,0,1,C,G,b,y,5,15,96001,1,3,231,317
1,6,25,4,0,1,C,G,b,y,5,15,96001,1,1,267,254
1,6,25,4,0,1,C,G,b,y,5,15,96001,1,1,210,186
1,6,25,4,0,1,C,G,b,y,5,15,96001,1,1,410,479
1,6,25,4,0,1,C,G,b,y,5,15,96001,1,1,435,508
1,6,25,4,0,1,C,G,b,y,5,15,97001,1,1,476,31
1,6,25,4,0,1,C,G,b,y,5,15,97001,1,1,168,156
1,6,25,4,0,1,C,G,b,y,5,15,97001,1,1,213,197
1,6,25,4,0,1,C,G,b,y,5,15,97001,1,1,163,209
1,6,25,4,0,1,C,G,b,y,5,15,97001,1,1,358,306
1,6,25,4,0,1,C,G,b,y,5,15,97001,1,3,405,307
1,6,25,4,0,1,C,G,b,y,5,15,97001,1,3,206,236
1,6,25,4,0,1,C,G,b,y,5,15,97001,1,3,146,368
1,6,25,4,0,1,C,G,b,y,5,15,98001,1,1,478,30
1,6,25,4,0,1,C,G,b,y,5,15,98001,1,3,467,61
1,6,25,4,0,1,C,G,b,y,5,15,98001,1,3,453,225
1,6,25,4,0,1,C,G,b,y,5,15,98001,1,3,410,349
1,6,25,4,0,1,C,G,b,y,5,15,98001,1,1,346,393
1,6,25,4,0,1,C,G,b,y,5,15,98001,1,1,212,230
1,6,25,4,0,1,C,G,b,y,5,15,98001,1,1,145,226
1,6,25,4,0,1,C,G,b,y,5,15,98001,1,1,164,153
1,6,25,4,0,1,C,G,b,y,5,15,99001,1,3,595,155
1,6,25,4,0,1,C,G,b,y,5,15,99001,1,3,453,217
1,6,25,4,0,1,C,G,b,y,5,15,99001,1,3,573,487
1,6,25,4,0,1,C,G,b,y,5,15,99001,1,1,461,457
1,6,25,4,0,1,C,G,b,y,5,15,99001,1,1,472,36
1,6,25,4,0,1,C,G,b,y,5,15,99001,1,1,170,160
1,6,25,4,0,1,C,G,b,y,5,15,99001,1,1,150,230
1,6,25,4,0,1,C,G,b,y,5,15,99001,1,1,213,231
1,6,25,4,0,1,C,G,b,y,5,15,100001,1,3,561,114
1,6,25,4,0,1,C,G,b,y,5,15,100001,1,3,451,219
1,6,25,4,0,1,C,G,b,y,5,15,100001,1,3,388,177
1,6,25,4,0,1,C,G,b,y,5,15,100001,1,1,450,462
1,6,25,4,0,1,C,G,b,y,5,15,100001,1,1,467,44
1,6,25,4,0,1,C,G,b,y,5,15,100001,1,1,220,222
1,6,25,4,0,1,C,G,b,y,5,15,100001,1,1,147,225
1,6,25,4,0,1,C,G,b,y,5,15,100001,1,1,176,162
1,6,25,4,0,1,C,G,b,y,5,15,101001,1,3,559,114
1,6,25,4,0,1,C,G,b,y,5,15,101001,1,3,461,217
1,6,25,4,0,1,C,G,b,y,5,15,101001,1,3,279,196
1,6,25,4,0,1,C,G,b,y,5,15,101001,1,1,461,457
1,6,25,4,0,1,C,G,b,y,5,15,101001,1,1,221,223
1,6,25,4,0,1,C,G,b,y,5,15,101001,1,1,157,219
1,6,25,4,0,1,C,G,b,y,5,15,101001,1,1,178,161
1,6,25,4,0,1,C,G,b,y,5,15,101001,1,1,473,45
1,6,25,4,0,1,C,G,b,y,5,15,102001,1,3,560,109
1,6,25,4,0,1,C,G,b,y,5,15,102001,1,3,456,214
1,6,25,4,0,1,C,G,b,y,5,15,102001,1,1,456,465
1,6,25,4,0,1,C,G,b,y,5,15,102001,1,1,469,47
1,6,25,4,0,1,C,G,b,y,5,15,102001,1,1,212,226
1,6,25,4,0,1,C,G,b,y,5,15,102001,1,1,192,191
1,6,25,4,0,1,C,G,b,y,5,15,102001,1,1,149,210
1,6,25,4,0,1,C,G,b,y,5,15,102001,1,3,254,114
1,6,25,4,0,1,C,G,b,y,5,15,103001,1,3,452,220
1,6,25,4,0,1,C,G,b,y,5,15,103001,1,3,389,117
1,6,25,4,0,1,C,G,b,y,5,15,103001,1,3,513,72
1,6,25,4,0,1,C,G,b,y,5,15,103001,1,1,476,41
1,6,25,4,0,1,C,G,b,y,5,15,103001,1,1,209,233
1,6,25,4,0,1,C,G,b,y,5,15,103001,1,1,192,187
1,6,25,4,0,1,C,G,b,y,5,15,103001,1,1,151,219
1,6,25,4,0,1,C,G,b,y,5,15,103001,1,1,451,458
1,6,25,4,0,1,C,G,b,y,5,15,104001,1,1,473,49
1,6,25,4,0,1,C,G,b,y,5,15,104001,1,3,462,215
1,6,25,4,0,1,C,G,b,y,5,15,104001,1,1,459,459
1,6,25,4,0,1,C,G,b,y,5,15,104001,1,1,271,143
1,6,25,4,0,1,C,G,b,y,5,15,104001,1,1,252,187
1,6,25,4,0,1,C,G,b,y,5,15,104001,1,3,215,140
1,6,25,4,0,1,C,G,b,y,5,15,104001,1,3,172,210
1,6,25,4,0,1,C,G,b,y,5,15,104001,1,1,150,228
1,6,25,4,0,1,C,G,b,y,5,15,105001,1,3,544,174
1,6,25,4,0,1,C,G,b,y,5,15,105001,1,1,458,464
1,6,25,4,0,1,C,G,b,y,5,15,105001,1,3,171,283
1,6,25,4,0,1,C,G,b,y,5,15,105001,1,1,133,225
1,6,25,4,0,1,C,G,b,y,5,15,105001,1,1,245,189
1,6,25,4,0,1,C,G,b,y,5,15,105001,1,1,272,137
1,6,25,4,0,1,C,G,b,y,5,15,105001,1,3,294,54
1,6,25,4,0,1,C,G,b,y,5,15,105001,1,1,471,47
1,6,25,4,0,1,C,G,b,y,5,15,106001,1,1,384,17
1,6,25,4,0,1,C,G,b,y,5,15,106001,1,1,272,136
1,6,25,4,0,1,C,G,b,y,5,15,106001,1,1,271,192
1,6,25,4,0,1,C,G,b,y,5,15,106001,1,1,259,239
1,6,25,4,0,1,C,G,b,y,5,15,106001,1,1,129,228
1,6,25,4,0,1,C,G,b,y,5,15,106001,1,3,204,219
1,6,25,4,0,1,C,G,b,y,5,15,106001,1,3,324,366
1,6,25,4,0,1,C,G,b,y,5,15,106001,1,3,477,565
1,6,25,4,0,1,C,G,b,y,5,15,107001,1,1,382,26
1,6,25,4,0,1,C,G,b,y,5,15,107001,1,1,266,142
1,6,25,4,0,1,C,G,b,y,5,15,107001,1,1,265,175
1,6,25,4,0,1,C,G,b,y,5,15,107001,1,1,132,222
1,6,25,4,0,1,C,G,b,y,5,15,107001,1,3,176,222
1,6,25,4,0,1,C,G,b,y,5,15,107001,1,3,340,303
1,6,25,4,0,1,C,G,b,y,5,15,107001,1,3,208,468
1,6,25,4,0,1,C,G,b,y,5,15,107001,1,1,247,432
1,6,25,4,0,1,C,G,b,y,5,15,107001,1,1,658,375
