dummy,month,day,period,view,station,fgeno,mgeno,fcol,mcol,nf,nm,frame,something,sex,x,y
1,6,29,2,2,1,A,E,r,g,10,10,1,1,3,450,280
1,6,29,2,2,1,A,E,r,g,10,10,1,1,3,499,457
1,6,29,2,2,1,A,E,r,g,10,10,1001,1,3,675,157
1,6,29,2,2,1,A,E,r,g,10,10,1001,1,3,171,362
1,6,29,2,2,1,A,E,r,g,10,10,2001,1,3,508,40
1,6,29,2,2,1,A,E,r,g,10,10,2001,1,3,425,576
1,6,29,2,2,1,A,E,r,g,10,10,3001,1,3,606,355
1,6,29,2,2,1,A,E,r,g,10,10,3001,1,3,241,501
1,6,29,2,2,1,A,E,r,g,10,10,3001,1,1,287,504
1,6,29,2,2,1,A,E,r,g,10,10,4001,1,1,337,266
1,6,29,2,2,1,A,E,r,g,10,10,4001,1,3,369,537
1,6,29,2,2,1,A,E,r,g,10,10,4001,1,3,467,431
1,6,29,2,2,1,A,E,r,g,10,10,5001,1,3,519,479
1,6,29,2,2,1,A,E,r,g,10,10,5001,1,3,478,514
1,6,29,2,2,1,A,E,r,g,10,10,5001,1,1,458,567
1,6,29,2,2,1,A,E,r,g,10,10,6001,1,1,620,394
1,6,29,2,2,1,A,E,r,g,10,10,7001,1,1,434,21
1,6,29,2,2,1,A,E,r,g,10,10,8001,1,1,592,45
1,6,29,2,2,1,A,E,r,g,10,10,13001,1,1,365,425
1,6,29,2,2,1,A,E,r,g,10,10,14001,1,1,211,304
1,6,29,2,2,1,A,E,r,g,10,10,14001,1,1,368,539
1,6,29,2,2,1,A,E,r,g,10,10,16001,1,1,529,140
1,6,29,2,2,1,A,E,r,g,10,10,18001,1,1,708,362
1,6,29,2,2,1,A,E,r,g,10,10,19001,1,1,583,457
1,6,29,2,2,1,A,E,r,g,10,10,20001,1,1,621,545
1,6,29,2,2,1,A,E,r,g,10,10,23001,1,3,428,545
1,6,29,2,2,1,A,E,r,g,10,10,23001,1,3,260,536
1,6,29,2,2,1,A,E,r,g,10,10,24001,1,3,302,388
1,6,29,2,2,1,A,E,r,g,10,10,24001,1,3,333,492
1,6,29,2,2,1,A,E,r,g,10,10,25001,1,3,638,440
1,6,29,2,2,1,A,E,r,g,10,10,25001,1,3,536,454
1,6,29,2,2,1,A,E,r,g,10,10,26001,1,3,666,322
1,6,29,2,2,1,A,E,r,g,10,10,26001,1,3,567,262
1,6,29,2,2,1,A,E,r,g,10,10,26001,1,1,582,240
1,6,29,2,2,1,A,E,r,g,10,10,26001,1,1,535,255
1,6,29,2,2,1,A,E,r,g,10,10,27001,1,3,676,371
1,6,29,2,2,1,A,E,r,g,10,10,27001,1,3,616,68
1,6,29,2,2,1,A,E,r,g,10,10,27001,1,1,340,40
1,6,29,2,2,1,A,E,r,g,10,10,27001,1,3,374,529
1,6,29,2,2,1,A,E,r,g,10,10,28001,1,3,599,249
1,6,29,2,2,1,A,E,r,g,10,10,28001,1,3,311,510
1,6,29,2,2,1,A,E,r,g,10,10,28001,1,1,363,489
1,6,29,2,2,1,A,E,r,g,10,10,29001,1,1,568,339
1,6,29,2,2,1,A,E,r,g,10,10,29001,1,3,263,234
1,6,29,2,2,1,A,E,r,g,10,10,30001,1,3,719,232
1,6,29,2,2,1,A,E,r,g,10,10,30001,1,3,719,187
1,6,29,2,2,1,A,E,r,g,10,10,30001,1,3,616,196
1,6,29,2,2,1,A,E,r,g,10,10,31001,1,3,600,238
1,6,29,2,2,1,A,E,r,g,10,10,31001,1,3,428,46
1,6,29,2,2,1,A,E,r,g,10,10,31001,1,3,402,362
1,6,29,2,2,1,A,E,r,g,10,10,31001,1,1,327,411
1,6,29,2,2,1,A,E,r,g,10,10,31001,1,1,648,236
1,6,29,2,2,1,A,E,r,g,10,10,32001,1,3,596,319
1,6,29,2,2,1,A,E,r,g,10,10,32001,1,3,503,455
1,6,29,2,2,1,A,E,r,g,10,10,32001,1,3,359,371
1,6,29,2,2,1,A,E,r,g,10,10,32001,1,1,367,429
1,6,29,2,2,1,A,E,r,g,10,10,32001,1,1,623,384
1,6,29,2,2,1,A,E,r,g,10,10,33001,1,3,591,117
1,6,29,2,2,1,A,E,r,g,10,10,33001,1,3,398,82
1,6,29,2,2,1,A,E,r,g,10,10,33001,1,1,453,96
1,6,29,2,2,1,A,E,r,g,10,10,34001,1,3,420,111
1,6,29,2,2,1,A,E,r,g,10,10,34001,1,3,437,537
1,6,29,2,2,1,A,E,r,g,10,10,34001,1,1,470,515
1,6,29,2,2,1,A,E,r,g,10,10,35001,1,1,568,250
1,6,29,2,2,1,A,E,r,g,10,10,35001,1,3,637,249
1,6,29,2,2,1,A,E,r,g,10,10,35001,1,3,466,542
1,6,29,2,2,1,A,E,r,g,10,10,35001,1,1,512,527
1,6,29,2,2,1,A,E,r,g,10,10,36001,1,1,670,387
1,6,29,2,2,1,A,E,r,g,10,10,36001,1,1,556,413
1,6,29,2,2,1,A,E,r,g,10,10,36001,1,1,544,434
1,6,29,2,2,1,A,E,r,g,10,10,36001,1,3,498,477
1,6,29,2,2,1,A,E,r,g,10,10,36001,1,3,259,176
1,6,29,2,2,1,A,E,r,g,10,10,36001,1,1,243,140
1,6,29,2,2,1,A,E,r,g,10,10,37001,1,1,276,148
1,6,29,2,2,1,A,E,r,g,10,10,37001,1,3,250,391
1,6,29,2,2,1,A,E,r,g,10,10,38001,1,1,617,229
1,6,29,2,2,1,A,E,r,g,10,10,38001,1,3,624,348
1,6,29,2,2,1,A,E,r,g,10,10,38001,1,3,620,442
1,6,29,2,2,1,A,E,r,g,10,10,38001,1,3,561,497
1,6,29,2,2,1,A,E,r,g,10,10,39001,1,3,253,174
1,6,29,2,2,1,A,E,r,g,10,10,40001,1,3,269,232
1,6,29,2,2,1,A,E,r,g,10,10,42001,1,3,374,378
1,6,29,2,2,1,A,E,r,g,10,10,42001,1,1,407,428
1,6,29,2,2,1,A,E,r,g,10,10,44001,1,3,348,147
1,6,29,2,2,1,A,E,r,g,10,10,45001,1,3,489,143
1,6,29,2,2,1,A,E,r,g,10,10,45001,1,1,659,333
1,6,29,2,2,1,A,E,r,g,10,10,49001,1,1,708,365
1,6,29,2,2,1,A,E,r,g,10,10,56001,1,3,467,461
1,6,29,2,2,1,A,E,r,g,10,10,59001,1,3,463,458
1,6,29,2,2,1,A,E,r,g,10,10,60001,1,1,585,152
1,6,29,2,2,1,A,E,r,g,10,10,60001,1,3,538,126
1,6,29,2,2,1,A,E,r,g,10,10,61001,1,1,414,568
1,6,29,2,2,1,A,E,r,g,10,10,61001,1,1,309,551
1,6,29,2,2,1,A,E,r,g,10,10,62001,1,1,588,398
1,6,29,2,2,1,A,E,r,g,10,10,65001,1,1,655,162
1,6,29,2,2,1,A,E,r,g,10,10,66001,1,3,527,176
1,6,29,2,2,1,A,E,r,g,10,10,66001,1,1,559,539
1,6,29,2,2,1,A,E,r,g,10,10,67001,1,3,481,305
1,6,29,2,2,1,A,E,r,g,10,10,67001,1,1,527,349
1,6,29,2,2,1,A,E,r,g,10,10,67001,1,3,612,506
1,6,29,2,2,1,A,E,r,g,10,10,68001,1,3,274,112
1,6,29,2,2,1,A,E,r,g,10,10,68001,1,1,234,119
1,6,29,2,2,1,A,E,r,g,10,10,69001,1,1,582,287
1,6,29,2,2,1,A,E,r,g,10,10,69001,1,1,623,314
1,6,29,2,2,1,A,E,r,g,10,10,69001,1,3,623,341
1,6,29,2,2,1,A,E,r,g,10,10,70001,1,1,372,100
1,6,29,2,2,1,A,E,r,g,10,10,71001,1,1,440,376
1,6,29,2,2,1,A,E,r,g,10,10,72001,1,1,379,293
1,6,29,2,2,1,A,E,r,g,10,10,72001,1,1,422,529
1,6,29,2,2,1,A,E,r,g,10,10,72001,1,1,716,223
1,6,29,2,2,1,A,E,r,g,10,10,73001,1,3,589,203
1,6,29,2,2,1,A,E,r,g,10,10,74001,1,1,414,83
1,6,29,2,2,1,A,E,r,g,10,10,75001,1,3,401,95
1,6,29,2,2,1,A,E,r,g,10,10,75001,1,1,333,92
1,6,29,2,2,1,A,E,r,g,10,10,76001,1,3,669,277
1,6,29,2,2,1,A,E,r,g,10,10,76001,1,1,719,330
1,6,29,2,2,1,A,E,r,g,10,10,77001,1,3,460,101
1,6,29,2,2,1,A,E,r,g,10,10,78001,1,3,254,312
1,6,29,2,2,1,A,E,r,g,10,10,79001,1,3,471,448
1,6,29,2,2,1,A,E,r,g,10,10,80001,1,3,470,473
1,6,29,2,2,1,A,E,r,g,10,10,81001,1,1,264,456
1,6,29,2,2,1,A,E,r,g,10,10,84001,1,1,659,408
1,6,29,2,2,1,A,E,r,g,10,10,84001,1,3,519,526
1,6,29,2,2,1,A,E,r,g,10,10,85001,1,1,529,46
1,6,29,2,2,1,A,E,r,g,10,10,85001,1,1,647,384
1,6,29,2,2,1,A,E,r,g,10,10,85001,1,3,672,390
1,6,29,2,2,1,A,E,r,g,10,10,87001,1,1,408,545
1,6,29,2,2,1,A,E,r,g,10,10,88001,1,1,727,245
1,6,29,2,2,1,A,E,r,g,10,10,88001,1,1,520,570
1,6,29,2,2,1,A,E,r,g,10,10,89001,1,3,315,91
1,6,29,2,2,1,A,E,r,g,10,10,89001,1,1,290,49
1,6,29,2,2,1,A,E,r,g,10,10,90001,1,1,261,148
1,6,29,2,2,1,A,E,r,g,10,10,90001,1,3,280,503
1,6,29,2,2,1,A,E,r,g,10,10,91001,1,3,606,175
1,6,29,2,2,1,A,E,r,g,10,10,91001,1,1,633,181
1,6,29,2,2,1,A,E,r,g,10,10,92001,1,3,430,42
1,6,29,2,2,1,A,E,r,g,10,10,92001,1,1,303,532
1,6,29,2,2,1,A,E,r,g,10,10,93001,1,3,621,66
1,6,29,2,2,1,A,E,r,g,10,10,93001,1,3,568,385
1,6,29,2,2,1,A,E,r,g,10,10,93001,1,1,543,350
1,6,29,2,2,1,A,E,r,g,10,10,93001,1,1,584,350
1,6,29,2,2,1,A,E,r,g,10,10,93001,1,3,376,551
1,6,29,2,2,1,A,E,r,g,10,10,94001,1,3,488,311
1,6,29,2,2,1,A,E,r,g,10,10,94001,1,3,191,353
1,6,29,2,2,1,A,E,r,g,10,10,94001,1,1,478,457
1,6,29,2,2,1,A,E,r,g,10,10,95001,1,3,484,312
1,6,29,2,2,1,A,E,r,g,10,10,95001,1,1,587,287
1,6,29,2,2,1,A,E,r,g,10,10,95001,1,1,711,392
1,6,29,2,2,1,A,E,r,g,10,10,96001,1,1,531,306
1,6,29,2,2,1,A,E,r,g,10,10,96001,1,3,493,23
1,6,29,2,2,1,A,E,r,g,10,10,96001,1,3,449,327
1,6,29,2,2,1,A,E,r,g,10,10,96001,1,3,704,224
1,6,29,2,2,1,A,E,r,g,10,10,97001,1,1,543,121
1,6,29,2,2,1,A,E,r,g,10,10,97001,1,3,395,336
1,6,29,2,2,1,A,E,r,g,10,10,97001,1,3,467,361
1,6,29,2,2,1,A,E,r,g,10,10,97001,1,3,551,73
1,6,29,2,2,1,A,E,r,g,10,10,98001,1,3,197,356
1,6,29,2,2,1,A,E,r,g,10,10,98001,1,3,381,376
1,6,29,2,2,1,A,E,r,g,10,10,98001,1,1,378,417
1,6,29,2,2,1,A,E,r,g,10,10,99001,1,1,464,175
1,6,29,2,2,1,A,E,r,g,10,10,99001,1,3,482,222
1,6,29,2,2,1,A,E,r,g,10,10,99001,1,3,369,358
1,6,29,2,2,1,A,E,r,g,10,10,99001,1,1,421,429
1,6,29,2,2,1,A,E,r,g,10,10,100001,1,3,631,375
1,6,29,2,2,1,A,E,r,g,10,10,100001,1,1,664,350
1,6,29,2,2,1,A,E,r,g,10,10,101001,1,3,468,356
1,6,29,2,2,1,A,E,r,g,10,10,102001,1,1,621,196
1,6,29,2,2,1,A,E,r,g,10,10,103001,1,1,271,305
1,6,29,2,2,1,A,E,r,g,10,10,103001,1,3,242,522
1,6,29,2,2,1,A,E,r,g,10,10,103001,1,1,289,554
1,6,29,2,2,1,A,E,r,g,10,10,104001,1,1,337,525
1,6,29,2,2,1,A,E,r,g,10,10,104001,1,3,298,546
1,6,29,2,2,1,A,E,r,g,10,10,105001,1,1,470,216
1,6,29,2,2,1,A,E,r,g,10,10,105001,1,3,374,559
1,6,29,2,2,1,A,E,r,g,10,10,106001,1,3,310,69
1,6,29,2,2,1,A,E,r,g,10,10,106001,1,1,187,215
1,6,29,2,2,1,A,E,r,g,10,10,107001,1,1,602,513
