dummy,month,day,period,view,station,fgeno,mgeno,fcol,mcol,nf,nm,frame,something,sex,x,y
1,2,10,1,2,2,B,F,y,b,5,15,7001,1,1,693,441
1,2,10,1,2,2,B,F,y,b,5,15,9001,1,1,653,231
1,2,10,1,2,2,B,F,y,b,5,15,12001,1,1,340,482
1,2,10,1,2,2,B,F,y,b,5,15,15001,1,3,478,353
1,2,10,1,2,2,B,F,y,b,5,15,16001,1,3,464,512
1,2,10,1,2,2,B,F,y,b,5,15,19001,1,1,683,361
1,2,10,1,2,2,B,F,y,b,5,15,23001,1,3,601,449
1,2,10,1,2,2,B,F,y,b,5,15,23001,1,1,335,525
1,2,10,1,2,2,B,F,y,b,5,15,24001,1,1,189,407
1,2,10,1,2,2,B,F,y,b,5,15,24001,1,1,183,378
1,2,10,1,2,2,B,F,y,b,5,15,25001,1,1,391,324
1,2,10,1,2,2,B,F,y,b,5,15,31001,1,1,692,420
1,2,10,1,2,2,B,F,y,b,5,15,38001,1,3,398,261
1,2,10,1,2,2,B,F,y,b,5,15,39001,1,3,645,314
1,2,10,1,2,2,B,F,y,b,5,15,40001,1,3,452,254
1,2,10,1,2,2,B,F,y,b,5,15,41001,1,3,567,270
1,2,10,1,2,2,B,F,y,b,5,15,41001,1,1,483,410
1,2,10,1,2,2,B,F,y,b,5,15,42001,1,3,483,216
1,2,10,1,2,2,B,F,y,b,5,15,43001,1,3,444,203
1,2,10,1,2,2,B,F,y,b,5,15,43001,1,1,430,550
1,2,10,1,2,2,B,F,y,b,5,15,46001,1,1,532,464
1,2,10,1,2,2,B,F,y,b,5,15,49001,1,3,504,451
1,2,10,1,2,2,B,F,y,b,5,15,50001,1,1,656,218
1,2,10,1,2,2,B,F,y,b,5,15,50001,1,3,415,495
1,2,10,1,2,2,B,F,y,b,5,15,51001,1,3,447,52
1,2,10,1,2,2,B,F,y,b,5,15,51001,1,1,532,460
1,2,10,1,2,2,B,F,y,b,5,15,52001,1,1,322,440
1,2,10,1,2,2,B,F,y,b,5,15,58001,1,1,405,488
1,2,10,1,2,2,B,F,y,b,5,15,71001,1,3,375,480
1,2,10,1,2,2,B,F,y,b,5,15,72001,1,3,468,222
1,2,10,1,2,2,B,F,y,b,5,15,73001,1,3,574,225
1,2,10,1,2,2,B,F,y,b,5,15,74001,1,3,654,414
1,2,10,1,2,2,B,F,y,b,5,15,75001,1,3,439,391
1,2,10,1,2,2,B,F,y,b,5,15,76001,1,3,313,364
1,2,10,1,2,2,B,F,y,b,5,15,77001,1,3,359,149
1,2,10,1,2,2,B,F,y,b,5,15,77001,1,3,600,488
1,2,10,1,2,2,B,F,y,b,5,15,78001,1,3,602,215
1,2,10,1,2,2,B,F,y,b,5,15,78001,1,3,527,371
1,2,10,1,2,2,B,F,y,b,5,15,79001,1,3,232,367
1,2,10,1,2,2,B,F,y,b,5,15,79001,1,3,641,471
1,2,10,1,2,2,B,F,y,b,5,15,80001,1,3,432,177
1,2,10,1,2,2,B,F,y,b,5,15,80001,1,3,406,475
1,2,10,1,2,2,B,F,y,b,5,15,81001,1,3,464,189
1,2,10,1,2,2,B,F,y,b,5,15,81001,1,3,305,380
1,2,10,1,2,2,B,F,y,b,5,15,82001,1,3,333,267
1,2,10,1,2,2,B,F,y,b,5,15,82001,1,3,680,256
1,2,10,1,2,2,B,F,y,b,5,15,83001,1,3,282,345
1,2,10,1,2,2,B,F,y,b,5,15,83001,1,3,300,447
1,2,10,1,2,2,B,F,y,b,5,15,84001,1,3,424,172
1,2,10,1,2,2,B,F,y,b,5,15,84001,1,3,365,492
1,2,10,1,2,2,B,F,y,b,5,15,85001,1,3,584,266
1,2,10,1,2,2,B,F,y,b,5,15,85001,1,3,423,471
1,2,10,1,2,2,B,F,y,b,5,15,86001,1,3,673,389
1,2,10,1,2,2,B,F,y,b,5,15,86001,1,3,314,162
1,2,10,1,2,2,B,F,y,b,5,15,87001,1,3,668,313
1,2,10,1,2,2,B,F,y,b,5,15,87001,1,3,577,401
1,2,10,1,2,2,B,F,y,b,5,15,88001,1,3,602,354
1,2,10,1,2,2,B,F,y,b,5,15,88001,1,3,212,360
1,2,10,1,2,2,B,F,y,b,5,15,89001,1,1,626,171
1,2,10,1,2,2,B,F,y,b,5,15,89001,1,3,519,438
1,2,10,1,2,2,B,F,y,b,5,15,89001,1,3,691,439
1,2,10,1,2,2,B,F,y,b,5,15,90001,1,3,365,95
1,2,10,1,2,2,B,F,y,b,5,15,90001,1,3,597,421
1,2,10,1,2,2,B,F,y,b,5,15,91001,1,3,396,424
1,2,10,1,2,2,B,F,y,b,5,15,91001,1,3,499,513
1,2,10,1,2,2,B,F,y,b,5,15,92001,1,3,244,447
1,2,10,1,2,2,B,F,y,b,5,15,96001,1,3,399,450
1,2,10,1,2,2,B,F,y,b,5,15,97001,1,3,454,463
1,2,10,1,2,2,B,F,y,b,5,15,97001,1,3,668,524
1,2,10,1,2,2,B,F,y,b,5,15,98001,1,3,410,230
1,2,10,1,2,2,B,F,y,b,5,15,98001,1,3,558,495
1,2,10,1,2,2,B,F,y,b,5,15,98001,1,1,383,204
1,2,10,1,2,2,B,F,y,b,5,15,99001,1,3,506,239
1,2,10,1,2,2,B,F,y,b,5,15,99001,1,3,440,507
1,2,10,1,2,2,B,F,y,b,5,15,99001,1,1,472,484
1,2,10,1,2,2,B,F,y,b,5,15,99001,1,1,557,496
1,2,10,1,2,2,B,F,y,b,5,15,100001,1,1,470,233
1,2,10,1,2,2,B,F,y,b,5,15,100001,1,3,430,223
1,2,10,1,2,2,B,F,y,b,5,15,100001,1,3,325,409
1,2,10,1,2,2,B,F,y,b,5,15,101001,1,3,571,374
1,2,10,1,2,2,B,F,y,b,5,15,101001,1,3,423,381
1,2,10,1,2,2,B,F,y,b,5,15,101001,1,1,536,403
1,2,10,1,2,2,B,F,y,b,5,15,102001,1,3,581,199
1,2,10,1,2,2,B,F,y,b,5,15,102001,1,3,505,436
1,2,10,1,2,2,B,F,y,b,5,15,102001,1,1,538,444
1,2,10,1,2,2,B,F,y,b,5,15,103001,1,3,578,205
1,2,10,1,2,2,B,F,y,b,5,15,103001,1,3,502,205
1,2,10,1,2,2,B,F,y,b,5,15,103001,1,1,452,172
1,2,10,1,2,2,B,F,y,b,5,15,104001,1,3,347,468
1,2,10,1,2,2,B,F,y,b,5,15,104001,1,3,422,539
1,2,10,1,2,2,B,F,y,b,5,15,104001,1,1,380,401
1,2,10,1,2,2,B,F,y,b,5,15,105001,1,3,647,321
1,2,10,1,2,2,B,F,y,b,5,15,105001,1,3,658,151
1,2,10,1,2,2,B,F,y,b,5,15,105001,1,1,671,192
1,2,10,1,2,2,B,F,y,b,5,15,106001,1,3,483,235
1,2,10,1,2,2,B,F,y,b,5,15,106001,1,3,523,450
1,2,10,1,2,2,B,F,y,b,5,15,106001,1,1,494,481
1,2,10,1,2,2,B,F,y,b,5,15,107001,1,3,319,148
1,2,10,1,2,2,B,F,y,b,5,15,107001,1,3,625,457
1,2,10,1,2,2,B,F,y,b,5,15,107001,1,1,614,425
