dummy,month,day,period,view,station,fgeno,mgeno,fcol,mcol,nf,nm,frame,something,sex,x,y
1,7,14,2,0,1,C,G,g,r,15,5,7001,1,1,624,84
1,7,14,2,0,1,C,G,g,r,15,5,10001,1,1,717,390
1,7,14,2,0,1,C,G,g,r,15,5,10001,1,1,188,371
1,7,14,2,0,1,C,G,g,r,15,5,13001,1,1,470,72
1,7,14,2,0,1,C,G,g,r,15,5,15001,1,1,571,578
1,7,14,2,0,1,C,G,g,r,15,5,16001,1,3,762,236
1,7,14,2,0,1,C,G,g,r,15,5,17001,1,3,370,141
1,7,14,2,0,1,C,G,g,r,15,5,20001,1,3,491,133
1,7,14,2,0,1,C,G,g,r,15,5,21001,1,3,349,163
1,7,14,2,0,1,C,G,g,r,15,5,22001,1,3,373,526
1,7,14,2,0,1,C,G,g,r,15,5,23001,1,3,327,531
1,7,14,2,0,1,C,G,g,r,15,5,23001,1,1,418,532
1,7,14,2,0,1,C,G,g,r,15,5,24001,1,3,233,141
1,7,14,2,0,1,C,G,g,r,15,5,25001,1,3,672,186
1,7,14,2,0,1,C,G,g,r,15,5,26001,1,1,341,246
1,7,14,2,0,1,C,G,g,r,15,5,26001,1,3,665,223
1,7,14,2,0,1,C,G,g,r,15,5,27001,1,3,700,439
1,7,14,2,0,1,C,G,g,r,15,5,28001,1,3,730,398
1,7,14,2,0,1,C,G,g,r,15,5,28001,1,1,427,554
1,7,14,2,0,1,C,G,g,r,15,5,29001,1,1,600,468
1,7,14,2,0,1,C,G,g,r,15,5,29001,1,3,634,518
1,7,14,2,0,1,C,G,g,r,15,5,30001,1,3,633,172
1,7,14,2,0,1,C,G,g,r,15,5,30001,1,3,524,316
1,7,14,2,0,1,C,G,g,r,15,5,31001,1,3,717,213
1,7,14,2,0,1,C,G,g,r,15,5,31001,1,3,449,374
1,7,14,2,0,1,C,G,g,r,15,5,32001,1,3,741,207
1,7,14,2,0,1,C,G,g,r,15,5,32001,1,3,666,244
1,7,14,2,0,1,C,G,g,r,15,5,33001,1,3,703,173
1,7,14,2,0,1,C,G,g,r,15,5,33001,1,3,265,444
1,7,14,2,0,1,C,G,g,r,15,5,34001,1,3,768,219
1,7,14,2,0,1,C,G,g,r,15,5,34001,1,3,690,276
1,7,14,2,0,1,C,G,g,r,15,5,35001,1,3,501,6
1,7,14,2,0,1,C,G,g,r,15,5,35001,1,3,236,344
1,7,14,2,0,1,C,G,g,r,15,5,36001,1,3,722,225
1,7,14,2,0,1,C,G,g,r,15,5,36001,1,3,407,529
1,7,14,2,0,1,C,G,g,r,15,5,37001,1,3,506,467
1,7,14,2,0,1,C,G,g,r,15,5,37001,1,3,439,61
1,7,14,2,0,1,C,G,g,r,15,5,38001,1,3,529,356
1,7,14,2,0,1,C,G,g,r,15,5,38001,1,3,750,193
1,7,14,2,0,1,C,G,g,r,15,5,39001,1,3,300,196
1,7,14,2,0,1,C,G,g,r,15,5,39001,1,3,465,350
1,7,14,2,0,1,C,G,g,r,15,5,39001,1,1,585,483
1,7,14,2,0,1,C,G,g,r,15,5,40001,1,3,766,305
1,7,14,2,0,1,C,G,g,r,15,5,40001,1,3,744,386
1,7,14,2,0,1,C,G,g,r,15,5,40001,1,1,734,349
1,7,14,2,0,1,C,G,g,r,15,5,40001,1,3,596,535
1,7,14,2,0,1,C,G,g,r,15,5,41001,1,3,622,59
1,7,14,2,0,1,C,G,g,r,15,5,41001,1,3,581,359
1,7,14,2,0,1,C,G,g,r,15,5,41001,1,3,650,530
1,7,14,2,0,1,C,G,g,r,15,5,41001,1,1,613,396
1,7,14,2,0,1,C,G,g,r,15,5,42001,1,3,370,159
1,7,14,2,0,1,C,G,g,r,15,5,42001,1,3,377,457
1,7,14,2,0,1,C,G,g,r,15,5,42001,1,3,370,558
1,7,14,2,0,1,C,G,g,r,15,5,42001,1,1,392,504
1,7,14,2,0,1,C,G,g,r,15,5,43001,1,3,632,138
1,7,14,2,0,1,C,G,g,r,15,5,43001,1,3,611,116
1,7,14,2,0,1,C,G,g,r,15,5,43001,1,1,581,88
1,7,14,2,0,1,C,G,g,r,15,5,44001,1,3,608,266
1,7,14,2,0,1,C,G,g,r,15,5,44001,1,1,608,243
1,7,14,2,0,1,C,G,g,r,15,5,44001,1,3,257,183
1,7,14,2,0,1,C,G,g,r,15,5,45001,1,1,622,279
1,7,14,2,0,1,C,G,g,r,15,5,45001,1,3,604,321
1,7,14,2,0,1,C,G,g,r,15,5,45001,1,3,715,210
1,7,14,2,0,1,C,G,g,r,15,5,47001,1,1,476,39
1,7,14,2,0,1,C,G,g,r,15,5,48001,1,1,469,476
1,7,14,2,0,1,C,G,g,r,15,5,49001,1,1,421,199
1,7,14,2,0,1,C,G,g,r,15,5,49001,1,3,417,247
1,7,14,2,0,1,C,G,g,r,15,5,50001,1,1,188,245
1,7,14,2,0,1,C,G,g,r,15,5,50001,1,3,204,219
1,7,14,2,0,1,C,G,g,r,15,5,51001,1,3,581,425
1,7,14,2,0,1,C,G,g,r,15,5,51001,1,1,477,440
1,7,14,2,0,1,C,G,g,r,15,5,52001,1,1,728,304
1,7,14,2,0,1,C,G,g,r,15,5,52001,1,1,700,93
1,7,14,2,0,1,C,G,g,r,15,5,52001,1,1,437,532
1,7,14,2,0,1,C,G,g,r,15,5,53001,1,1,674,338
1,7,14,2,0,1,C,G,g,r,15,5,54001,1,1,517,487
1,7,14,2,0,1,C,G,g,r,15,5,55001,1,1,398,330
1,7,14,2,0,1,C,G,g,r,15,5,55001,1,1,419,375
1,7,14,2,0,1,C,G,g,r,15,5,56001,1,1,242,317
1,7,14,2,0,1,C,G,g,r,15,5,57001,1,1,233,218
1,7,14,2,0,1,C,G,g,r,15,5,58001,1,3,273,126
1,7,14,2,0,1,C,G,g,r,15,5,58001,1,1,483,450
1,7,14,2,0,1,C,G,g,r,15,5,59001,1,3,414,50
1,7,14,2,0,1,C,G,g,r,15,5,59001,1,1,408,566
1,7,14,2,0,1,C,G,g,r,15,5,60001,1,3,553,138
1,7,14,2,0,1,C,G,g,r,15,5,61001,1,3,476,179
1,7,14,2,0,1,C,G,g,r,15,5,62001,1,3,618,266
1,7,14,2,0,1,C,G,g,r,15,5,63001,1,3,615,264
1,7,14,2,0,1,C,G,g,r,15,5,64001,1,3,550,183
1,7,14,2,0,1,C,G,g,r,15,5,64001,1,3,340,172
1,7,14,2,0,1,C,G,g,r,15,5,65001,1,3,443,90
1,7,14,2,0,1,C,G,g,r,15,5,65001,1,3,451,141
1,7,14,2,0,1,C,G,g,r,15,5,66001,1,3,542,65
1,7,14,2,0,1,C,G,g,r,15,5,66001,1,3,619,439
1,7,14,2,0,1,C,G,g,r,15,5,67001,1,3,771,249
1,7,14,2,0,1,C,G,g,r,15,5,67001,1,3,553,382
1,7,14,2,0,1,C,G,g,r,15,5,67001,1,1,733,301
1,7,14,2,0,1,C,G,g,r,15,5,68001,1,3,509,168
1,7,14,2,0,1,C,G,g,r,15,5,68001,1,3,251,270
1,7,14,2,0,1,C,G,g,r,15,5,68001,1,1,457,286
1,7,14,2,0,1,C,G,g,r,15,5,69001,1,1,303,204
1,7,14,2,0,1,C,G,g,r,15,5,69001,1,3,233,202
1,7,14,2,0,1,C,G,g,r,15,5,69001,1,3,235,312
1,7,14,2,0,1,C,G,g,r,15,5,70001,1,1,467,186
1,7,14,2,0,1,C,G,g,r,15,5,70001,1,3,760,235
1,7,14,2,0,1,C,G,g,r,15,5,70001,1,3,527,215
1,7,14,2,0,1,C,G,g,r,15,5,70001,1,3,277,175
1,7,14,2,0,1,C,G,g,r,15,5,71001,1,3,392,166
1,7,14,2,0,1,C,G,g,r,15,5,71001,1,3,348,358
1,7,14,2,0,1,C,G,g,r,15,5,71001,1,1,494,361
1,7,14,2,0,1,C,G,g,r,15,5,72001,1,3,379,37
1,7,14,2,0,1,C,G,g,r,15,5,72001,1,3,358,468
1,7,14,2,0,1,C,G,g,r,15,5,72001,1,1,315,430
1,7,14,2,0,1,C,G,g,r,15,5,73001,1,3,442,85
1,7,14,2,0,1,C,G,g,r,15,5,73001,1,3,396,287
1,7,14,2,0,1,C,G,g,r,15,5,73001,1,1,221,257
1,7,14,2,0,1,C,G,g,r,15,5,74001,1,3,394,439
1,7,14,2,0,1,C,G,g,r,15,5,74001,1,3,493,470
1,7,14,2,0,1,C,G,g,r,15,5,74001,1,3,454,518
1,7,14,2,0,1,C,G,g,r,15,5,74001,1,1,397,371
1,7,14,2,0,1,C,G,g,r,15,5,75001,1,3,601,87
1,7,14,2,0,1,C,G,g,r,15,5,75001,1,3,211,328
1,7,14,2,0,1,C,G,g,r,15,5,75001,1,3,449,462
1,7,14,2,0,1,C,G,g,r,15,5,76001,1,3,661,470
1,7,14,2,0,1,C,G,g,r,15,5,76001,1,3,643,518
1,7,14,2,0,1,C,G,g,r,15,5,76001,1,1,353,545
1,7,14,2,0,1,C,G,g,r,15,5,76001,1,3,229,188
1,7,14,2,0,1,C,G,g,r,15,5,77001,1,3,216,352
1,7,14,2,0,1,C,G,g,r,15,5,77001,1,3,642,518
1,7,14,2,0,1,C,G,g,r,15,5,77001,1,1,530,541
1,7,14,2,0,1,C,G,g,r,15,5,78001,1,1,618,254
1,7,14,2,0,1,C,G,g,r,15,5,78001,1,3,684,485
1,7,14,2,0,1,C,G,g,r,15,5,78001,1,3,371,474
1,7,14,2,0,1,C,G,g,r,15,5,78001,1,3,246,335
1,7,14,2,0,1,C,G,g,r,15,5,79001,1,1,333,65
1,7,14,2,0,1,C,G,g,r,15,5,79001,1,3,359,288
1,7,14,2,0,1,C,G,g,r,15,5,79001,1,3,352,339
1,7,14,2,0,1,C,G,g,r,15,5,79001,1,1,582,542
1,7,14,2,0,1,C,G,g,r,15,5,80001,1,3,715,269
1,7,14,2,0,1,C,G,g,r,15,5,80001,1,1,623,520
1,7,14,2,0,1,C,G,g,r,15,5,80001,1,1,265,168
1,7,14,2,0,1,C,G,g,r,15,5,81001,1,3,658,175
1,7,14,2,0,1,C,G,g,r,15,5,81001,1,3,359,70
1,7,14,2,0,1,C,G,g,r,15,5,81001,1,1,303,208
1,7,14,2,0,1,C,G,g,r,15,5,81001,1,1,682,235
1,7,14,2,0,1,C,G,g,r,15,5,82001,1,3,708,316
1,7,14,2,0,1,C,G,g,r,15,5,82001,1,1,700,469
1,7,14,2,0,1,C,G,g,r,15,5,82001,1,3,399,476
1,7,14,2,0,1,C,G,g,r,15,5,82001,1,1,412,330
1,7,14,2,0,1,C,G,g,r,15,5,83001,1,3,724,187
1,7,14,2,0,1,C,G,g,r,15,5,83001,1,3,444,289
1,7,14,2,0,1,C,G,g,r,15,5,83001,1,1,512,385
1,7,14,2,0,1,C,G,g,r,15,5,84001,1,3,238,316
1,7,14,2,0,1,C,G,g,r,15,5,84001,1,3,310,438
1,7,14,2,0,1,C,G,g,r,15,5,84001,1,1,617,441
1,7,14,2,0,1,C,G,g,r,15,5,85001,1,3,237,246
1,7,14,2,0,1,C,G,g,r,15,5,85001,1,3,413,517
1,7,14,2,0,1,C,G,g,r,15,5,85001,1,1,663,491
1,7,14,2,0,1,C,G,g,r,15,5,86001,1,3,321,370
1,7,14,2,0,1,C,G,g,r,15,5,86001,1,3,460,545
1,7,14,2,0,1,C,G,g,r,15,5,86001,1,1,723,420
1,7,14,2,0,1,C,G,g,r,15,5,87001,1,1,742,340
1,7,14,2,0,1,C,G,g,r,15,5,87001,1,3,713,389
1,7,14,2,0,1,C,G,g,r,15,5,87001,1,3,230,322
1,7,14,2,0,1,C,G,g,r,15,5,88001,1,3,612,133
1,7,14,2,0,1,C,G,g,r,15,5,88001,1,3,739,203
1,7,14,2,0,1,C,G,g,r,15,5,88001,1,1,584,183
1,7,14,2,0,1,C,G,g,r,15,5,89001,1,1,456,146
1,7,14,2,0,1,C,G,g,r,15,5,89001,1,3,471,213
1,7,14,2,0,1,C,G,g,r,15,5,89001,1,3,228,360
1,7,14,2,0,1,C,G,g,r,15,5,90001,1,1,350,47
1,7,14,2,0,1,C,G,g,r,15,5,90001,1,3,356,122
1,7,14,2,0,1,C,G,g,r,15,5,90001,1,3,608,334
1,7,14,2,0,1,C,G,g,r,15,5,91001,1,3,650,176
1,7,14,2,0,1,C,G,g,r,15,5,91001,1,3,220,363
1,7,14,2,0,1,C,G,g,r,15,5,91001,1,1,223,208
1,7,14,2,0,1,C,G,g,r,15,5,92001,1,3,590,322
1,7,14,2,0,1,C,G,g,r,15,5,92001,1,3,465,457
1,7,14,2,0,1,C,G,g,r,15,5,92001,1,3,449,506
1,7,14,2,0,1,C,G,g,r,15,5,92001,1,1,243,413
1,7,14,2,0,1,C,G,g,r,15,5,93001,1,3,595,106
1,7,14,2,0,1,C,G,g,r,15,5,93001,1,3,557,364
1,7,14,2,0,1,C,G,g,r,15,5,93001,1,3,403,565
1,7,14,2,0,1,C,G,g,r,15,5,94001,1,3,540,179
1,7,14,2,0,1,C,G,g,r,15,5,94001,1,3,468,393
1,7,14,2,0,1,C,G,g,r,15,5,94001,1,3,406,508
1,7,14,2,0,1,C,G,g,r,15,5,95001,1,3,200,304
1,7,14,2,0,1,C,G,g,r,15,5,95001,1,3,241,310
1,7,14,2,0,1,C,G,g,r,15,5,95001,1,3,707,395
1,7,14,2,0,1,C,G,g,r,15,5,96001,1,3,498,484
1,7,14,2,0,1,C,G,g,r,15,5,96001,1,3,554,542
1,7,14,2,0,1,C,G,g,r,15,5,96001,1,3,527,571
1,7,14,2,0,1,C,G,g,r,15,5,97001,1,3,396,91
1,7,14,2,0,1,C,G,g,r,15,5,97001,1,3,506,274
1,7,14,2,0,1,C,G,g,r,15,5,97001,1,3,428,394
1,7,14,2,0,1,C,G,g,r,15,5,98001,1,3,331,164
1,7,14,2,0,1,C,G,g,r,15,5,98001,1,3,750,353
1,7,14,2,0,1,C,G,g,r,15,5,98001,1,3,591,514
1,7,14,2,0,1,C,G,g,r,15,5,99001,1,3,207,271
1,7,14,2,0,1,C,G,g,r,15,5,99001,1,3,379,231
1,7,14,2,0,1,C,G,g,r,15,5,100001,1,3,608,27
1,7,14,2,0,1,C,G,g,r,15,5,100001,1,3,535,356
1,7,14,2,0,1,C,G,g,r,15,5,101001,1,3,528,151
1,7,14,2,0,1,C,G,g,r,15,5,101001,1,3,560,272
1,7,14,2,0,1,C,G,g,r,15,5,102001,1,3,351,290
1,7,14,2,0,1,C,G,g,r,15,5,102001,1,3,452,365
1,7,14,2,0,1,C,G,g,r,15,5,102001,1,3,604,404
1,7,14,2,0,1,C,G,g,r,15,5,103001,1,3,447,114
1,7,14,2,0,1,C,G,g,r,15,5,103001,1,3,239,349
1,7,14,2,0,1,C,G,g,r,15,5,103001,1,3,689,443
1,7,14,2,0,1,C,G,g,r,15,5,104001,1,3,540,168
1,7,14,2,0,1,C,G,g,r,15,5,104001,1,3,482,237
1,7,14,2,0,1,C,G,g,r,15,5,104001,1,3,530,365
1,7,14,2,0,1,C,G,g,r,15,5,105001,1,3,543,163
1,7,14,2,0,1,C,G,g,r,15,5,105001,1,3,680,339
1,7,14,2,0,1,C,G,g,r,15,5,105001,1,3,661,389
1,7,14,2,0,1,C,G,g,r,15,5,106001,1,3,523,143
1,7,14,2,0,1,C,G,g,r,15,5,106001,1,3,539,194
1,7,14,2,0,1,C,G,g,r,15,5,106001,1,3,549,233
1,7,14,2,0,1,C,G,g,r,15,5,107001,1,3,576,219
1,7,14,2,0,1,C,G,g,r,15,5,107001,1,3,592,269
1,7,14,2,0,1,C,G,g,r,15,5,107001,1,3,445,112
