dummy,month,day,period,view,station,fgeno,mgeno,fcol,mcol,nf,nm,frame,something,sex,x,y
1,9,26,3,2,2,B,G,b,y,10,10,1,1,3,327.0165,168.091
1,9,26,3,2,2,B,G,b,y,10,10,1,1,1,336.7218,262.3718
1,9,26,3,2,2,B,G,b,y,10,10,1,1,1,554.3995,313.6716
1,9,26,3,2,2,B,G,b,y,10,10,1,1,1,123.2036,331.6958
1,9,26,3,2,2,B,G,b,y,10,10,1,1,3,155.0927,306.7392
1,9,26,3,2,2,B,G,b,y,10,10,1,1,1,207.779,542.4411
1,9,26,3,2,2,B,G,b,y,10,10,1,1,1,386.6352,513.325
1,9,26,3,2,2,B,G,b,y,10,10,1001,1,3,364.4515,168.091
1,9,26,3,2,2,B,G,b,y,10,10,1001,1,1,335.3354,255.4393
1,9,26,3,2,2,B,G,b,y,10,10,1001,1,1,562.7184,326.1499
1,9,26,3,2,2,B,G,b,y,10,10,1001,1,3,185.5953,324.7634
1,9,26,3,2,2,B,G,b,y,10,10,1001,1,1,139.8414,475.8899
1,9,26,3,2,2,B,G,b,y,10,10,1001,1,1,399.1135,510.552
1,9,26,3,2,2,B,G,b,y,10,10,2001,1,3,414.3648,173.6369
1,9,26,3,2,2,B,G,b,y,10,10,2001,1,1,364.4515,238.8016
1,9,26,3,2,2,B,G,b,y,10,10,2001,1,1,547.4671,305.3527
1,9,26,3,2,2,B,G,b,y,10,10,2001,1,3,164.7981,327.5364
1,9,26,3,2,2,B,G,b,y,10,10,2001,1,1,132.909,463.4116
1,9,26,3,2,2,B,G,b,y,10,10,2001,1,1,382.4757,482.8224
1,9,26,3,2,2,B,G,b,y,10,10,3001,1,1,399.1135,187.5017
1,9,26,3,2,2,B,G,b,y,10,10,3001,1,1,180.0494,218.0043
1,9,26,3,2,2,B,G,b,y,10,10,3001,1,1,533.6023,310.8986
1,9,26,3,2,2,B,G,b,y,10,10,3001,1,3,364.4515,324.7634
1,9,26,3,2,2,B,G,b,y,10,10,3001,1,3,170.344,331.6958
1,9,26,3,2,2,B,G,b,y,10,10,3001,1,1,397.727,471.7305
1,9,26,3,2,2,B,G,b,y,10,10,4001,1,1,394.9541,187.5017
1,9,26,3,2,2,B,G,b,y,10,10,4001,1,3,368.6109,333.0823
1,9,26,3,2,2,B,G,b,y,10,10,4001,1,1,455.9593,337.2418
1,9,26,3,2,2,B,G,b,y,10,10,4001,1,1,397.727,474.5035
1,9,26,3,2,2,B,G,b,y,10,10,4001,1,3,177.2764,342.7877
1,9,26,3,2,2,B,G,b,y,10,10,5001,1,1,375.5433,202.753
1,9,26,3,2,2,B,G,b,y,10,10,5001,1,3,350.5867,320.604
1,9,26,3,2,2,B,G,b,y,10,10,5001,1,1,432.3891,363.5849
1,9,26,3,2,2,B,G,b,y,10,10,5001,1,3,184.2088,346.9471
1,9,26,3,2,2,B,G,b,y,10,10,5001,1,1,408.8189,453.7062
1,9,26,3,2,2,B,G,b,y,10,10,6001,1,1,390.7946,186.1153
1,9,26,3,2,2,B,G,b,y,10,10,6001,1,3,320.0841,310.8986
1,9,26,3,2,2,B,G,b,y,10,10,6001,1,3,184.2088,337.2418
1,9,26,3,2,2,B,G,b,y,10,10,6001,1,1,393.5676,480.0494
1,9,26,3,2,2,B,G,b,y,10,10,6001,1,1,379.7028,445.3873
1,9,26,3,2,2,B,G,b,y,10,10,6001,1,1,577.9697,334.4688
1,9,26,3,2,2,B,G,b,y,10,10,7001,1,1,388.0217,201.3666
1,9,26,3,2,2,B,G,b,y,10,10,7001,1,3,279.8761,302.5797
1,9,26,3,2,2,B,G,b,y,10,10,7001,1,3,166.1846,308.1256
1,9,26,3,2,2,B,G,b,y,10,10,7001,1,1,354.7461,453.7062
1,9,26,3,2,2,B,G,b,y,10,10,7001,1,1,444.8674,431.5225
1,9,26,3,2,2,B,G,b,y,10,10,7001,1,1,587.675,330.3094
1,9,26,3,2,2,B,G,b,y,10,10,8001,1,1,397.727,199.9801
1,9,26,3,2,2,B,G,b,y,10,10,8001,1,3,188.3683,284.5555
1,9,26,3,2,2,B,G,b,y,10,10,8001,1,3,247.987,301.1932
1,9,26,3,2,2,B,G,b,y,10,10,8001,1,1,347.8137,452.3198
1,9,26,3,2,2,B,G,b,y,10,10,8001,1,1,453.1863,425.9766
1,9,26,3,2,2,B,G,b,y,10,10,8001,1,1,583.5156,320.604
1,9,26,3,2,2,B,G,b,y,10,10,9001,1,1,515.578,216.6179
1,9,26,3,2,2,B,G,b,y,10,10,9001,1,1,404.6594,204.1395
1,9,26,3,2,2,B,G,b,y,10,10,9001,1,1,458.7322,434.2955
1,9,26,3,2,2,B,G,b,y,10,10,9001,1,1,347.8137,452.3198
1,9,26,3,2,2,B,G,b,y,10,10,9001,1,3,205.0061,316.4445
1,9,26,3,2,2,B,G,b,y,10,10,9001,1,3,217.4844,267.9177
1,9,26,3,2,2,B,G,b,y,10,10,10001,1,1,530.8293,151.4532
1,9,26,3,2,2,B,G,b,y,10,10,10001,1,1,400.5,191.6612
1,9,26,3,2,2,B,G,b,y,10,10,10001,1,3,246.6005,270.6906
1,9,26,3,2,2,B,G,b,y,10,10,10001,1,3,181.4359,315.0581
1,9,26,3,2,2,B,G,b,y,10,10,10001,1,1,324.2435,452.3198
1,9,26,3,2,2,B,G,b,y,10,10,10001,1,1,479.5295,414.8847
1,9,26,3,2,2,B,G,b,y,10,10,11001,1,1,555.786,180.5693
1,9,26,3,2,2,B,G,b,y,10,10,11001,1,1,462.8917,280.396
1,9,26,3,2,2,B,G,b,y,10,10,11001,1,1,288.195,305.3527
1,9,26,3,2,2,B,G,b,y,10,10,11001,1,1,247.987,230.4827
1,9,26,3,2,2,B,G,b,y,10,10,11001,1,3,210.552,254.0529
1,9,26,3,2,2,B,G,b,y,10,10,11001,1,3,178.6629,381.6092
1,9,26,3,2,2,B,G,b,y,10,10,11001,1,1,339.4948,455.0927
1,9,26,3,2,2,B,G,b,y,10,10,12001,1,1,447.6404,280.396
1,9,26,3,2,2,B,G,b,y,10,10,12001,1,1,404.6594,251.2799
1,9,26,3,2,2,B,G,b,y,10,10,12001,1,1,451.7998,503.6196
1,9,26,3,2,2,B,G,b,y,10,10,12001,1,1,297.9003,449.5468
1,9,26,3,2,2,B,G,b,y,10,10,12001,1,3,149.5468,338.6282
1,9,26,3,2,2,B,G,b,y,10,10,12001,1,3,181.4359,242.961
1,9,26,3,2,2,B,G,b,y,10,10,13001,1,1,284.0355,288.7149
1,9,26,3,2,2,B,G,b,y,10,10,13001,1,1,264.6248,420.4307
1,9,26,3,2,2,B,G,b,y,10,10,13001,1,1,354.7461,459.2522
1,9,26,3,2,2,B,G,b,y,10,10,13001,1,1,379.7028,391.3146
1,9,26,3,2,2,B,G,b,y,10,10,13001,1,3,200.8466,295.6473
1,9,26,3,2,2,B,G,b,y,10,10,13001,1,3,157.8657,327.5364
1,9,26,3,2,2,B,G,b,y,10,10,14001,1,1,472.5971,420.4307
1,9,26,3,2,2,B,G,b,y,10,10,14001,1,1,401.8865,389.9281
1,9,26,3,2,2,B,G,b,y,10,10,14001,1,1,353.3596,384.3821
1,9,26,3,2,2,B,G,b,y,10,10,14001,1,1,267.3977,439.8414
1,9,26,3,2,2,B,G,b,y,10,10,14001,1,3,314.5381,441.2279
1,9,26,3,2,2,B,G,b,y,10,10,14001,1,3,191.1412,283.169
1,9,26,3,2,2,B,G,b,y,10,10,14001,1,3,146.7738,290.1014
1,9,26,3,2,2,B,G,b,y,10,10,15001,1,3,210.552,284.5555
1,9,26,3,2,2,B,G,b,y,10,10,15001,1,3,155.0927,276.2366
1,9,26,3,2,2,B,G,b,y,10,10,15001,1,1,363.065,449.5468
1,9,26,3,2,2,B,G,b,y,10,10,15001,1,3,382.4757,485.5953
1,9,26,3,2,2,B,G,b,y,10,10,15001,1,1,558.5589,384.3821
1,9,26,3,2,2,B,G,b,y,10,10,16001,1,1,157.8657,82.1291
1,9,26,3,2,2,B,G,b,y,10,10,16001,1,3,141.2279,263.7582
1,9,26,3,2,2,B,G,b,y,10,10,16001,1,3,202.2331,273.4636
1,9,26,3,2,2,B,G,b,y,10,10,16001,1,1,437.935,349.7201
1,9,26,3,2,2,B,G,b,y,10,10,16001,1,3,408.8189,373.2903
1,9,26,3,2,2,B,G,b,y,10,10,16001,1,3,443.4809,394.0875
1,9,26,3,2,2,B,G,b,y,10,10,17001,1,1,119.0442,213.8449
1,9,26,3,2,2,B,G,b,y,10,10,17001,1,3,149.5468,227.7097
1,9,26,3,2,2,B,G,b,y,10,10,17001,1,3,232.7357,238.8016
1,9,26,3,2,2,B,G,b,y,10,10,17001,1,1,279.8761,342.7877
1,9,26,3,2,2,B,G,b,y,10,10,17001,1,1,324.2435,378.8362
1,9,26,3,2,2,B,G,b,y,10,10,17001,1,3,279.8761,388.5416
1,9,26,3,2,2,B,G,b,y,10,10,18001,1,3,264.6248,223.5503
1,9,26,3,2,2,B,G,b,y,10,10,18001,1,3,178.6629,219.3908
1,9,26,3,2,2,B,G,b,y,10,10,18001,1,1,223.0303,373.2903
1,9,26,3,2,2,B,G,b,y,10,10,18001,1,1,363.065,360.812
1,9,26,3,2,2,B,G,b,y,10,10,18001,1,1,205.0061,410.7253
1,9,26,3,2,2,B,G,b,y,10,10,18001,1,3,171.7305,420.4307
1,9,26,3,2,2,B,G,b,y,10,10,19001,1,3,282.649,222.1638
1,9,26,3,2,2,B,G,b,y,10,10,19001,1,3,193.9142,197.2071
1,9,26,3,2,2,B,G,b,y,10,10,19001,1,1,181.4359,370.5173
1,9,26,3,2,2,B,G,b,y,10,10,19001,1,1,210.552,391.3146
1,9,26,3,2,2,B,G,b,y,10,10,19001,1,1,193.9142,430.136
1,9,26,3,2,2,B,G,b,y,10,10,19001,1,3,224.4168,416.2712
1,9,26,3,2,2,B,G,b,y,10,10,20001,1,3,218.8709,547.987
1,9,26,3,2,2,B,G,b,y,10,10,20001,1,3,195.3007,255.4393
1,9,26,3,2,2,B,G,b,y,10,10,20001,1,3,236.8951,211.0719
1,9,26,3,2,2,B,G,b,y,10,10,21001,1,3,199.4601,205.526
1,9,26,3,2,2,B,G,b,y,10,10,21001,1,3,132.909,283.169
1,9,26,3,2,2,B,G,b,y,10,10,22001,1,3,180.0494,369.1308
1,9,26,3,2,2,B,G,b,y,10,10,22001,1,1,163.4116,321.9905
1,9,26,3,2,2,B,G,b,y,10,10,22001,1,3,116.2712,290.1014
1,9,26,3,2,2,B,G,b,y,10,10,23001,1,1,361.6785,280.396
1,9,26,3,2,2,B,G,b,y,10,10,23001,1,1,270.1707,281.7825
1,9,26,3,2,2,B,G,b,y,10,10,23001,1,3,127.3631,306.7392
1,9,26,3,2,2,B,G,b,y,10,10,23001,1,3,149.5468,488.3683
1,9,26,3,2,2,B,G,b,y,10,10,24001,1,1,482.3024,389.9281
1,9,26,3,2,2,B,G,b,y,10,10,24001,1,1,446.2539,482.8224
1,9,26,3,2,2,B,G,b,y,10,10,24001,1,3,120.4307,330.3094
1,9,26,3,2,2,B,G,b,y,10,10,24001,1,3,162.0251,478.6629
1,9,26,3,2,2,B,G,b,y,10,10,25001,1,1,485.0754,303.9662
1,9,26,3,2,2,B,G,b,y,10,10,25001,1,1,274.3302,226.3232
1,9,26,3,2,2,B,G,b,y,10,10,25001,1,3,114.8847,326.1499
1,9,26,3,2,2,B,G,b,y,10,10,25001,1,3,185.5953,511.9385
1,9,26,3,2,2,B,G,b,y,10,10,26001,1,3,124.5901,306.7392
1,9,26,3,2,2,B,G,b,y,10,10,26001,1,3,202.2331,525.8033
1,9,26,3,2,2,B,G,b,y,10,10,26001,1,1,471.2106,502.2331
1,9,26,3,2,2,B,G,b,y,10,10,27001,1,3,119.0442,309.5121
1,9,26,3,2,2,B,G,b,y,10,10,27001,1,3,315.9246,172.2504
1,9,26,3,2,2,B,G,b,y,10,10,27001,1,1,332.5624,205.526
1,9,26,3,2,2,B,G,b,y,10,10,27001,1,1,386.6352,205.526
1,9,26,3,2,2,B,G,b,y,10,10,27001,1,1,407.4324,170.864
1,9,26,3,2,2,B,G,b,y,10,10,28001,1,3,131.5225,301.1932
1,9,26,3,2,2,B,G,b,y,10,10,28001,1,3,119.0442,241.5745
1,9,26,3,2,2,B,G,b,y,10,10,29001,1,3,170.344,237.4151
1,9,26,3,2,2,B,G,b,y,10,10,29001,1,3,128.7496,249.8934
1,9,26,3,2,2,B,G,b,y,10,10,29001,1,1,274.3302,114.0182
1,9,26,3,2,2,B,G,b,y,10,10,30001,1,3,134.2955,270.6906
1,9,26,3,2,2,B,G,b,y,10,10,30001,1,3,200.8466,162.5451
1,9,26,3,2,2,B,G,b,y,10,10,30001,1,1,345.0407,101.5399
1,9,26,3,2,2,B,G,b,y,10,10,31001,1,3,127.3631,295.6473
1,9,26,3,2,2,B,G,b,y,10,10,31001,1,3,170.344,229.0962
1,9,26,3,2,2,B,G,b,y,10,10,31001,1,1,411.5919,295.6473
1,9,26,3,2,2,B,G,b,y,10,10,32001,1,3,123.2036,298.4203
1,9,26,3,2,2,B,G,b,y,10,10,32001,1,3,138.4549,270.6906
1,9,26,3,2,2,B,G,b,y,10,10,32001,1,1,163.4116,236.0286
1,9,26,3,2,2,B,G,b,y,10,10,32001,1,1,490.6213,176.4099
1,9,26,3,2,2,B,G,b,y,10,10,33001,1,1,449.0269,234.6421
1,9,26,3,2,2,B,G,b,y,10,10,33001,1,3,160.6386,273.4636
1,9,26,3,2,2,B,G,b,y,10,10,33001,1,3,117.6577,310.8986
1,9,26,3,2,2,B,G,b,y,10,10,34001,1,1,446.2539,179.1828
1,9,26,3,2,2,B,G,b,y,10,10,34001,1,1,328.4029,313.6716
1,9,26,3,2,2,B,G,b,y,10,10,34001,1,3,167.5711,260.9853
1,9,26,3,2,2,B,G,b,y,10,10,34001,1,3,157.8657,319.2175
1,9,26,3,2,2,B,G,b,y,10,10,35001,1,1,436.5485,175.0234
1,9,26,3,2,2,B,G,b,y,10,10,35001,1,3,180.0494,188.8882
1,9,26,3,2,2,B,G,b,y,10,10,35001,1,1,124.5901,281.7825
1,9,26,3,2,2,B,G,b,y,10,10,35001,1,3,156.4792,303.9662
1,9,26,3,2,2,B,G,b,y,10,10,35001,1,1,138.4549,439.8414
1,9,26,3,2,2,B,G,b,y,10,10,36001,1,1,503.0997,223.5503
1,9,26,3,2,2,B,G,b,y,10,10,36001,1,3,196.6872,173.6369
1,9,26,3,2,2,B,G,b,y,10,10,36001,1,3,191.1412,281.7825
1,9,26,3,2,2,B,G,b,y,10,10,36001,1,1,217.4844,462.0251
1,9,26,3,2,2,B,G,b,y,10,10,37001,1,1,576.5832,241.5745
1,9,26,3,2,2,B,G,b,y,10,10,37001,1,1,279.8761,301.1932
1,9,26,3,2,2,B,G,b,y,10,10,37001,1,3,177.2764,294.2608
1,9,26,3,2,2,B,G,b,y,10,10,37001,1,3,182.8224,206.9125
1,9,26,3,2,2,B,G,b,y,10,10,38001,1,1,558.5589,272.0771
1,9,26,3,2,2,B,G,b,y,10,10,38001,1,3,236.8951,285.9419
1,9,26,3,2,2,B,G,b,y,10,10,38001,1,3,167.5711,226.3232
1,9,26,3,2,2,B,G,b,y,10,10,38001,1,1,290.9679,416.2712
1,9,26,3,2,2,B,G,b,y,10,10,39001,1,1,566.8778,285.9419
1,9,26,3,2,2,B,G,b,y,10,10,39001,1,3,296.5139,295.6473
1,9,26,3,2,2,B,G,b,y,10,10,39001,1,3,124.5901,273.4636
1,9,26,3,2,2,B,G,b,y,10,10,39001,1,1,278.4896,430.136
1,9,26,3,2,2,B,G,b,y,10,10,40001,1,3,278.4896,294.2608
1,9,26,3,2,2,B,G,b,y,10,10,40001,1,3,131.5225,338.6282
1,9,26,3,2,2,B,G,b,y,10,10,40001,1,1,369.9974,503.6196
1,9,26,3,2,2,B,G,b,y,10,10,41001,1,1,486.4619,346.9471
1,9,26,3,2,2,B,G,b,y,10,10,41001,1,3,106.5659,340.0147
1,9,26,3,2,2,B,G,b,y,10,10,41001,1,3,234.1222,290.1014
1,9,26,3,2,2,B,G,b,y,10,10,42001,1,1,508.6456,150.0667
1,9,26,3,2,2,B,G,b,y,10,10,42001,1,3,532.2158,151.4532
1,9,26,3,2,2,B,G,b,y,10,10,42001,1,3,132.909,340.0147
1,9,26,3,2,2,B,G,b,y,10,10,43001,1,3,532.2158,260.9853
1,9,26,3,2,2,B,G,b,y,10,10,43001,1,3,482.3024,406.5659
1,9,26,3,2,2,B,G,b,y,10,10,43001,1,3,123.2036,335.8553
1,9,26,3,2,2,B,G,b,y,10,10,44001,1,3,526.6698,272.0771
1,9,26,3,2,2,B,G,b,y,10,10,44001,1,3,127.3631,327.5364
1,9,26,3,2,2,B,G,b,y,10,10,44001,1,1,422.6837,485.5953
1,9,26,3,2,2,B,G,b,y,10,10,45001,1,3,522.5104,396.8605
1,9,26,3,2,2,B,G,b,y,10,10,45001,1,3,125.9766,321.9905
1,9,26,3,2,2,B,G,b,y,10,10,45001,1,1,171.7305,502.2331
1,9,26,3,2,2,B,G,b,y,10,10,46001,1,3,307.6057,184.7288
1,9,26,3,2,2,B,G,b,y,10,10,46001,1,3,125.9766,313.6716
1,9,26,3,2,2,B,G,b,y,10,10,46001,1,1,209.1655,524.4168
1,9,26,3,2,2,B,G,b,y,10,10,47001,1,3,272.9437,179.1828
1,9,26,3,2,2,B,G,b,y,10,10,47001,1,1,234.1222,102.9263
1,9,26,3,2,2,B,G,b,y,10,10,47001,1,3,128.7496,324.7634
1,9,26,3,2,2,B,G,b,y,10,10,47001,1,1,386.6352,417.6577
1,9,26,3,2,2,B,G,b,y,10,10,48001,1,1,199.4601,136.2019
1,9,26,3,2,2,B,G,b,y,10,10,48001,1,3,171.7305,230.4827
1,9,26,3,2,2,B,G,b,y,10,10,48001,1,3,145.3873,274.8501
1,9,26,3,2,2,B,G,b,y,10,10,48001,1,1,388.0217,431.5225
1,9,26,3,2,2,B,G,b,y,10,10,49001,1,1,202.2331,145.9073
1,9,26,3,2,2,B,G,b,y,10,10,49001,1,3,162.0251,205.526
1,9,26,3,2,2,B,G,b,y,10,10,49001,1,3,94.0875,266.5312
1,9,26,3,2,2,B,G,b,y,10,10,49001,1,1,482.3024,475.8899
1,9,26,3,2,2,B,G,b,y,10,10,50001,1,1,299.2868,170.864
1,9,26,3,2,2,B,G,b,y,10,10,50001,1,1,189.7548,162.5451
1,9,26,3,2,2,B,G,b,y,10,10,50001,1,3,114.8847,194.4341
1,9,26,3,2,2,B,G,b,y,10,10,50001,1,3,78.8362,269.3042
1,9,26,3,2,2,B,G,b,y,10,10,51001,1,1,168.9575,195.8206
1,9,26,3,2,2,B,G,b,y,10,10,51001,1,1,505.8726,320.604
1,9,26,3,2,2,B,G,b,y,10,10,51001,1,3,119.0442,298.4203
1,9,26,3,2,2,B,G,b,y,10,10,51001,1,3,80.2227,281.7825
1,9,26,3,2,2,B,G,b,y,10,10,52001,1,1,185.5953,199.9801
1,9,26,3,2,2,B,G,b,y,10,10,52001,1,1,216.0979,143.1343
1,9,26,3,2,2,B,G,b,y,10,10,52001,1,3,106.5659,321.9905
1,9,26,3,2,2,B,G,b,y,10,10,52001,1,3,66.3579,340.0147
1,9,26,3,2,2,B,G,b,y,10,10,53001,1,1,412.9783,180.5693
1,9,26,3,2,2,B,G,b,y,10,10,53001,1,1,184.2088,181.9558
1,9,26,3,2,2,B,G,b,y,10,10,53001,1,3,102.4064,312.2851
1,9,26,3,2,2,B,G,b,y,10,10,53001,1,3,91.3146,435.682
1,9,26,3,2,2,B,G,b,y,10,10,54001,1,1,404.6594,75.1967
1,9,26,3,2,2,B,G,b,y,10,10,54001,1,1,235.5087,212.4584
1,9,26,3,2,2,B,G,b,y,10,10,54001,1,3,159.2522,310.8986
1,9,26,3,2,2,B,G,b,y,10,10,54001,1,3,112.1118,432.909
1,9,26,3,2,2,B,G,b,y,10,10,55001,1,1,266.0113,305.3527
1,9,26,3,2,2,B,G,b,y,10,10,55001,1,3,284.0355,425.9766
1,9,26,3,2,2,B,G,b,y,10,10,55001,1,3,125.9766,450.9333
1,9,26,3,2,2,B,G,b,y,10,10,56001,1,1,279.8761,233.2556
1,9,26,3,2,2,B,G,b,y,10,10,56001,1,3,350.5867,448.1603
1,9,26,3,2,2,B,G,b,y,10,10,56001,1,3,180.0494,521.6438
1,9,26,3,2,2,B,G,b,y,10,10,57001,1,1,264.6248,141.7478
1,9,26,3,2,2,B,G,b,y,10,10,57001,1,3,419.9107,442.6144
1,9,26,3,2,2,B,G,b,y,10,10,57001,1,3,192.5277,527.1898
1,9,26,3,2,2,B,G,b,y,10,10,58001,1,1,278.4896,68.2643
1,9,26,3,2,2,B,G,b,y,10,10,58001,1,3,462.8917,413.4983
1,9,26,3,2,2,B,G,b,y,10,10,58001,1,3,198.0737,523.0303
1,9,26,3,2,2,B,G,b,y,10,10,59001,1,1,404.6594,75.1967
1,9,26,3,2,2,B,G,b,y,10,10,59001,1,3,322.857,236.0286
1,9,26,3,2,2,B,G,b,y,10,10,59001,1,3,210.552,524.4168
1,9,26,3,2,2,B,G,b,y,10,10,60001,1,1,449.0269,213.8449
1,9,26,3,2,2,B,G,b,y,10,10,60001,1,3,270.1707,208.299
1,9,26,3,2,2,B,G,b,y,10,10,60001,1,3,221.6438,539.6681
1,9,26,3,2,2,B,G,b,y,10,10,61001,1,1,450.4133,216.6179
1,9,26,3,2,2,B,G,b,y,10,10,61001,1,3,209.1655,193.0477
1,9,26,3,2,2,B,G,b,y,10,10,61001,1,3,209.1655,542.4411
1,9,26,3,2,2,B,G,b,y,10,10,62001,1,3,209.1655,183.3423
1,9,26,3,2,2,B,G,b,y,10,10,62001,1,3,202.2331,527.1898
1,9,26,3,2,2,B,G,b,y,10,10,62001,1,1,486.4619,438.4549
1,9,26,3,2,2,B,G,b,y,10,10,63001,1,1,205.0061,145.9073
1,9,26,3,2,2,B,G,b,y,10,10,63001,1,3,200.8466,188.8882
1,9,26,3,2,2,B,G,b,y,10,10,63001,1,3,218.8709,542.4411
1,9,26,3,2,2,B,G,b,y,10,10,63001,1,1,472.5971,427.3631
1,9,26,3,2,2,B,G,b,y,10,10,64001,1,3,166.1846,195.8206
1,9,26,3,2,2,B,G,b,y,10,10,64001,1,3,218.8709,523.0303
1,9,26,3,2,2,B,G,b,y,10,10,64001,1,1,270.1707,535.5087
1,9,26,3,2,2,B,G,b,y,10,10,65001,1,3,142.6144,259.5988
1,9,26,3,2,2,B,G,b,y,10,10,65001,1,1,137.0685,308.1256
1,9,26,3,2,2,B,G,b,y,10,10,65001,1,3,290.9679,552.1464
1,9,26,3,2,2,B,G,b,y,10,10,66001,1,1,264.6248,287.3284
1,9,26,3,2,2,B,G,b,y,10,10,66001,1,3,107.9523,328.9229
1,9,26,3,2,2,B,G,b,y,10,10,66001,1,3,407.4324,463.4116
1,9,26,3,2,2,B,G,b,y,10,10,67001,1,3,173.117,349.7201
1,9,26,3,2,2,B,G,b,y,10,10,68001,1,3,173.117,425.9766
1,9,26,3,2,2,B,G,b,y,10,10,69001,1,3,114.8847,349.7201
1,9,26,3,2,2,B,G,b,y,10,10,70001,1,3,114.8847,340.0147
1,9,26,3,2,2,B,G,b,y,10,10,70001,1,1,569.6508,319.2175
1,9,26,3,2,2,B,G,b,y,10,10,71001,1,1,408.8189,394.0875
1,9,26,3,2,2,B,G,b,y,10,10,71001,1,3,162.0251,371.9038
1,9,26,3,2,2,B,G,b,y,10,10,72001,1,3,328.4029,317.831
1,9,26,3,2,2,B,G,b,y,10,10,72001,1,1,350.5867,208.299
1,9,26,3,2,2,B,G,b,y,10,10,73001,1,3,249.3735,402.4064
1,9,26,3,2,2,B,G,b,y,10,10,73001,1,1,340.8813,205.526
1,9,26,3,2,2,B,G,b,y,10,10,74001,1,3,120.4307,457.8657
1,9,26,3,2,2,B,G,b,y,10,10,74001,1,1,353.3596,223.5503
1,9,26,3,2,2,B,G,b,y,10,10,75001,1,1,338.1083,107.0858
1,9,26,3,2,2,B,G,b,y,10,10,75001,1,3,134.2955,445.3873
1,9,26,3,2,2,B,G,b,y,10,10,76001,1,3,87.1551,370.5173
1,9,26,3,2,2,B,G,b,y,10,10,76001,1,1,340.8813,104.3128
1,9,26,3,2,2,B,G,b,y,10,10,77001,1,3,88.5416,273.4636
1,9,26,3,2,2,B,G,b,y,10,10,77001,1,1,356.1326,69.6508
1,9,26,3,2,2,B,G,b,y,10,10,78001,1,3,155.0927,288.7149
1,9,26,3,2,2,B,G,b,y,10,10,78001,1,1,195.3007,186.1153
1,9,26,3,2,2,B,G,b,y,10,10,79001,1,3,202.2331,371.9038
1,9,26,3,2,2,B,G,b,y,10,10,79001,1,1,191.1412,255.4393
1,9,26,3,2,2,B,G,b,y,10,10,80001,1,3,174.5035,425.9766
1,9,26,3,2,2,B,G,b,y,10,10,80001,1,3,160.6386,474.5035
1,9,26,3,2,2,B,G,b,y,10,10,81001,1,3,142.6144,491.1412
1,9,26,3,2,2,B,G,b,y,10,10,81001,1,1,540.5347,367.7444
1,9,26,3,2,2,B,G,b,y,10,10,82001,1,3,152.3198,498.0737
1,9,26,3,2,2,B,G,b,y,10,10,82001,1,1,515.578,140.3614
1,9,26,3,2,2,B,G,b,y,10,10,83001,1,3,168.9575,514.7114
1,9,26,3,2,2,B,G,b,y,10,10,83001,1,1,559.9454,391.3146
1,9,26,3,2,2,B,G,b,y,10,10,84001,1,3,207.779,503.6196
1,9,26,3,2,2,B,G,b,y,10,10,84001,1,1,199.4601,449.5468
1,9,26,3,2,2,B,G,b,y,10,10,85001,1,3,188.3683,524.4168
1,9,26,3,2,2,B,G,b,y,10,10,85001,1,1,406.0459,441.2279
1,9,26,3,2,2,B,G,b,y,10,10,86001,1,3,295.1274,287.3284
1,9,26,3,2,2,B,G,b,y,10,10,86001,1,1,318.6976,249.8934
1,9,26,3,2,2,B,G,b,y,10,10,87001,1,1,320.0841,244.3475
1,9,26,3,2,2,B,G,b,y,10,10,87001,1,3,266.0113,248.5069
1,9,26,3,2,2,B,G,b,y,10,10,88001,1,1,324.2435,334.4688
1,9,26,3,2,2,B,G,b,y,10,10,88001,1,3,198.0737,209.6854
1,9,26,3,2,2,B,G,b,y,10,10,89001,1,3,152.3198,137.5884
1,9,26,3,2,2,B,G,b,y,10,10,89001,1,1,461.5052,76.5832
1,9,26,3,2,2,B,G,b,y,10,10,90001,1,3,264.6248,168.091
1,9,26,3,2,2,B,G,b,y,10,10,90001,1,1,286.8085,184.7288
1,9,26,3,2,2,B,G,b,y,10,10,91001,1,1,195.3007,173.6369
1,9,26,3,2,2,B,G,b,y,10,10,91001,1,1,450.4133,459.2522
1,9,26,3,2,2,B,G,b,y,10,10,91001,1,3,475.37,444.0009
1,9,26,3,2,2,B,G,b,y,10,10,92001,1,3,199.4601,445.3873
1,9,26,3,2,2,B,G,b,y,10,10,92001,1,1,475.37,452.3198
1,9,26,3,2,2,B,G,b,y,10,10,93001,1,1,243.8276,50.24
1,9,26,3,2,2,B,G,b,y,10,10,93001,1,3,184.2088,514.7114
1,9,26,3,2,2,B,G,b,y,10,10,94001,1,1,210.552,543.8276
1,9,26,3,2,2,B,G,b,y,10,10,94001,1,3,198.0737,492.5277
1,9,26,3,2,2,B,G,b,y,10,10,95001,1,1,245.214,334.4688
1,9,26,3,2,2,B,G,b,y,10,10,95001,1,3,206.3925,172.2504
1,9,26,3,2,2,B,G,b,y,10,10,95001,1,1,573.8102,279.0095
1,9,26,3,2,2,B,G,b,y,10,10,96001,1,3,314.5381,224.9367
1,9,26,3,2,2,B,G,b,y,10,10,96001,1,3,171.7305,493.9142
1,9,26,3,2,2,B,G,b,y,10,10,97001,1,3,99.6334,346.9471
1,9,26,3,2,2,B,G,b,y,10,10,98001,1,1,246.6005,187.5017
1,9,26,3,2,2,B,G,b,y,10,10,98001,1,3,192.5277,191.6612
1,9,26,3,2,2,B,G,b,y,10,10,99001,1,3,232.7357,127.883
1,9,26,3,2,2,B,G,b,y,10,10,99001,1,1,206.3925,69.6508
1,9,26,3,2,2,B,G,b,y,10,10,100001,1,1,239.6681,75.1967
1,9,26,3,2,2,B,G,b,y,10,10,100001,1,3,281.2626,77.9697
1,9,26,3,2,2,B,G,b,y,10,10,100001,1,1,274.3302,230.4827
1,9,26,3,2,2,B,G,b,y,10,10,101001,1,1,363.065,165.318
1,9,26,3,2,2,B,G,b,y,10,10,102001,1,1,449.0269,118.1776
1,9,26,3,2,2,B,G,b,y,10,10,102001,1,1,393.5676,94.6075
1,9,26,3,2,2,B,G,b,y,10,10,102001,1,3,213.325,155.6127
1,9,26,3,2,2,B,G,b,y,10,10,103001,1,1,449.0269,305.3527
1,9,26,3,2,2,B,G,b,y,10,10,103001,1,3,206.3925,180.5693
1,9,26,3,2,2,B,G,b,y,10,10,104001,1,1,444.8674,310.8986
1,9,26,3,2,2,B,G,b,y,10,10,104001,1,3,202.2331,187.5017
1,9,26,3,2,2,B,G,b,y,10,10,105001,1,1,424.0702,323.3769
1,9,26,3,2,2,B,G,b,y,10,10,105001,1,3,182.8224,181.9558
1,9,26,3,2,2,B,G,b,y,10,10,106001,1,1,414.3648,352.4931
1,9,26,3,2,2,B,G,b,y,10,10,106001,1,3,188.3683,190.2747
1,9,26,3,2,2,B,G,b,y,10,10,107001,1,1,245.214,64.1049
1,9,26,3,2,2,B,G,b,y,10,10,107001,1,3,173.117,215.2314
