dummy,month,day,period,view,station,fgeno,mgeno,fcol,mcol,nf,nm,frame,something,sex,x,y
1,7,16,2,3,2,C,G,g,r,5,15,1,1,1,421.3696,253.8913
1,7,16,2,3,2,C,G,g,r,5,15,1,1,1,415.8043,89.7174
1,7,16,2,3,2,C,G,g,r,5,15,1,1,1,454.7609,71.6304
1,7,16,2,3,2,C,G,g,r,5,15,1,1,3,510.413,188.5
1,7,16,2,3,2,C,G,g,r,5,15,1,1,3,433.8913,331.8043
1,7,16,2,3,2,C,G,g,r,5,15,1001,1,1,179.2826,228.8478
1,7,16,2,3,2,C,G,g,r,5,15,1001,1,1,419.9783,36.8478
1,7,16,2,3,2,C,G,g,r,5,15,1001,1,3,614.7609,295.6304
1,7,16,2,3,2,C,G,g,r,5,15,1001,1,3,596.6739,441.7174
1,7,16,2,3,2,C,G,g,r,5,15,1001,1,1,261.3696,502.9348
1,7,16,2,3,2,C,G,g,r,5,15,1001,1,1,214.0652,454.2391
1,7,16,2,3,2,C,G,g,r,5,15,2001,1,1,116.6739,213.5435
1,7,16,2,3,2,C,G,g,r,5,15,2001,1,1,542.413,227.4565
1,7,16,2,3,2,C,G,g,r,5,15,2001,1,1,648.1522,376.3261
1,7,16,2,3,2,C,G,g,r,5,15,2001,1,3,511.8043,361.0217
1,7,16,2,3,2,C,G,g,r,5,15,2001,1,3,323.9783,558.587
1,7,16,2,3,2,C,G,g,r,5,15,3001,1,1,297.5435,472.3261
1,7,16,2,3,2,C,G,g,r,5,15,3001,1,1,411.6304,494.587
1,7,16,2,3,2,C,G,g,r,5,15,3001,1,3,307.2826,431.9783
1,7,16,2,3,2,C,G,g,r,5,15,3001,1,3,389.3696,427.8043
1,7,16,2,3,2,C,G,g,r,5,15,4001,1,1,104.1522,349.8913
1,7,16,2,3,2,C,G,g,r,5,15,4001,1,1,421.3696,447.2826
1,7,16,2,3,2,C,G,g,r,5,15,4001,1,3,273.8913,347.1087
1,7,16,2,3,2,C,G,g,r,5,15,5001,1,3,226.587,429.1957
1,7,16,2,3,2,C,G,g,r,5,15,5001,1,1,422.7609,426.413
1,7,16,2,3,2,C,G,g,r,5,15,5001,1,1,503.4565,487.6304
1,7,16,2,3,2,C,G,g,r,5,15,5001,1,1,485.3696,437.5435
1,7,16,2,3,2,C,G,g,r,5,15,6001,1,1,283.6304,418.0652
1,7,16,2,3,2,C,G,g,r,5,15,6001,1,3,321.1957,455.6304
1,7,16,2,3,2,C,G,g,r,5,15,7001,1,1,278.0652,507.1087
1,7,16,2,3,2,C,G,g,r,5,15,7001,1,1,340.6739,548.8478
1,7,16,2,3,2,C,G,g,r,5,15,7001,1,3,543.8043,213.5435
1,7,16,2,3,2,C,G,g,r,5,15,8001,1,1,159.8043,135.6304
1,7,16,2,3,2,C,G,g,r,5,15,8001,1,3,596.6739,306.7609
1,7,16,2,3,2,C,G,g,r,5,15,9001,1,1,428.3261,347.1087
1,7,16,2,3,2,C,G,g,r,5,15,9001,1,3,471.4565,406.9348
1,7,16,2,3,2,C,G,g,r,5,15,10001,1,1,172.3261,220.5
1,7,16,2,3,2,C,G,g,r,5,15,10001,1,2,173.7174,109.1957
1,7,16,2,3,2,C,G,g,r,5,15,10001,1,3,543.8043,454.2391
1,7,16,2,3,2,C,G,g,r,5,15,11001,1,1,280.8478,67.4565
1,7,16,2,3,2,C,G,g,r,5,15,11001,1,1,489.5435,303.9783
1,7,16,2,3,2,C,G,g,r,5,15,11001,1,3,465.8913,352.6739
1,7,16,2,3,2,C,G,g,r,5,15,12001,1,1,90.2391,365.1957
1,7,16,2,3,2,C,G,g,r,5,15,12001,1,1,337.8913,47.9783
1,7,16,2,3,2,C,G,g,r,5,15,12001,1,3,375.4565,441.7174
1,7,16,2,3,2,C,G,g,r,5,15,13001,1,3,243.2826,491.8043
1,7,16,2,3,2,C,G,g,r,5,15,13001,1,1,289.1957,202.413
1,7,16,2,3,2,C,G,g,r,5,15,13001,1,1,329.5435,155.1087
1,7,16,2,3,2,C,G,g,r,5,15,13001,1,1,258.587,84.1522
1,7,16,2,3,2,C,G,g,r,5,15,14001,1,1,134.7609,415.2826
1,7,16,2,3,2,C,G,g,r,5,15,14001,1,1,155.6304,455.6304
1,7,16,2,3,2,C,G,g,r,5,15,14001,1,3,179.2826,451.4565
1,7,16,2,3,2,C,G,g,r,5,15,14001,1,1,477.0217,408.3261
1,7,16,2,3,2,C,G,g,r,5,15,15001,1,3,115.2826,303.9783
1,7,16,2,3,2,C,G,g,r,5,15,15001,1,1,407.4565,568.3261
1,7,16,2,3,2,C,G,g,r,5,15,15001,1,1,546.587,252.5
1,7,16,2,3,2,C,G,g,r,5,15,15001,1,1,549.3696,187.1087
1,7,16,2,3,2,C,G,g,r,5,15,15001,1,1,453.3696,60.5
1,7,16,2,3,2,C,G,g,r,5,15,16001,1,1,283.6304,423.6304
1,7,16,2,3,2,C,G,g,r,5,15,16001,1,3,169.5435,196.8478
1,7,16,2,3,2,C,G,g,r,5,15,16001,1,1,528.5,78.587
1,7,16,2,3,2,C,G,g,r,5,15,16001,1,1,403.2826,38.2391
1,7,16,2,3,2,C,G,g,r,5,15,17001,1,1,275.2826,540.5
1,7,16,2,3,2,C,G,g,r,5,15,17001,1,3,293.3696,213.5435
1,7,16,2,3,2,C,G,g,r,5,15,17001,1,1,506.2391,103.6304
1,7,16,2,3,2,C,G,g,r,5,15,18001,1,3,339.2826,251.1087
1,7,16,2,3,2,C,G,g,r,5,15,18001,1,1,500.6739,497.3696
1,7,16,2,3,2,C,G,g,r,5,15,19001,1,3,503.4565,273.3696
1,7,16,2,3,2,C,G,g,r,5,15,19001,1,1,118.0652,233.0217
1,7,16,2,3,2,C,G,g,r,5,15,19001,1,1,136.1522,163.4565
1,7,16,2,3,2,C,G,g,r,5,15,20001,1,3,570.2391,397.1957
1,7,16,2,3,2,C,G,g,r,5,15,20001,1,1,351.8043,452.8478
1,7,16,2,3,2,C,G,g,r,5,15,20001,1,1,285.0217,116.1522
1,7,16,2,3,2,C,G,g,r,5,15,20001,1,1,293.3696,74.413
1,7,16,2,3,2,C,G,g,r,5,15,21001,1,3,573.0217,363.8043
1,7,16,2,3,2,C,G,g,r,5,15,21001,1,1,291.9783,57.7174
1,7,16,2,3,2,C,G,g,r,5,15,22001,1,3,362.9348,331.8043
1,7,16,2,3,2,C,G,g,r,5,15,22001,1,1,163.9783,143.9783
1,7,16,2,3,2,C,G,g,r,5,15,23001,1,3,332.3261,393.0217
1,7,16,2,3,2,C,G,g,r,5,15,24001,1,3,223.8043,351.2826
1,7,16,2,3,2,C,G,g,r,5,15,24001,1,1,230.7609,110.587
1,7,16,2,3,2,C,G,g,r,5,15,25001,1,3,289.1957,355.4565
1,7,16,2,3,2,C,G,g,r,5,15,25001,1,1,229.3696,334.587
1,7,16,2,3,2,C,G,g,r,5,15,25001,1,1,300.3261,411.1087
1,7,16,2,3,2,C,G,g,r,5,15,26001,1,3,361.5435,406.9348
1,7,16,2,3,2,C,G,g,r,5,15,26001,1,1,240.5,333.1957
1,7,16,2,3,2,C,G,g,r,5,15,27001,1,1,357.3696,425.0217
1,7,16,2,3,2,C,G,g,r,5,15,27001,1,3,261.3696,501.5435
1,7,16,2,3,2,C,G,g,r,5,15,28001,1,1,240.5,376.3261
1,7,16,2,3,2,C,G,g,r,5,15,28001,1,3,378.2391,486.2391
1,7,16,2,3,2,C,G,g,r,5,15,29001,1,1,275.2826,345.7174
1,7,16,2,3,2,C,G,g,r,5,15,29001,1,3,349.0217,427.8043
1,7,16,2,3,2,C,G,g,r,5,15,30001,1,1,282.2391,441.7174
1,7,16,2,3,2,C,G,g,r,5,15,30001,1,3,340.6739,237.1957
1,7,16,2,3,2,C,G,g,r,5,15,31001,1,1,492.3261,498.7609
1,7,16,2,3,2,C,G,g,r,5,15,31001,1,3,215.4565,189.8913
1,7,16,2,3,2,C,G,g,r,5,15,32001,1,3,233.5435,444.5
1,7,16,2,3,2,C,G,g,r,5,15,32001,1,1,101.3696,327.6304
1,7,16,2,3,2,C,G,g,r,5,15,33001,1,3,400.5,274.7609
1,7,16,2,3,2,C,G,g,r,5,15,33001,1,1,554.9348,381.8913
1,7,16,2,3,2,C,G,g,r,5,15,34001,1,3,502.0652,118.9348
1,7,16,2,3,2,C,G,g,r,5,15,34001,1,2,118.0652,148.1522
1,7,16,2,3,2,C,G,g,r,5,15,35001,1,3,493.7174,217.7174
1,7,16,2,3,2,C,G,g,r,5,15,35001,1,3,168.1522,124.5
1,7,16,2,3,2,C,G,g,r,5,15,36001,1,3,221.0217,283.1087
1,7,16,2,3,2,C,G,g,r,5,15,36001,1,3,538.2391,440.3261
1,7,16,2,3,2,C,G,g,r,5,15,36001,1,1,279.4565,273.3696
1,7,16,2,3,2,C,G,g,r,5,15,37001,1,3,154.2391,402.7609
1,7,16,2,3,2,C,G,g,r,5,15,37001,1,1,115.2826,358.2391
1,7,16,2,3,2,C,G,g,r,5,15,37001,1,1,273.8913,359.6304
1,7,16,2,3,2,C,G,g,r,5,15,37001,1,3,436.6739,477.8913
1,7,16,2,3,2,C,G,g,r,5,15,37001,1,1,564.6739,452.8478
1,7,16,2,3,2,C,G,g,r,5,15,38001,1,3,182.0652,313.7174
1,7,16,2,3,2,C,G,g,r,5,15,39001,1,3,355.9783,216.3261
1,7,16,2,3,2,C,G,g,r,5,15,39001,1,1,310.0652,219.1087
1,7,16,2,3,2,C,G,g,r,5,15,39001,1,1,216.8478,472.3261
1,7,16,2,3,2,C,G,g,r,5,15,39001,1,1,189.0217,504.3261
1,7,16,2,3,2,C,G,g,r,5,15,40001,1,1,314.2391,397.1957
1,7,16,2,3,2,C,G,g,r,5,15,40001,1,1,108.3261,363.8043
1,7,16,2,3,2,C,G,g,r,5,15,40001,1,1,108.3261,444.5
1,7,16,2,3,2,C,G,g,r,5,15,40001,1,3,383.8043,117.5435
1,7,16,2,3,2,C,G,g,r,5,15,40001,1,1,542.413,120.3261
1,7,16,2,3,2,C,G,g,r,5,15,40001,1,1,625.8913,201.0217
1,7,16,2,3,2,C,G,g,r,5,15,41001,1,3,296.1522,217.7174
1,7,16,2,3,2,C,G,g,r,5,15,41001,1,1,389.3696,585.0217
1,7,16,2,3,2,C,G,g,r,5,15,42001,1,3,129.1957,351.2826
1,7,16,2,3,2,C,G,g,r,5,15,42001,1,1,310.0652,437.5435
1,7,16,2,3,2,C,G,g,r,5,15,42001,1,1,317.0217,489.0217
1,7,16,2,3,2,C,G,g,r,5,15,43001,1,1,169.5435,494.587
1,7,16,2,3,2,C,G,g,r,5,15,43001,1,3,426.9348,555.8043
1,7,16,2,3,2,C,G,g,r,5,15,43001,1,1,627.2826,244.1522
1,7,16,2,3,2,C,G,g,r,5,15,44001,1,1,425.5435,504.3261
1,7,16,2,3,2,C,G,g,r,5,15,44001,1,3,506.2391,465.3696
1,7,16,2,3,2,C,G,g,r,5,15,44001,1,1,616.1522,281.7174
1,7,16,2,3,2,C,G,g,r,5,15,45001,1,1,525.7174,522.413
1,7,16,2,3,2,C,G,g,r,5,15,45001,1,3,564.6739,153.7174
1,7,16,2,3,2,C,G,g,r,5,15,46001,1,1,211.2826,463.9783
1,7,16,2,3,2,C,G,g,r,5,15,46001,1,1,253.0217,415.2826
1,7,16,2,3,2,C,G,g,r,5,15,46001,1,3,273.8913,86.9348
1,7,16,2,3,2,C,G,g,r,5,15,47001,1,3,297.5435,70.2391
1,7,16,2,3,2,C,G,g,r,5,15,47001,1,1,278.0652,534.9348
1,7,16,2,3,2,C,G,g,r,5,15,48001,1,1,360.1522,35.4565
1,7,16,2,3,2,C,G,g,r,5,15,48001,1,3,394.9348,78.587
1,7,16,2,3,2,C,G,g,r,5,15,48001,1,1,369.8913,484.8478
1,7,16,2,3,2,C,G,g,r,5,15,49001,1,3,257.1957,73.0217
1,7,16,2,3,2,C,G,g,r,5,15,49001,1,1,399.1087,487.6304
1,7,16,2,3,2,C,G,g,r,5,15,50001,1,1,187.6304,244.1522
1,7,16,2,3,2,C,G,g,r,5,15,50001,1,1,264.1522,470.9348
1,7,16,2,3,2,C,G,g,r,5,15,50001,1,3,140.3261,235.8043
1,7,16,2,3,2,C,G,g,r,5,15,51001,1,1,130.587,335.9783
1,7,16,2,3,2,C,G,g,r,5,15,51001,1,3,215.4565,419.4565
1,7,16,2,3,2,C,G,g,r,5,15,51001,1,1,528.5,532.1522
1,7,16,2,3,2,C,G,g,r,5,15,52001,1,1,211.2826,134.2391
1,7,16,2,3,2,C,G,g,r,5,15,52001,1,3,438.0652,493.1957
1,7,16,2,3,2,C,G,g,r,5,15,53001,1,1,564.6739,366.587
1,7,16,2,3,2,C,G,g,r,5,15,53001,1,3,563.2826,461.1957
1,7,16,2,3,2,C,G,g,r,5,15,54001,1,1,251.6304,466.7609
1,7,16,2,3,2,C,G,g,r,5,15,54001,1,3,620.3261,359.6304
1,7,16,2,3,2,C,G,g,r,5,15,55001,1,1,486.7609,537.7174
1,7,16,2,3,2,C,G,g,r,5,15,55001,1,3,588.3261,430.587
1,7,16,2,3,2,C,G,g,r,5,15,56001,1,1,300.3261,170.413
1,7,16,2,3,2,C,G,g,r,5,15,56001,1,3,546.587,452.8478
1,7,16,2,3,2,C,G,g,r,5,15,57001,1,1,478.413,491.8043
1,7,16,2,3,2,C,G,g,r,5,15,57001,1,3,531.2826,508.5
1,7,16,2,3,2,C,G,g,r,5,15,58001,1,3,280.8478,505.7174
1,7,16,2,3,2,C,G,g,r,5,15,59001,1,3,261.3696,482.0652
1,7,16,2,3,2,C,G,g,r,5,15,59001,1,1,145.8913,358.2391
1,7,16,2,3,2,C,G,g,r,5,15,59001,1,1,326.7609,494.587
1,7,16,2,3,2,C,G,g,r,5,15,60001,1,3,169.5435,373.5435
1,7,16,2,3,2,C,G,g,r,5,15,60001,1,1,591.1087,431.9783
1,7,16,2,3,2,C,G,g,r,5,15,60001,1,2,650.9348,285.8913
1,7,16,2,3,2,C,G,g,r,5,15,61001,1,3,247.4565,491.8043
1,7,16,2,3,2,C,G,g,r,5,15,61001,1,1,350.413,263.6304
1,7,16,2,3,2,C,G,g,r,5,15,61001,1,1,547.9783,148.1522
1,7,16,2,3,2,C,G,g,r,5,15,62001,1,3,176.5,320.6739
1,7,16,2,3,2,C,G,g,r,5,15,62001,1,1,143.1087,192.6739
1,7,16,2,3,2,C,G,g,r,5,15,62001,1,1,549.3696,380.5
1,7,16,2,3,2,C,G,g,r,5,15,63001,1,3,134.7609,379.1087
1,7,16,2,3,2,C,G,g,r,5,15,63001,1,1,248.8478,423.6304
1,7,16,2,3,2,C,G,g,r,5,15,63001,1,1,293.3696,454.2391
1,7,16,2,3,2,C,G,g,r,5,15,64001,1,3,314.2391,455.6304
1,7,16,2,3,2,C,G,g,r,5,15,64001,1,1,606.413,338.7609
1,7,16,2,3,2,C,G,g,r,5,15,65001,1,3,445.0217,365.1957
1,7,16,2,3,2,C,G,g,r,5,15,65001,1,1,251.6304,111.9783
1,7,16,2,3,2,C,G,g,r,5,15,66001,1,1,250.2391,216.3261
1,7,16,2,3,2,C,G,g,r,5,15,66001,1,3,609.1957,221.8913
1,7,16,2,3,2,C,G,g,r,5,15,67001,1,1,367.1087,93.8913
1,7,16,2,3,2,C,G,g,r,5,15,67001,1,3,438.0652,105.0217
1,7,16,2,3,2,C,G,g,r,5,15,67001,1,1,610.587,178.7609
1,7,16,2,3,2,C,G,g,r,5,15,68001,1,3,372.6739,123.1087
1,7,16,2,3,2,C,G,g,r,5,15,68001,1,1,470.0652,159.2826
1,7,16,2,3,2,C,G,g,r,5,15,69001,1,3,177.8913,227.4565
1,7,16,2,3,2,C,G,g,r,5,15,69001,1,1,279.4565,180.1522
1,7,16,2,3,2,C,G,g,r,5,15,70001,1,3,243.2826,405.5435
1,7,16,2,3,2,C,G,g,r,5,15,70001,1,1,234.9348,352.6739
1,7,16,2,3,2,C,G,g,r,5,15,71001,1,1,506.2391,420.8478
1,7,16,2,3,2,C,G,g,r,5,15,71001,1,3,463.1087,540.5
1,7,16,2,3,2,C,G,g,r,5,15,71001,1,2,159.8043,113.3696
1,7,16,2,3,2,C,G,g,r,5,15,72001,1,3,298.9348,551.6304
1,7,16,2,3,2,C,G,g,r,5,15,72001,1,1,435.2826,323.4565
1,7,16,2,3,2,C,G,g,r,5,15,72001,1,1,557.7174,160.6739
1,7,16,2,3,2,C,G,g,r,5,15,72001,1,2,499.2826,57.7174
1,7,16,2,3,2,C,G,g,r,5,15,73001,1,3,511.8043,479.2826
1,7,16,2,3,2,C,G,g,r,5,15,73001,1,1,268.3261,436.1522
1,7,16,2,3,2,C,G,g,r,5,15,73001,1,1,193.1957,379.1087
1,7,16,2,3,2,C,G,g,r,5,15,74001,1,3,617.5435,288.6739
1,7,16,2,3,2,C,G,g,r,5,15,74001,1,1,360.1522,45.1957
1,7,16,2,3,2,C,G,g,r,5,15,75001,1,1,165.3696,452.8478
1,7,16,2,3,2,C,G,g,r,5,15,75001,1,3,440.8478,327.6304
1,7,16,2,3,2,C,G,g,r,5,15,75001,1,1,396.3261,96.6739
1,7,16,2,3,2,C,G,g,r,5,15,76001,1,1,296.1522,470.9348
1,7,16,2,3,2,C,G,g,r,5,15,76001,1,1,349.0217,505.7174
1,7,16,2,3,2,C,G,g,r,5,15,76001,1,3,326.7609,415.2826
1,7,16,2,3,2,C,G,g,r,5,15,77001,1,3,177.8913,494.587
1,7,16,2,3,2,C,G,g,r,5,15,77001,1,1,520.1522,491.8043
1,7,16,2,3,2,C,G,g,r,5,15,78001,1,3,177.8913,411.1087
1,7,16,2,3,2,C,G,g,r,5,15,78001,1,1,333.7174,413.8913
1,7,16,2,3,2,C,G,g,r,5,15,79001,1,1,179.2826,270.587
1,7,16,2,3,2,C,G,g,r,5,15,79001,1,3,336.5,340.1522
1,7,16,2,3,2,C,G,g,r,5,15,79001,1,1,314.2391,536.3261
1,7,16,2,3,2,C,G,g,r,5,15,80001,1,1,369.8913,438.9348
1,7,16,2,3,2,C,G,g,r,5,15,80001,1,3,417.1957,438.9348
1,7,16,2,3,2,C,G,g,r,5,15,81001,1,1,129.1957,284.5
1,7,16,2,3,2,C,G,g,r,5,15,81001,1,3,454.7609,472.3261
1,7,16,2,3,2,C,G,g,r,5,15,82001,1,1,410.2391,380.5
1,7,16,2,3,2,C,G,g,r,5,15,82001,1,3,333.7174,365.1957
1,7,16,2,3,2,C,G,g,r,5,15,83001,1,3,379.6304,324.8478
1,7,16,2,3,2,C,G,g,r,5,15,84001,1,3,346.2391,274.7609
1,7,16,2,3,2,C,G,g,r,5,15,84001,1,1,406.0652,418.0652
1,7,16,2,3,2,C,G,g,r,5,15,85001,1,3,212.6739,230.2391
1,7,16,2,3,2,C,G,g,r,5,15,85001,1,1,511.8043,543.2826
1,7,16,2,3,2,C,G,g,r,5,15,86001,1,3,209.8913,454.2391
1,7,16,2,3,2,C,G,g,r,5,15,86001,1,1,240.5,480.6739
1,7,16,2,3,2,C,G,g,r,5,15,87001,1,1,329.5435,150.9348
1,7,16,2,3,2,C,G,g,r,5,15,87001,1,3,561.8913,134.2391
1,7,16,2,3,2,C,G,g,r,5,15,87001,1,1,609.1957,259.4565
1,7,16,2,3,2,C,G,g,r,5,15,87001,1,1,169.5435,413.8913
1,7,16,2,3,2,C,G,g,r,5,15,87001,1,3,250.2391,469.5435
1,7,16,2,3,2,C,G,g,r,5,15,88001,1,1,198.7609,461.1957
1,7,16,2,3,2,C,G,g,r,5,15,88001,1,1,308.6739,422.2391
1,7,16,2,3,2,C,G,g,r,5,15,88001,1,3,390.7609,452.8478
1,7,16,2,3,2,C,G,g,r,5,15,89001,1,1,229.3696,416.6739
1,7,16,2,3,2,C,G,g,r,5,15,89001,1,3,428.3261,309.5435
1,7,16,2,3,2,C,G,g,r,5,15,89001,1,1,618.9348,284.5
1,7,16,2,3,2,C,G,g,r,5,15,90001,1,1,226.587,489.0217
1,7,16,2,3,2,C,G,g,r,5,15,90001,1,1,365.7174,85.5435
1,7,16,2,3,2,C,G,g,r,5,15,90001,1,1,439.4565,117.5435
1,7,16,2,3,2,C,G,g,r,5,15,90001,1,3,451.9783,148.1522
1,7,16,2,3,2,C,G,g,r,5,15,91001,1,1,272.5,156.5
1,7,16,2,3,2,C,G,g,r,5,15,91001,1,1,329.5435,557.1957
1,7,16,2,3,2,C,G,g,r,5,15,91001,1,3,357.3696,192.6739
1,7,16,2,3,2,C,G,g,r,5,15,91001,1,1,623.1087,347.1087
1,7,16,2,3,2,C,G,g,r,5,15,92001,1,3,333.7174,217.7174
1,7,16,2,3,2,C,G,g,r,5,15,92001,1,1,632.8478,408.3261
1,7,16,2,3,2,C,G,g,r,5,15,93001,1,3,351.8043,271.9783
1,7,16,2,3,2,C,G,g,r,5,15,94001,1,3,429.7174,376.3261
1,7,16,2,3,2,C,G,g,r,5,15,94001,1,1,227.9783,226.0652
1,7,16,2,3,2,C,G,g,r,5,15,94001,1,1,368.5,450.0652
1,7,16,2,3,2,C,G,g,r,5,15,95001,1,1,436.6739,297.0217
1,7,16,2,3,2,C,G,g,r,5,15,95001,1,1,431.1087,345.7174
1,7,16,2,3,2,C,G,g,r,5,15,95001,1,3,425.5435,398.587
1,7,16,2,3,2,C,G,g,r,5,15,96001,1,1,342.0652,402.7609
1,7,16,2,3,2,C,G,g,r,5,15,96001,1,1,403.2826,241.3696
1,7,16,2,3,2,C,G,g,r,5,15,96001,1,3,381.0217,182.9348
1,7,16,2,3,2,C,G,g,r,5,15,97001,1,1,354.587,267.8043
1,7,16,2,3,2,C,G,g,r,5,15,97001,1,3,297.5435,271.9783
1,7,16,2,3,2,C,G,g,r,5,15,97001,1,1,318.413,75.8043
1,7,16,2,3,2,C,G,g,r,5,15,98001,1,1,439.4565,178.7609
1,7,16,2,3,2,C,G,g,r,5,15,98001,1,3,457.5435,242.7609
1,7,16,2,3,2,C,G,g,r,5,15,99001,1,1,301.7174,515.4565
1,7,16,2,3,2,C,G,g,r,5,15,99001,1,3,472.8478,395.8043
1,7,16,2,3,2,C,G,g,r,5,15,100001,1,3,433.8913,377.7174
1,7,16,2,3,2,C,G,g,r,5,15,100001,1,1,460.3261,395.8043
1,7,16,2,3,2,C,G,g,r,5,15,101001,1,1,404.6739,299.8043
1,7,16,2,3,2,C,G,g,r,5,15,101001,1,3,439.4565,322.0652
1,7,16,2,3,2,C,G,g,r,5,15,102001,1,1,234.9348,420.8478
1,7,16,2,3,2,C,G,g,r,5,15,102001,1,3,259.9783,477.8913
1,7,16,2,3,2,C,G,g,r,5,15,103001,1,1,369.8913,313.7174
1,7,16,2,3,2,C,G,g,r,5,15,103001,1,1,372.6739,380.5
1,7,16,2,3,2,C,G,g,r,5,15,103001,1,3,318.413,420.8478
1,7,16,2,3,2,C,G,g,r,5,15,104001,1,1,595.2826,312.3261
1,7,16,2,3,2,C,G,g,r,5,15,104001,1,3,378.2391,433.3696
1,7,16,2,3,2,C,G,g,r,5,15,105001,1,3,233.5435,284.5
1,7,16,2,3,2,C,G,g,r,5,15,105001,1,1,219.6304,463.9783
1,7,16,2,3,2,C,G,g,r,5,15,106001,1,3,401.8913,210.7609
1,7,16,2,3,2,C,G,g,r,5,15,106001,1,1,631.4565,370.7609
1,7,16,2,3,2,C,G,g,r,5,15,106001,1,1,193.1957,369.3696
1,7,16,2,3,2,C,G,g,r,5,15,107001,1,3,378.2391,280.3261
1,7,16,2,3,2,C,G,g,r,5,15,107001,1,1,422.7609,338.7609
1,7,16,2,3,2,C,G,g,r,5,15,107001,1,1,371.2826,373.5435
