dummy,month,day,period,view,station,fgeno,mgeno,fcol,mcol,nf,nm,frame,something,sex,x,y
1,7,16,2,0,2,C,G,g,r,5,15,1,1,1,434.6985,114.2405
1,7,16,2,0,2,C,G,g,r,5,15,1,1,1,472.5611,106.9122
1,7,16,2,0,2,C,G,g,r,5,15,1,1,1,642.3321,293.7824
1,7,16,2,0,2,C,G,g,r,5,15,1001,1,2,217.2939,125.2328
1,7,16,2,0,2,C,G,g,r,5,15,2001,1,2,660.6527,226.6069
1,7,16,2,0,2,C,G,g,r,5,15,2001,1,1,615.4618,450.1183
1,7,16,2,0,2,C,G,g,r,5,15,3001,1,1,560.5,66.6069
1,7,16,2,0,2,C,G,g,r,5,15,4001,1,1,603.2481,218.0573
1,7,16,2,0,2,C,G,g,r,5,15,4001,1,2,687.5229,161.874
1,7,16,2,0,2,C,G,g,r,5,15,5001,1,1,361.416,177.7519
1,7,16,2,0,2,C,G,g,r,5,15,5001,1,1,412.7137,512.4084
1,7,16,2,0,2,C,G,g,r,5,15,6001,1,1,650.8817,154.5458
1,7,16,2,0,2,C,G,g,r,5,15,7001,1,1,313.7824,453.7824
1,7,16,2,0,2,C,G,g,r,5,15,8001,1,1,197.7519,302.3321
1,7,16,2,0,2,C,G,g,r,5,15,9001,1,1,213.6298,150.8817
1,7,16,2,0,2,C,G,g,r,5,15,10001,1,1,411.4924,120.3473
1,7,16,2,0,2,C,G,g,r,5,15,11001,1,1,517.7519,380.5
1,7,16,2,0,2,C,G,g,r,5,15,11001,1,1,573.9351,436.6832
1,7,16,2,0,2,C,G,g,r,5,15,11001,1,1,470.1183,486.7595
1,7,16,2,0,2,C,G,g,r,5,15,13001,1,3,388.2863,451.3397
1,7,16,2,0,2,C,G,g,r,5,15,13001,1,1,346.7595,492.8664
1,7,16,2,0,2,C,G,g,r,5,15,15001,1,1,499.4313,27.5229
1,7,16,2,0,2,C,G,g,r,5,15,16001,1,1,272.2557,401.2634
1,7,16,2,0,2,C,G,g,r,5,15,16001,1,1,496.9885,458.6679
1,7,16,2,0,2,C,G,g,r,5,15,17001,1,1,305.2328,114.2405
1,7,16,2,0,2,C,G,g,r,5,15,18001,1,1,299.126,93.4771
1,7,16,2,0,2,C,G,g,r,5,15,19001,1,1,412.7137,65.3855
1,7,16,2,0,2,C,G,g,r,5,15,19001,1,1,382.1794,516.0725
1,7,16,2,0,2,C,G,g,r,5,15,20001,1,1,202.6374,313.3244
1,7,16,2,0,2,C,G,g,r,5,15,21001,1,1,275.9198,72.7137
1,7,16,2,0,2,C,G,g,r,5,15,22001,1,1,410.271,198.5153
1,7,16,2,0,2,C,G,g,r,5,15,22001,1,1,424.9275,42.1794
1,7,16,2,0,2,C,G,g,r,5,15,24001,1,1,534.8511,50.729
1,7,16,2,0,2,C,G,g,r,5,15,25001,1,1,305.2328,496.5305
1,7,16,2,0,2,C,G,g,r,5,15,25001,1,1,269.813,511.187
1,7,16,2,0,2,C,G,g,r,5,15,26001,1,1,376.0725,564.9275
1,7,16,2,0,2,C,G,g,r,5,15,27001,1,1,240.5,110.5763
1,7,16,2,0,2,C,G,g,r,5,15,28001,1,1,307.6756,484.3168
1,7,16,2,0,2,C,G,g,r,5,15,28001,1,1,443.2481,564.9275
1,7,16,2,0,2,C,G,g,r,5,15,28001,1,2,506.7595,564.9275
1,7,16,2,0,2,C,G,g,r,5,15,31001,1,1,670.4237,301.1107
1,7,16,2,0,2,C,G,g,r,5,15,32001,1,1,197.7519,260.8053
1,7,16,2,0,2,C,G,g,r,5,15,33001,1,1,485.9962,33.6298
1,7,16,2,0,2,C,G,g,r,5,15,34001,1,1,516.5305,491.645
1,7,16,2,0,2,C,G,g,r,5,15,35001,1,1,260.042,125.2328
1,7,16,2,0,2,C,G,g,r,5,15,35001,1,1,181.874,233.9351
1,7,16,2,0,2,C,G,g,r,5,15,36001,1,1,599.584,240.042
1,7,16,2,0,2,C,G,g,r,5,15,36001,1,1,605.6908,393.9351
1,7,16,2,0,2,C,G,g,r,5,15,37001,1,2,205.0802,148.4389
1,7,16,2,0,2,C,G,g,r,5,15,38001,1,1,242.9427,156.9885
1,7,16,2,0,2,C,G,g,r,5,15,39001,1,2,682.6374,397.5992
1,7,16,2,0,2,C,G,g,r,5,15,39001,1,1,708.2863,291.3397
1,7,16,2,0,2,C,G,g,r,5,15,40001,1,1,440.8053,31.187
1,7,16,2,0,2,C,G,g,r,5,15,42001,1,1,192.8664,218.0573
1,7,16,2,0,2,C,G,g,r,5,15,43001,1,1,167.2176,214.3931
1,7,16,2,0,2,C,G,g,r,5,15,45001,1,1,383.4008,265.6908
1,7,16,2,0,2,C,G,g,r,5,15,46001,1,1,181.874,216.8359
1,7,16,2,0,2,C,G,g,r,5,15,47001,1,1,680.1947,259.584
1,7,16,2,0,2,C,G,g,r,5,15,48001,1,1,280.8053,80.042
1,7,16,2,0,2,C,G,g,r,5,15,49001,1,1,369.9656,33.6298
1,7,16,2,0,2,C,G,g,r,5,15,51001,1,1,197.7519,411.0344
1,7,16,2,0,2,C,G,g,r,5,15,51001,1,1,603.2481,144.7748
1,7,16,2,0,2,C,G,g,r,5,15,52001,1,1,387.0649,36.0725
1,7,16,2,0,2,C,G,g,r,5,15,53001,1,1,367.5229,137.4466
1,7,16,2,0,2,C,G,g,r,5,15,54001,1,1,576.3779,318.2099
1,7,16,2,0,2,C,G,g,r,5,15,55001,1,1,273.4771,441.5687
1,7,16,2,0,2,C,G,g,r,5,15,55001,1,1,216.0725,435.4618
1,7,16,2,0,2,C,G,g,r,5,15,56001,1,1,394.3931,343.8588
1,7,16,2,0,2,C,G,g,r,5,15,56001,1,3,389.5076,313.3244
1,7,16,2,0,2,C,G,g,r,5,15,56001,1,1,490.8817,80.042
1,7,16,2,0,2,C,G,g,r,5,15,56001,1,1,550.729,119.126
1,7,16,2,0,2,C,G,g,r,5,15,57001,1,1,224.6221,296.2252
1,7,16,2,0,2,C,G,g,r,5,15,57001,1,1,641.1107,214.3931
1,7,16,2,0,2,C,G,g,r,5,15,58001,1,3,347.9809,358.5153
1,7,16,2,0,2,C,G,g,r,5,15,58001,1,1,347.9809,390.271
1,7,16,2,0,2,C,G,g,r,5,15,58001,1,1,362.6374,409.813
1,7,16,2,0,2,C,G,g,r,5,15,59001,1,1,550.729,442.7901
1,7,16,2,0,2,C,G,g,r,5,15,60001,1,1,421.2634,556.3779
1,7,16,2,0,2,C,G,g,r,5,15,60001,1,3,459.126,556.3779
1,7,16,2,0,2,C,G,g,r,5,15,61001,1,1,550.729,385.3855
1,7,16,2,0,2,C,G,g,r,5,15,61001,1,1,539.7366,419.584
1,7,16,2,0,2,C,G,g,r,5,15,61001,1,3,593.4771,412.2557
1,7,16,2,0,2,C,G,g,r,5,15,62001,1,1,277.1412,463.5534
1,7,16,2,0,2,C,G,g,r,5,15,62001,1,1,233.1718,263.2481
1,7,16,2,0,2,C,G,g,r,5,15,63001,1,1,428.5916,92.2557
1,7,16,2,0,2,C,G,g,r,5,15,63001,1,1,685.0802,292.5611
1,7,16,2,0,2,C,G,g,r,5,15,63001,1,3,627.6756,314.5458
1,7,16,2,0,2,C,G,g,r,5,15,64001,1,1,554.3931,403.7061
1,7,16,2,0,2,C,G,g,r,5,15,64001,1,1,595.9198,389.0496
1,7,16,2,0,2,C,G,g,r,5,15,64001,1,3,591.0344,423.2481
1,7,16,2,0,2,C,G,g,r,5,15,65001,1,1,615.4618,415.9198
1,7,16,2,0,2,C,G,g,r,5,15,65001,1,1,643.5534,390.271
1,7,16,2,0,2,C,G,g,r,5,15,65001,1,1,708.2863,364.6221
1,7,16,2,0,2,C,G,g,r,5,15,65001,1,3,627.6756,386.6069
1,7,16,2,0,2,C,G,g,r,5,15,66001,1,1,398.0573,562.4847
1,7,16,2,0,2,C,G,g,r,5,15,67001,1,1,231.9504,430.5763
1,7,16,2,0,2,C,G,g,r,5,15,67001,1,3,240.5,408.5916
1,7,16,2,0,2,C,G,g,r,5,15,67001,1,1,438.3626,58.0573
1,7,16,2,0,2,C,G,g,r,5,15,68001,1,1,158.6679,315.7672
1,7,16,2,0,2,C,G,g,r,5,15,69001,1,1,180.6527,199.7366
1,7,16,2,0,2,C,G,g,r,5,15,69001,1,1,589.813,165.5382
1,7,16,2,0,2,C,G,g,r,5,15,69001,1,3,604.4695,128.8969
1,7,16,2,0,2,C,G,g,r,5,15,70001,1,1,566.6069,422.0267
1,7,16,2,0,2,C,G,g,r,5,15,70001,1,1,666.7595,229.0496
1,7,16,2,0,2,C,G,g,r,5,15,71001,1,1,369.9656,368.2863
1,7,16,2,0,2,C,G,g,r,5,15,71001,1,1,343.0954,343.8588
1,7,16,2,0,2,C,G,g,r,5,15,71001,1,1,297.9046,334.0878
1,7,16,2,0,2,C,G,g,r,5,15,71001,1,3,358.9733,314.5458
1,7,16,2,0,2,C,G,g,r,5,15,72001,1,1,507.9809,489.2023
1,7,16,2,0,2,C,G,g,r,5,15,73001,1,1,462.7901,396.3779
1,7,16,2,0,2,C,G,g,r,5,15,73001,1,1,445.6908,441.5687
1,7,16,2,0,2,C,G,g,r,5,15,73001,1,3,483.5534,436.6832
1,7,16,2,0,2,C,G,g,r,5,15,74001,1,1,187.9809,255.9198
1,7,16,2,0,2,C,G,g,r,5,15,74001,1,1,379.7366,442.7901
1,7,16,2,0,2,C,G,g,r,5,15,74001,1,3,455.4618,527.0649
1,7,16,2,0,2,C,G,g,r,5,15,74001,1,1,501.874,536.8359
1,7,16,2,0,2,C,G,g,r,5,15,75001,1,1,558.0573,181.416
1,7,16,2,0,2,C,G,g,r,5,15,75001,1,3,532.4084,214.3931
1,7,16,2,0,2,C,G,g,r,5,15,76001,1,1,197.7519,182.6374
1,7,16,2,0,2,C,G,g,r,5,15,76001,1,1,478.6679,315.7672
1,7,16,2,0,2,C,G,g,r,5,15,76001,1,1,602.0267,378.0573
1,7,16,2,0,2,C,G,g,r,5,15,76001,1,1,306.4542,490.4237
1,7,16,2,0,2,C,G,g,r,5,15,76001,1,3,569.0496,426.9122
1,7,16,2,0,2,C,G,g,r,5,15,77001,1,1,483.5534,418.3626
1,7,16,2,0,2,C,G,g,r,5,15,78001,1,1,653.3244,149.6603
1,7,16,2,0,2,C,G,g,r,5,15,79001,1,1,398.0573,296.2252
1,7,16,2,0,2,C,G,g,r,5,15,79001,1,1,345.5382,277.9046
1,7,16,2,0,2,C,G,g,r,5,15,81001,1,1,633.7824,194.8511
1,7,16,2,0,2,C,G,g,r,5,15,81001,1,1,613.0191,208.2863
1,7,16,2,0,2,C,G,g,r,5,15,81001,1,1,609.355,139.8893
1,7,16,2,0,2,C,G,g,r,5,15,82001,1,1,538.5153,61.7214
1,7,16,2,0,2,C,G,g,r,5,15,83001,1,1,553.1718,442.7901
1,7,16,2,0,2,C,G,g,r,5,15,84001,1,1,521.416,36.0725
1,7,16,2,0,2,C,G,g,r,5,15,85001,1,1,313.7824,247.3702
1,7,16,2,0,2,C,G,g,r,5,15,85001,1,1,196.5305,275.4618
1,7,16,2,0,2,C,G,g,r,5,15,87001,1,1,461.5687,297.4466
1,7,16,2,0,2,C,G,g,r,5,15,87001,1,1,466.4542,334.0878
1,7,16,2,0,2,C,G,g,r,5,15,88001,1,1,516.5305,67.8282
1,7,16,2,0,2,C,G,g,r,5,15,89001,1,1,208.7443,266.9122
1,7,16,2,0,2,C,G,g,r,5,15,89001,1,1,575.1565,149.6603
1,7,16,2,0,2,C,G,g,r,5,15,90001,1,1,372.4084,461.1107
1,7,16,2,0,2,C,G,g,r,5,15,90001,1,1,249.0496,153.3244
1,7,16,2,0,2,C,G,g,r,5,15,91001,1,1,608.1336,88.5916
1,7,16,2,0,2,C,G,g,r,5,15,93001,1,1,315.0038,243.7061
1,7,16,2,0,2,C,G,g,r,5,15,94001,1,1,352.8664,551.4924
1,7,16,2,0,2,C,G,g,r,5,15,95001,1,1,373.6298,390.271
1,7,16,2,0,2,C,G,g,r,5,15,95001,1,1,384.6221,429.355
1,7,16,2,0,2,C,G,g,r,5,15,95001,1,1,257.5992,308.4389
1,7,16,2,0,2,C,G,g,r,5,15,96001,1,3,676.5305,408.5916
1,7,16,2,0,2,C,G,g,r,5,15,96001,1,1,478.6679,44.6221
1,7,16,2,0,2,C,G,g,r,5,15,96001,1,1,500.6527,17.7519
1,7,16,2,0,2,C,G,g,r,5,15,97001,1,1,521.416,171.645
1,7,16,2,0,2,C,G,g,r,5,15,97001,1,1,587.3702,452.5611
1,7,16,2,0,2,C,G,g,r,5,15,97001,1,1,602.0267,491.645
1,7,16,2,0,2,C,G,g,r,5,15,97001,1,3,562.9427,484.3168
1,7,16,2,0,2,C,G,g,r,5,15,98001,1,1,446.9122,119.126
1,7,16,2,0,2,C,G,g,r,5,15,98001,1,1,510.4237,426.9122
1,7,16,2,0,2,C,G,g,r,5,15,98001,1,2,487.2176,465.9962
1,7,16,2,0,2,C,G,g,r,5,15,98001,1,3,506.7595,382.9427
1,7,16,2,0,2,C,G,g,r,5,15,99001,1,1,371.187,226.6069
1,7,16,2,0,2,C,G,g,r,5,15,99001,1,1,284.4695,414.6985
1,7,16,2,0,2,C,G,g,r,5,15,99001,1,1,489.6603,475.7672
1,7,16,2,0,2,C,G,g,r,5,15,100001,1,1,671.645,310.8817
1,7,16,2,0,2,C,G,g,r,5,15,100001,1,3,672.8664,285.2328
1,7,16,2,0,2,C,G,g,r,5,15,100001,1,1,676.5305,258.3626
1,7,16,2,0,2,C,G,g,r,5,15,100001,1,1,576.3779,62.9427
1,7,16,2,0,2,C,G,g,r,5,15,101001,1,1,274.6985,87.3702
1,7,16,2,0,2,C,G,g,r,5,15,101001,1,1,371.187,556.3779
1,7,16,2,0,2,C,G,g,r,5,15,102001,1,1,619.126,188.7443
1,7,16,2,0,2,C,G,g,r,5,15,103001,1,1,609.355,246.1489
1,7,16,2,0,2,C,G,g,r,5,15,103001,1,1,479.8893,122.7901
1,7,16,2,0,2,C,G,g,r,5,15,103001,1,1,334.5458,105.6908
1,7,16,2,0,2,C,G,g,r,5,15,103001,1,1,256.3779,100.8053
1,7,16,2,0,2,C,G,g,r,5,15,104001,1,1,241.7214,260.8053
1,7,16,2,0,2,C,G,g,r,5,15,104001,1,1,522.6374,36.0725
1,7,16,2,0,2,C,G,g,r,5,15,105001,1,1,703.4008,269.355
1,7,16,2,0,2,C,G,g,r,5,15,105001,1,1,328.4389,527.0649
1,7,16,2,0,2,C,G,g,r,5,15,106001,1,1,467.6756,9.2023
1,7,16,2,0,2,C,G,g,r,5,15,107001,1,3,446.9122,121.5687
1,7,16,2,0,2,C,G,g,r,5,15,107001,1,1,467.6756,215.6145
1,7,16,2,0,2,C,G,g,r,5,15,107001,1,1,301.5687,357.2939
1,7,16,2,0,2,C,G,g,r,5,15,107001,1,1,252.7137,386.6069
