dummy,month,day,period,view,station,fgeno,mgeno,fcol,mcol,nf,nm,frame,something,sex,x,y
1,6,17,2,1,3,C,F,b,y,5,15,1,1,3,595.622,268.2298
1,6,17,2,1,3,C,F,b,y,5,15,1,1,3,574.6088,250.2186
1,6,17,2,1,3,C,F,b,y,5,15,1,1,1,621.1379,256.2223
1,6,17,2,1,3,C,F,b,y,5,15,1001,1,3,585.1154,247.2167
1,6,17,2,1,3,C,F,b,y,5,15,1001,1,1,616.6351,265.228
1,6,17,2,1,3,C,F,b,y,5,15,1001,1,3,655.6595,463.3518
1,6,17,2,1,3,C,F,b,y,5,15,1001,1,3,661.6632,439.3368
1,6,17,2,1,3,C,F,b,y,5,15,1001,1,1,621.1379,461.8508
1,6,17,2,1,3,C,F,b,y,5,15,2001,1,3,433.5206,62.6013
1,6,17,2,1,3,C,F,b,y,5,15,2001,1,3,642.151,278.7364
1,6,17,2,1,3,C,F,b,y,5,15,3001,1,3,522.076,211.1942
1,6,17,2,1,3,C,F,b,y,5,15,3001,1,3,591.1191,202.1886
1,6,17,2,1,3,C,F,b,y,5,15,3001,1,3,625.6407,230.7064
1,6,17,2,1,3,C,F,b,y,5,15,4001,1,1,202.3762,349.2805
1,6,17,2,1,3,C,F,b,y,5,15,4001,1,1,667.667,380.8002
1,6,17,2,1,3,C,F,b,y,5,15,4001,1,3,649.6557,323.7645
1,6,17,2,1,3,C,F,b,y,5,15,4001,1,3,612.1323,316.2598
1,6,17,2,1,3,C,F,b,y,5,15,5001,1,3,661.6632,122.6388
1,6,17,2,1,3,C,F,b,y,5,15,5001,1,2,705.1904,148.1548
1,6,17,2,1,3,C,F,b,y,5,15,5001,1,3,532.5826,527.8921
1,6,17,2,1,3,C,F,b,y,5,15,5001,1,2,535.5844,577.4231
1,6,17,2,1,3,C,F,b,y,5,15,5001,1,2,553.5957,563.9146
1,6,17,2,1,3,C,F,b,y,5,15,6001,1,3,251.9071,328.2674
1,6,17,2,1,3,C,F,b,y,5,15,6001,1,1,463.5394,578.924
1,6,17,2,1,3,C,F,b,y,5,15,7001,1,3,549.0929,409.318
1,6,17,2,1,3,C,F,b,y,5,15,7001,1,3,412.5075,556.4099
1,6,17,2,1,3,C,F,b,y,5,15,7001,1,1,338.9615,541.4006
1,6,17,2,1,3,C,F,b,y,5,15,8001,1,1,238.3987,431.8321
1,6,17,2,1,3,C,F,b,y,5,15,10001,1,3,685.6782,155.6595
1,6,17,2,1,3,C,F,b,y,5,15,11001,1,3,553.5957,64.1023
1,6,17,2,1,3,C,F,b,y,5,15,12001,1,3,254.909,200.6876
1,6,17,2,1,3,C,F,b,y,5,15,12001,1,1,203.8771,188.6801
1,6,17,2,1,3,C,F,b,y,5,15,13001,1,3,547.5919,110.6313
1,6,17,2,1,3,C,F,b,y,5,15,13001,1,1,570.106,71.6069
1,6,17,2,1,3,C,F,b,y,5,15,14001,1,3,248.9053,436.3349
1,6,17,2,1,3,C,F,b,y,5,15,16001,1,3,337.4606,470.8565
1,6,17,2,1,3,C,F,b,y,5,15,16001,1,1,397.4981,530.894
1,6,17,2,1,3,C,F,b,y,5,15,17001,1,3,568.6051,500.8752
1,6,17,2,1,3,C,F,b,y,5,15,17001,1,3,612.1323,488.8677
1,6,17,2,1,3,C,F,b,y,5,15,17001,1,1,594.121,475.3593
1,6,17,2,1,3,C,F,b,y,5,15,18001,1,3,361.4756,320.7627
1,6,17,2,1,3,C,F,b,y,5,15,18001,1,3,394.4962,287.742
1,6,17,2,1,3,C,F,b,y,5,15,19001,1,3,555.0966,355.2842
1,6,17,2,1,3,C,F,b,y,5,15,20001,1,3,229.3931,337.273
1,6,17,2,1,3,C,F,b,y,5,15,21001,1,3,287.9296,80.6126
1,6,17,2,1,3,C,F,b,y,5,15,22001,1,3,586.6163,58.0985
1,6,17,2,1,3,C,F,b,y,5,15,23001,1,3,429.0178,40.0872
1,6,17,2,1,3,C,F,b,y,5,15,24001,1,3,380.9878,109.1304
1,6,17,2,1,3,C,F,b,y,5,15,25001,1,3,508.5675,533.8959
1,6,17,2,1,3,C,F,b,y,5,15,26001,1,3,562.6013,415.3218
1,6,17,2,1,3,C,F,b,y,5,15,27001,1,3,281.9259,121.1379
1,6,17,2,1,3,C,F,b,y,5,15,28001,1,3,280.425,469.3555
1,6,17,2,1,3,C,F,b,y,5,15,28001,1,3,205.378,410.8189
1,6,17,2,1,3,C,F,b,y,5,15,29001,1,3,472.545,533.8959
1,6,17,2,1,3,C,F,b,y,5,15,30001,1,3,718.6989,160.1623
1,6,17,2,1,3,C,F,b,y,5,15,31001,1,3,729.2054,169.1679
1,6,17,2,1,3,C,F,b,y,5,15,32001,1,3,523.5769,518.8865
1,6,17,2,1,3,C,F,b,y,5,15,33001,1,3,242.9015,292.2448
1,6,17,2,1,3,C,F,b,y,5,15,34001,1,3,302.939,506.879
1,6,17,2,1,3,C,F,b,y,5,15,35001,1,3,475.5469,532.3949
1,6,17,2,1,3,C,F,b,y,5,15,36001,1,3,212.8827,302.7514
1,6,17,2,1,3,C,F,b,y,5,15,37001,1,3,418.5113,136.1473
1,6,17,2,1,3,C,F,b,y,5,15,37001,1,3,394.4962,109.1304
1,6,17,2,1,3,C,F,b,y,5,15,37001,1,1,424.515,163.1642
1,6,17,2,1,3,C,F,b,y,5,15,38001,1,3,445.5281,179.6745
1,6,17,2,1,3,C,F,b,y,5,15,38001,1,3,472.545,499.3743
1,6,17,2,1,3,C,F,b,y,5,15,39001,1,3,448.53,530.894
1,6,17,2,1,3,C,F,b,y,5,15,39001,1,3,447.0291,569.9184
1,6,17,2,1,3,C,F,b,y,5,15,39001,1,1,475.5469,559.4118
1,6,17,2,1,3,C,F,b,y,5,15,39001,1,2,484.5525,592.4325
1,6,17,2,1,3,C,F,b,y,5,15,40001,1,3,474.046,485.8659
1,6,17,2,1,3,C,F,b,y,5,15,40001,1,1,457.5356,515.8846
1,6,17,2,1,3,C,F,b,y,5,15,40001,1,2,723.2017,182.6764
1,6,17,2,1,3,C,F,b,y,5,15,41001,1,3,344.9653,233.7083
1,6,17,2,1,3,C,F,b,y,5,15,41001,1,3,394.4962,434.834
1,6,17,2,1,3,C,F,b,y,5,15,41001,1,3,490.5563,472.3574
1,6,17,2,1,3,C,F,b,y,5,15,41001,1,1,529.5807,481.363
1,6,17,2,1,3,C,F,b,y,5,15,42001,1,1,550.5938,458.849
1,6,17,2,1,3,C,F,b,y,5,15,42001,1,3,531.0816,484.3649
1,6,17,2,1,3,C,F,b,y,5,15,43001,1,3,221.8884,257.7233
1,6,17,2,1,3,C,F,b,y,5,15,43001,1,3,643.652,416.8227
1,6,17,2,1,3,C,F,b,y,5,15,43001,1,1,594.121,425.8283
1,6,17,2,1,3,C,F,b,y,5,15,44001,1,3,439.5244,274.2336
1,6,17,2,1,3,C,F,b,y,5,15,44001,1,3,469.5432,286.2411
1,6,17,2,1,3,C,F,b,y,5,15,44001,1,1,493.5582,406.3161
1,6,17,2,1,3,C,F,b,y,5,15,45001,1,3,492.0572,370.2936
1,6,17,2,1,3,C,F,b,y,5,15,45001,1,3,559.5994,464.8527
1,6,17,2,1,3,C,F,b,y,5,15,45001,1,3,654.1585,452.8452
1,6,17,2,1,3,C,F,b,y,5,15,45001,1,1,513.0704,394.3086
1,6,17,2,1,3,C,F,b,y,5,15,46001,1,3,495.0591,485.8659
1,6,17,2,1,3,C,F,b,y,5,15,46001,1,1,540.0872,467.8546
1,6,17,2,1,3,C,F,b,y,5,15,47001,1,3,555.0966,440.8377
1,6,17,2,1,3,C,F,b,y,5,15,47001,1,3,600.1248,464.8527
1,6,17,2,1,3,C,F,b,y,5,15,47001,1,1,574.6088,473.8583
1,6,17,2,1,3,C,F,b,y,5,15,48001,1,3,450.031,65.6032
1,6,17,2,1,3,C,F,b,y,5,15,48001,1,3,501.0629,49.0929
1,6,17,2,1,3,C,F,b,y,5,15,48001,1,3,603.1266,431.8321
1,6,17,2,1,3,C,F,b,y,5,15,48001,1,1,583.6144,406.3161
1,6,17,2,1,3,C,F,b,y,5,15,49001,1,3,504.0647,440.8377
1,6,17,2,1,3,C,F,b,y,5,15,49001,1,1,511.5694,395.8096
1,6,17,2,1,3,C,F,b,y,5,15,50001,1,3,367.4794,122.6388
1,6,17,2,1,3,C,F,b,y,5,15,50001,1,3,601.6257,439.3368
1,6,17,2,1,3,C,F,b,y,5,15,50001,1,1,631.6445,433.333
1,6,17,2,1,3,C,F,b,y,5,15,51001,1,3,657.1604,313.258
1,6,17,2,1,3,C,F,b,y,5,15,51001,1,3,723.2017,404.8152
1,6,17,2,1,3,C,F,b,y,5,15,51001,1,1,688.6801,394.3086
1,6,17,2,1,3,C,F,b,y,5,15,52001,1,1,607.6295,455.8471
1,6,17,2,1,3,C,F,b,y,5,15,52001,1,3,622.6388,469.3555
1,6,17,2,1,3,C,F,b,y,5,15,52001,1,3,591.1191,490.3687
1,6,17,2,1,3,C,F,b,y,5,15,53001,1,1,535.5844,382.3011
1,6,17,2,1,3,C,F,b,y,5,15,53001,1,3,564.1023,386.8039
1,6,17,2,1,3,C,F,b,y,5,15,54001,1,1,523.5769,380.8002
1,6,17,2,1,3,C,F,b,y,5,15,54001,1,3,510.0685,407.8171
1,6,17,2,1,3,C,F,b,y,5,15,54001,1,3,522.076,436.3349
1,6,17,2,1,3,C,F,b,y,5,15,55001,1,1,567.1041,311.757
1,6,17,2,1,3,C,F,b,y,5,15,55001,1,3,531.0816,328.2674
1,6,17,2,1,3,C,F,b,y,5,15,55001,1,3,567.1041,271.2317
1,6,17,2,1,3,C,F,b,y,5,15,56001,1,1,507.0666,307.2542
1,6,17,2,1,3,C,F,b,y,5,15,56001,1,3,546.091,278.7364
1,6,17,2,1,3,C,F,b,y,5,15,56001,1,3,475.5469,277.2355
1,6,17,2,1,3,C,F,b,y,5,15,57001,1,3,286.4287,155.6595
1,6,17,2,1,3,C,F,b,y,5,15,57001,1,3,523.5769,353.7833
1,6,17,2,1,3,C,F,b,y,5,15,57001,1,1,498.061,382.3011
1,6,17,2,1,3,C,F,b,y,5,15,58001,1,3,352.47,77.6107
1,6,17,2,1,3,C,F,b,y,5,15,58001,1,3,484.5525,460.3499
1,6,17,2,1,3,C,F,b,y,5,15,58001,1,1,511.5694,472.3574
1,6,17,2,1,3,C,F,b,y,5,15,59001,1,3,517.5732,305.7533
1,6,17,2,1,3,C,F,b,y,5,15,59001,1,3,526.5788,373.2955
1,6,17,2,1,3,C,F,b,y,5,15,59001,1,1,504.0647,361.288
1,6,17,2,1,3,C,F,b,y,5,15,60001,1,3,456.0347,347.7795
1,6,17,2,1,3,C,F,b,y,5,15,60001,1,3,441.0253,364.2899
1,6,17,2,1,3,C,F,b,y,5,15,60001,1,1,444.0272,320.7627
1,6,17,2,1,3,C,F,b,y,5,15,61001,1,3,334.4587,323.7645
1,6,17,2,1,3,C,F,b,y,5,15,61001,1,3,289.4306,451.3443
1,6,17,2,1,3,C,F,b,y,5,15,61001,1,3,305.9409,514.3837
1,6,17,2,1,3,C,F,b,y,5,15,61001,1,1,319.4493,305.7533
1,6,17,2,1,3,C,F,b,y,5,15,62001,1,3,295.4343,268.2298
1,6,17,2,1,3,C,F,b,y,5,15,62001,1,1,322.4512,235.2092
1,6,17,2,1,3,C,F,b,y,5,15,63001,1,3,421.5131,122.6388
1,6,17,2,1,3,C,F,b,y,5,15,63001,1,1,454.5338,116.6351
1,6,17,2,1,3,C,F,b,y,5,15,64001,1,3,277.4231,394.3086
1,6,17,2,1,3,C,F,b,y,5,15,64001,1,1,496.56,272.7326
1,6,17,2,1,3,C,F,b,y,5,15,64001,1,1,544.5901,133.1454
1,6,17,2,1,3,C,F,b,y,5,15,64001,1,3,529.5807,98.6238
1,6,17,2,1,3,C,F,b,y,5,15,64001,1,3,520.575,31.0816
1,6,17,2,1,3,C,F,b,y,5,15,64001,1,3,550.5938,32.5826
1,6,17,2,1,3,C,F,b,y,5,15,65001,1,3,520.575,247.2167
1,6,17,2,1,3,C,F,b,y,5,15,65001,1,3,519.0741,209.6932
1,6,17,2,1,3,C,F,b,y,5,15,65001,1,1,492.0572,266.7289
1,6,17,2,1,3,C,F,b,y,5,15,66001,1,3,430.5188,322.2636
1,6,17,2,1,3,C,F,b,y,5,15,66001,1,3,359.9747,301.2505
1,6,17,2,1,3,C,F,b,y,5,15,66001,1,1,374.9841,317.7608
1,6,17,2,1,3,C,F,b,y,5,15,67001,1,3,241.4006,331.2692
1,6,17,2,1,3,C,F,b,y,5,15,67001,1,1,236.8977,326.7664
1,6,17,2,1,3,C,F,b,y,5,15,67001,1,3,429.0178,460.3499
1,6,17,2,1,3,C,F,b,y,5,15,67001,1,1,432.0197,503.8771
1,6,17,2,1,3,C,F,b,y,5,15,68001,1,3,444.0272,223.2017
1,6,17,2,1,3,C,F,b,y,5,15,68001,1,1,471.0441,257.7233
1,6,17,2,1,3,C,F,b,y,5,15,68001,1,3,484.5525,19.0741
1,6,17,2,1,3,C,F,b,y,5,15,69001,1,3,573.1079,277.2355
1,6,17,2,1,3,C,F,b,y,5,15,69001,1,1,588.1173,314.7589
1,6,17,2,1,3,C,F,b,y,5,15,70001,1,3,540.0872,334.2711
1,6,17,2,1,3,C,F,b,y,5,15,70001,1,1,553.5957,376.2974
1,6,17,2,1,3,C,F,b,y,5,15,70001,1,3,577.6107,47.5919
1,6,17,2,1,3,C,F,b,y,5,15,71001,1,3,555.0966,469.3555
1,6,17,2,1,3,C,F,b,y,5,15,71001,1,3,504.0647,454.3462
1,6,17,2,1,3,C,F,b,y,5,15,71001,1,1,493.5582,475.3593
1,6,17,2,1,3,C,F,b,y,5,15,72001,1,3,398.9991,502.3762
1,6,17,2,1,3,C,F,b,y,5,15,72001,1,3,457.5356,494.8715
1,6,17,2,1,3,C,F,b,y,5,15,72001,1,1,504.0647,532.3949
1,6,17,2,1,3,C,F,b,y,5,15,73001,1,3,570.106,361.288
1,6,17,2,1,3,C,F,b,y,5,15,73001,1,1,594.121,386.8039
1,6,17,2,1,3,C,F,b,y,5,15,74001,1,3,209.8809,251.7195
1,6,17,2,1,3,C,F,b,y,5,15,74001,1,1,260.9128,239.712
1,6,17,2,1,3,C,F,b,y,5,15,75001,1,3,406.5038,398.8114
1,6,17,2,1,3,C,F,b,y,5,15,75001,1,3,474.046,401.8133
1,6,17,2,1,3,C,F,b,y,5,15,75001,1,1,486.0535,452.8452
1,6,17,2,1,3,C,F,b,y,5,15,76001,1,3,223.3893,320.7627
1,6,17,2,1,3,C,F,b,y,5,15,76001,1,3,733.7083,346.2786
1,6,17,2,1,3,C,F,b,y,5,15,77001,1,3,337.4606,292.2448
1,6,17,2,1,3,C,F,b,y,5,15,78001,1,3,435.0216,295.2467
1,6,17,2,1,3,C,F,b,y,5,15,79001,1,3,570.106,209.6932
1,6,17,2,1,3,C,F,b,y,5,15,79001,1,1,546.091,266.7289
1,6,17,2,1,3,C,F,b,y,5,15,80001,1,3,418.5113,439.3368
1,6,17,2,1,3,C,F,b,y,5,15,80001,1,1,475.5469,445.3405
1,6,17,2,1,3,C,F,b,y,5,15,81001,1,3,633.1454,242.7139
1,6,17,2,1,3,C,F,b,y,5,15,81001,1,1,718.6989,295.2467
1,6,17,2,1,3,C,F,b,y,5,15,82001,1,3,405.0028,530.894
1,6,17,2,1,3,C,F,b,y,5,15,82001,1,1,445.5281,547.4043
1,6,17,2,1,3,C,F,b,y,5,15,83001,1,3,613.6332,359.7871
1,6,17,2,1,3,C,F,b,y,5,15,83001,1,3,616.6351,388.3049
1,6,17,2,1,3,C,F,b,y,5,15,84001,1,3,385.4906,148.1548
1,6,17,2,1,3,C,F,b,y,5,15,84001,1,3,326.954,388.3049
1,6,17,2,1,3,C,F,b,y,5,15,84001,1,3,232.3949,364.2899
1,6,17,2,1,3,C,F,b,y,5,15,84001,1,1,256.4099,403.3143
1,6,17,2,1,3,C,F,b,y,5,15,85001,1,1,257.9109,104.6276
1,6,17,2,1,3,C,F,b,y,5,15,86001,1,1,296.9353,202.1886
1,6,17,2,1,3,C,F,b,y,5,15,86001,1,3,597.1229,538.3987
1,6,17,2,1,3,C,F,b,y,5,15,87001,1,1,175.3593,299.7495
1,6,17,2,1,3,C,F,b,y,5,15,87001,1,3,206.879,319.2617
1,6,17,2,1,3,C,F,b,y,5,15,87001,1,3,256.4099,305.7533
1,6,17,2,1,3,C,F,b,y,5,15,88001,1,3,395.9972,445.3405
1,6,17,2,1,3,C,F,b,y,5,15,89001,1,3,286.4287,512.8827
1,6,17,2,1,3,C,F,b,y,5,15,90001,1,3,224.8902,440.8377
1,6,17,2,1,3,C,F,b,y,5,15,90001,1,1,263.9146,440.8377
1,6,17,2,1,3,C,F,b,y,5,15,91001,1,3,676.6726,277.2355
1,6,17,2,1,3,C,F,b,y,5,15,92001,1,3,696.1848,179.6745
1,6,17,2,1,3,C,F,b,y,5,15,93001,1,3,432.0197,89.6182
1,6,17,2,1,3,C,F,b,y,5,15,94001,1,3,223.3893,256.2223
1,6,17,2,1,3,C,F,b,y,5,15,95001,1,3,685.6782,326.7664
1,6,17,2,1,3,C,F,b,y,5,15,96001,1,3,636.1473,335.772
1,6,17,2,1,3,C,F,b,y,5,15,97001,1,3,293.9334,404.8152
1,6,17,2,1,3,C,F,b,y,5,15,98001,1,3,549.0929,440.8377
1,6,17,2,1,3,C,F,b,y,5,15,101001,1,3,341.9634,482.864
1,6,17,2,1,3,C,F,b,y,5,15,103001,1,3,304.44,266.7289
1,6,17,2,1,3,C,F,b,y,5,15,103001,1,3,326.954,251.7195
1,6,17,2,1,3,C,F,b,y,5,15,104001,1,3,377.9859,470.8565
1,6,17,2,1,3,C,F,b,y,5,15,105001,1,3,576.1098,560.9128
1,6,17,2,1,3,C,F,b,y,5,15,106001,1,3,356.9728,572.9203
