dummy,month,day,period,view,station,fgeno,mgeno,fcol,mcol,nf,nm,frame,something,sex,x,y
1,11,7,4,2,2,A,G,b,y,5,15,1,1,1,252.7463,154.7429
1,11,7,4,2,2,A,G,b,y,5,15,1,1,1,344.5932,118.8028
1,11,7,4,2,2,A,G,b,y,5,15,1,1,1,376.5399,243.9276
1,11,7,4,2,2,A,G,b,y,5,15,1,1,1,364.5599,305.1589
1,11,7,4,2,2,A,G,b,y,5,15,1,1,1,348.5865,337.1057
1,11,7,4,2,2,A,G,b,y,5,15,1,1,1,243.4285,339.7679
1,11,7,4,2,2,A,G,b,y,5,15,1,1,3,447.089,305.1589
1,11,7,4,2,2,A,G,b,y,5,15,1,1,1,453.7446,247.921
1,11,7,4,2,2,A,G,b,y,5,15,1,1,1,586.8561,263.8943
1,11,7,4,2,2,A,G,b,y,5,15,1,1,1,572.2138,403.6614
1,11,7,4,2,2,A,G,b,y,5,15,1,1,3,483.0291,358.4035
1,11,7,4,2,2,A,G,b,y,5,15,1,1,3,491.0158,399.6681
1,11,7,4,2,2,A,G,b,y,5,15,1,1,3,455.0757,416.9725
1,11,7,4,2,2,A,G,b,y,5,15,1,1,1,449.7512,383.6947
1,11,7,4,2,2,A,G,b,y,5,15,1001,1,1,348.5865,113.4784
1,11,7,4,2,2,A,G,b,y,5,15,1001,1,1,332.6131,164.0607
1,11,7,4,2,2,A,G,b,y,5,15,1001,1,1,391.1822,267.8877
1,11,7,4,2,2,A,G,b,y,5,15,1001,1,1,329.9509,270.5499
1,11,7,4,2,2,A,G,b,y,5,15,1001,1,1,260.7329,298.5033
1,11,7,4,2,2,A,G,b,y,5,15,1001,1,1,377.871,313.1456
1,11,7,4,2,2,A,G,b,y,5,15,1001,1,1,473.7113,254.5765
1,11,7,4,2,2,A,G,b,y,5,15,1001,1,1,537.6048,302.4967
1,11,7,4,2,2,A,G,b,y,5,15,1001,1,1,576.2072,423.6281
1,11,7,4,2,2,A,G,b,y,5,15,1001,1,1,313.9775,385.0258
1,11,7,4,2,2,A,G,b,y,5,15,1001,1,3,388.52,386.3569
1,11,7,4,2,2,A,G,b,y,5,15,1001,1,3,444.4268,412.9792
1,11,7,4,2,2,A,G,b,y,5,15,1001,1,3,449.7512,361.0657
1,11,7,4,2,2,A,G,b,y,5,15,1001,1,3,471.0491,315.8078
1,11,7,4,2,2,A,G,b,y,5,15,2001,1,1,344.5932,114.8095
1,11,7,4,2,2,A,G,b,y,5,15,2001,1,1,248.7529,266.5566
1,11,7,4,2,2,A,G,b,y,5,15,2001,1,3,251.4151,221.2987
1,11,7,4,2,2,A,G,b,y,5,15,2001,1,1,308.6531,309.1522
1,11,7,4,2,2,A,G,b,y,5,15,2001,1,1,353.911,291.8478
1,11,7,4,2,2,A,G,b,y,5,15,2001,1,1,380.5333,251.9143
1,11,7,4,2,2,A,G,b,y,5,15,2001,1,1,384.5266,317.1389
1,11,7,4,2,2,A,G,b,y,5,15,2001,1,3,441.7646,355.7413
1,11,7,4,2,2,A,G,b,y,5,15,2001,1,3,435.109,422.297
1,11,7,4,2,2,A,G,b,y,5,15,2001,1,3,492.3469,424.9592
1,11,7,4,2,2,A,G,b,y,5,15,2001,1,1,576.2072,435.6082
1,11,7,4,2,2,A,G,b,y,5,15,2001,1,1,553.5782,347.7546
1,11,7,4,2,2,A,G,b,y,5,15,2001,1,1,509.6514,290.5166
1,11,7,4,2,2,A,G,b,y,5,15,3001,1,1,570.8827,431.6148
1,11,7,4,2,2,A,G,b,y,5,15,3001,1,1,588.1872,334.4434
1,11,7,4,2,2,A,G,b,y,5,15,3001,1,3,453.7446,424.9592
1,11,7,4,2,2,A,G,b,y,5,15,3001,1,3,445.7579,354.4101
1,11,7,4,2,2,A,G,b,y,5,15,3001,1,3,495.0092,371.7146
1,11,7,4,2,2,A,G,b,y,5,15,3001,1,3,476.3735,243.9276
1,11,7,4,2,2,A,G,b,y,5,15,3001,1,1,506.9892,243.9276
1,11,7,4,2,2,A,G,b,y,5,15,3001,1,1,453.7446,109.485
1,11,7,4,2,2,A,G,b,y,5,15,3001,1,1,376.5399,255.9077
1,11,7,4,2,2,A,G,b,y,5,15,3001,1,1,389.8511,311.8145
1,11,7,4,2,2,A,G,b,y,5,15,3001,1,1,356.5732,349.0857
1,11,7,4,2,2,A,G,b,y,5,15,3001,1,1,307.322,338.4368
1,11,7,4,2,2,A,G,b,y,5,15,3001,1,1,290.0175,307.8211
1,11,7,4,2,2,A,G,b,y,5,15,4001,1,1,295.3419,334.4434
1,11,7,4,2,2,A,G,b,y,5,15,4001,1,1,339.2687,302.4967
1,11,7,4,2,2,A,G,b,y,5,15,4001,1,1,372.5466,317.1389
1,11,7,4,2,2,A,G,b,y,5,15,4001,1,1,425.7912,241.2654
1,11,7,4,2,2,A,G,b,y,5,15,4001,1,1,471.0491,253.2454
1,11,7,4,2,2,A,G,b,y,5,15,4001,1,1,433.7779,105.4917
1,11,7,4,2,2,A,G,b,y,5,15,4001,1,1,560.2338,231.9476
1,11,7,4,2,2,A,G,b,y,5,15,4001,1,3,440.4334,370.3835
1,11,7,4,2,2,A,G,b,y,5,15,4001,1,3,485.6913,359.7346
1,11,7,4,2,2,A,G,b,y,5,15,4001,1,3,440.4334,394.3436
1,11,7,4,2,2,A,G,b,y,5,15,4001,1,1,392.5133,424.9592
1,11,7,4,2,2,A,G,b,y,5,15,4001,1,1,465.7246,439.6015
1,11,7,4,2,2,A,G,b,y,5,15,4001,1,3,460.4002,478.2038
1,11,7,4,2,2,A,G,b,y,5,15,5001,1,1,441.7646,109.485
1,11,7,4,2,2,A,G,b,y,5,15,5001,1,1,437.7712,229.2854
1,11,7,4,2,2,A,G,b,y,5,15,5001,1,1,493.678,297.1722
1,11,7,4,2,2,A,G,b,y,5,15,5001,1,1,550.916,327.7879
1,11,7,4,2,2,A,G,b,y,5,15,5001,1,3,554.9093,309.1522
1,11,7,4,2,2,A,G,b,y,5,15,5001,1,3,488.3536,365.0591
1,11,7,4,2,2,A,G,b,y,5,15,5001,1,3,455.0757,362.3968
1,11,7,4,2,2,A,G,b,y,5,15,5001,1,3,460.4002,403.6614
1,11,7,4,2,2,A,G,b,y,5,15,5001,1,1,421.7978,511.4817
1,11,7,4,2,2,A,G,b,y,5,15,5001,1,1,388.52,448.9193
1,11,7,4,2,2,A,G,b,y,5,15,5001,1,1,298.0042,338.4368
1,11,7,4,2,2,A,G,b,y,5,15,5001,1,1,337.9376,301.1656
1,11,7,4,2,2,A,G,b,y,5,15,5001,1,1,375.2088,291.8478
1,11,7,4,2,2,A,G,b,y,5,15,6001,1,1,444.4268,102.8295
1,11,7,4,2,2,A,G,b,y,5,15,6001,1,1,481.698,145.4251
1,11,7,4,2,2,A,G,b,y,5,15,6001,1,1,401.8311,184.0275
1,11,7,4,2,2,A,G,b,y,5,15,6001,1,1,433.7779,239.9343
1,11,7,4,2,2,A,G,b,y,5,15,6001,1,1,376.5399,281.1988
1,11,7,4,2,2,A,G,b,y,5,15,6001,1,1,415.1423,311.8145
1,11,7,4,2,2,A,G,b,y,5,15,6001,1,3,476.3735,290.5166
1,11,7,4,2,2,A,G,b,y,5,15,6001,1,3,451.0824,337.1057
1,11,7,4,2,2,A,G,b,y,5,15,6001,1,3,479.0358,357.0724
1,11,7,4,2,2,A,G,b,y,5,15,6001,1,3,453.7446,410.317
1,11,7,4,2,2,A,G,b,y,5,15,6001,1,1,483.0291,456.906
1,11,7,4,2,2,A,G,b,y,5,15,6001,1,1,412.48,373.0458
1,11,7,4,2,2,A,G,b,y,5,15,6001,1,1,299.3353,339.7679
1,11,7,4,2,2,A,G,b,y,5,15,7001,1,1,524.2937,164.0607
1,11,7,4,2,2,A,G,b,y,5,15,7001,1,1,569.5516,230.6165
1,11,7,4,2,2,A,G,b,y,5,15,7001,1,1,460.4002,168.0541
1,11,7,4,2,2,A,G,b,y,5,15,7001,1,1,476.3735,202.6631
1,11,7,4,2,2,A,G,b,y,5,15,7001,1,3,496.3403,285.1922
1,11,7,4,2,2,A,G,b,y,5,15,7001,1,3,436.4401,282.53
1,11,7,4,2,2,A,G,b,y,5,15,7001,1,1,380.5333,267.8877
1,11,7,4,2,2,A,G,b,y,5,15,7001,1,1,405.8245,362.3968
1,11,7,4,2,2,A,G,b,y,5,15,7001,1,1,379.2022,371.7146
1,11,7,4,2,2,A,G,b,y,5,15,7001,1,1,298.0042,342.4301
1,11,7,4,2,2,A,G,b,y,5,15,7001,1,3,451.0824,374.3769
1,11,7,4,2,2,A,G,b,y,5,15,7001,1,3,444.4268,407.6547
1,11,7,4,2,2,A,G,b,y,5,15,7001,1,1,460.4002,499.5017
1,11,7,4,2,2,A,G,b,y,5,15,8001,1,1,530.9493,154.7429
1,11,7,4,2,2,A,G,b,y,5,15,8001,1,1,483.0291,217.3053
1,11,7,4,2,2,A,G,b,y,5,15,8001,1,1,509.6514,286.5233
1,11,7,4,2,2,A,G,b,y,5,15,8001,1,1,532.2804,383.6947
1,11,7,4,2,2,A,G,b,y,5,15,8001,1,1,463.0624,307.8211
1,11,7,4,2,2,A,G,b,y,5,15,8001,1,3,445.7579,279.8677
1,11,7,4,2,2,A,G,b,y,5,15,8001,1,3,428.4534,238.6032
1,11,7,4,2,2,A,G,b,y,5,15,8001,1,3,433.7779,351.7479
1,11,7,4,2,2,A,G,b,y,5,15,8001,1,3,425.7912,428.9526
1,11,7,4,2,2,A,G,b,y,5,15,8001,1,1,455.0757,492.8461
1,11,7,4,2,2,A,G,b,y,5,15,8001,1,1,409.8178,374.3769
1,11,7,4,2,2,A,G,b,y,5,15,8001,1,1,368.5532,265.2255
1,11,7,4,2,2,A,G,b,y,5,15,8001,1,1,303.3286,337.1057
1,11,7,4,2,2,A,G,b,y,5,15,9001,1,1,298.0042,347.7546
1,11,7,4,2,2,A,G,b,y,5,15,9001,1,1,393.8444,349.0857
1,11,7,4,2,2,A,G,b,y,5,15,9001,1,1,379.2022,267.8877
1,11,7,4,2,2,A,G,b,y,5,15,9001,1,3,447.089,242.5965
1,11,7,4,2,2,A,G,b,y,5,15,9001,1,3,437.7712,275.8744
1,11,7,4,2,2,A,G,b,y,5,15,9001,1,3,420.4667,358.4035
1,11,7,4,2,2,A,G,b,y,5,15,9001,1,3,431.1156,408.9859
1,11,7,4,2,2,A,G,b,y,5,15,9001,1,1,479.0358,499.5017
1,11,7,4,2,2,A,G,b,y,5,15,9001,1,1,476.3735,354.4101
1,11,7,4,2,2,A,G,b,y,5,15,9001,1,1,484.3602,253.2454
1,11,7,4,2,2,A,G,b,y,5,15,9001,1,1,513.6448,289.1855
1,11,7,4,2,2,A,G,b,y,5,15,9001,1,1,556.2404,278.5366
1,11,7,4,2,2,A,G,b,y,5,15,9001,1,1,518.9692,184.0275
1,11,7,4,2,2,A,G,b,y,5,15,10001,1,1,291.3486,334.4434
1,11,7,4,2,2,A,G,b,y,5,15,10001,1,1,431.1156,468.886
1,11,7,4,2,2,A,G,b,y,5,15,10001,1,1,359.2354,317.1389
1,11,7,4,2,2,A,G,b,y,5,15,10001,1,1,388.52,258.5699
1,11,7,4,2,2,A,G,b,y,5,15,10001,1,1,411.1489,322.4634
1,11,7,4,2,2,A,G,b,y,5,15,10001,1,1,461.7313,346.4235
1,11,7,4,2,2,A,G,b,y,5,15,10001,1,1,491.0158,197.3386
1,11,7,4,2,2,A,G,b,y,5,15,10001,1,1,514.9759,269.2188
1,11,7,4,2,2,A,G,b,y,5,15,10001,1,1,553.5782,275.8744
1,11,7,4,2,2,A,G,b,y,5,15,10001,1,3,421.7978,377.0391
1,11,7,4,2,2,A,G,b,y,5,15,10001,1,3,481.698,385.0258
1,11,7,4,2,2,A,G,b,y,5,15,10001,1,3,435.109,283.8611
1,11,7,4,2,2,A,G,b,y,5,15,10001,1,3,431.1156,223.9609
1,11,7,4,2,2,A,G,b,y,5,15,11001,1,1,292.6797,337.1057
1,11,7,4,2,2,A,G,b,y,5,15,11001,1,1,336.6065,331.7812
1,11,7,4,2,2,A,G,b,y,5,15,11001,1,1,347.2554,301.1656
1,11,7,4,2,2,A,G,b,y,5,15,11001,1,1,389.8511,269.2188
1,11,7,4,2,2,A,G,b,y,5,15,11001,1,3,401.8311,227.9542
1,11,7,4,2,2,A,G,b,y,5,15,11001,1,1,448.4201,318.47
1,11,7,4,2,2,A,G,b,y,5,15,11001,1,3,463.0624,251.9143
1,11,7,4,2,2,A,G,b,y,5,15,11001,1,1,481.698,213.312
1,11,7,4,2,2,A,G,b,y,5,15,11001,1,1,497.6714,289.1855
1,11,7,4,2,2,A,G,b,y,5,15,11001,1,1,550.916,282.53
1,11,7,4,2,2,A,G,b,y,5,15,11001,1,3,484.3602,379.7013
1,11,7,4,2,2,A,G,b,y,5,15,11001,1,3,420.4667,383.6947
1,11,7,4,2,2,A,G,b,y,5,15,11001,1,1,364.5599,464.8927
1,11,7,4,2,2,A,G,b,y,5,15,12001,1,1,343.2621,448.9193
1,11,7,4,2,2,A,G,b,y,5,15,12001,1,1,292.6797,341.099
1,11,7,4,2,2,A,G,b,y,5,15,12001,1,1,347.2554,327.7879
1,11,7,4,2,2,A,G,b,y,5,15,12001,1,3,363.2288,289.1855
1,11,7,4,2,2,A,G,b,y,5,15,12001,1,3,416.4734,395.6747
1,11,7,4,2,2,A,G,b,y,5,15,12001,1,1,431.1156,343.7612
1,11,7,4,2,2,A,G,b,y,5,15,12001,1,1,445.7579,334.4434
1,11,7,4,2,2,A,G,b,y,5,15,12001,1,3,475.0424,387.688
1,11,7,4,2,2,A,G,b,y,5,15,12001,1,1,506.9892,297.1722
1,11,7,4,2,2,A,G,b,y,5,15,12001,1,3,491.0158,257.2388
1,11,7,4,2,2,A,G,b,y,5,15,12001,1,1,469.718,242.5965
1,11,7,4,2,2,A,G,b,y,5,15,12001,1,1,477.7047,207.9875
1,11,7,4,2,2,A,G,b,y,5,15,12001,1,1,558.9027,140.1007
1,11,7,4,2,2,A,G,b,y,5,15,13001,1,1,315.3087,450.2504
1,11,7,4,2,2,A,G,b,y,5,15,13001,1,1,299.3353,331.7812
1,11,7,4,2,2,A,G,b,y,5,15,13001,1,1,321.9642,318.47
1,11,7,4,2,2,A,G,b,y,5,15,13001,1,3,353.911,294.51
1,11,7,4,2,2,A,G,b,y,5,15,13001,1,3,408.4867,387.688
1,11,7,4,2,2,A,G,b,y,5,15,13001,1,1,433.7779,349.0857
1,11,7,4,2,2,A,G,b,y,5,15,13001,1,1,448.4201,319.8012
1,11,7,4,2,2,A,G,b,y,5,15,13001,1,1,409.8178,246.5899
1,11,7,4,2,2,A,G,b,y,5,15,13001,1,1,497.6714,301.1656
1,11,7,4,2,2,A,G,b,y,5,15,13001,1,3,465.7246,371.7146
1,11,7,4,2,2,A,G,b,y,5,15,13001,1,3,475.0424,277.2055
1,11,7,4,2,2,A,G,b,y,5,15,13001,1,1,468.3869,196.0075
1,11,7,4,2,2,A,G,b,y,5,15,13001,1,1,303.3286,121.4651
1,11,7,4,2,2,A,G,b,y,5,15,14001,1,1,271.3819,439.6015
1,11,7,4,2,2,A,G,b,y,5,15,14001,1,1,298.0042,351.7479
1,11,7,4,2,2,A,G,b,y,5,15,14001,1,1,328.6198,329.119
1,11,7,4,2,2,A,G,b,y,5,15,14001,1,1,375.2088,343.7612
1,11,7,4,2,2,A,G,b,y,5,15,14001,1,3,373.8777,287.8544
1,11,7,4,2,2,A,G,b,y,5,15,14001,1,1,364.5599,234.6098
1,11,7,4,2,2,A,G,b,y,5,15,14001,1,1,408.4867,257.2388
1,11,7,4,2,2,A,G,b,y,5,15,14001,1,1,431.1156,214.6431
1,11,7,4,2,2,A,G,b,y,5,15,14001,1,3,449.7512,329.119
1,11,7,4,2,2,A,G,b,y,5,15,14001,1,1,445.7579,367.7213
1,11,7,4,2,2,A,G,b,y,5,15,14001,1,3,400.5,393.0125
1,11,7,4,2,2,A,G,b,y,5,15,14001,1,3,464.3935,395.6747
1,11,7,4,2,2,A,G,b,y,5,15,14001,1,1,504.327,301.1656
1,11,7,4,2,2,A,G,b,y,5,15,15001,1,1,203.495,427.6215
1,11,7,4,2,2,A,G,b,y,5,15,15001,1,1,294.0108,339.7679
1,11,7,4,2,2,A,G,b,y,5,15,15001,1,1,309.9842,306.49
1,11,7,4,2,2,A,G,b,y,5,15,15001,1,1,351.2488,323.7945
1,11,7,4,2,2,A,G,b,y,5,15,15001,1,3,353.911,371.7146
1,11,7,4,2,2,A,G,b,y,5,15,15001,1,3,359.2354,290.5166
1,11,7,4,2,2,A,G,b,y,5,15,15001,1,3,411.1489,400.9992
1,11,7,4,2,2,A,G,b,y,5,15,15001,1,3,436.4401,338.4368
1,11,7,4,2,2,A,G,b,y,5,15,15001,1,1,479.0358,395.6747
1,11,7,4,2,2,A,G,b,y,5,15,15001,1,1,488.3536,283.8611
1,11,7,4,2,2,A,G,b,y,5,15,15001,1,1,429.7845,266.5566
1,11,7,4,2,2,A,G,b,y,5,15,15001,1,1,415.1423,231.9476
1,11,7,4,2,2,A,G,b,y,5,15,15001,1,1,425.7912,153.4118
1,11,7,4,2,2,A,G,b,y,5,15,16001,1,1,215.475,349.0857
1,11,7,4,2,2,A,G,b,y,5,15,16001,1,1,300.6664,378.3702
1,11,7,4,2,2,A,G,b,y,5,15,16001,1,1,303.3286,307.8211
1,11,7,4,2,2,A,G,b,y,5,15,16001,1,1,327.2887,298.5033
1,11,7,4,2,2,A,G,b,y,5,15,16001,1,3,368.5532,383.6947
1,11,7,4,2,2,A,G,b,y,5,15,16001,1,3,355.2421,261.2321
1,11,7,4,2,2,A,G,b,y,5,15,16001,1,1,404.4933,243.9276
1,11,7,4,2,2,A,G,b,y,5,15,16001,1,1,409.8178,270.5499
1,11,7,4,2,2,A,G,b,y,5,15,16001,1,1,495.0092,275.8744
1,11,7,4,2,2,A,G,b,y,5,15,16001,1,1,431.1156,144.094
1,11,7,4,2,2,A,G,b,y,5,15,16001,1,3,443.0957,367.7213
1,11,7,4,2,2,A,G,b,y,5,15,16001,1,3,477.7047,385.0258
1,11,7,4,2,2,A,G,b,y,5,15,16001,1,1,461.7313,455.5749
1,11,7,4,2,2,A,G,b,y,5,15,17001,1,1,176.8727,180.0341
1,11,7,4,2,2,A,G,b,y,5,15,17001,1,1,248.7529,313.1456
1,11,7,4,2,2,A,G,b,y,5,15,17001,1,1,276.7063,297.1722
1,11,7,4,2,2,A,G,b,y,5,15,17001,1,1,320.6331,265.2255
1,11,7,4,2,2,A,G,b,y,5,15,17001,1,3,355.2421,266.5566
1,11,7,4,2,2,A,G,b,y,5,15,17001,1,1,395.1755,289.1855
1,11,7,4,2,2,A,G,b,y,5,15,17001,1,1,451.0824,318.47
1,11,7,4,2,2,A,G,b,y,5,15,17001,1,1,491.0158,283.8611
1,11,7,4,2,2,A,G,b,y,5,15,17001,1,3,488.3536,202.6631
1,11,7,4,2,2,A,G,b,y,5,15,17001,1,1,436.4401,142.7629
1,11,7,4,2,2,A,G,b,y,5,15,17001,1,3,493.678,354.4101
1,11,7,4,2,2,A,G,b,y,5,15,17001,1,1,460.4002,446.2571
1,11,7,4,2,2,A,G,b,y,5,15,17001,1,3,363.2288,374.3769
1,11,7,4,2,2,A,G,b,y,5,15,17001,1,1,351.2488,411.6481
1,11,7,4,2,2,A,G,b,y,5,15,18001,1,1,171.5483,239.9343
1,11,7,4,2,2,A,G,b,y,5,15,18001,1,1,234.1106,225.292
1,11,7,4,2,2,A,G,b,y,5,15,18001,1,1,311.3153,209.3186
1,11,7,4,2,2,A,G,b,y,5,15,18001,1,1,429.7845,154.7429
1,11,7,4,2,2,A,G,b,y,5,15,18001,1,3,465.7246,218.6364
1,11,7,4,2,2,A,G,b,y,5,15,18001,1,3,351.2488,253.2454
1,11,7,4,2,2,A,G,b,y,5,15,18001,1,1,320.6331,295.8411
1,11,7,4,2,2,A,G,b,y,5,15,18001,1,1,393.8444,293.1789
1,11,7,4,2,2,A,G,b,y,5,15,18001,1,1,484.3602,271.881
1,11,7,4,2,2,A,G,b,y,5,15,18001,1,3,485.6913,357.0724
1,11,7,4,2,2,A,G,b,y,5,15,18001,1,3,359.2354,371.7146
1,11,7,4,2,2,A,G,b,y,5,15,18001,1,1,360.5666,427.6215
1,11,7,4,2,2,A,G,b,y,5,15,18001,1,1,412.48,382.3636
1,11,7,4,2,2,A,G,b,y,5,15,18001,1,1,453.7446,438.2704
1,11,7,4,2,2,A,G,b,y,5,15,19001,1,1,151.5815,203.9942
1,11,7,4,2,2,A,G,b,y,5,15,19001,1,1,327.2887,168.0541
1,11,7,4,2,2,A,G,b,y,5,15,19001,1,3,324.6265,230.6165
1,11,7,4,2,2,A,G,b,y,5,15,19001,1,1,367.2221,222.6298
1,11,7,4,2,2,A,G,b,y,5,15,19001,1,3,377.871,261.2321
1,11,7,4,2,2,A,G,b,y,5,15,19001,1,1,331.282,301.1656
1,11,7,4,2,2,A,G,b,y,5,15,19001,1,1,291.3486,287.8544
1,11,7,4,2,2,A,G,b,y,5,15,19001,1,1,384.5266,290.5166
1,11,7,4,2,2,A,G,b,y,5,15,19001,1,1,465.7246,271.881
1,11,7,4,2,2,A,G,b,y,5,15,19001,1,3,480.3669,351.7479
1,11,7,4,2,2,A,G,b,y,5,15,19001,1,3,365.891,369.0524
1,11,7,4,2,2,A,G,b,y,5,15,19001,1,1,364.5599,426.2903
1,11,7,4,2,2,A,G,b,y,5,15,19001,1,1,436.4401,404.9925
1,11,7,4,2,2,A,G,b,y,5,15,19001,1,1,464.3935,456.906
1,11,7,4,2,2,A,G,b,y,5,15,20001,1,1,279.3686,104.1606
1,11,7,4,2,2,A,G,b,y,5,15,20001,1,3,327.2887,114.8095
1,11,7,4,2,2,A,G,b,y,5,15,20001,1,1,332.6131,161.3985
1,11,7,4,2,2,A,G,b,y,5,15,20001,1,1,380.5333,189.3519
1,11,7,4,2,2,A,G,b,y,5,15,20001,1,1,457.7379,245.2587
1,11,7,4,2,2,A,G,b,y,5,15,20001,1,1,404.4933,301.1656
1,11,7,4,2,2,A,G,b,y,5,15,20001,1,1,343.2621,305.1589
1,11,7,4,2,2,A,G,b,y,5,15,20001,1,3,355.2421,270.5499
1,11,7,4,2,2,A,G,b,y,5,15,20001,1,1,369.8844,327.7879
1,11,7,4,2,2,A,G,b,y,5,15,20001,1,3,405.8245,389.0191
1,11,7,4,2,2,A,G,b,y,5,15,20001,1,3,479.0358,359.7346
1,11,7,4,2,2,A,G,b,y,5,15,20001,1,1,349.9176,440.9326
1,11,7,4,2,2,A,G,b,y,5,15,20001,1,1,451.0824,400.9992
1,11,7,4,2,2,A,G,b,y,5,15,20001,1,1,469.718,452.9126
1,11,7,4,2,2,A,G,b,y,5,15,21001,1,1,199.5017,168.0541
1,11,7,4,2,2,A,G,b,y,5,15,21001,1,1,259.4018,158.7363
1,11,7,4,2,2,A,G,b,y,5,15,21001,1,1,351.2488,202.6631
1,11,7,4,2,2,A,G,b,y,5,15,21001,1,3,403.1622,229.2854
1,11,7,4,2,2,A,G,b,y,5,15,21001,1,3,468.3869,258.5699
1,11,7,4,2,2,A,G,b,y,5,15,21001,1,1,403.1622,295.8411
1,11,7,4,2,2,A,G,b,y,5,15,21001,1,1,343.2621,303.8278
1,11,7,4,2,2,A,G,b,y,5,15,21001,1,1,357.9043,346.4235
1,11,7,4,2,2,A,G,b,y,5,15,21001,1,3,408.4867,353.079
1,11,7,4,2,2,A,G,b,y,5,15,21001,1,3,461.7313,318.47
1,11,7,4,2,2,A,G,b,y,5,15,21001,1,1,493.678,343.7612
1,11,7,4,2,2,A,G,b,y,5,15,21001,1,1,443.0957,381.0324
1,11,7,4,2,2,A,G,b,y,5,15,21001,1,1,473.7113,447.5882
1,11,7,4,2,2,A,G,b,y,5,15,21001,1,1,367.2221,438.2704
1,11,7,4,2,2,A,G,b,y,5,15,22001,1,1,228.7862,197.3386
1,11,7,4,2,2,A,G,b,y,5,15,22001,1,1,235.4418,108.1539
1,11,7,4,2,2,A,G,b,y,5,15,22001,1,1,381.8644,180.0341
1,11,7,4,2,2,A,G,b,y,5,15,22001,1,3,383.1955,247.921
1,11,7,4,2,2,A,G,b,y,5,15,22001,1,3,432.4468,247.921
1,11,7,4,2,2,A,G,b,y,5,15,22001,1,1,373.8777,287.8544
1,11,7,4,2,2,A,G,b,y,5,15,22001,1,1,387.1889,307.8211
1,11,7,4,2,2,A,G,b,y,5,15,22001,1,1,353.911,361.0657
1,11,7,4,2,2,A,G,b,y,5,15,22001,1,3,415.1423,359.7346
1,11,7,4,2,2,A,G,b,y,5,15,22001,1,1,440.4334,347.7546
1,11,7,4,2,2,A,G,b,y,5,15,22001,1,3,485.6913,329.119
1,11,7,4,2,2,A,G,b,y,5,15,22001,1,1,485.6913,394.3436
1,11,7,4,2,2,A,G,b,y,5,15,22001,1,1,491.0158,452.9126
1,11,7,4,2,2,A,G,b,y,5,15,22001,1,1,376.5399,451.5815
1,11,7,4,2,2,A,G,b,y,5,15,23001,1,1,299.3353,89.5183
1,11,7,4,2,2,A,G,b,y,5,15,23001,1,1,363.2288,188.0208
1,11,7,4,2,2,A,G,b,y,5,15,23001,1,1,433.7779,197.3386
1,11,7,4,2,2,A,G,b,y,5,15,23001,1,3,376.5399,247.921
1,11,7,4,2,2,A,G,b,y,5,15,23001,1,1,311.3153,279.8677
1,11,7,4,2,2,A,G,b,y,5,15,23001,1,1,320.6331,341.099
1,11,7,4,2,2,A,G,b,y,5,15,23001,1,1,367.2221,309.1522
1,11,7,4,2,2,A,G,b,y,5,15,23001,1,1,349.9176,386.3569
1,11,7,4,2,2,A,G,b,y,5,15,23001,1,1,373.8777,463.5616
1,11,7,4,2,2,A,G,b,y,5,15,23001,1,3,412.48,367.7213
1,11,7,4,2,2,A,G,b,y,5,15,23001,1,3,435.109,366.3902
1,11,7,4,2,2,A,G,b,y,5,15,23001,1,3,489.6847,335.7745
1,11,7,4,2,2,A,G,b,y,5,15,23001,1,1,484.3602,400.9992
1,11,7,4,2,2,A,G,b,y,5,15,23001,1,1,483.0291,455.5749
1,11,7,4,2,2,A,G,b,y,5,15,24001,1,1,324.6265,100.1672
1,11,7,4,2,2,A,G,b,y,5,15,24001,1,1,348.5865,226.6231
1,11,7,4,2,2,A,G,b,y,5,15,24001,1,1,365.891,182.6963
1,11,7,4,2,2,A,G,b,y,5,15,24001,1,3,367.2221,258.5699
1,11,7,4,2,2,A,G,b,y,5,15,24001,1,3,413.8111,243.9276
1,11,7,4,2,2,A,G,b,y,5,15,24001,1,1,399.1689,314.4767
1,11,7,4,2,2,A,G,b,y,5,15,24001,1,1,307.322,327.7879
1,11,7,4,2,2,A,G,b,y,5,15,24001,1,1,305.9908,423.6281
1,11,7,4,2,2,A,G,b,y,5,15,24001,1,1,355.2421,484.8594
1,11,7,4,2,2,A,G,b,y,5,15,24001,1,3,413.8111,373.0458
1,11,7,4,2,2,A,G,b,y,5,15,24001,1,3,453.7446,343.7612
1,11,7,4,2,2,A,G,b,y,5,15,24001,1,1,485.6913,314.4767
1,11,7,4,2,2,A,G,b,y,5,15,24001,1,1,493.678,389.0191
1,11,7,4,2,2,A,G,b,y,5,15,24001,1,1,485.6913,459.5682
1,11,7,4,2,2,A,G,b,y,5,15,25001,1,1,274.0441,118.8028
1,11,7,4,2,2,A,G,b,y,5,15,25001,1,1,332.6131,112.1473
1,11,7,4,2,2,A,G,b,y,5,15,25001,1,1,376.5399,169.3852
1,11,7,4,2,2,A,G,b,y,5,15,25001,1,3,433.7779,230.6165
1,11,7,4,2,2,A,G,b,y,5,15,25001,1,1,562.896,258.5699
1,11,7,4,2,2,A,G,b,y,5,15,25001,1,3,512.3136,359.7346
1,11,7,4,2,2,A,G,b,y,5,15,25001,1,3,457.7379,341.099
1,11,7,4,2,2,A,G,b,y,5,15,25001,1,3,420.4667,367.7213
1,11,7,4,2,2,A,G,b,y,5,15,25001,1,1,468.3869,389.0191
1,11,7,4,2,2,A,G,b,y,5,15,25001,1,1,367.2221,394.3436
1,11,7,4,2,2,A,G,b,y,5,15,25001,1,1,361.8977,337.1057
1,11,7,4,2,2,A,G,b,y,5,15,25001,1,1,299.3353,318.47
1,11,7,4,2,2,A,G,b,y,5,15,25001,1,1,308.6531,462.2304
1,11,7,4,2,2,A,G,b,y,5,15,26001,1,1,240.7662,89.5183
1,11,7,4,2,2,A,G,b,y,5,15,26001,1,1,369.8844,176.0408
1,11,7,4,2,2,A,G,b,y,5,15,26001,1,1,396.5067,186.6897
1,11,7,4,2,2,A,G,b,y,5,15,26001,1,1,477.7047,182.6963
1,11,7,4,2,2,A,G,b,y,5,15,26001,1,3,379.2022,247.921
1,11,7,4,2,2,A,G,b,y,5,15,26001,1,3,461.7313,250.5832
1,11,7,4,2,2,A,G,b,y,5,15,26001,1,1,353.911,309.1522
1,11,7,4,2,2,A,G,b,y,5,15,26001,1,1,287.3552,314.4767
1,11,7,4,2,2,A,G,b,y,5,15,26001,1,1,301.9975,390.3502
1,11,7,4,2,2,A,G,b,y,5,15,26001,1,1,270.0507,483.5283
1,11,7,4,2,2,A,G,b,y,5,15,26001,1,3,425.7912,377.0391
1,11,7,4,2,2,A,G,b,y,5,15,26001,1,3,453.7446,337.1057
1,11,7,4,2,2,A,G,b,y,5,15,26001,1,1,480.3669,385.0258
1,11,7,4,2,2,A,G,b,y,5,15,27001,1,1,453.7446,120.1339
1,11,7,4,2,2,A,G,b,y,5,15,27001,1,1,247.4218,98.8361
1,11,7,4,2,2,A,G,b,y,5,15,27001,1,1,447.089,184.0275
1,11,7,4,2,2,A,G,b,y,5,15,27001,1,1,380.5333,230.6165
1,11,7,4,2,2,A,G,b,y,5,15,27001,1,1,344.5932,294.51
1,11,7,4,2,2,A,G,b,y,5,15,27001,1,1,294.0108,307.8211
1,11,7,4,2,2,A,G,b,y,5,15,27001,1,3,263.3952,323.7945
1,11,7,4,2,2,A,G,b,y,5,15,27001,1,1,279.3686,382.3636
1,11,7,4,2,2,A,G,b,y,5,15,27001,1,1,351.2488,390.3502
1,11,7,4,2,2,A,G,b,y,5,15,27001,1,3,415.1423,363.728
1,11,7,4,2,2,A,G,b,y,5,15,27001,1,3,455.0757,337.1057
1,11,7,4,2,2,A,G,b,y,5,15,27001,1,1,472.3802,394.3436
1,11,7,4,2,2,A,G,b,y,5,15,27001,1,3,476.3735,255.9077
1,11,7,4,2,2,A,G,b,y,5,15,28001,1,1,447.089,117.4717
1,11,7,4,2,2,A,G,b,y,5,15,28001,1,1,440.4334,168.0541
1,11,7,4,2,2,A,G,b,y,5,15,28001,1,1,248.7529,94.8428
1,11,7,4,2,2,A,G,b,y,5,15,28001,1,1,364.5599,247.921
1,11,7,4,2,2,A,G,b,y,5,15,28001,1,1,376.5399,298.5033
1,11,7,4,2,2,A,G,b,y,5,15,28001,1,1,287.3552,305.1589
1,11,7,4,2,2,A,G,b,y,5,15,28001,1,1,328.6198,407.6547
1,11,7,4,2,2,A,G,b,y,5,15,28001,1,1,369.8844,403.6614
1,11,7,4,2,2,A,G,b,y,5,15,28001,1,1,457.7379,391.6814
1,11,7,4,2,2,A,G,b,y,5,15,28001,1,3,460.4002,334.4434
1,11,7,4,2,2,A,G,b,y,5,15,28001,1,3,400.5,353.079
1,11,7,4,2,2,A,G,b,y,5,15,28001,1,3,313.9775,342.4301
1,11,7,4,2,2,A,G,b,y,5,15,28001,1,3,440.4334,251.9143
1,11,7,4,2,2,A,G,b,y,5,15,29001,1,1,271.3819,307.8211
1,11,7,4,2,2,A,G,b,y,5,15,29001,1,1,332.6131,275.8744
1,11,7,4,2,2,A,G,b,y,5,15,29001,1,3,381.8644,279.8677
1,11,7,4,2,2,A,G,b,y,5,15,29001,1,1,409.8178,319.8012
1,11,7,4,2,2,A,G,b,y,5,15,29001,1,1,439.1023,165.3918
1,11,7,4,2,2,A,G,b,y,5,15,29001,1,1,513.6448,168.0541
1,11,7,4,2,2,A,G,b,y,5,15,29001,1,3,315.3087,327.7879
1,11,7,4,2,2,A,G,b,y,5,15,29001,1,3,399.1689,369.0524
1,11,7,4,2,2,A,G,b,y,5,15,29001,1,3,443.0957,371.7146
1,11,7,4,2,2,A,G,b,y,5,15,29001,1,1,476.3735,370.3835
1,11,7,4,2,2,A,G,b,y,5,15,29001,1,1,337.9376,386.3569
1,11,7,4,2,2,A,G,b,y,5,15,29001,1,1,364.5599,454.2438
1,11,7,4,2,2,A,G,b,y,5,15,30001,1,1,452.4135,176.0408
1,11,7,4,2,2,A,G,b,y,5,15,30001,1,1,509.6514,197.3386
1,11,7,4,2,2,A,G,b,y,5,15,30001,1,1,343.2621,266.5566
1,11,7,4,2,2,A,G,b,y,5,15,30001,1,1,292.6797,305.1589
1,11,7,4,2,2,A,G,b,y,5,15,30001,1,3,340.5998,299.8344
1,11,7,4,2,2,A,G,b,y,5,15,30001,1,3,373.8777,335.7745
1,11,7,4,2,2,A,G,b,y,5,15,30001,1,1,432.4468,314.4767
1,11,7,4,2,2,A,G,b,y,5,15,30001,1,1,472.3802,349.0857
1,11,7,4,2,2,A,G,b,y,5,15,30001,1,3,393.8444,363.728
1,11,7,4,2,2,A,G,b,y,5,15,30001,1,3,443.0957,391.6814
1,11,7,4,2,2,A,G,b,y,5,15,30001,1,1,341.9309,394.3436
1,11,7,4,2,2,A,G,b,y,5,15,30001,1,1,365.891,492.8461
1,11,7,4,2,2,A,G,b,y,5,15,31001,1,1,427.1223,181.3652
1,11,7,4,2,2,A,G,b,y,5,15,31001,1,1,364.5599,254.5765
1,11,7,4,2,2,A,G,b,y,5,15,31001,1,1,505.6581,261.2321
1,11,7,4,2,2,A,G,b,y,5,15,31001,1,1,484.3602,302.4967
1,11,7,4,2,2,A,G,b,y,5,15,31001,1,1,432.4468,322.4634
1,11,7,4,2,2,A,G,b,y,5,15,31001,1,1,287.3552,321.1323
1,11,7,4,2,2,A,G,b,y,5,15,31001,1,3,357.9043,302.4967
1,11,7,4,2,2,A,G,b,y,5,15,31001,1,3,377.871,337.1057
1,11,7,4,2,2,A,G,b,y,5,15,31001,1,3,405.8245,361.0657
1,11,7,4,2,2,A,G,b,y,5,15,31001,1,3,468.3869,386.3569
1,11,7,4,2,2,A,G,b,y,5,15,31001,1,1,351.2488,410.317
1,11,7,4,2,2,A,G,b,y,5,15,31001,1,1,369.8844,499.5017
1,11,7,4,2,2,A,G,b,y,5,15,32001,1,1,413.8111,176.0408
1,11,7,4,2,2,A,G,b,y,5,15,32001,1,1,411.1489,243.9276
1,11,7,4,2,2,A,G,b,y,5,15,32001,1,1,456.4068,251.9143
1,11,7,4,2,2,A,G,b,y,5,15,32001,1,1,437.7712,325.1256
1,11,7,4,2,2,A,G,b,y,5,15,32001,1,1,487.0225,319.8012
1,11,7,4,2,2,A,G,b,y,5,15,32001,1,1,287.3552,321.1323
1,11,7,4,2,2,A,G,b,y,5,15,32001,1,1,333.9443,403.6614
1,11,7,4,2,2,A,G,b,y,5,15,32001,1,1,360.5666,498.1705
1,11,7,4,2,2,A,G,b,y,5,15,32001,1,3,347.2554,302.4967
1,11,7,4,2,2,A,G,b,y,5,15,32001,1,3,380.5333,281.1988
1,11,7,4,2,2,A,G,b,y,5,15,32001,1,3,411.1489,357.0724
1,11,7,4,2,2,A,G,b,y,5,15,32001,1,3,457.7379,379.7013
1,11,7,4,2,2,A,G,b,y,5,15,33001,1,1,423.129,182.6963
1,11,7,4,2,2,A,G,b,y,5,15,33001,1,1,541.5982,211.9809
1,11,7,4,2,2,A,G,b,y,5,15,33001,1,1,525.6248,258.5699
1,11,7,4,2,2,A,G,b,y,5,15,33001,1,1,499.0025,315.8078
1,11,7,4,2,2,A,G,b,y,5,15,33001,1,1,439.1023,325.1256
1,11,7,4,2,2,A,G,b,y,5,15,33001,1,3,381.8644,269.2188
1,11,7,4,2,2,A,G,b,y,5,15,33001,1,3,408.4867,345.0923
1,11,7,4,2,2,A,G,b,y,5,15,33001,1,3,457.7379,378.3702
1,11,7,4,2,2,A,G,b,y,5,15,33001,1,3,331.282,331.7812
1,11,7,4,2,2,A,G,b,y,5,15,33001,1,1,287.3552,313.1456
1,11,7,4,2,2,A,G,b,y,5,15,33001,1,1,340.5998,398.3369
1,11,7,4,2,2,A,G,b,y,5,15,33001,1,1,361.8977,487.5216
1,11,7,4,2,2,A,G,b,y,5,15,33001,1,1,266.0574,506.1572
1,11,7,4,2,2,A,G,b,y,5,15,34001,1,1,340.5998,218.6364
1,11,7,4,2,2,A,G,b,y,5,15,34001,1,1,286.0241,321.1323
1,11,7,4,2,2,A,G,b,y,5,15,34001,1,3,327.2887,299.8344
1,11,7,4,2,2,A,G,b,y,5,15,34001,1,3,416.4734,241.2654
1,11,7,4,2,2,A,G,b,y,5,15,34001,1,1,443.0957,319.8012
1,11,7,4,2,2,A,G,b,y,5,15,34001,1,1,501.6647,321.1323
1,11,7,4,2,2,A,G,b,y,5,15,34001,1,1,514.9759,263.8943
1,11,7,4,2,2,A,G,b,y,5,15,34001,1,1,532.2804,231.9476
1,11,7,4,2,2,A,G,b,y,5,15,34001,1,3,469.718,383.6947
1,11,7,4,2,2,A,G,b,y,5,15,34001,1,3,419.1356,366.3902
1,11,7,4,2,2,A,G,b,y,5,15,34001,1,1,351.2488,406.3236
1,11,7,4,2,2,A,G,b,y,5,15,34001,1,1,283.3619,318.47
1,11,7,4,2,2,A,G,b,y,5,15,34001,1,1,291.3486,422.297
1,11,7,4,2,2,A,G,b,y,5,15,34001,1,1,352.5799,490.1839
1,11,7,4,2,2,A,G,b,y,5,15,35001,1,1,537.6048,188.0208
1,11,7,4,2,2,A,G,b,y,5,15,35001,1,1,313.9775,184.0275
1,11,7,4,2,2,A,G,b,y,5,15,35001,1,1,508.3203,263.8943
1,11,7,4,2,2,A,G,b,y,5,15,35001,1,1,425.7912,318.47
1,11,7,4,2,2,A,G,b,y,5,15,35001,1,1,489.6847,334.4434
1,11,7,4,2,2,A,G,b,y,5,15,35001,1,3,449.7512,242.5965
1,11,7,4,2,2,A,G,b,y,5,15,35001,1,3,381.8644,261.2321
1,11,7,4,2,2,A,G,b,y,5,15,35001,1,3,383.1955,359.7346
1,11,7,4,2,2,A,G,b,y,5,15,35001,1,3,469.718,378.3702
1,11,7,4,2,2,A,G,b,y,5,15,35001,1,1,304.6597,367.7213
1,11,7,4,2,2,A,G,b,y,5,15,35001,1,1,296.673,404.9925
1,11,7,4,2,2,A,G,b,y,5,15,35001,1,1,353.911,400.9992
1,11,7,4,2,2,A,G,b,y,5,15,35001,1,1,360.5666,484.8594
1,11,7,4,2,2,A,G,b,y,5,15,36001,1,1,467.0557,102.8295
1,11,7,4,2,2,A,G,b,y,5,15,36001,1,1,312.6464,181.3652
1,11,7,4,2,2,A,G,b,y,5,15,36001,1,3,485.6913,182.6963
1,11,7,4,2,2,A,G,b,y,5,15,36001,1,3,441.7646,246.5899
1,11,7,4,2,2,A,G,b,y,5,15,36001,1,1,431.1156,317.1389
1,11,7,4,2,2,A,G,b,y,5,15,36001,1,1,499.0025,274.5433
1,11,7,4,2,2,A,G,b,y,5,15,36001,1,1,512.3136,259.901
1,11,7,4,2,2,A,G,b,y,5,15,36001,1,3,448.4201,363.728
1,11,7,4,2,2,A,G,b,y,5,15,36001,1,3,376.5399,357.0724
1,11,7,4,2,2,A,G,b,y,5,15,36001,1,1,299.3353,362.3968
1,11,7,4,2,2,A,G,b,y,5,15,36001,1,1,323.2953,393.0125
1,11,7,4,2,2,A,G,b,y,5,15,36001,1,1,344.5932,446.2571
1,11,7,4,2,2,A,G,b,y,5,15,36001,1,1,352.5799,500.8328
1,11,7,4,2,2,A,G,b,y,5,15,37001,1,1,308.6531,172.0474
1,11,7,4,2,2,A,G,b,y,5,15,37001,1,1,445.7579,150.7496
1,11,7,4,2,2,A,G,b,y,5,15,37001,1,3,384.5266,234.6098
1,11,7,4,2,2,A,G,b,y,5,15,37001,1,3,452.4135,246.5899
1,11,7,4,2,2,A,G,b,y,5,15,37001,1,1,502.9958,255.9077
1,11,7,4,2,2,A,G,b,y,5,15,37001,1,1,499.0025,327.7879
1,11,7,4,2,2,A,G,b,y,5,15,37001,1,1,431.1156,321.1323
1,11,7,4,2,2,A,G,b,y,5,15,37001,1,3,384.5266,317.1389
1,11,7,4,2,2,A,G,b,y,5,15,37001,1,3,463.0624,377.0391
1,11,7,4,2,2,A,G,b,y,5,15,37001,1,1,286.0241,366.3902
1,11,7,4,2,2,A,G,b,y,5,15,37001,1,1,387.1889,354.4101
1,11,7,4,2,2,A,G,b,y,5,15,37001,1,1,387.1889,406.3236
1,11,7,4,2,2,A,G,b,y,5,15,37001,1,1,352.5799,491.515
1,11,7,4,2,2,A,G,b,y,5,15,38001,1,1,321.9642,161.3985
1,11,7,4,2,2,A,G,b,y,5,15,38001,1,1,413.8111,170.7163
1,11,7,4,2,2,A,G,b,y,5,15,38001,1,3,439.1023,227.9542
1,11,7,4,2,2,A,G,b,y,5,15,38001,1,1,509.6514,253.2454
1,11,7,4,2,2,A,G,b,y,5,15,38001,1,1,493.678,323.7945
1,11,7,4,2,2,A,G,b,y,5,15,38001,1,1,435.109,321.1323
1,11,7,4,2,2,A,G,b,y,5,15,38001,1,3,364.5599,305.1589
1,11,7,4,2,2,A,G,b,y,5,15,38001,1,3,343.2621,270.5499
1,11,7,4,2,2,A,G,b,y,5,15,38001,1,3,448.4201,354.4101
1,11,7,4,2,2,A,G,b,y,5,15,38001,1,1,340.5998,347.7546
1,11,7,4,2,2,A,G,b,y,5,15,38001,1,1,305.9908,361.0657
1,11,7,4,2,2,A,G,b,y,5,15,38001,1,1,413.8111,399.6681
1,11,7,4,2,2,A,G,b,y,5,15,38001,1,1,356.5732,484.8594
1,11,7,4,2,2,A,G,b,y,5,15,39001,1,1,316.6398,174.7097
1,11,7,4,2,2,A,G,b,y,5,15,39001,1,1,407.1556,178.703
1,11,7,4,2,2,A,G,b,y,5,15,39001,1,3,352.5799,254.5765
1,11,7,4,2,2,A,G,b,y,5,15,39001,1,3,435.109,242.5965
1,11,7,4,2,2,A,G,b,y,5,15,39001,1,1,504.327,254.5765
1,11,7,4,2,2,A,G,b,y,5,15,39001,1,1,481.698,327.7879
1,11,7,4,2,2,A,G,b,y,5,15,39001,1,1,420.4667,325.1256
1,11,7,4,2,2,A,G,b,y,5,15,39001,1,3,356.5732,301.1656
1,11,7,4,2,2,A,G,b,y,5,15,39001,1,3,440.4334,354.4101
1,11,7,4,2,2,A,G,b,y,5,15,39001,1,1,449.7512,398.3369
1,11,7,4,2,2,A,G,b,y,5,15,39001,1,1,341.9309,382.3636
1,11,7,4,2,2,A,G,b,y,5,15,39001,1,1,286.0241,358.4035
1,11,7,4,2,2,A,G,b,y,5,15,39001,1,1,349.9176,478.2038
1,11,7,4,2,2,A,G,b,y,5,15,40001,1,1,312.6464,172.0474
1,11,7,4,2,2,A,G,b,y,5,15,40001,1,1,424.4601,178.703
1,11,7,4,2,2,A,G,b,y,5,15,40001,1,1,504.327,253.2454
1,11,7,4,2,2,A,G,b,y,5,15,40001,1,1,492.3469,317.1389
1,11,7,4,2,2,A,G,b,y,5,15,40001,1,3,409.8178,314.4767
1,11,7,4,2,2,A,G,b,y,5,15,40001,1,3,441.7646,269.2188
1,11,7,4,2,2,A,G,b,y,5,15,40001,1,3,375.2088,282.53
1,11,7,4,2,2,A,G,b,y,5,15,40001,1,1,387.1889,349.0857
1,11,7,4,2,2,A,G,b,y,5,15,40001,1,3,447.089,361.0657
1,11,7,4,2,2,A,G,b,y,5,15,40001,1,1,449.7512,400.9992
1,11,7,4,2,2,A,G,b,y,5,15,40001,1,1,344.5932,383.6947
1,11,7,4,2,2,A,G,b,y,5,15,40001,1,1,282.0308,354.4101
1,11,7,4,2,2,A,G,b,y,5,15,40001,1,1,349.9176,486.1905
1,11,7,4,2,2,A,G,b,y,5,15,41001,1,1,311.3153,181.3652
1,11,7,4,2,2,A,G,b,y,5,15,41001,1,1,420.4667,178.703
1,11,7,4,2,2,A,G,b,y,5,15,41001,1,1,525.6248,258.5699
1,11,7,4,2,2,A,G,b,y,5,15,41001,1,3,464.3935,251.9143
1,11,7,4,2,2,A,G,b,y,5,15,41001,1,1,492.3469,301.1656
1,11,7,4,2,2,A,G,b,y,5,15,41001,1,3,463.0624,339.7679
1,11,7,4,2,2,A,G,b,y,5,15,41001,1,3,437.7712,359.7346
1,11,7,4,2,2,A,G,b,y,5,15,41001,1,1,443.0957,398.3369
1,11,7,4,2,2,A,G,b,y,5,15,41001,1,1,389.8511,341.099
1,11,7,4,2,2,A,G,b,y,5,15,41001,1,3,336.6065,291.8478
1,11,7,4,2,2,A,G,b,y,5,15,41001,1,1,270.0507,339.7679
1,11,7,4,2,2,A,G,b,y,5,15,41001,1,1,328.6198,371.7146
1,11,7,4,2,2,A,G,b,y,5,15,41001,1,1,351.2488,490.1839
1,11,7,4,2,2,A,G,b,y,5,15,42001,1,1,401.8311,189.3519
1,11,7,4,2,2,A,G,b,y,5,15,42001,1,3,445.7579,215.9742
1,11,7,4,2,2,A,G,b,y,5,15,42001,1,1,540.2671,255.9077
1,11,7,4,2,2,A,G,b,y,5,15,42001,1,1,504.327,301.1656
1,11,7,4,2,2,A,G,b,y,5,15,42001,1,3,468.3869,338.4368
1,11,7,4,2,2,A,G,b,y,5,15,42001,1,3,447.089,366.3902
1,11,7,4,2,2,A,G,b,y,5,15,42001,1,1,451.0824,404.9925
1,11,7,4,2,2,A,G,b,y,5,15,42001,1,1,407.1556,339.7679
1,11,7,4,2,2,A,G,b,y,5,15,42001,1,1,341.9309,270.5499
1,11,7,4,2,2,A,G,b,y,5,15,42001,1,3,292.6797,255.9077
1,11,7,4,2,2,A,G,b,y,5,15,42001,1,1,278.0374,351.7479
1,11,7,4,2,2,A,G,b,y,5,15,42001,1,1,321.9642,382.3636
1,11,7,4,2,2,A,G,b,y,5,15,42001,1,1,355.2421,483.5283
1,11,7,4,2,2,A,G,b,y,5,15,43001,1,1,530.9493,271.881
1,11,7,4,2,2,A,G,b,y,5,15,43001,1,1,505.6581,313.1456
1,11,7,4,2,2,A,G,b,y,5,15,43001,1,3,465.7246,207.9875
1,11,7,4,2,2,A,G,b,y,5,15,43001,1,1,416.4734,202.6631
1,11,7,4,2,2,A,G,b,y,5,15,43001,1,3,481.698,353.079
1,11,7,4,2,2,A,G,b,y,5,15,43001,1,3,433.7779,337.1057
1,11,7,4,2,2,A,G,b,y,5,15,43001,1,1,448.4201,397.0058
1,11,7,4,2,2,A,G,b,y,5,15,43001,1,1,377.871,327.7879
1,11,7,4,2,2,A,G,b,y,5,15,43001,1,1,313.9775,310.4834
1,11,7,4,2,2,A,G,b,y,5,15,43001,1,1,268.7196,333.1123
1,11,7,4,2,2,A,G,b,y,5,15,43001,1,1,327.2887,371.7146
1,11,7,4,2,2,A,G,b,y,5,15,43001,1,3,280.6997,263.8943
1,11,7,4,2,2,A,G,b,y,5,15,43001,1,1,351.2488,484.8594
1,11,7,4,2,2,A,G,b,y,5,15,44001,1,1,431.1156,172.0474
1,11,7,4,2,2,A,G,b,y,5,15,44001,1,3,463.0624,210.6498
1,11,7,4,2,2,A,G,b,y,5,15,44001,1,1,537.6048,263.8943
1,11,7,4,2,2,A,G,b,y,5,15,44001,1,1,513.6448,313.1456
1,11,7,4,2,2,A,G,b,y,5,15,44001,1,3,480.3669,350.4168
1,11,7,4,2,2,A,G,b,y,5,15,44001,1,3,445.7579,354.4101
1,11,7,4,2,2,A,G,b,y,5,15,44001,1,1,392.5133,310.4834
1,11,7,4,2,2,A,G,b,y,5,15,44001,1,1,388.52,253.2454
1,11,7,4,2,2,A,G,b,y,5,15,44001,1,1,459.0691,404.9925
1,11,7,4,2,2,A,G,b,y,5,15,44001,1,1,332.6131,374.3769
1,11,7,4,2,2,A,G,b,y,5,15,44001,1,1,252.7463,333.1123
1,11,7,4,2,2,A,G,b,y,5,15,44001,1,1,340.5998,488.8527
1,11,7,4,2,2,A,G,b,y,5,15,44001,1,3,284.693,269.2188
1,11,7,4,2,2,A,G,b,y,5,15,45001,1,1,404.4933,76.2072
1,11,7,4,2,2,A,G,b,y,5,15,45001,1,3,467.0557,203.9942
1,11,7,4,2,2,A,G,b,y,5,15,45001,1,1,546.9226,261.2321
1,11,7,4,2,2,A,G,b,y,5,15,45001,1,1,473.7113,253.2454
1,11,7,4,2,2,A,G,b,y,5,15,45001,1,1,501.6647,318.47
1,11,7,4,2,2,A,G,b,y,5,15,45001,1,3,475.0424,361.0657
1,11,7,4,2,2,A,G,b,y,5,15,45001,1,3,447.089,351.7479
1,11,7,4,2,2,A,G,b,y,5,15,45001,1,3,283.3619,267.8877
1,11,7,4,2,2,A,G,b,y,5,15,45001,1,1,352.5799,287.8544
1,11,7,4,2,2,A,G,b,y,5,15,45001,1,1,432.4468,391.6814
1,11,7,4,2,2,A,G,b,y,5,15,45001,1,1,327.2887,370.3835
1,11,7,4,2,2,A,G,b,y,5,15,45001,1,1,251.4151,330.4501
1,11,7,4,2,2,A,G,b,y,5,15,45001,1,1,345.9243,476.8727
1,11,7,4,2,2,A,G,b,y,5,15,46001,1,1,327.2887,109.485
1,11,7,4,2,2,A,G,b,y,5,15,46001,1,3,419.1356,189.3519
1,11,7,4,2,2,A,G,b,y,5,15,46001,1,1,477.7047,263.8943
1,11,7,4,2,2,A,G,b,y,5,15,46001,1,1,532.2804,266.5566
1,11,7,4,2,2,A,G,b,y,5,15,46001,1,1,541.5982,330.4501
1,11,7,4,2,2,A,G,b,y,5,15,46001,1,1,376.5399,273.2121
1,11,7,4,2,2,A,G,b,y,5,15,46001,1,3,284.693,261.2321
1,11,7,4,2,2,A,G,b,y,5,15,46001,1,3,423.129,337.1057
1,11,7,4,2,2,A,G,b,y,5,15,46001,1,3,473.7113,365.0591
1,11,7,4,2,2,A,G,b,y,5,15,46001,1,1,464.3935,402.3303
1,11,7,4,2,2,A,G,b,y,5,15,46001,1,1,324.6265,378.3702
1,11,7,4,2,2,A,G,b,y,5,15,46001,1,1,256.7396,323.7945
1,11,7,4,2,2,A,G,b,y,5,15,46001,1,1,351.2488,476.8727
1,11,7,4,2,2,A,G,b,y,5,15,47001,1,1,311.3153,116.1406
1,11,7,4,2,2,A,G,b,y,5,15,47001,1,3,360.5666,142.7629
1,11,7,4,2,2,A,G,b,y,5,15,47001,1,1,451.0824,198.6697
1,11,7,4,2,2,A,G,b,y,5,15,47001,1,1,528.287,261.2321
1,11,7,4,2,2,A,G,b,y,5,15,47001,1,1,534.9426,331.7812
1,11,7,4,2,2,A,G,b,y,5,15,47001,1,1,385.8577,269.2188
1,11,7,4,2,2,A,G,b,y,5,15,47001,1,3,283.3619,259.901
1,11,7,4,2,2,A,G,b,y,5,15,47001,1,3,423.129,351.7479
1,11,7,4,2,2,A,G,b,y,5,15,47001,1,3,484.3602,370.3835
1,11,7,4,2,2,A,G,b,y,5,15,47001,1,1,255.4085,333.1123
1,11,7,4,2,2,A,G,b,y,5,15,47001,1,1,327.2887,359.7346
1,11,7,4,2,2,A,G,b,y,5,15,47001,1,1,416.4734,439.6015
1,11,7,4,2,2,A,G,b,y,5,15,47001,1,1,352.5799,476.8727
1,11,7,4,2,2,A,G,b,y,5,15,48001,1,1,352.5799,109.485
1,11,7,4,2,2,A,G,b,y,5,15,48001,1,1,324.6265,138.7696
1,11,7,4,2,2,A,G,b,y,5,15,48001,1,3,399.1689,169.3852
1,11,7,4,2,2,A,G,b,y,5,15,48001,1,1,403.1622,266.5566
1,11,7,4,2,2,A,G,b,y,5,15,48001,1,1,526.9559,266.5566
1,11,7,4,2,2,A,G,b,y,5,15,48001,1,1,540.2671,334.4434
1,11,7,4,2,2,A,G,b,y,5,15,48001,1,3,477.7047,354.4101
1,11,7,4,2,2,A,G,b,y,5,15,48001,1,3,412.48,371.7146
1,11,7,4,2,2,A,G,b,y,5,15,48001,1,3,276.7063,269.2188
1,11,7,4,2,2,A,G,b,y,5,15,48001,1,1,263.3952,321.1323
1,11,7,4,2,2,A,G,b,y,5,15,48001,1,1,340.5998,359.7346
1,11,7,4,2,2,A,G,b,y,5,15,48001,1,1,324.6265,474.2105
1,11,7,4,2,2,A,G,b,y,5,15,48001,1,1,396.5067,434.277
1,11,7,4,2,2,A,G,b,y,5,15,49001,1,1,336.6065,124.1273
1,11,7,4,2,2,A,G,b,y,5,15,49001,1,1,244.7596,235.9409
1,11,7,4,2,2,A,G,b,y,5,15,49001,1,3,279.3686,261.2321
1,11,7,4,2,2,A,G,b,y,5,15,49001,1,1,456.4068,205.3253
1,11,7,4,2,2,A,G,b,y,5,15,49001,1,3,502.9958,193.3453
1,11,7,4,2,2,A,G,b,y,5,15,49001,1,1,432.4468,303.8278
1,11,7,4,2,2,A,G,b,y,5,15,49001,1,1,522.9626,271.881
1,11,7,4,2,2,A,G,b,y,5,15,49001,1,1,536.2737,322.4634
1,11,7,4,2,2,A,G,b,y,5,15,49001,1,3,463.0624,370.3835
1,11,7,4,2,2,A,G,b,y,5,15,49001,1,3,432.4468,366.3902
1,11,7,4,2,2,A,G,b,y,5,15,49001,1,1,395.1755,412.9792
1,11,7,4,2,2,A,G,b,y,5,15,49001,1,1,324.6265,381.0324
1,11,7,4,2,2,A,G,b,y,5,15,49001,1,1,321.9642,450.2504
1,11,7,4,2,2,A,G,b,y,5,15,50001,1,1,332.6131,98.8361
1,11,7,4,2,2,A,G,b,y,5,15,50001,1,1,369.8844,125.4584
1,11,7,4,2,2,A,G,b,y,5,15,50001,1,1,417.8045,158.7363
1,11,7,4,2,2,A,G,b,y,5,15,50001,1,1,441.7646,245.2587
1,11,7,4,2,2,A,G,b,y,5,15,50001,1,1,517.6381,262.5632
1,11,7,4,2,2,A,G,b,y,5,15,50001,1,1,513.6448,317.1389
1,11,7,4,2,2,A,G,b,y,5,15,50001,1,3,558.9027,321.1323
1,11,7,4,2,2,A,G,b,y,5,15,50001,1,3,464.3935,408.9859
1,11,7,4,2,2,A,G,b,y,5,15,50001,1,3,428.4534,354.4101
1,11,7,4,2,2,A,G,b,y,5,15,50001,1,3,284.693,263.8943
1,11,7,4,2,2,A,G,b,y,5,15,50001,1,1,255.4085,391.6814
1,11,7,4,2,2,A,G,b,y,5,15,50001,1,1,304.6597,341.099
1,11,7,4,2,2,A,G,b,y,5,15,50001,1,1,409.8178,419.6348
1,11,7,4,2,2,A,G,b,y,5,15,51001,1,1,372.5466,81.5316
1,11,7,4,2,2,A,G,b,y,5,15,51001,1,1,431.1156,102.8295
1,11,7,4,2,2,A,G,b,y,5,15,51001,1,1,364.5599,241.2654
1,11,7,4,2,2,A,G,b,y,5,15,51001,1,1,421.7978,245.2587
1,11,7,4,2,2,A,G,b,y,5,15,51001,1,1,529.6181,246.5899
1,11,7,4,2,2,A,G,b,y,5,15,51001,1,1,485.6913,334.4434
1,11,7,4,2,2,A,G,b,y,5,15,51001,1,1,320.6331,315.8078
1,11,7,4,2,2,A,G,b,y,5,15,51001,1,1,247.4218,305.1589
1,11,7,4,2,2,A,G,b,y,5,15,51001,1,3,284.693,265.2255
1,11,7,4,2,2,A,G,b,y,5,15,51001,1,3,408.4867,361.0657
1,11,7,4,2,2,A,G,b,y,5,15,51001,1,3,451.0824,378.3702
1,11,7,4,2,2,A,G,b,y,5,15,51001,1,3,554.9093,350.4168
1,11,7,4,2,2,A,G,b,y,5,15,51001,1,1,521.6314,467.5549
1,11,7,4,2,2,A,G,b,y,5,15,52001,1,1,433.7779,102.8295
1,11,7,4,2,2,A,G,b,y,5,15,52001,1,1,604.1606,265.2255
1,11,7,4,2,2,A,G,b,y,5,15,52001,1,1,525.6248,243.9276
1,11,7,4,2,2,A,G,b,y,5,15,52001,1,1,432.4468,238.6032
1,11,7,4,2,2,A,G,b,y,5,15,52001,1,1,355.2421,203.9942
1,11,7,4,2,2,A,G,b,y,5,15,52001,1,1,467.0557,279.8677
1,11,7,4,2,2,A,G,b,y,5,15,52001,1,3,560.2338,338.4368
1,11,7,4,2,2,A,G,b,y,5,15,52001,1,3,384.5266,335.7745
1,11,7,4,2,2,A,G,b,y,5,15,52001,1,3,276.7063,266.5566
1,11,7,4,2,2,A,G,b,y,5,15,52001,1,1,319.302,289.1855
1,11,7,4,2,2,A,G,b,y,5,15,52001,1,1,324.6265,350.4168
1,11,7,4,2,2,A,G,b,y,5,15,52001,1,3,408.4867,382.3636
1,11,7,4,2,2,A,G,b,y,5,15,52001,1,1,521.6314,472.8794
1,11,7,4,2,2,A,G,b,y,5,15,53001,1,1,425.7912,102.8295
1,11,7,4,2,2,A,G,b,y,5,15,53001,1,1,234.1106,245.2587
1,11,7,4,2,2,A,G,b,y,5,15,53001,1,1,337.9376,271.881
1,11,7,4,2,2,A,G,b,y,5,15,53001,1,1,437.7712,234.6098
1,11,7,4,2,2,A,G,b,y,5,15,53001,1,1,452.4135,265.2255
1,11,7,4,2,2,A,G,b,y,5,15,53001,1,1,518.9692,250.5832
1,11,7,4,2,2,A,G,b,y,5,15,53001,1,1,654.7429,286.5233
1,11,7,4,2,2,A,G,b,y,5,15,53001,1,1,614.8095,407.6547
1,11,7,4,2,2,A,G,b,y,5,15,53001,1,1,532.2804,466.2238
1,11,7,4,2,2,A,G,b,y,5,15,53001,1,1,344.5932,427.6215
1,11,7,4,2,2,A,G,b,y,5,15,53001,1,3,295.3419,302.4967
1,11,7,4,2,2,A,G,b,y,5,15,53001,1,3,355.2421,319.8012
1,11,7,4,2,2,A,G,b,y,5,15,53001,1,3,411.1489,379.7013
1,11,7,4,2,2,A,G,b,y,5,15,53001,1,3,554.9093,363.728
1,11,7,4,2,2,A,G,b,y,5,15,54001,1,1,428.4534,101.4983
1,11,7,4,2,2,A,G,b,y,5,15,54001,1,1,320.6331,113.4784
1,11,7,4,2,2,A,G,b,y,5,15,54001,1,1,123.6281,313.1456
1,11,7,4,2,2,A,G,b,y,5,15,54001,1,1,449.7512,249.2521
1,11,7,4,2,2,A,G,b,y,5,15,54001,1,1,516.307,253.2454
1,11,7,4,2,2,A,G,b,y,5,15,54001,1,1,604.1606,259.901
1,11,7,4,2,2,A,G,b,y,5,15,54001,1,1,582.8627,325.1256
1,11,7,4,2,2,A,G,b,y,5,15,54001,1,1,436.4401,330.4501
1,11,7,4,2,2,A,G,b,y,5,15,54001,1,1,405.8245,427.6215
1,11,7,4,2,2,A,G,b,y,5,15,54001,1,1,415.1423,498.1705
1,11,7,4,2,2,A,G,b,y,5,15,54001,1,3,282.0308,306.49
1,11,7,4,2,2,A,G,b,y,5,15,54001,1,3,363.2288,319.8012
1,11,7,4,2,2,A,G,b,y,5,15,54001,1,3,420.4667,381.0324
1,11,7,4,2,2,A,G,b,y,5,15,54001,1,3,538.9359,309.1522
1,11,7,4,2,2,A,G,b,y,5,15,55001,1,1,240.7662,110.8161
1,11,7,4,2,2,A,G,b,y,5,15,55001,1,1,427.1223,102.8295
1,11,7,4,2,2,A,G,b,y,5,15,55001,1,1,420.4667,210.6498
1,11,7,4,2,2,A,G,b,y,5,15,55001,1,1,508.3203,209.3186
1,11,7,4,2,2,A,G,b,y,5,15,55001,1,1,558.9027,245.2587
1,11,7,4,2,2,A,G,b,y,5,15,55001,1,1,594.8428,362.3968
1,11,7,4,2,2,A,G,b,y,5,15,55001,1,1,441.7646,326.4567
1,11,7,4,2,2,A,G,b,y,5,15,55001,1,1,395.1755,436.9393
1,11,7,4,2,2,A,G,b,y,5,15,55001,1,1,375.2088,519.4684
1,11,7,4,2,2,A,G,b,y,5,15,55001,1,1,131.6148,319.8012
1,11,7,4,2,2,A,G,b,y,5,15,55001,1,3,274.0441,295.8411
1,11,7,4,2,2,A,G,b,y,5,15,55001,1,3,367.2221,318.47
1,11,7,4,2,2,A,G,b,y,5,15,55001,1,3,429.7845,410.317
1,11,7,4,2,2,A,G,b,y,5,15,55001,1,3,518.9692,326.4567
1,11,7,4,2,2,A,G,b,y,5,15,56001,1,1,431.1156,104.1606
1,11,7,4,2,2,A,G,b,y,5,15,56001,1,1,203.495,160.0674
1,11,7,4,2,2,A,G,b,y,5,15,56001,1,1,118.3037,305.1589
1,11,7,4,2,2,A,G,b,y,5,15,56001,1,1,411.1489,221.2987
1,11,7,4,2,2,A,G,b,y,5,15,56001,1,1,518.9692,225.292
1,11,7,4,2,2,A,G,b,y,5,15,56001,1,1,564.2271,259.901
1,11,7,4,2,2,A,G,b,y,5,15,56001,1,1,427.1223,357.0724
1,11,7,4,2,2,A,G,b,y,5,15,56001,1,1,469.718,393.0125
1,11,7,4,2,2,A,G,b,y,5,15,56001,1,1,550.916,397.0058
1,11,7,4,2,2,A,G,b,y,5,15,56001,1,1,353.911,512.8128
1,11,7,4,2,2,A,G,b,y,5,15,56001,1,3,449.7512,442.2637
1,11,7,4,2,2,A,G,b,y,5,15,56001,1,3,379.2022,326.4567
1,11,7,4,2,2,A,G,b,y,5,15,56001,1,3,279.3686,301.1656
1,11,7,4,2,2,A,G,b,y,5,15,56001,1,3,497.6714,325.1256
1,11,7,4,2,2,A,G,b,y,5,15,57001,1,1,138.2704,373.0458
1,11,7,4,2,2,A,G,b,y,5,15,57001,1,1,172.8794,211.9809
1,11,7,4,2,2,A,G,b,y,5,15,57001,1,1,243.4285,379.7013
1,11,7,4,2,2,A,G,b,y,5,15,57001,1,3,279.3686,299.8344
1,11,7,4,2,2,A,G,b,y,5,15,57001,1,3,343.2621,318.47
1,11,7,4,2,2,A,G,b,y,5,15,57001,1,3,467.0557,370.3835
1,11,7,4,2,2,A,G,b,y,5,15,57001,1,1,516.307,418.3037
1,11,7,4,2,2,A,G,b,y,5,15,57001,1,1,484.3602,341.099
1,11,7,4,2,2,A,G,b,y,5,15,57001,1,1,413.8111,290.5166
1,11,7,4,2,2,A,G,b,y,5,15,57001,1,1,407.1556,242.5965
1,11,7,4,2,2,A,G,b,y,5,15,57001,1,3,463.0624,258.5699
1,11,7,4,2,2,A,G,b,y,5,15,57001,1,1,493.678,201.3319
1,11,7,4,2,2,A,G,b,y,5,15,57001,1,1,546.9226,246.5899
1,11,7,4,2,2,A,G,b,y,5,15,57001,1,1,424.4601,97.505
1,11,7,4,2,2,A,G,b,y,5,15,58001,1,1,256.7396,353.079
1,11,7,4,2,2,A,G,b,y,5,15,58001,1,1,196.8394,146.7562
1,11,7,4,2,2,A,G,b,y,5,15,58001,1,3,278.0374,293.1789
1,11,7,4,2,2,A,G,b,y,5,15,58001,1,3,364.5599,318.47
1,11,7,4,2,2,A,G,b,y,5,15,58001,1,1,383.1955,247.921
1,11,7,4,2,2,A,G,b,y,5,15,58001,1,3,447.089,230.6165
1,11,7,4,2,2,A,G,b,y,5,15,58001,1,1,467.0557,153.4118
1,11,7,4,2,2,A,G,b,y,5,15,58001,1,1,423.129,105.4917
1,11,7,4,2,2,A,G,b,y,5,15,58001,1,1,552.2471,250.5832
1,11,7,4,2,2,A,G,b,y,5,15,58001,1,1,481.698,279.8677
1,11,7,4,2,2,A,G,b,y,5,15,58001,1,1,473.7113,347.7546
1,11,7,4,2,2,A,G,b,y,5,15,58001,1,3,463.0624,373.0458
1,11,7,4,2,2,A,G,b,y,5,15,58001,1,1,455.0757,428.9526
1,11,7,4,2,2,A,G,b,y,5,15,59001,1,1,417.8045,106.8228
1,11,7,4,2,2,A,G,b,y,5,15,59001,1,1,456.4068,150.7496
1,11,7,4,2,2,A,G,b,y,5,15,59001,1,1,360.5666,198.6697
1,11,7,4,2,2,A,G,b,y,5,15,59001,1,3,461.7313,227.9542
1,11,7,4,2,2,A,G,b,y,5,15,59001,1,1,477.7047,285.1922
1,11,7,4,2,2,A,G,b,y,5,15,59001,1,1,502.9958,317.1389
1,11,7,4,2,2,A,G,b,y,5,15,59001,1,1,471.0491,337.1057
1,11,7,4,2,2,A,G,b,y,5,15,59001,1,3,444.4268,371.7146
1,11,7,4,2,2,A,G,b,y,5,15,59001,1,1,445.7579,435.6082
1,11,7,4,2,2,A,G,b,y,5,15,59001,1,3,353.911,338.4368
1,11,7,4,2,2,A,G,b,y,5,15,59001,1,1,357.9043,277.2055
1,11,7,4,2,2,A,G,b,y,5,15,59001,1,3,287.3552,294.51
1,11,7,4,2,2,A,G,b,y,5,15,59001,1,1,260.7329,341.099
1,11,7,4,2,2,A,G,b,y,5,15,60001,1,1,417.8045,100.1672
1,11,7,4,2,2,A,G,b,y,5,15,60001,1,1,459.0691,158.7363
1,11,7,4,2,2,A,G,b,y,5,15,60001,1,1,495.0092,178.703
1,11,7,4,2,2,A,G,b,y,5,15,60001,1,3,417.8045,226.6231
1,11,7,4,2,2,A,G,b,y,5,15,60001,1,1,356.5732,218.6364
1,11,7,4,2,2,A,G,b,y,5,15,60001,1,1,344.5932,291.8478
1,11,7,4,2,2,A,G,b,y,5,15,60001,1,1,481.698,279.8677
1,11,7,4,2,2,A,G,b,y,5,15,60001,1,1,463.0624,325.1256
1,11,7,4,2,2,A,G,b,y,5,15,60001,1,3,452.4135,351.7479
1,11,7,4,2,2,A,G,b,y,5,15,60001,1,3,349.9176,322.4634
1,11,7,4,2,2,A,G,b,y,5,15,60001,1,3,291.3486,307.8211
1,11,7,4,2,2,A,G,b,y,5,15,60001,1,1,299.3353,327.7879
1,11,7,4,2,2,A,G,b,y,5,15,60001,1,1,443.0957,447.5882
1,11,7,4,2,2,A,G,b,y,5,15,61001,1,1,425.7912,106.8228
1,11,7,4,2,2,A,G,b,y,5,15,61001,1,1,440.4334,138.7696
1,11,7,4,2,2,A,G,b,y,5,15,61001,1,1,497.6714,166.723
1,11,7,4,2,2,A,G,b,y,5,15,61001,1,3,408.4867,202.6631
1,11,7,4,2,2,A,G,b,y,5,15,61001,1,1,316.6398,209.3186
1,11,7,4,2,2,A,G,b,y,5,15,61001,1,1,336.6065,290.5166
1,11,7,4,2,2,A,G,b,y,5,15,61001,1,3,279.3686,278.5366
1,11,7,4,2,2,A,G,b,y,5,15,61001,1,3,361.8977,326.4567
1,11,7,4,2,2,A,G,b,y,5,15,61001,1,3,403.1622,342.4301
1,11,7,4,2,2,A,G,b,y,5,15,61001,1,1,457.7379,313.1456
1,11,7,4,2,2,A,G,b,y,5,15,61001,1,1,471.0491,291.8478
1,11,7,4,2,2,A,G,b,y,5,15,61001,1,1,467.0557,462.2304
1,11,7,4,2,2,A,G,b,y,5,15,61001,1,1,311.3153,335.7745
1,11,7,4,2,2,A,G,b,y,5,15,61001,1,1,291.3486,389.0191
1,11,7,4,2,2,A,G,b,y,5,15,62001,1,1,259.4018,338.4368
1,11,7,4,2,2,A,G,b,y,5,15,62001,1,3,274.0441,310.4834
1,11,7,4,2,2,A,G,b,y,5,15,62001,1,1,320.6331,363.728
1,11,7,4,2,2,A,G,b,y,5,15,62001,1,1,324.6265,261.2321
1,11,7,4,2,2,A,G,b,y,5,15,62001,1,3,360.5666,281.1988
1,11,7,4,2,2,A,G,b,y,5,15,62001,1,3,353.911,306.49
1,11,7,4,2,2,A,G,b,y,5,15,62001,1,3,417.8045,338.4368
1,11,7,4,2,2,A,G,b,y,5,15,62001,1,1,471.0491,486.1905
1,11,7,4,2,2,A,G,b,y,5,15,62001,1,1,464.3935,323.7945
1,11,7,4,2,2,A,G,b,y,5,15,62001,1,1,471.0491,286.5233
1,11,7,4,2,2,A,G,b,y,5,15,62001,1,3,435.109,230.6165
1,11,7,4,2,2,A,G,b,y,5,15,62001,1,1,501.6647,177.3719
1,11,7,4,2,2,A,G,b,y,5,15,62001,1,1,484.3602,110.8161
1,11,7,4,2,2,A,G,b,y,5,15,62001,1,1,444.4268,113.4784
1,11,7,4,2,2,A,G,b,y,5,15,62001,1,1,375.2088,117.4717
1,11,7,4,2,2,A,G,b,y,5,15,63001,1,1,308.6531,197.3386
1,11,7,4,2,2,A,G,b,y,5,15,63001,1,1,268.7196,205.3253
1,11,7,4,2,2,A,G,b,y,5,15,63001,1,1,305.9908,265.2255
1,11,7,4,2,2,A,G,b,y,5,15,63001,1,3,364.5599,184.0275
1,11,7,4,2,2,A,G,b,y,5,15,63001,1,3,356.5732,273.2121
1,11,7,4,2,2,A,G,b,y,5,15,63001,1,3,356.5732,321.1323
1,11,7,4,2,2,A,G,b,y,5,15,63001,1,3,440.4334,251.9143
1,11,7,4,2,2,A,G,b,y,5,15,63001,1,3,449.7512,369.0524
1,11,7,4,2,2,A,G,b,y,5,15,63001,1,1,365.891,382.3636
1,11,7,4,2,2,A,G,b,y,5,15,63001,1,1,452.4135,475.5416
1,11,7,4,2,2,A,G,b,y,5,15,63001,1,1,449.7512,330.4501
1,11,7,4,2,2,A,G,b,y,5,15,63001,1,1,468.3869,282.53
1,11,7,4,2,2,A,G,b,y,5,15,63001,1,1,508.3203,198.6697
1,11,7,4,2,2,A,G,b,y,5,15,63001,1,1,480.3669,144.094
1,11,7,4,2,2,A,G,b,y,5,15,63001,1,1,439.1023,105.4917
1,11,7,4,2,2,A,G,b,y,5,15,64001,1,1,250.084,150.7496
1,11,7,4,2,2,A,G,b,y,5,15,64001,1,1,352.5799,217.3053
1,11,7,4,2,2,A,G,b,y,5,15,64001,1,1,443.0957,112.1473
1,11,7,4,2,2,A,G,b,y,5,15,64001,1,1,471.0491,138.7696
1,11,7,4,2,2,A,G,b,y,5,15,64001,1,1,505.6581,229.2854
1,11,7,4,2,2,A,G,b,y,5,15,64001,1,3,472.3802,243.9276
1,11,7,4,2,2,A,G,b,y,5,15,64001,1,3,379.2022,263.8943
1,11,7,4,2,2,A,G,b,y,5,15,64001,1,3,359.2354,305.1589
1,11,7,4,2,2,A,G,b,y,5,15,64001,1,3,335.2754,349.0857
1,11,7,4,2,2,A,G,b,y,5,15,64001,1,1,296.673,305.1589
1,11,7,4,2,2,A,G,b,y,5,15,64001,1,1,365.891,378.3702
1,11,7,4,2,2,A,G,b,y,5,15,64001,1,1,493.678,365.0591
1,11,7,4,2,2,A,G,b,y,5,15,64001,1,1,477.7047,301.1656
1,11,7,4,2,2,A,G,b,y,5,15,64001,1,3,452.4135,361.0657
1,11,7,4,2,2,A,G,b,y,5,15,64001,1,1,457.7379,474.2105
1,11,7,4,2,2,A,G,b,y,5,15,65001,1,1,280.6997,96.1739
1,11,7,4,2,2,A,G,b,y,5,15,65001,1,1,444.4268,105.4917
1,11,7,4,2,2,A,G,b,y,5,15,65001,1,1,452.4135,148.0874
1,11,7,4,2,2,A,G,b,y,5,15,65001,1,1,476.3735,141.4318
1,11,7,4,2,2,A,G,b,y,5,15,65001,1,1,533.6115,239.9343
1,11,7,4,2,2,A,G,b,y,5,15,65001,1,3,506.9892,278.5366
1,11,7,4,2,2,A,G,b,y,5,15,65001,1,1,416.4734,313.1456
1,11,7,4,2,2,A,G,b,y,5,15,65001,1,3,435.109,362.3968
1,11,7,4,2,2,A,G,b,y,5,15,65001,1,1,457.7379,402.3303
1,11,7,4,2,2,A,G,b,y,5,15,65001,1,1,452.4135,488.8527
1,11,7,4,2,2,A,G,b,y,5,15,65001,1,3,344.5932,478.2038
1,11,7,4,2,2,A,G,b,y,5,15,65001,1,3,299.3353,362.3968
1,11,7,4,2,2,A,G,b,y,5,15,65001,1,1,329.9509,323.7945
1,11,7,4,2,2,A,G,b,y,5,15,65001,1,1,371.2155,383.6947
1,11,7,4,2,2,A,G,b,y,5,15,65001,1,3,353.911,313.1456
1,11,7,4,2,2,A,G,b,y,5,15,66001,1,1,439.1023,101.4983
1,11,7,4,2,2,A,G,b,y,5,15,66001,1,1,399.1689,128.1206
1,11,7,4,2,2,A,G,b,y,5,15,66001,1,1,435.109,150.7496
1,11,7,4,2,2,A,G,b,y,5,15,66001,1,1,473.7113,176.0408
1,11,7,4,2,2,A,G,b,y,5,15,66001,1,1,529.6181,229.2854
1,11,7,4,2,2,A,G,b,y,5,15,66001,1,3,496.3403,283.8611
1,11,7,4,2,2,A,G,b,y,5,15,66001,1,3,325.9576,286.5233
1,11,7,4,2,2,A,G,b,y,5,15,66001,1,1,385.8577,297.1722
1,11,7,4,2,2,A,G,b,y,5,15,66001,1,1,343.2621,319.8012
1,11,7,4,2,2,A,G,b,y,5,15,66001,1,3,392.5133,359.7346
1,11,7,4,2,2,A,G,b,y,5,15,66001,1,1,416.4734,369.0524
1,11,7,4,2,2,A,G,b,y,5,15,66001,1,1,477.7047,339.7679
1,11,7,4,2,2,A,G,b,y,5,15,66001,1,3,467.0557,371.7146
1,11,7,4,2,2,A,G,b,y,5,15,66001,1,3,419.1356,412.9792
1,11,7,4,2,2,A,G,b,y,5,15,66001,1,1,460.4002,486.1905
1,11,7,4,2,2,A,G,b,y,5,15,67001,1,1,440.4334,108.1539
1,11,7,4,2,2,A,G,b,y,5,15,67001,1,1,364.5599,126.7895
1,11,7,4,2,2,A,G,b,y,5,15,67001,1,1,429.7845,156.074
1,11,7,4,2,2,A,G,b,y,5,15,67001,1,1,509.6514,173.3785
1,11,7,4,2,2,A,G,b,y,5,15,67001,1,1,532.2804,239.9343
1,11,7,4,2,2,A,G,b,y,5,15,67001,1,1,453.7446,283.8611
1,11,7,4,2,2,A,G,b,y,5,15,67001,1,1,413.8111,266.5566
1,11,7,4,2,2,A,G,b,y,5,15,67001,1,1,464.3935,309.1522
1,11,7,4,2,2,A,G,b,y,5,15,67001,1,1,376.5399,333.1123
1,11,7,4,2,2,A,G,b,y,5,15,67001,1,1,448.4201,483.5283
1,11,7,4,2,2,A,G,b,y,5,15,67001,1,3,345.9243,281.1988
1,11,7,4,2,2,A,G,b,y,5,15,67001,1,3,400.5,385.0258
1,11,7,4,2,2,A,G,b,y,5,15,67001,1,3,476.3735,366.3902
1,11,7,4,2,2,A,G,b,y,5,15,67001,1,3,509.6514,290.5166
1,11,7,4,2,2,A,G,b,y,5,15,68001,1,1,353.911,132.114
1,11,7,4,2,2,A,G,b,y,5,15,68001,1,1,444.4268,102.8295
1,11,7,4,2,2,A,G,b,y,5,15,68001,1,1,419.1356,166.723
1,11,7,4,2,2,A,G,b,y,5,15,68001,1,1,500.3336,165.3918
1,11,7,4,2,2,A,G,b,y,5,15,68001,1,1,453.7446,214.6431
1,11,7,4,2,2,A,G,b,y,5,15,68001,1,1,477.7047,258.5699
1,11,7,4,2,2,A,G,b,y,5,15,68001,1,1,524.2937,285.1922
1,11,7,4,2,2,A,G,b,y,5,15,68001,1,1,367.2221,261.2321
1,11,7,4,2,2,A,G,b,y,5,15,68001,1,1,389.8511,305.1589
1,11,7,4,2,2,A,G,b,y,5,15,68001,1,3,348.5865,297.1722
1,11,7,4,2,2,A,G,b,y,5,15,68001,1,3,439.1023,326.4567
1,11,7,4,2,2,A,G,b,y,5,15,68001,1,3,475.0424,354.4101
1,11,7,4,2,2,A,G,b,y,5,15,68001,1,3,435.109,357.0724
1,11,7,4,2,2,A,G,b,y,5,15,68001,1,3,409.8178,385.0258
1,11,7,4,2,2,A,G,b,y,5,15,68001,1,1,461.7313,474.2105
1,11,7,4,2,2,A,G,b,y,5,15,69001,1,1,363.2288,140.1007
1,11,7,4,2,2,A,G,b,y,5,15,69001,1,1,443.0957,106.8228
1,11,7,4,2,2,A,G,b,y,5,15,69001,1,1,508.3203,177.3719
1,11,7,4,2,2,A,G,b,y,5,15,69001,1,1,425.7912,156.074
1,11,7,4,2,2,A,G,b,y,5,15,69001,1,1,444.4268,223.9609
1,11,7,4,2,2,A,G,b,y,5,15,69001,1,1,420.4667,263.8943
1,11,7,4,2,2,A,G,b,y,5,15,69001,1,1,369.8844,274.5433
1,11,7,4,2,2,A,G,b,y,5,15,69001,1,1,363.2288,345.0923
1,11,7,4,2,2,A,G,b,y,5,15,69001,1,3,339.2687,319.8012
1,11,7,4,2,2,A,G,b,y,5,15,69001,1,3,411.1489,327.7879
1,11,7,4,2,2,A,G,b,y,5,15,69001,1,3,457.7379,350.4168
1,11,7,4,2,2,A,G,b,y,5,15,69001,1,3,429.7845,365.0591
1,11,7,4,2,2,A,G,b,y,5,15,69001,1,3,403.1622,395.6747
1,11,7,4,2,2,A,G,b,y,5,15,69001,1,1,554.9093,341.099
1,11,7,4,2,2,A,G,b,y,5,15,69001,1,1,464.3935,475.5416
1,11,7,4,2,2,A,G,b,y,5,15,70001,1,1,355.2421,141.4318
1,11,7,4,2,2,A,G,b,y,5,15,70001,1,1,448.4201,105.4917
1,11,7,4,2,2,A,G,b,y,5,15,70001,1,1,513.6448,156.074
1,11,7,4,2,2,A,G,b,y,5,15,70001,1,1,411.1489,193.3453
1,11,7,4,2,2,A,G,b,y,5,15,70001,1,1,447.089,223.9609
1,11,7,4,2,2,A,G,b,y,5,15,70001,1,1,364.5599,269.2188
1,11,7,4,2,2,A,G,b,y,5,15,70001,1,1,437.7712,294.51
1,11,7,4,2,2,A,G,b,y,5,15,70001,1,1,377.871,338.4368
1,11,7,4,2,2,A,G,b,y,5,15,70001,1,3,329.9509,314.4767
1,11,7,4,2,2,A,G,b,y,5,15,70001,1,3,433.7779,365.0591
1,11,7,4,2,2,A,G,b,y,5,15,70001,1,3,456.4068,371.7146
1,11,7,4,2,2,A,G,b,y,5,15,70001,1,3,508.3203,313.1456
1,11,7,4,2,2,A,G,b,y,5,15,70001,1,3,381.8644,391.6814
1,11,7,4,2,2,A,G,b,y,5,15,70001,1,1,463.0624,486.1905
1,11,7,4,2,2,A,G,b,y,5,15,70001,1,1,560.2338,397.0058
1,11,7,4,2,2,A,G,b,y,5,15,71001,1,1,439.1023,110.8161
1,11,7,4,2,2,A,G,b,y,5,15,71001,1,1,325.9576,120.1339
1,11,7,4,2,2,A,G,b,y,5,15,71001,1,1,361.8977,177.3719
1,11,7,4,2,2,A,G,b,y,5,15,71001,1,1,437.7712,218.6364
1,11,7,4,2,2,A,G,b,y,5,15,71001,1,1,512.3136,164.0607
1,11,7,4,2,2,A,G,b,y,5,15,71001,1,1,453.7446,279.8677
1,11,7,4,2,2,A,G,b,y,5,15,71001,1,1,375.2088,281.1988
1,11,7,4,2,2,A,G,b,y,5,15,71001,1,1,381.8644,311.8145
1,11,7,4,2,2,A,G,b,y,5,15,71001,1,1,558.9027,375.708
1,11,7,4,2,2,A,G,b,y,5,15,71001,1,1,465.7246,486.1905
1,11,7,4,2,2,A,G,b,y,5,15,71001,1,3,445.7579,397.0058
1,11,7,4,2,2,A,G,b,y,5,15,71001,1,3,467.0557,381.0324
1,11,7,4,2,2,A,G,b,y,5,15,71001,1,3,500.3336,305.1589
1,11,7,4,2,2,A,G,b,y,5,15,71001,1,3,341.9309,303.8278
1,11,7,4,2,2,A,G,b,y,5,15,71001,1,3,290.0175,306.49
1,11,7,4,2,2,A,G,b,y,5,15,72001,1,1,266.0574,177.3719
1,11,7,4,2,2,A,G,b,y,5,15,72001,1,1,355.2421,181.3652
1,11,7,4,2,2,A,G,b,y,5,15,72001,1,1,440.4334,101.4983
1,11,7,4,2,2,A,G,b,y,5,15,72001,1,1,501.6647,160.0674
1,11,7,4,2,2,A,G,b,y,5,15,72001,1,1,455.0757,209.3186
1,11,7,4,2,2,A,G,b,y,5,15,72001,1,1,399.1689,242.5965
1,11,7,4,2,2,A,G,b,y,5,15,72001,1,1,440.4334,263.8943
1,11,7,4,2,2,A,G,b,y,5,15,72001,1,1,369.8844,350.4168
1,11,7,4,2,2,A,G,b,y,5,15,72001,1,1,562.896,390.3502
1,11,7,4,2,2,A,G,b,y,5,15,72001,1,1,459.0691,484.8594
1,11,7,4,2,2,A,G,b,y,5,15,72001,1,3,464.3935,378.3702
1,11,7,4,2,2,A,G,b,y,5,15,72001,1,3,440.4334,346.4235
1,11,7,4,2,2,A,G,b,y,5,15,72001,1,3,495.0092,253.2454
1,11,7,4,2,2,A,G,b,y,5,15,72001,1,3,336.6065,298.5033
1,11,7,4,2,2,A,G,b,y,5,15,72001,1,3,303.3286,211.9809
1,11,7,4,2,2,A,G,b,y,5,15,73001,1,3,389.8511,104.1606
1,11,7,4,2,2,A,G,b,y,5,15,73001,1,1,444.4268,106.8228
1,11,7,4,2,2,A,G,b,y,5,15,73001,1,1,496.3403,169.3852
1,11,7,4,2,2,A,G,b,y,5,15,73001,1,1,456.4068,193.3453
1,11,7,4,2,2,A,G,b,y,5,15,73001,1,1,369.8844,190.683
1,11,7,4,2,2,A,G,b,y,5,15,73001,1,1,329.9509,203.9942
1,11,7,4,2,2,A,G,b,y,5,15,73001,1,1,416.4734,257.2388
1,11,7,4,2,2,A,G,b,y,5,15,73001,1,1,480.3669,259.901
1,11,7,4,2,2,A,G,b,y,5,15,73001,1,3,331.282,289.1855
1,11,7,4,2,2,A,G,b,y,5,15,73001,1,1,364.5599,351.7479
1,11,7,4,2,2,A,G,b,y,5,15,73001,1,3,445.7579,366.3902
1,11,7,4,2,2,A,G,b,y,5,15,73001,1,3,452.4135,374.3769
1,11,7,4,2,2,A,G,b,y,5,15,73001,1,3,492.3469,363.728
1,11,7,4,2,2,A,G,b,y,5,15,73001,1,1,568.2205,393.0125
1,11,7,4,2,2,A,G,b,y,5,15,73001,1,1,455.0757,475.5416
1,11,7,4,2,2,A,G,b,y,5,15,74001,1,1,408.4867,61.5649
1,11,7,4,2,2,A,G,b,y,5,15,74001,1,3,463.0624,132.114
1,11,7,4,2,2,A,G,b,y,5,15,74001,1,1,485.6913,129.4517
1,11,7,4,2,2,A,G,b,y,5,15,74001,1,1,449.7512,197.3386
1,11,7,4,2,2,A,G,b,y,5,15,74001,1,1,353.911,181.3652
1,11,7,4,2,2,A,G,b,y,5,15,74001,1,1,363.2288,230.6165
1,11,7,4,2,2,A,G,b,y,5,15,74001,1,1,473.7113,237.272
1,11,7,4,2,2,A,G,b,y,5,15,74001,1,3,415.1423,279.8677
1,11,7,4,2,2,A,G,b,y,5,15,74001,1,3,341.9309,302.4967
1,11,7,4,2,2,A,G,b,y,5,15,74001,1,1,359.2354,361.0657
1,11,7,4,2,2,A,G,b,y,5,15,74001,1,1,440.4334,337.1057
1,11,7,4,2,2,A,G,b,y,5,15,74001,1,3,443.0957,374.3769
1,11,7,4,2,2,A,G,b,y,5,15,74001,1,3,473.7113,366.3902
1,11,7,4,2,2,A,G,b,y,5,15,74001,1,1,469.718,498.1705
1,11,7,4,2,2,A,G,b,y,5,15,74001,1,1,554.9093,402.3303
1,11,7,4,2,2,A,G,b,y,5,15,75001,1,1,408.4867,72.2138
1,11,7,4,2,2,A,G,b,y,5,15,75001,1,1,427.1223,110.8161
1,11,7,4,2,2,A,G,b,y,5,15,75001,1,1,453.7446,84.1938
1,11,7,4,2,2,A,G,b,y,5,15,75001,1,1,348.5865,185.3586
1,11,7,4,2,2,A,G,b,y,5,15,75001,1,1,443.0957,234.6098
1,11,7,4,2,2,A,G,b,y,5,15,75001,1,1,471.0491,241.2654
1,11,7,4,2,2,A,G,b,y,5,15,75001,1,3,485.6913,189.3519
1,11,7,4,2,2,A,G,b,y,5,15,75001,1,1,565.5582,375.708
1,11,7,4,2,2,A,G,b,y,5,15,75001,1,1,453.7446,406.3236
1,11,7,4,2,2,A,G,b,y,5,15,75001,1,1,451.0824,483.5283
1,11,7,4,2,2,A,G,b,y,5,15,75001,1,1,369.8844,362.3968
1,11,7,4,2,2,A,G,b,y,5,15,75001,1,3,321.9642,343.7612
1,11,7,4,2,2,A,G,b,y,5,15,75001,1,3,339.2687,313.1456
1,11,7,4,2,2,A,G,b,y,5,15,75001,1,3,444.4268,367.7213
1,11,7,4,2,2,A,G,b,y,5,15,75001,1,3,471.0491,358.4035
1,11,7,4,2,2,A,G,b,y,5,15,76001,1,1,371.2155,89.5183
1,11,7,4,2,2,A,G,b,y,5,15,76001,1,1,348.5865,172.0474
1,11,7,4,2,2,A,G,b,y,5,15,76001,1,1,415.1423,239.9343
1,11,7,4,2,2,A,G,b,y,5,15,76001,1,1,508.3203,243.9276
1,11,7,4,2,2,A,G,b,y,5,15,76001,1,1,542.9293,121.4651
1,11,7,4,2,2,A,G,b,y,5,15,76001,1,3,526.9559,144.094
1,11,7,4,2,2,A,G,b,y,5,15,76001,1,3,373.8777,245.2587
1,11,7,4,2,2,A,G,b,y,5,15,76001,1,3,341.9309,310.4834
1,11,7,4,2,2,A,G,b,y,5,15,76001,1,3,456.4068,323.7945
1,11,7,4,2,2,A,G,b,y,5,15,76001,1,3,488.3536,366.3902
1,11,7,4,2,2,A,G,b,y,5,15,76001,1,1,368.5532,373.0458
1,11,7,4,2,2,A,G,b,y,5,15,76001,1,1,437.7712,408.9859
1,11,7,4,2,2,A,G,b,y,5,15,76001,1,1,534.9426,439.6015
1,11,7,4,2,2,A,G,b,y,5,15,76001,1,1,566.8894,391.6814
1,11,7,4,2,2,A,G,b,y,5,15,77001,1,1,549.5849,108.1539
1,11,7,4,2,2,A,G,b,y,5,15,77001,1,1,504.327,239.9343
1,11,7,4,2,2,A,G,b,y,5,15,77001,1,1,436.4401,234.6098
1,11,7,4,2,2,A,G,b,y,5,15,77001,1,1,323.2953,213.312
1,11,7,4,2,2,A,G,b,y,5,15,77001,1,1,295.3419,173.3785
1,11,7,4,2,2,A,G,b,y,5,15,77001,1,1,365.891,149.4185
1,11,7,4,2,2,A,G,b,y,5,15,77001,1,3,282.0308,278.5366
1,11,7,4,2,2,A,G,b,y,5,15,77001,1,3,321.9642,295.8411
1,11,7,4,2,2,A,G,b,y,5,15,77001,1,3,464.3935,285.1922
1,11,7,4,2,2,A,G,b,y,5,15,77001,1,3,487.0225,302.4967
1,11,7,4,2,2,A,G,b,y,5,15,77001,1,3,541.5982,283.8611
1,11,7,4,2,2,A,G,b,y,5,15,77001,1,1,357.9043,378.3702
1,11,7,4,2,2,A,G,b,y,5,15,77001,1,1,449.7512,404.9925
1,11,7,4,2,2,A,G,b,y,5,15,77001,1,1,546.9226,385.0258
1,11,7,4,2,2,A,G,b,y,5,15,77001,1,1,620.1339,385.0258
1,11,7,4,2,2,A,G,b,y,5,15,78001,1,1,550.916,104.1606
1,11,7,4,2,2,A,G,b,y,5,15,78001,1,1,513.6448,227.9542
1,11,7,4,2,2,A,G,b,y,5,15,78001,1,1,404.4933,230.6165
1,11,7,4,2,2,A,G,b,y,5,15,78001,1,1,325.9576,132.114
1,11,7,4,2,2,A,G,b,y,5,15,78001,1,1,278.0374,196.0075
1,11,7,4,2,2,A,G,b,y,5,15,78001,1,1,355.2421,239.9343
1,11,7,4,2,2,A,G,b,y,5,15,78001,1,3,441.7646,218.6364
1,11,7,4,2,2,A,G,b,y,5,15,78001,1,3,538.9359,258.5699
1,11,7,4,2,2,A,G,b,y,5,15,78001,1,3,451.0824,283.8611
1,11,7,4,2,2,A,G,b,y,5,15,78001,1,3,411.1489,325.1256
1,11,7,4,2,2,A,G,b,y,5,15,78001,1,3,445.7579,337.1057
1,11,7,4,2,2,A,G,b,y,5,15,78001,1,1,365.891,383.6947
1,11,7,4,2,2,A,G,b,y,5,15,78001,1,1,464.3935,382.3636
1,11,7,4,2,2,A,G,b,y,5,15,78001,1,1,505.6581,422.297
1,11,7,4,2,2,A,G,b,y,5,15,78001,1,1,586.8561,349.0857
1,11,7,4,2,2,A,G,b,y,5,15,79001,1,1,553.5782,106.8228
1,11,7,4,2,2,A,G,b,y,5,15,79001,1,1,320.6331,120.1339
1,11,7,4,2,2,A,G,b,y,5,15,79001,1,1,272.713,201.3319
1,11,7,4,2,2,A,G,b,y,5,15,79001,1,3,364.5599,238.6032
1,11,7,4,2,2,A,G,b,y,5,15,79001,1,1,360.5666,285.1922
1,11,7,4,2,2,A,G,b,y,5,15,79001,1,1,351.2488,381.0324
1,11,7,4,2,2,A,G,b,y,5,15,79001,1,1,412.48,253.2454
1,11,7,4,2,2,A,G,b,y,5,15,79001,1,3,492.3469,283.8611
1,11,7,4,2,2,A,G,b,y,5,15,79001,1,3,521.6314,270.5499
1,11,7,4,2,2,A,G,b,y,5,15,79001,1,3,533.6115,311.8145
1,11,7,4,2,2,A,G,b,y,5,15,79001,1,1,510.9825,207.9875
1,11,7,4,2,2,A,G,b,y,5,15,79001,1,1,472.3802,346.4235
1,11,7,4,2,2,A,G,b,y,5,15,79001,1,1,480.3669,426.2903
1,11,7,4,2,2,A,G,b,y,5,15,79001,1,3,432.4468,378.3702
1,11,7,4,2,2,A,G,b,y,5,15,80001,1,1,260.7329,200.0008
1,11,7,4,2,2,A,G,b,y,5,15,80001,1,1,332.6131,81.5316
1,11,7,4,2,2,A,G,b,y,5,15,80001,1,1,562.896,122.7962
1,11,7,4,2,2,A,G,b,y,5,15,80001,1,1,520.3003,211.9809
1,11,7,4,2,2,A,G,b,y,5,15,80001,1,1,427.1223,231.9476
1,11,7,4,2,2,A,G,b,y,5,15,80001,1,1,409.8178,287.8544
1,11,7,4,2,2,A,G,b,y,5,15,80001,1,1,357.9043,313.1456
1,11,7,4,2,2,A,G,b,y,5,15,80001,1,3,343.2621,281.1988
1,11,7,4,2,2,A,G,b,y,5,15,80001,1,3,485.6913,285.1922
1,11,7,4,2,2,A,G,b,y,5,15,80001,1,3,530.9493,269.2188
1,11,7,4,2,2,A,G,b,y,5,15,80001,1,3,500.3336,408.9859
1,11,7,4,2,2,A,G,b,y,5,15,80001,1,3,447.089,369.0524
1,11,7,4,2,2,A,G,b,y,5,15,80001,1,1,461.7313,398.3369
1,11,7,4,2,2,A,G,b,y,5,15,80001,1,1,349.9176,379.7013
1,11,7,4,2,2,A,G,b,y,5,15,81001,1,1,560.2338,108.1539
1,11,7,4,2,2,A,G,b,y,5,15,81001,1,1,512.3136,136.1073
1,11,7,4,2,2,A,G,b,y,5,15,81001,1,1,449.7512,186.6897
1,11,7,4,2,2,A,G,b,y,5,15,81001,1,1,521.6314,223.9609
1,11,7,4,2,2,A,G,b,y,5,15,81001,1,1,412.48,253.2454
1,11,7,4,2,2,A,G,b,y,5,15,81001,1,1,260.7329,192.0141
1,11,7,4,2,2,A,G,b,y,5,15,81001,1,3,427.1223,227.9542
1,11,7,4,2,2,A,G,b,y,5,15,81001,1,3,533.6115,267.8877
1,11,7,4,2,2,A,G,b,y,5,15,81001,1,3,479.0358,363.728
1,11,7,4,2,2,A,G,b,y,5,15,81001,1,3,443.0957,378.3702
1,11,7,4,2,2,A,G,b,y,5,15,81001,1,1,464.3935,430.2837
1,11,7,4,2,2,A,G,b,y,5,15,81001,1,1,411.1489,408.9859
1,11,7,4,2,2,A,G,b,y,5,15,81001,1,1,361.8977,323.7945
1,11,7,4,2,2,A,G,b,y,5,15,81001,1,3,333.9443,323.7945
1,11,7,4,2,2,A,G,b,y,5,15,82001,1,1,441.7646,65.5582
1,11,7,4,2,2,A,G,b,y,5,15,82001,1,1,540.2671,105.4917
1,11,7,4,2,2,A,G,b,y,5,15,82001,1,1,256.7396,198.6697
1,11,7,4,2,2,A,G,b,y,5,15,82001,1,3,428.4534,186.6897
1,11,7,4,2,2,A,G,b,y,5,15,82001,1,1,391.1822,255.9077
1,11,7,4,2,2,A,G,b,y,5,15,82001,1,1,472.3802,250.5832
1,11,7,4,2,2,A,G,b,y,5,15,82001,1,1,508.3203,230.6165
1,11,7,4,2,2,A,G,b,y,5,15,82001,1,3,529.6181,273.2121
1,11,7,4,2,2,A,G,b,y,5,15,82001,1,3,469.718,310.4834
1,11,7,4,2,2,A,G,b,y,5,15,82001,1,3,455.0757,370.3835
1,11,7,4,2,2,A,G,b,y,5,15,82001,1,1,506.9892,369.0524
1,11,7,4,2,2,A,G,b,y,5,15,82001,1,1,381.8644,337.1057
1,11,7,4,2,2,A,G,b,y,5,15,82001,1,1,391.1822,391.6814
1,11,7,4,2,2,A,G,b,y,5,15,82001,1,3,320.6331,337.1057
1,11,7,4,2,2,A,G,b,y,5,15,83001,1,1,561.5649,112.1473
1,11,7,4,2,2,A,G,b,y,5,15,83001,1,1,363.2288,110.8161
1,11,7,4,2,2,A,G,b,y,5,15,83001,1,1,263.3952,194.6764
1,11,7,4,2,2,A,G,b,y,5,15,83001,1,3,448.4201,178.703
1,11,7,4,2,2,A,G,b,y,5,15,83001,1,1,524.2937,222.6298
1,11,7,4,2,2,A,G,b,y,5,15,83001,1,1,455.0757,263.8943
1,11,7,4,2,2,A,G,b,y,5,15,83001,1,1,412.48,258.5699
1,11,7,4,2,2,A,G,b,y,5,15,83001,1,1,363.2288,331.7812
1,11,7,4,2,2,A,G,b,y,5,15,83001,1,1,393.8444,394.3436
1,11,7,4,2,2,A,G,b,y,5,15,83001,1,3,423.129,446.2571
1,11,7,4,2,2,A,G,b,y,5,15,83001,1,3,460.4002,366.3902
1,11,7,4,2,2,A,G,b,y,5,15,83001,1,3,499.0025,278.5366
1,11,7,4,2,2,A,G,b,y,5,15,83001,1,3,532.2804,269.2188
1,11,7,4,2,2,A,G,b,y,5,15,83001,1,1,569.5516,285.1922
1,11,7,4,2,2,A,G,b,y,5,15,84001,1,1,365.891,109.485
1,11,7,4,2,2,A,G,b,y,5,15,84001,1,1,550.916,116.1406
1,11,7,4,2,2,A,G,b,y,5,15,84001,1,1,268.7196,197.3386
1,11,7,4,2,2,A,G,b,y,5,15,84001,1,3,443.0957,193.3453
1,11,7,4,2,2,A,G,b,y,5,15,84001,1,1,516.307,219.9676
1,11,7,4,2,2,A,G,b,y,5,15,84001,1,1,598.8361,222.6298
1,11,7,4,2,2,A,G,b,y,5,15,84001,1,3,536.2737,262.5632
1,11,7,4,2,2,A,G,b,y,5,15,84001,1,3,488.3536,286.5233
1,11,7,4,2,2,A,G,b,y,5,15,84001,1,1,408.4867,273.2121
1,11,7,4,2,2,A,G,b,y,5,15,84001,1,1,467.0557,331.7812
1,11,7,4,2,2,A,G,b,y,5,15,84001,1,1,375.2088,335.7745
1,11,7,4,2,2,A,G,b,y,5,15,84001,1,3,428.4534,353.079
1,11,7,4,2,2,A,G,b,y,5,15,84001,1,1,396.5067,399.6681
1,11,7,4,2,2,A,G,b,y,5,15,84001,1,3,424.4601,426.2903
1,11,7,4,2,2,A,G,b,y,5,15,85001,1,1,566.8894,126.7895
1,11,7,4,2,2,A,G,b,y,5,15,85001,1,3,521.6314,120.1339
1,11,7,4,2,2,A,G,b,y,5,15,85001,1,1,530.9493,169.3852
1,11,7,4,2,2,A,G,b,y,5,15,85001,1,1,361.8977,117.4717
1,11,7,4,2,2,A,G,b,y,5,15,85001,1,1,231.4484,188.0208
1,11,7,4,2,2,A,G,b,y,5,15,85001,1,1,376.5399,251.9143
1,11,7,4,2,2,A,G,b,y,5,15,85001,1,1,360.5666,337.1057
1,11,7,4,2,2,A,G,b,y,5,15,85001,1,3,416.4734,307.8211
1,11,7,4,2,2,A,G,b,y,5,15,85001,1,3,439.1023,357.0724
1,11,7,4,2,2,A,G,b,y,5,15,85001,1,1,403.1622,387.688
1,11,7,4,2,2,A,G,b,y,5,15,85001,1,3,425.7912,428.9526
1,11,7,4,2,2,A,G,b,y,5,15,85001,1,1,485.6913,358.4035
1,11,7,4,2,2,A,G,b,y,5,15,85001,1,3,541.5982,342.4301
1,11,7,4,2,2,A,G,b,y,5,15,86001,1,1,461.7313,72.2138
1,11,7,4,2,2,A,G,b,y,5,15,86001,1,1,566.8894,200.0008
1,11,7,4,2,2,A,G,b,y,5,15,86001,1,1,592.1805,172.0474
1,11,7,4,2,2,A,G,b,y,5,15,86001,1,1,335.2754,124.1273
1,11,7,4,2,2,A,G,b,y,5,15,86001,1,1,254.0774,192.0141
1,11,7,4,2,2,A,G,b,y,5,15,86001,1,1,363.2288,246.5899
1,11,7,4,2,2,A,G,b,y,5,15,86001,1,1,352.5799,317.1389
1,11,7,4,2,2,A,G,b,y,5,15,86001,1,1,380.5333,373.0458
1,11,7,4,2,2,A,G,b,y,5,15,86001,1,1,477.7047,439.6015
1,11,7,4,2,2,A,G,b,y,5,15,86001,1,3,424.4601,426.2903
1,11,7,4,2,2,A,G,b,y,5,15,86001,1,3,453.7446,366.3902
1,11,7,4,2,2,A,G,b,y,5,15,86001,1,3,419.1356,295.8411
1,11,7,4,2,2,A,G,b,y,5,15,86001,1,3,460.4002,254.5765
1,11,7,4,2,2,A,G,b,y,5,15,86001,1,3,538.9359,266.5566
1,11,7,4,2,2,A,G,b,y,5,15,87001,1,1,341.9309,369.0524
1,11,7,4,2,2,A,G,b,y,5,15,87001,1,1,357.9043,334.4434
1,11,7,4,2,2,A,G,b,y,5,15,87001,1,1,377.871,247.921
1,11,7,4,2,2,A,G,b,y,5,15,87001,1,1,255.4085,193.3453
1,11,7,4,2,2,A,G,b,y,5,15,87001,1,1,339.2687,120.1339
1,11,7,4,2,2,A,G,b,y,5,15,87001,1,1,453.7446,78.8694
1,11,7,4,2,2,A,G,b,y,5,15,87001,1,1,480.3669,205.3253
1,11,7,4,2,2,A,G,b,y,5,15,87001,1,1,604.1606,273.2121
1,11,7,4,2,2,A,G,b,y,5,15,87001,1,3,546.9226,241.2654
1,11,7,4,2,2,A,G,b,y,5,15,87001,1,3,475.0424,253.2454
1,11,7,4,2,2,A,G,b,y,5,15,87001,1,3,407.1556,345.0923
1,11,7,4,2,2,A,G,b,y,5,15,87001,1,3,457.7379,358.4035
1,11,7,4,2,2,A,G,b,y,5,15,87001,1,3,428.4534,427.6215
1,11,7,4,2,2,A,G,b,y,5,15,87001,1,1,475.0424,431.6148
1,11,7,4,2,2,A,G,b,y,5,15,88001,1,1,459.0691,66.8894
1,11,7,4,2,2,A,G,b,y,5,15,88001,1,1,328.6198,124.1273
1,11,7,4,2,2,A,G,b,y,5,15,88001,1,1,248.7529,189.3519
1,11,7,4,2,2,A,G,b,y,5,15,88001,1,1,364.5599,251.9143
1,11,7,4,2,2,A,G,b,y,5,15,88001,1,1,475.0424,207.9875
1,11,7,4,2,2,A,G,b,y,5,15,88001,1,3,542.9293,265.2255
1,11,7,4,2,2,A,G,b,y,5,15,88001,1,1,616.1406,297.1722
1,11,7,4,2,2,A,G,b,y,5,15,88001,1,3,475.0424,326.4567
1,11,7,4,2,2,A,G,b,y,5,15,88001,1,3,417.8045,341.099
1,11,7,4,2,2,A,G,b,y,5,15,88001,1,3,452.4135,367.7213
1,11,7,4,2,2,A,G,b,y,5,15,88001,1,3,421.7978,442.2637
1,11,7,4,2,2,A,G,b,y,5,15,88001,1,1,468.3869,435.6082
1,11,7,4,2,2,A,G,b,y,5,15,88001,1,1,344.5932,369.0524
1,11,7,4,2,2,A,G,b,y,5,15,88001,1,1,363.2288,339.7679
1,11,7,4,2,2,A,G,b,y,5,15,89001,1,1,252.7463,197.3386
1,11,7,4,2,2,A,G,b,y,5,15,89001,1,1,337.9376,120.1339
1,11,7,4,2,2,A,G,b,y,5,15,89001,1,1,468.3869,52.2471
1,11,7,4,2,2,A,G,b,y,5,15,89001,1,1,449.7512,200.0008
1,11,7,4,2,2,A,G,b,y,5,15,89001,1,1,353.911,254.5765
1,11,7,4,2,2,A,G,b,y,5,15,89001,1,3,435.109,269.2188
1,11,7,4,2,2,A,G,b,y,5,15,89001,1,3,541.5982,249.2521
1,11,7,4,2,2,A,G,b,y,5,15,89001,1,1,628.1206,314.4767
1,11,7,4,2,2,A,G,b,y,5,15,89001,1,1,360.5666,329.119
1,11,7,4,2,2,A,G,b,y,5,15,89001,1,1,360.5666,367.7213
1,11,7,4,2,2,A,G,b,y,5,15,89001,1,3,395.1755,349.0857
1,11,7,4,2,2,A,G,b,y,5,15,89001,1,3,473.7113,355.7413
1,11,7,4,2,2,A,G,b,y,5,15,89001,1,3,447.089,404.9925
1,11,7,4,2,2,A,G,b,y,5,15,89001,1,1,476.3735,436.9393
1,11,7,4,2,2,A,G,b,y,5,15,90001,1,1,457.7379,76.2072
1,11,7,4,2,2,A,G,b,y,5,15,90001,1,1,343.2621,129.4517
1,11,7,4,2,2,A,G,b,y,5,15,90001,1,1,443.0957,185.3586
1,11,7,4,2,2,A,G,b,y,5,15,90001,1,1,266.0574,190.683
1,11,7,4,2,2,A,G,b,y,5,15,90001,1,1,353.911,250.5832
1,11,7,4,2,2,A,G,b,y,5,15,90001,1,3,499.0025,243.9276
1,11,7,4,2,2,A,G,b,y,5,15,90001,1,1,608.1539,303.8278
1,11,7,4,2,2,A,G,b,y,5,15,90001,1,1,650.7496,275.8744
1,11,7,4,2,2,A,G,b,y,5,15,90001,1,1,357.9043,266.5566
1,11,7,4,2,2,A,G,b,y,5,15,90001,1,1,364.5599,327.7879
1,11,7,4,2,2,A,G,b,y,5,15,90001,1,1,344.5932,359.7346
1,11,7,4,2,2,A,G,b,y,5,15,90001,1,3,385.8577,327.7879
1,11,7,4,2,2,A,G,b,y,5,15,90001,1,3,457.7379,357.0724
1,11,7,4,2,2,A,G,b,y,5,15,90001,1,3,513.6448,374.3769
1,11,7,4,2,2,A,G,b,y,5,15,90001,1,3,463.0624,404.9925
1,11,7,4,2,2,A,G,b,y,5,15,90001,1,1,471.0491,440.9326
1,11,7,4,2,2,A,G,b,y,5,15,91001,1,1,459.0691,72.2138
1,11,7,4,2,2,A,G,b,y,5,15,91001,1,1,324.6265,128.1206
1,11,7,4,2,2,A,G,b,y,5,15,91001,1,1,268.7196,194.6764
1,11,7,4,2,2,A,G,b,y,5,15,91001,1,3,405.8245,162.7296
1,11,7,4,2,2,A,G,b,y,5,15,91001,1,1,459.0691,182.6963
1,11,7,4,2,2,A,G,b,y,5,15,91001,1,1,364.5599,255.9077
1,11,7,4,2,2,A,G,b,y,5,15,91001,1,1,332.6131,302.4967
1,11,7,4,2,2,A,G,b,y,5,15,91001,1,1,341.9309,367.7213
1,11,7,4,2,2,A,G,b,y,5,15,91001,1,3,380.5333,313.1456
1,11,7,4,2,2,A,G,b,y,5,15,91001,1,3,465.7246,265.2255
1,11,7,4,2,2,A,G,b,y,5,15,91001,1,1,613.4784,307.8211
1,11,7,4,2,2,A,G,b,y,5,15,91001,1,1,649.4185,267.8877
1,11,7,4,2,2,A,G,b,y,5,15,91001,1,3,428.4534,377.0391
1,11,7,4,2,2,A,G,b,y,5,15,91001,1,3,452.4135,408.9859
1,11,7,4,2,2,A,G,b,y,5,15,91001,1,1,477.7047,459.5682
1,11,7,4,2,2,A,G,b,y,5,15,92001,1,1,460.4002,90.8494
1,11,7,4,2,2,A,G,b,y,5,15,92001,1,1,557.5715,137.4384
1,11,7,4,2,2,A,G,b,y,5,15,92001,1,1,331.282,138.7696
1,11,7,4,2,2,A,G,b,y,5,15,92001,1,1,262.0641,170.7163
1,11,7,4,2,2,A,G,b,y,5,15,92001,1,1,325.9576,243.9276
1,11,7,4,2,2,A,G,b,y,5,15,92001,1,1,409.8178,215.9742
1,11,7,4,2,2,A,G,b,y,5,15,92001,1,3,537.6048,197.3386
1,11,7,4,2,2,A,G,b,y,5,15,92001,1,3,403.1622,301.1656
1,11,7,4,2,2,A,G,b,y,5,15,92001,1,1,335.2754,309.1522
1,11,7,4,2,2,A,G,b,y,5,15,92001,1,1,333.9443,370.3835
1,11,7,4,2,2,A,G,b,y,5,15,92001,1,3,427.1223,389.0191
1,11,7,4,2,2,A,G,b,y,5,15,92001,1,3,455.0757,379.7013
1,11,7,4,2,2,A,G,b,y,5,15,92001,1,3,489.6847,359.7346
1,11,7,4,2,2,A,G,b,y,5,15,92001,1,1,479.0358,443.5948
1,11,7,4,2,2,A,G,b,y,5,15,92001,1,1,597.505,330.4501
1,11,7,4,2,2,A,G,b,y,5,15,93001,1,1,558.9027,124.1273
1,11,7,4,2,2,A,G,b,y,5,15,93001,1,1,593.5116,169.3852
1,11,7,4,2,2,A,G,b,y,5,15,93001,1,1,452.4135,120.1339
1,11,7,4,2,2,A,G,b,y,5,15,93001,1,3,415.1423,138.7696
1,11,7,4,2,2,A,G,b,y,5,15,93001,1,1,399.1689,211.9809
1,11,7,4,2,2,A,G,b,y,5,15,93001,1,1,341.9309,242.5965
1,11,7,4,2,2,A,G,b,y,5,15,93001,1,1,252.7463,177.3719
1,11,7,4,2,2,A,G,b,y,5,15,93001,1,1,236.7729,277.2055
1,11,7,4,2,2,A,G,b,y,5,15,93001,1,3,323.2953,294.51
1,11,7,4,2,2,A,G,b,y,5,15,93001,1,1,349.9176,326.4567
1,11,7,4,2,2,A,G,b,y,5,15,93001,1,1,317.9709,350.4168
1,11,7,4,2,2,A,G,b,y,5,15,93001,1,3,443.0957,361.0657
1,11,7,4,2,2,A,G,b,y,5,15,93001,1,3,471.0491,357.0724
1,11,7,4,2,2,A,G,b,y,5,15,93001,1,3,448.4201,420.9659
1,11,7,4,2,2,A,G,b,y,5,15,93001,1,1,468.3869,470.2171
1,11,7,4,2,2,A,G,b,y,5,15,94001,1,1,534.9426,92.1805
1,11,7,4,2,2,A,G,b,y,5,15,94001,1,1,584.1938,176.0408
1,11,7,4,2,2,A,G,b,y,5,15,94001,1,1,506.9892,157.4052
1,11,7,4,2,2,A,G,b,y,5,15,94001,1,3,427.1223,178.703
1,11,7,4,2,2,A,G,b,y,5,15,94001,1,1,412.48,205.3253
1,11,7,4,2,2,A,G,b,y,5,15,94001,1,3,368.5532,233.2787
1,11,7,4,2,2,A,G,b,y,5,15,94001,1,1,244.7596,181.3652
1,11,7,4,2,2,A,G,b,y,5,15,94001,1,1,333.9443,263.8943
1,11,7,4,2,2,A,G,b,y,5,15,94001,1,1,228.7862,282.53
1,11,7,4,2,2,A,G,b,y,5,15,94001,1,1,301.9975,334.4434
1,11,7,4,2,2,A,G,b,y,5,15,94001,1,1,400.5,375.708
1,11,7,4,2,2,A,G,b,y,5,15,94001,1,1,315.3087,431.6148
1,11,7,4,2,2,A,G,b,y,5,15,94001,1,3,456.4068,410.317
1,11,7,4,2,2,A,G,b,y,5,15,94001,1,3,476.3735,370.3835
1,11,7,4,2,2,A,G,b,y,5,15,94001,1,3,497.6714,291.8478
1,11,7,4,2,2,A,G,b,y,5,15,95001,1,1,533.6115,92.1805
1,11,7,4,2,2,A,G,b,y,5,15,95001,1,1,584.1938,168.0541
1,11,7,4,2,2,A,G,b,y,5,15,95001,1,1,496.3403,194.6764
1,11,7,4,2,2,A,G,b,y,5,15,95001,1,3,455.0757,201.3319
1,11,7,4,2,2,A,G,b,y,5,15,95001,1,3,377.871,227.9542
1,11,7,4,2,2,A,G,b,y,5,15,95001,1,1,347.2554,188.0208
1,11,7,4,2,2,A,G,b,y,5,15,95001,1,1,247.4218,166.723
1,11,7,4,2,2,A,G,b,y,5,15,95001,1,1,336.6065,246.5899
1,11,7,4,2,2,A,G,b,y,5,15,95001,1,1,236.7729,289.1855
1,11,7,4,2,2,A,G,b,y,5,15,95001,1,1,299.3353,341.099
1,11,7,4,2,2,A,G,b,y,5,15,95001,1,1,308.6531,420.9659
1,11,7,4,2,2,A,G,b,y,5,15,95001,1,1,387.1889,373.0458
1,11,7,4,2,2,A,G,b,y,5,15,95001,1,3,409.8178,418.3037
1,11,7,4,2,2,A,G,b,y,5,15,95001,1,3,447.089,399.6681
1,11,7,4,2,2,A,G,b,y,5,15,95001,1,3,468.3869,361.0657
1,11,7,4,2,2,A,G,b,y,5,15,96001,1,1,501.6647,121.4651
1,11,7,4,2,2,A,G,b,y,5,15,96001,1,1,600.1672,169.3852
1,11,7,4,2,2,A,G,b,y,5,15,96001,1,3,451.0824,196.0075
1,11,7,4,2,2,A,G,b,y,5,15,96001,1,3,385.8577,223.9609
1,11,7,4,2,2,A,G,b,y,5,15,96001,1,1,502.9958,278.5366
1,11,7,4,2,2,A,G,b,y,5,15,96001,1,1,343.2621,267.8877
1,11,7,4,2,2,A,G,b,y,5,15,96001,1,1,340.5998,197.3386
1,11,7,4,2,2,A,G,b,y,5,15,96001,1,1,252.7463,181.3652
1,11,7,4,2,2,A,G,b,y,5,15,96001,1,1,252.7463,278.5366
1,11,7,4,2,2,A,G,b,y,5,15,96001,1,1,296.673,321.1323
1,11,7,4,2,2,A,G,b,y,5,15,96001,1,1,377.871,357.0724
1,11,7,4,2,2,A,G,b,y,5,15,96001,1,3,428.4534,349.0857
1,11,7,4,2,2,A,G,b,y,5,15,96001,1,3,421.7978,391.6814
1,11,7,4,2,2,A,G,b,y,5,15,96001,1,3,468.3869,389.0191
1,11,7,4,2,2,A,G,b,y,5,15,96001,1,1,321.9642,416.9725
1,11,7,4,2,2,A,G,b,y,5,15,97001,1,1,251.4151,181.3652
1,11,7,4,2,2,A,G,b,y,5,15,97001,1,1,343.2621,196.0075
1,11,7,4,2,2,A,G,b,y,5,15,97001,1,1,433.7779,169.3852
1,11,7,4,2,2,A,G,b,y,5,15,97001,1,1,473.7113,165.3918
1,11,7,4,2,2,A,G,b,y,5,15,97001,1,1,588.1872,173.3785
1,11,7,4,2,2,A,G,b,y,5,15,97001,1,3,463.0624,213.312
1,11,7,4,2,2,A,G,b,y,5,15,97001,1,3,393.8444,227.9542
1,11,7,4,2,2,A,G,b,y,5,15,97001,1,1,344.5932,251.9143
1,11,7,4,2,2,A,G,b,y,5,15,97001,1,1,248.7529,279.8677
1,11,7,4,2,2,A,G,b,y,5,15,97001,1,1,301.9975,331.7812
1,11,7,4,2,2,A,G,b,y,5,15,97001,1,1,373.8777,347.7546
1,11,7,4,2,2,A,G,b,y,5,15,97001,1,1,312.6464,424.9592
1,11,7,4,2,2,A,G,b,y,5,15,97001,1,3,404.4933,407.6547
1,11,7,4,2,2,A,G,b,y,5,15,97001,1,3,439.1023,363.728
1,11,7,4,2,2,A,G,b,y,5,15,97001,1,3,444.4268,394.3436
1,11,7,4,2,2,A,G,b,y,5,15,98001,1,3,529.6181,446.2571
1,11,7,4,2,2,A,G,b,y,5,15,98001,1,3,415.1423,393.0125
1,11,7,4,2,2,A,G,b,y,5,15,98001,1,3,435.109,345.0923
1,11,7,4,2,2,A,G,b,y,5,15,98001,1,3,404.4933,235.9409
1,11,7,4,2,2,A,G,b,y,5,15,98001,1,3,525.6248,231.9476
1,11,7,4,2,2,A,G,b,y,5,15,98001,1,1,606.8228,170.7163
1,11,7,4,2,2,A,G,b,y,5,15,98001,1,1,556.2404,136.1073
1,11,7,4,2,2,A,G,b,y,5,15,98001,1,1,456.4068,117.4717
1,11,7,4,2,2,A,G,b,y,5,15,98001,1,1,344.5932,192.0141
1,11,7,4,2,2,A,G,b,y,5,15,98001,1,1,256.7396,188.0208
1,11,7,4,2,2,A,G,b,y,5,15,98001,1,1,252.7463,293.1789
1,11,7,4,2,2,A,G,b,y,5,15,98001,1,1,337.9376,259.901
1,11,7,4,2,2,A,G,b,y,5,15,98001,1,1,304.6597,325.1256
1,11,7,4,2,2,A,G,b,y,5,15,98001,1,1,387.1889,331.7812
1,11,7,4,2,2,A,G,b,y,5,15,98001,1,1,349.9176,391.6814
1,11,7,4,2,2,A,G,b,y,5,15,99001,1,1,250.084,178.703
1,11,7,4,2,2,A,G,b,y,5,15,99001,1,1,321.9642,186.6897
1,11,7,4,2,2,A,G,b,y,5,15,99001,1,1,451.0824,108.1539
1,11,7,4,2,2,A,G,b,y,5,15,99001,1,1,533.6115,154.7429
1,11,7,4,2,2,A,G,b,y,5,15,99001,1,1,566.8894,141.4318
1,11,7,4,2,2,A,G,b,y,5,15,99001,1,3,504.327,233.2787
1,11,7,4,2,2,A,G,b,y,5,15,99001,1,3,396.5067,235.9409
1,11,7,4,2,2,A,G,b,y,5,15,99001,1,1,327.2887,265.2255
1,11,7,4,2,2,A,G,b,y,5,15,99001,1,1,247.4218,279.8677
1,11,7,4,2,2,A,G,b,y,5,15,99001,1,1,296.673,341.099
1,11,7,4,2,2,A,G,b,y,5,15,99001,1,1,340.5998,366.3902
1,11,7,4,2,2,A,G,b,y,5,15,99001,1,1,392.5133,322.4634
1,11,7,4,2,2,A,G,b,y,5,15,99001,1,3,405.8245,363.728
1,11,7,4,2,2,A,G,b,y,5,15,99001,1,3,396.5067,411.6481
1,11,7,4,2,2,A,G,b,y,5,15,99001,1,3,448.4201,366.3902
1,11,7,4,2,2,A,G,b,y,5,15,100001,1,1,582.8627,149.4185
1,11,7,4,2,2,A,G,b,y,5,15,100001,1,1,457.7379,130.7829
1,11,7,4,2,2,A,G,b,y,5,15,100001,1,1,348.5865,192.0141
1,11,7,4,2,2,A,G,b,y,5,15,100001,1,1,260.7329,176.0408
1,11,7,4,2,2,A,G,b,y,5,15,100001,1,1,242.0973,291.8478
1,11,7,4,2,2,A,G,b,y,5,15,100001,1,1,294.0108,273.2121
1,11,7,4,2,2,A,G,b,y,5,15,100001,1,1,353.911,246.5899
1,11,7,4,2,2,A,G,b,y,5,15,100001,1,1,375.2088,283.8611
1,11,7,4,2,2,A,G,b,y,5,15,100001,1,1,292.6797,329.119
1,11,7,4,2,2,A,G,b,y,5,15,100001,1,3,324.6265,326.4567
1,11,7,4,2,2,A,G,b,y,5,15,100001,1,3,388.52,353.079
1,11,7,4,2,2,A,G,b,y,5,15,100001,1,3,437.7712,361.0657
1,11,7,4,2,2,A,G,b,y,5,15,100001,1,3,403.1622,234.6098
1,11,7,4,2,2,A,G,b,y,5,15,100001,1,3,522.9626,247.921
1,11,7,4,2,2,A,G,b,y,5,15,101001,1,1,420.4667,42.9293
1,11,7,4,2,2,A,G,b,y,5,15,101001,1,1,441.7646,85.525
1,11,7,4,2,2,A,G,b,y,5,15,101001,1,1,569.5516,152.0807
1,11,7,4,2,2,A,G,b,y,5,15,101001,1,1,352.5799,184.0275
1,11,7,4,2,2,A,G,b,y,5,15,101001,1,1,264.7263,181.3652
1,11,7,4,2,2,A,G,b,y,5,15,101001,1,1,333.9443,251.9143
1,11,7,4,2,2,A,G,b,y,5,15,101001,1,3,419.1356,255.9077
1,11,7,4,2,2,A,G,b,y,5,15,101001,1,3,517.6381,233.2787
1,11,7,4,2,2,A,G,b,y,5,15,101001,1,1,320.6331,295.8411
1,11,7,4,2,2,A,G,b,y,5,15,101001,1,1,259.4018,297.1722
1,11,7,4,2,2,A,G,b,y,5,15,101001,1,1,283.3619,327.7879
1,11,7,4,2,2,A,G,b,y,5,15,101001,1,3,343.2621,291.8478
1,11,7,4,2,2,A,G,b,y,5,15,101001,1,1,377.871,299.8344
1,11,7,4,2,2,A,G,b,y,5,15,101001,1,3,405.8245,327.7879
1,11,7,4,2,2,A,G,b,y,5,15,101001,1,3,439.1023,353.079
1,11,7,4,2,2,A,G,b,y,5,15,102001,1,1,437.7712,53.5782
1,11,7,4,2,2,A,G,b,y,5,15,102001,1,1,570.8827,144.094
1,11,7,4,2,2,A,G,b,y,5,15,102001,1,1,391.1822,113.4784
1,11,7,4,2,2,A,G,b,y,5,15,102001,1,1,337.9376,180.0341
1,11,7,4,2,2,A,G,b,y,5,15,102001,1,1,248.7529,185.3586
1,11,7,4,2,2,A,G,b,y,5,15,102001,1,1,294.0108,234.6098
1,11,7,4,2,2,A,G,b,y,5,15,102001,1,1,348.5865,247.921
1,11,7,4,2,2,A,G,b,y,5,15,102001,1,1,247.4218,298.5033
1,11,7,4,2,2,A,G,b,y,5,15,102001,1,1,288.6864,355.7413
1,11,7,4,2,2,A,G,b,y,5,15,102001,1,1,348.5865,299.8344
1,11,7,4,2,2,A,G,b,y,5,15,102001,1,3,299.3353,303.8278
1,11,7,4,2,2,A,G,b,y,5,15,102001,1,3,336.6065,362.3968
1,11,7,4,2,2,A,G,b,y,5,15,102001,1,3,436.4401,351.7479
1,11,7,4,2,2,A,G,b,y,5,15,102001,1,3,481.698,343.7612
1,11,7,4,2,2,A,G,b,y,5,15,102001,1,3,505.6581,273.2121
1,11,7,4,2,2,A,G,b,y,5,15,103001,1,1,576.2072,136.1073
1,11,7,4,2,2,A,G,b,y,5,15,103001,1,1,440.4334,60.2338
1,11,7,4,2,2,A,G,b,y,5,15,103001,1,1,377.871,125.4584
1,11,7,4,2,2,A,G,b,y,5,15,103001,1,1,340.5998,182.6963
1,11,7,4,2,2,A,G,b,y,5,15,103001,1,1,242.0973,182.6963
1,11,7,4,2,2,A,G,b,y,5,15,103001,1,1,361.8977,265.2255
1,11,7,4,2,2,A,G,b,y,5,15,103001,1,1,349.9176,293.1789
1,11,7,4,2,2,A,G,b,y,5,15,103001,1,1,401.8311,302.4967
1,11,7,4,2,2,A,G,b,y,5,15,103001,1,1,254.0774,306.49
1,11,7,4,2,2,A,G,b,y,5,15,103001,1,1,290.0175,341.099
1,11,7,4,2,2,A,G,b,y,5,15,103001,1,3,308.6531,309.1522
1,11,7,4,2,2,A,G,b,y,5,15,103001,1,3,335.2754,351.7479
1,11,7,4,2,2,A,G,b,y,5,15,103001,1,3,439.1023,346.4235
1,11,7,4,2,2,A,G,b,y,5,15,103001,1,3,469.718,275.8744
1,11,7,4,2,2,A,G,b,y,5,15,103001,1,3,465.7246,217.3053
1,11,7,4,2,2,A,G,b,y,5,15,104001,1,1,443.0957,76.2072
1,11,7,4,2,2,A,G,b,y,5,15,104001,1,1,487.0225,90.8494
1,11,7,4,2,2,A,G,b,y,5,15,104001,1,1,384.5266,129.4517
1,11,7,4,2,2,A,G,b,y,5,15,104001,1,1,327.2887,178.703
1,11,7,4,2,2,A,G,b,y,5,15,104001,1,1,236.7729,181.3652
1,11,7,4,2,2,A,G,b,y,5,15,104001,1,3,385.8577,229.2854
1,11,7,4,2,2,A,G,b,y,5,15,104001,1,3,483.0291,238.6032
1,11,7,4,2,2,A,G,b,y,5,15,104001,1,3,553.5782,250.5832
1,11,7,4,2,2,A,G,b,y,5,15,104001,1,1,425.7912,277.2055
1,11,7,4,2,2,A,G,b,y,5,15,104001,1,1,387.1889,286.5233
1,11,7,4,2,2,A,G,b,y,5,15,104001,1,1,368.5532,314.4767
1,11,7,4,2,2,A,G,b,y,5,15,104001,1,1,244.7596,303.8278
1,11,7,4,2,2,A,G,b,y,5,15,104001,1,1,320.6331,402.3303
1,11,7,4,2,2,A,G,b,y,5,15,104001,1,3,331.282,345.0923
1,11,7,4,2,2,A,G,b,y,5,15,104001,1,3,431.1156,370.3835
1,11,7,4,2,2,A,G,b,y,5,15,105001,1,1,377.871,50.916
1,11,7,4,2,2,A,G,b,y,5,15,105001,1,3,331.282,125.4584
1,11,7,4,2,2,A,G,b,y,5,15,105001,1,3,392.5133,178.703
1,11,7,4,2,2,A,G,b,y,5,15,105001,1,1,435.109,242.5965
1,11,7,4,2,2,A,G,b,y,5,15,105001,1,3,493.678,286.5233
1,11,7,4,2,2,A,G,b,y,5,15,105001,1,1,320.6331,188.0208
1,11,7,4,2,2,A,G,b,y,5,15,105001,1,1,279.3686,150.7496
1,11,7,4,2,2,A,G,b,y,5,15,105001,1,1,252.7463,192.0141
1,11,7,4,2,2,A,G,b,y,5,15,105001,1,1,405.8245,285.1922
1,11,7,4,2,2,A,G,b,y,5,15,105001,1,1,376.5399,309.1522
1,11,7,4,2,2,A,G,b,y,5,15,105001,1,1,324.6265,397.0058
1,11,7,4,2,2,A,G,b,y,5,15,105001,1,1,240.7662,311.8145
1,11,7,4,2,2,A,G,b,y,5,15,105001,1,3,311.3153,333.1123
1,11,7,4,2,2,A,G,b,y,5,15,105001,1,3,445.7579,369.0524
1,11,7,4,2,2,A,G,b,y,5,15,106001,1,1,298.0042,96.1739
1,11,7,4,2,2,A,G,b,y,5,15,106001,1,1,290.0175,149.4185
1,11,7,4,2,2,A,G,b,y,5,15,106001,1,1,328.6198,184.0275
1,11,7,4,2,2,A,G,b,y,5,15,106001,1,1,256.7396,193.3453
1,11,7,4,2,2,A,G,b,y,5,15,106001,1,3,304.6597,298.5033
1,11,7,4,2,2,A,G,b,y,5,15,106001,1,3,363.2288,247.921
1,11,7,4,2,2,A,G,b,y,5,15,106001,1,3,505.6581,201.3319
1,11,7,4,2,2,A,G,b,y,5,15,106001,1,1,443.0957,227.9542
1,11,7,4,2,2,A,G,b,y,5,15,106001,1,1,385.8577,271.881
1,11,7,4,2,2,A,G,b,y,5,15,106001,1,1,367.2221,314.4767
1,11,7,4,2,2,A,G,b,y,5,15,106001,1,3,424.4601,362.3968
1,11,7,4,2,2,A,G,b,y,5,15,106001,1,3,465.7246,341.099
1,11,7,4,2,2,A,G,b,y,5,15,106001,1,1,332.6131,394.3436
1,11,7,4,2,2,A,G,b,y,5,15,106001,1,1,252.7463,390.3502
1,11,7,4,2,2,A,G,b,y,5,15,107001,1,1,319.302,177.3719
1,11,7,4,2,2,A,G,b,y,5,15,107001,1,1,400.5,134.7762
1,11,7,4,2,2,A,G,b,y,5,15,107001,1,3,461.7313,156.074
1,11,7,4,2,2,A,G,b,y,5,15,107001,1,3,363.2288,223.9609
1,11,7,4,2,2,A,G,b,y,5,15,107001,1,3,280.6997,295.8411
1,11,7,4,2,2,A,G,b,y,5,15,107001,1,1,188.8527,313.1456
1,11,7,4,2,2,A,G,b,y,5,15,107001,1,1,240.7662,281.1988
1,11,7,4,2,2,A,G,b,y,5,15,107001,1,1,256.7396,379.7013
1,11,7,4,2,2,A,G,b,y,5,15,107001,1,1,307.322,386.3569
1,11,7,4,2,2,A,G,b,y,5,15,107001,1,1,363.2288,330.4501
1,11,7,4,2,2,A,G,b,y,5,15,107001,1,1,388.52,287.8544
1,11,7,4,2,2,A,G,b,y,5,15,107001,1,1,439.1023,235.9409
1,11,7,4,2,2,A,G,b,y,5,15,107001,1,3,464.3935,363.728
1,11,7,4,2,2,A,G,b,y,5,15,107001,1,3,477.7047,334.4434
