dummy,month,day,period,view,station,fgeno,mgeno,fcol,mcol,nf,nm,frame,something,sex,x,y
1,6,30,3,3,2,A,F,r,g,10,10,1,1,1,182.0385,381.1154
1,6,30,3,3,2,A,F,r,g,10,10,1,1,3,337.1154,552.1923
1,6,30,3,3,2,A,F,r,g,10,10,1,1,3,412.1923,283.8846
1,6,30,3,3,2,A,F,r,g,10,10,1,1,2,482.3462,329.4231
1,6,30,3,3,2,A,F,r,g,10,10,1,1,3,566.0385,267.8846
1,6,30,3,3,2,A,F,r,g,10,10,1,1,1,563.5769,320.8077
1,6,30,3,3,2,A,F,r,g,10,10,1,1,1,593.1154,224.8077
1,6,30,3,3,2,A,F,r,g,10,10,1,1,3,598.0385,272.8077
1,6,30,3,3,2,A,F,r,g,10,10,1001,1,1,227.5769,120.1923
1,6,30,3,3,2,A,F,r,g,10,10,1001,1,1,179.5769,178.0385
1,6,30,3,3,2,A,F,r,g,10,10,1001,1,1,182.0385,308.5
1,6,30,3,3,2,A,F,r,g,10,10,1001,1,3,362.9615,326.9615
1,6,30,3,3,2,A,F,r,g,10,10,1001,1,1,392.5,350.3462
1,6,30,3,3,2,A,F,r,g,10,10,1001,1,3,455.2692,267.8846
1,6,30,3,3,2,A,F,r,g,10,10,1001,1,2,478.6538,330.6538
1,6,30,3,3,2,A,F,r,g,10,10,1001,1,1,573.4231,310.9615
1,6,30,3,3,2,A,F,r,g,10,10,1001,1,3,568.5,261.7308
1,6,30,3,3,2,A,F,r,g,10,10,1001,1,3,321.1154,552.1923
1,6,30,3,3,2,A,F,r,g,10,10,2001,1,3,387.5769,562.0385
1,6,30,3,3,2,A,F,r,g,10,10,2001,1,1,447.8846,307.2692
1,6,30,3,3,2,A,F,r,g,10,10,2001,1,1,439.2692,243.2692
1,6,30,3,3,2,A,F,r,g,10,10,2001,1,3,455.2692,267.8846
1,6,30,3,3,2,A,F,r,g,10,10,2001,1,3,494.6538,331.8846
1,6,30,3,3,2,A,F,r,g,10,10,2001,1,3,529.1154,240.8077
1,6,30,3,3,2,A,F,r,g,10,10,2001,1,3,595.5769,293.7308
1,6,30,3,3,2,A,F,r,g,10,10,3001,1,3,377.7308,563.2692
1,6,30,3,3,2,A,F,r,g,10,10,3001,1,3,420.8077,281.4231
1,6,30,3,3,2,A,F,r,g,10,10,3001,1,2,486.0385,331.8846
1,6,30,3,3,2,A,F,r,g,10,10,3001,1,3,522.9615,315.8846
1,6,30,3,3,2,A,F,r,g,10,10,3001,1,3,497.1154,102.9615
1,6,30,3,3,2,A,F,r,g,10,10,3001,1,1,403.5769,99.2692
1,6,30,3,3,2,A,F,r,g,10,10,4001,1,3,358.0385,564.5
1,6,30,3,3,2,A,F,r,g,10,10,4001,1,1,301.4231,536.1923
1,6,30,3,3,2,A,F,r,g,10,10,4001,1,1,534.0385,506.6538
1,6,30,3,3,2,A,F,r,g,10,10,4001,1,2,424.5,319.5769
1,6,30,3,3,2,A,F,r,g,10,10,4001,1,3,451.5769,256.8077
1,6,30,3,3,2,A,F,r,g,10,10,4001,1,3,502.0385,178.0385
1,6,30,3,3,2,A,F,r,g,10,10,4001,1,1,431.8846,115.2692
1,6,30,3,3,2,A,F,r,g,10,10,4001,1,3,466.3462,105.4231
1,6,30,3,3,2,A,F,r,g,10,10,4001,1,1,504.5,114.0385
1,6,30,3,3,2,A,F,r,g,10,10,4001,1,1,499.5769,89.4231
1,6,30,3,3,2,A,F,r,g,10,10,5001,1,3,302.6538,506.6538
1,6,30,3,3,2,A,F,r,g,10,10,5001,1,2,402.3462,351.5769
1,6,30,3,3,2,A,F,r,g,10,10,5001,1,3,522.9615,285.1154
1,6,30,3,3,2,A,F,r,g,10,10,5001,1,3,566.0385,207.5769
1,6,30,3,3,2,A,F,r,g,10,10,5001,1,1,503.2692,180.5
1,6,30,3,3,2,A,F,r,g,10,10,5001,1,3,520.5,149.7308
1,6,30,3,3,2,A,F,r,g,10,10,5001,1,1,554.9615,139.8846
1,6,30,3,3,2,A,F,r,g,10,10,6001,1,3,228.8077,498.0385
1,6,30,3,3,2,A,F,r,g,10,10,6001,1,2,397.4231,276.5
1,6,30,3,3,2,A,F,r,g,10,10,6001,1,1,415.8846,233.4231
1,6,30,3,3,2,A,F,r,g,10,10,6001,1,1,370.3462,201.4231
1,6,30,3,3,2,A,F,r,g,10,10,6001,1,3,418.3462,164.5
1,6,30,3,3,2,A,F,r,g,10,10,6001,1,3,497.1154,95.5769
1,6,30,3,3,2,A,F,r,g,10,10,6001,1,1,525.4231,123.8846
1,6,30,3,3,2,A,F,r,g,10,10,6001,1,1,510.6538,292.5
1,6,30,3,3,2,A,F,r,g,10,10,6001,1,3,543.8846,258.0385
1,6,30,3,3,2,A,F,r,g,10,10,7001,1,3,326.0385,557.1154
1,6,30,3,3,2,A,F,r,g,10,10,7001,1,1,456.5,448.8077
1,6,30,3,3,2,A,F,r,g,10,10,7001,1,3,514.3462,494.3462
1,6,30,3,3,2,A,F,r,g,10,10,7001,1,1,487.2692,271.5769
1,6,30,3,3,2,A,F,r,g,10,10,7001,1,1,515.5769,307.2692
1,6,30,3,3,2,A,F,r,g,10,10,7001,1,3,534.0385,264.1923
1,6,30,3,3,2,A,F,r,g,10,10,7001,1,1,483.5769,141.1154
1,6,30,3,3,2,A,F,r,g,10,10,7001,1,3,510.6538,123.8846
1,6,30,3,3,2,A,F,r,g,10,10,7001,1,2,558.6538,142.3462
1,6,30,3,3,2,A,F,r,g,10,10,8001,1,1,420.8077,538.6538
1,6,30,3,3,2,A,F,r,g,10,10,8001,1,3,446.6538,552.1923
1,6,30,3,3,2,A,F,r,g,10,10,8001,1,2,430.6538,570.6538
1,6,30,3,3,2,A,F,r,g,10,10,8001,1,3,505.7308,514.0385
1,6,30,3,3,2,A,F,r,g,10,10,8001,1,1,521.7308,302.3462
1,6,30,3,3,2,A,F,r,g,10,10,8001,1,3,522.9615,253.1154
1,6,30,3,3,2,A,F,r,g,10,10,8001,1,3,578.3462,234.6538
1,6,30,3,3,2,A,F,r,g,10,10,8001,1,2,621.4231,296.1923
1,6,30,3,3,2,A,F,r,g,10,10,9001,1,3,344.5,541.1154
1,6,30,3,3,2,A,F,r,g,10,10,9001,1,3,390.0385,352.8077
1,6,30,3,3,2,A,F,r,g,10,10,9001,1,1,499.5769,389.7308
1,6,30,3,3,2,A,F,r,g,10,10,9001,1,1,495.8846,447.5769
1,6,30,3,3,2,A,F,r,g,10,10,9001,1,1,534.0385,447.5769
1,6,30,3,3,2,A,F,r,g,10,10,9001,1,3,509.4231,468.5
1,6,30,3,3,2,A,F,r,g,10,10,9001,1,1,538.9615,246.9615
1,6,30,3,3,2,A,F,r,g,10,10,9001,1,3,553.7308,210.0385
1,6,30,3,3,2,A,F,r,g,10,10,9001,1,3,596.8077,194.0385
1,6,30,3,3,2,A,F,r,g,10,10,10001,1,3,344.5,557.1154
1,6,30,3,3,2,A,F,r,g,10,10,10001,1,3,518.0385,506.6538
1,6,30,3,3,2,A,F,r,g,10,10,10001,1,2,511.8846,274.0385
1,6,30,3,3,2,A,F,r,g,10,10,10001,1,1,477.4231,228.5
1,6,30,3,3,2,A,F,r,g,10,10,10001,1,3,542.6538,258.0385
1,6,30,3,3,2,A,F,r,g,10,10,10001,1,3,522.9615,133.7308
1,6,30,3,3,2,A,F,r,g,10,10,10001,1,1,550.0385,133.7308
1,6,30,3,3,2,A,F,r,g,10,10,10001,1,2,584.5,130.0385
1,6,30,3,3,2,A,F,r,g,10,10,11001,1,3,374.0385,562.0385
1,6,30,3,3,2,A,F,r,g,10,10,11001,1,1,231.2692,435.2692
1,6,30,3,3,2,A,F,r,g,10,10,11001,1,2,423.2692,352.8077
1,6,30,3,3,2,A,F,r,g,10,10,11001,1,3,522.9615,495.5769
1,6,30,3,3,2,A,F,r,g,10,10,11001,1,3,547.5769,228.5
1,6,30,3,3,2,A,F,r,g,10,10,11001,1,3,522.9615,105.4231
1,6,30,3,3,2,A,F,r,g,10,10,12001,1,3,239.8846,507.8846
1,6,30,3,3,2,A,F,r,g,10,10,12001,1,3,516.8077,523.8846
1,6,30,3,3,2,A,F,r,g,10,10,12001,1,3,557.4231,452.5
1,6,30,3,3,2,A,F,r,g,10,10,12001,1,3,577.1154,256.8077
1,6,30,3,3,2,A,F,r,g,10,10,12001,1,1,552.5,168.1923
1,6,30,3,3,2,A,F,r,g,10,10,12001,1,3,594.3462,168.1923
1,6,30,3,3,2,A,F,r,g,10,10,12001,1,1,617.7308,232.1923
1,6,30,3,3,2,A,F,r,g,10,10,13001,1,3,237.4231,521.4231
1,6,30,3,3,2,A,F,r,g,10,10,13001,1,3,393.7308,384.8077
1,6,30,3,3,2,A,F,r,g,10,10,13001,1,1,424.5,333.1154
1,6,30,3,3,2,A,F,r,g,10,10,13001,1,3,494.6538,458.6538
1,6,30,3,3,2,A,F,r,g,10,10,13001,1,3,538.9615,408.1923
1,6,30,3,3,2,A,F,r,g,10,10,13001,1,3,493.4231,249.4231
1,6,30,3,3,2,A,F,r,g,10,10,13001,1,1,530.3462,253.1154
1,6,30,3,3,2,A,F,r,g,10,10,14001,1,2,482.3462,358.9615
1,6,30,3,3,2,A,F,r,g,10,10,14001,1,3,509.4231,461.1154
1,6,30,3,3,2,A,F,r,g,10,10,14001,1,3,234.9615,518.9615
1,6,30,3,3,2,A,F,r,g,10,10,14001,1,1,372.8077,360.1923
1,6,30,3,3,2,A,F,r,g,10,10,14001,1,1,387.5769,326.9615
1,6,30,3,3,2,A,F,r,g,10,10,14001,1,3,401.1154,303.5769
1,6,30,3,3,2,A,F,r,g,10,10,14001,1,1,506.9615,137.4231
1,6,30,3,3,2,A,F,r,g,10,10,14001,1,3,494.6538,106.6538
1,6,30,3,3,2,A,F,r,g,10,10,14001,1,1,625.1154,192.8077
1,6,30,3,3,2,A,F,r,g,10,10,15001,1,3,346.9615,506.6538
1,6,30,3,3,2,A,F,r,g,10,10,15001,1,3,509.4231,499.2692
1,6,30,3,3,2,A,F,r,g,10,10,15001,1,2,431.8846,383.5769
1,6,30,3,3,2,A,F,r,g,10,10,15001,1,3,140.1923,370.0385
1,6,30,3,3,2,A,F,r,g,10,10,15001,1,1,148.8077,222.3462
1,6,30,3,3,2,A,F,r,g,10,10,15001,1,1,239.8846,107.8846
1,6,30,3,3,2,A,F,r,g,10,10,15001,1,3,290.3462,79.5769
1,6,30,3,3,2,A,F,r,g,10,10,15001,1,1,344.5,83.2692
1,6,30,3,3,2,A,F,r,g,10,10,16001,1,3,476.1923,504.1923
1,6,30,3,3,2,A,F,r,g,10,10,16001,1,1,503.2692,498.0385
1,6,30,3,3,2,A,F,r,g,10,10,16001,1,3,130.3462,266.6538
1,6,30,3,3,2,A,F,r,g,10,10,16001,1,3,143.8846,224.8077
1,6,30,3,3,2,A,F,r,g,10,10,16001,1,1,184.5,216.1923
1,6,30,3,3,2,A,F,r,g,10,10,16001,1,1,212.8077,249.4231
1,6,30,3,3,2,A,F,r,g,10,10,16001,1,2,211.5769,130.0385
1,6,30,3,3,2,A,F,r,g,10,10,16001,1,1,246.0385,148.5
1,6,30,3,3,2,A,F,r,g,10,10,16001,1,3,247.2692,100.5
1,6,30,3,3,2,A,F,r,g,10,10,17001,1,3,483.5769,504.1923
1,6,30,3,3,2,A,F,r,g,10,10,17001,1,2,522.9615,514.0385
1,6,30,3,3,2,A,F,r,g,10,10,17001,1,1,479.8846,461.1154
1,6,30,3,3,2,A,F,r,g,10,10,17001,1,1,450.3462,436.5
1,6,30,3,3,2,A,F,r,g,10,10,17001,1,3,471.2692,409.4231
1,6,30,3,3,2,A,F,r,g,10,10,17001,1,3,398.6538,347.8846
1,6,30,3,3,2,A,F,r,g,10,10,17001,1,3,145.1154,194.0385
1,6,30,3,3,2,A,F,r,g,10,10,17001,1,2,259.5769,80.8077
1,6,30,3,3,2,A,F,r,g,10,10,17001,1,1,362.9615,73.4231
1,6,30,3,3,2,A,F,r,g,10,10,18001,1,2,263.2692,73.4231
1,6,30,3,3,2,A,F,r,g,10,10,18001,1,3,204.1923,126.3462
1,6,30,3,3,2,A,F,r,g,10,10,18001,1,3,184.5,342.9615
1,6,30,3,3,2,A,F,r,g,10,10,18001,1,3,386.3462,370.0385
1,6,30,3,3,2,A,F,r,g,10,10,18001,1,3,522.9615,459.8846
1,6,30,3,3,2,A,F,r,g,10,10,18001,1,1,531.5769,491.8846
1,6,30,3,3,2,A,F,r,g,10,10,19001,1,2,276.8077,67.2692
1,6,30,3,3,2,A,F,r,g,10,10,19001,1,3,218.9615,110.3462
1,6,30,3,3,2,A,F,r,g,10,10,19001,1,3,180.8077,205.1154
1,6,30,3,3,2,A,F,r,g,10,10,19001,1,3,371.5769,370.0385
1,6,30,3,3,2,A,F,r,g,10,10,19001,1,1,447.8846,468.5
1,6,30,3,3,2,A,F,r,g,10,10,19001,1,1,461.4231,421.7308
1,6,30,3,3,2,A,F,r,g,10,10,19001,1,3,481.1154,459.8846
1,6,30,3,3,2,A,F,r,g,10,10,20001,1,3,314.9615,128.8077
1,6,30,3,3,2,A,F,r,g,10,10,20001,1,3,260.8077,133.7308
1,6,30,3,3,2,A,F,r,g,10,10,20001,1,1,231.2692,170.6538
1,6,30,3,3,2,A,F,r,g,10,10,20001,1,1,340.8077,339.2692
1,6,30,3,3,2,A,F,r,g,10,10,20001,1,3,382.6538,371.2692
1,6,30,3,3,2,A,F,r,g,10,10,20001,1,3,455.2692,393.4231
1,6,30,3,3,2,A,F,r,g,10,10,20001,1,1,447.8846,431.5769
1,6,30,3,3,2,A,F,r,g,10,10,21001,1,2,407.2692,111.5769
1,6,30,3,3,2,A,F,r,g,10,10,21001,1,1,366.6538,105.4231
1,6,30,3,3,2,A,F,r,g,10,10,21001,1,1,292.8077,120.1923
1,6,30,3,3,2,A,F,r,g,10,10,21001,1,3,216.5,126.3462
1,6,30,3,3,2,A,F,r,g,10,10,21001,1,2,383.8846,286.3462
1,6,30,3,3,2,A,F,r,g,10,10,21001,1,1,417.1154,329.4231
1,6,30,3,3,2,A,F,r,g,10,10,21001,1,1,433.1154,325.7308
1,6,30,3,3,2,A,F,r,g,10,10,21001,1,3,471.2692,381.1154
1,6,30,3,3,2,A,F,r,g,10,10,21001,1,3,390.0385,363.8846
1,6,30,3,3,2,A,F,r,g,10,10,22001,1,2,394.9615,338.0385
1,6,30,3,3,2,A,F,r,g,10,10,22001,1,3,298.9615,437.7308
1,6,30,3,3,2,A,F,r,g,10,10,22001,1,3,364.1923,404.5
1,6,30,3,3,2,A,F,r,g,10,10,22001,1,1,397.4231,381.1154
1,6,30,3,3,2,A,F,r,g,10,10,22001,1,1,413.4231,394.6538
1,6,30,3,3,2,A,F,r,g,10,10,22001,1,1,505.7308,427.8846
1,6,30,3,3,2,A,F,r,g,10,10,22001,1,3,493.4231,474.6538
1,6,30,3,3,2,A,F,r,g,10,10,22001,1,3,140.1923,187.8846
1,6,30,3,3,2,A,F,r,g,10,10,22001,1,1,250.9615,84.5
1,6,30,3,3,2,A,F,r,g,10,10,23001,1,3,502.0385,452.5
1,6,30,3,3,2,A,F,r,g,10,10,23001,1,2,403.5769,335.5769
1,6,30,3,3,2,A,F,r,g,10,10,23001,1,1,374.0385,360.1923
1,6,30,3,3,2,A,F,r,g,10,10,23001,1,1,314.9615,373.7308
1,6,30,3,3,2,A,F,r,g,10,10,23001,1,1,319.8846,426.6538
1,6,30,3,3,2,A,F,r,g,10,10,23001,1,3,308.8077,461.1154
1,6,30,3,3,2,A,F,r,g,10,10,23001,1,1,306.3462,479.5769
1,6,30,3,3,2,A,F,r,g,10,10,23001,1,3,265.7308,479.5769
1,6,30,3,3,2,A,F,r,g,10,10,23001,1,3,194.3462,126.3462
1,6,30,3,3,2,A,F,r,g,10,10,24001,1,3,488.5,483.2692
1,6,30,3,3,2,A,F,r,g,10,10,24001,1,1,506.9615,453.7308
1,6,30,3,3,2,A,F,r,g,10,10,24001,1,1,518.0385,390.9615
1,6,30,3,3,2,A,F,r,g,10,10,24001,1,2,387.5769,334.3462
1,6,30,3,3,2,A,F,r,g,10,10,24001,1,3,398.6538,93.1154
1,6,30,3,3,2,A,F,r,g,10,10,24001,1,3,193.1154,291.2692
1,6,30,3,3,2,A,F,r,g,10,10,24001,1,3,303.8846,451.2692
1,6,30,3,3,2,A,F,r,g,10,10,24001,1,1,334.6538,474.6538
1,6,30,3,3,2,A,F,r,g,10,10,24001,1,1,334.6538,443.8846
1,6,30,3,3,2,A,F,r,g,10,10,25001,1,3,524.1923,112.8077
1,6,30,3,3,2,A,F,r,g,10,10,25001,1,3,186.9615,283.8846
1,6,30,3,3,2,A,F,r,g,10,10,25001,1,3,262.0385,293.7308
1,6,30,3,3,2,A,F,r,g,10,10,25001,1,1,265.7308,329.4231
1,6,30,3,3,2,A,F,r,g,10,10,25001,1,2,392.5,340.5
1,6,30,3,3,2,A,F,r,g,10,10,25001,1,3,447.8846,404.5
1,6,30,3,3,2,A,F,r,g,10,10,25001,1,1,506.9615,414.3462
1,6,30,3,3,2,A,F,r,g,10,10,25001,1,1,515.5769,381.1154
1,6,30,3,3,2,A,F,r,g,10,10,26001,1,3,552.5,141.1154
1,6,30,3,3,2,A,F,r,g,10,10,26001,1,1,492.1923,100.5
1,6,30,3,3,2,A,F,r,g,10,10,26001,1,2,402.3462,339.2692
1,6,30,3,3,2,A,F,r,g,10,10,26001,1,3,321.1154,187.8846
1,6,30,3,3,2,A,F,r,g,10,10,26001,1,1,294.0385,223.5769
1,6,30,3,3,2,A,F,r,g,10,10,26001,1,3,177.1154,260.5
1,6,30,3,3,2,A,F,r,g,10,10,26001,1,3,349.4231,506.6538
1,6,30,3,3,2,A,F,r,g,10,10,26001,1,1,390.0385,528.8077
1,6,30,3,3,2,A,F,r,g,10,10,27001,1,3,164.8077,255.5769
1,6,30,3,3,2,A,F,r,g,10,10,27001,1,3,381.4231,275.2692
1,6,30,3,3,2,A,F,r,g,10,10,27001,1,1,442.9615,230.9615
1,6,30,3,3,2,A,F,r,g,10,10,27001,1,1,477.4231,106.6538
1,6,30,3,3,2,A,F,r,g,10,10,27001,1,3,499.5769,137.4231
1,6,30,3,3,2,A,F,r,g,10,10,27001,1,2,401.1154,301.1154
1,6,30,3,3,2,A,F,r,g,10,10,27001,1,1,370.3462,346.6538
1,6,30,3,3,2,A,F,r,g,10,10,27001,1,3,369.1154,406.9615
1,6,30,3,3,2,A,F,r,g,10,10,28001,1,3,179.5769,264.1923
1,6,30,3,3,2,A,F,r,g,10,10,28001,1,1,173.4231,214.9615
1,6,30,3,3,2,A,F,r,g,10,10,28001,1,1,221.4231,270.3462
1,6,30,3,3,2,A,F,r,g,10,10,28001,1,1,356.8077,325.7308
1,6,30,3,3,2,A,F,r,g,10,10,28001,1,3,391.2692,296.1923
1,6,30,3,3,2,A,F,r,g,10,10,28001,1,2,403.5769,293.7308
1,6,30,3,3,2,A,F,r,g,10,10,28001,1,3,403.5769,378.6538
1,6,30,3,3,2,A,F,r,g,10,10,28001,1,3,537.7308,111.5769
1,6,30,3,3,2,A,F,r,g,10,10,29001,1,3,545.1154,123.8846
1,6,30,3,3,2,A,F,r,g,10,10,29001,1,3,310.0385,214.9615
1,6,30,3,3,2,A,F,r,g,10,10,29001,1,3,174.6538,260.5
1,6,30,3,3,2,A,F,r,g,10,10,29001,1,1,167.2692,217.4231
1,6,30,3,3,2,A,F,r,g,10,10,29001,1,2,397.4231,282.6538
1,6,30,3,3,2,A,F,r,g,10,10,29001,1,3,401.1154,382.3462
1,6,30,3,3,2,A,F,r,g,10,10,29001,1,1,410.9615,354.0385
1,6,30,3,3,2,A,F,r,g,10,10,30001,1,3,572.1923,142.3462
1,6,30,3,3,2,A,F,r,g,10,10,30001,1,1,314.9615,255.5769
1,6,30,3,3,2,A,F,r,g,10,10,30001,1,1,175.8846,207.5769
1,6,30,3,3,2,A,F,r,g,10,10,30001,1,3,169.7308,254.3462
1,6,30,3,3,2,A,F,r,g,10,10,30001,1,3,201.7308,276.5
1,6,30,3,3,2,A,F,r,g,10,10,30001,1,2,367.8846,338.0385
1,6,30,3,3,2,A,F,r,g,10,10,30001,1,3,388.8077,386.0385
1,6,30,3,3,2,A,F,r,g,10,10,30001,1,1,410.9615,352.8077
1,6,30,3,3,2,A,F,r,g,10,10,31001,1,3,580.8077,144.8077
1,6,30,3,3,2,A,F,r,g,10,10,31001,1,3,194.3462,208.8077
1,6,30,3,3,2,A,F,r,g,10,10,31001,1,3,178.3462,269.1154
1,6,30,3,3,2,A,F,r,g,10,10,31001,1,1,295.2692,351.5769
1,6,30,3,3,2,A,F,r,g,10,10,31001,1,1,319.8846,324.5
1,6,30,3,3,2,A,F,r,g,10,10,31001,1,1,404.8077,346.6538
1,6,30,3,3,2,A,F,r,g,10,10,31001,1,3,390.0385,371.2692
1,6,30,3,3,2,A,F,r,g,10,10,31001,1,1,378.9615,430.3462
1,6,30,3,3,2,A,F,r,g,10,10,32001,1,3,584.5,137.4231
1,6,30,3,3,2,A,F,r,g,10,10,32001,1,3,291.5769,246.9615
1,6,30,3,3,2,A,F,r,g,10,10,32001,1,3,233.7308,296.1923
1,6,30,3,3,2,A,F,r,g,10,10,32001,1,1,269.4231,314.6538
1,6,30,3,3,2,A,F,r,g,10,10,32001,1,1,313.7308,342.9615
1,6,30,3,3,2,A,F,r,g,10,10,32001,1,1,372.8077,320.8077
1,6,30,3,3,2,A,F,r,g,10,10,32001,1,3,398.6538,299.8846
1,6,30,3,3,2,A,F,r,g,10,10,32001,1,3,397.4231,363.8846
1,6,30,3,3,2,A,F,r,g,10,10,32001,1,1,355.5769,410.6538
1,6,30,3,3,2,A,F,r,g,10,10,33001,1,3,573.4231,136.1923
1,6,30,3,3,2,A,F,r,g,10,10,33001,1,3,236.1923,164.5
1,6,30,3,3,2,A,F,r,g,10,10,33001,1,1,246.0385,154.6538
1,6,30,3,3,2,A,F,r,g,10,10,33001,1,1,275.5769,139.8846
1,6,30,3,3,2,A,F,r,g,10,10,33001,1,1,222.6538,290.0385
1,6,30,3,3,2,A,F,r,g,10,10,33001,1,2,385.1154,307.2692
1,6,30,3,3,2,A,F,r,g,10,10,33001,1,1,409.7308,301.1154
1,6,30,3,3,2,A,F,r,g,10,10,33001,1,3,403.5769,354.0385
1,6,30,3,3,2,A,F,r,g,10,10,33001,1,1,439.2692,404.5
1,6,30,3,3,2,A,F,r,g,10,10,33001,1,3,308.8077,395.8846
1,6,30,3,3,2,A,F,r,g,10,10,34001,1,3,568.5,142.3462
1,6,30,3,3,2,A,F,r,g,10,10,34001,1,1,470.0385,205.1154
1,6,30,3,3,2,A,F,r,g,10,10,34001,1,3,409.7308,293.7308
1,6,30,3,3,2,A,F,r,g,10,10,34001,1,3,402.3462,362.6538
1,6,30,3,3,2,A,F,r,g,10,10,34001,1,1,426.9615,345.4231
1,6,30,3,3,2,A,F,r,g,10,10,34001,1,1,460.1923,319.5769
1,6,30,3,3,2,A,F,r,g,10,10,34001,1,3,329.7308,349.1154
1,6,30,3,3,2,A,F,r,g,10,10,34001,1,1,266.9615,239.5769
1,6,30,3,3,2,A,F,r,g,10,10,34001,1,1,270.6538,185.4231
1,6,30,3,3,2,A,F,r,g,10,10,34001,1,3,223.8846,160.8077
1,6,30,3,3,2,A,F,r,g,10,10,35001,1,3,561.1154,141.1154
1,6,30,3,3,2,A,F,r,g,10,10,35001,1,1,446.6538,221.1154
1,6,30,3,3,2,A,F,r,g,10,10,35001,1,1,439.2692,296.1923
1,6,30,3,3,2,A,F,r,g,10,10,35001,1,1,387.5769,303.5769
1,6,30,3,3,2,A,F,r,g,10,10,35001,1,3,414.6538,351.5769
1,6,30,3,3,2,A,F,r,g,10,10,35001,1,2,403.5769,275.2692
1,6,30,3,3,2,A,F,r,g,10,10,35001,1,1,307.5769,99.2692
1,6,30,3,3,2,A,F,r,g,10,10,35001,1,3,303.8846,308.5
1,6,30,3,3,2,A,F,r,g,10,10,35001,1,1,204.1923,275.2692
1,6,30,3,3,2,A,F,r,g,10,10,35001,1,3,182.0385,265.4231
1,6,30,3,3,2,A,F,r,g,10,10,36001,1,3,180.8077,329.4231
1,6,30,3,3,2,A,F,r,g,10,10,36001,1,1,185.7308,377.4231
1,6,30,3,3,2,A,F,r,g,10,10,36001,1,3,308.8077,290.0385
1,6,30,3,3,2,A,F,r,g,10,10,36001,1,1,386.3462,339.2692
1,6,30,3,3,2,A,F,r,g,10,10,36001,1,1,399.8846,367.5769
1,6,30,3,3,2,A,F,r,g,10,10,36001,1,3,410.9615,333.1154
1,6,30,3,3,2,A,F,r,g,10,10,36001,1,2,415.8846,283.8846
1,6,30,3,3,2,A,F,r,g,10,10,36001,1,1,479.8846,333.1154
1,6,30,3,3,2,A,F,r,g,10,10,36001,1,3,567.2692,137.4231
1,6,30,3,3,2,A,F,r,g,10,10,37001,1,1,200.5,308.5
1,6,30,3,3,2,A,F,r,g,10,10,37001,1,1,145.1154,259.2692
1,6,30,3,3,2,A,F,r,g,10,10,37001,1,3,188.1923,255.5769
1,6,30,3,3,2,A,F,r,g,10,10,37001,1,1,179.5769,212.5
1,6,30,3,3,2,A,F,r,g,10,10,37001,1,1,259.5769,80.8077
1,6,30,3,3,2,A,F,r,g,10,10,37001,1,3,322.3462,248.1923
1,6,30,3,3,2,A,F,r,g,10,10,37001,1,2,361.7308,339.2692
1,6,30,3,3,2,A,F,r,g,10,10,37001,1,3,412.1923,363.8846
1,6,30,3,3,2,A,F,r,g,10,10,37001,1,3,564.8077,142.3462
1,6,30,3,3,2,A,F,r,g,10,10,38001,1,1,268.1923,144.8077
1,6,30,3,3,2,A,F,r,g,10,10,38001,1,3,290.3462,165.7308
1,6,30,3,3,2,A,F,r,g,10,10,38001,1,2,214.0385,191.5769
1,6,30,3,3,2,A,F,r,g,10,10,38001,1,1,297.7308,195.2692
1,6,30,3,3,2,A,F,r,g,10,10,38001,1,1,274.3462,254.3462
1,6,30,3,3,2,A,F,r,g,10,10,38001,1,3,366.6538,254.3462
1,6,30,3,3,2,A,F,r,g,10,10,38001,1,2,406.0385,296.1923
1,6,30,3,3,2,A,F,r,g,10,10,38001,1,1,477.4231,277.7308
1,6,30,3,3,2,A,F,r,g,10,10,38001,1,3,483.5769,351.5769
1,6,30,3,3,2,A,F,r,g,10,10,38001,1,1,429.4231,351.5769
1,6,30,3,3,2,A,F,r,g,10,10,38001,1,3,618.9615,349.1154
1,6,30,3,3,2,A,F,r,g,10,10,39001,1,2,477.4231,74.6538
1,6,30,3,3,2,A,F,r,g,10,10,39001,1,3,622.6538,249.4231
1,6,30,3,3,2,A,F,r,g,10,10,39001,1,3,230.0385,120.1923
1,6,30,3,3,2,A,F,r,g,10,10,39001,1,3,358.0385,248.1923
1,6,30,3,3,2,A,F,r,g,10,10,39001,1,3,399.8846,286.3462
1,6,30,3,3,2,A,F,r,g,10,10,39001,1,1,334.6538,272.8077
1,6,30,3,3,2,A,F,r,g,10,10,39001,1,1,365.4231,331.8846
1,6,30,3,3,2,A,F,r,g,10,10,40001,1,3,610.3462,196.5
1,6,30,3,3,2,A,F,r,g,10,10,40001,1,2,553.7308,214.9615
1,6,30,3,3,2,A,F,r,g,10,10,40001,1,1,404.8077,239.5769
1,6,30,3,3,2,A,F,r,g,10,10,40001,1,3,409.7308,291.2692
1,6,30,3,3,2,A,F,r,g,10,10,40001,1,3,356.8077,234.6538
1,6,30,3,3,2,A,F,r,g,10,10,40001,1,3,273.1154,294.9615
1,6,30,3,3,2,A,F,r,g,10,10,40001,1,2,303.8846,194.0385
1,6,30,3,3,2,A,F,r,g,10,10,41001,1,3,578.3462,170.6538
1,6,30,3,3,2,A,F,r,g,10,10,41001,1,2,534.0385,331.8846
1,6,30,3,3,2,A,F,r,g,10,10,41001,1,1,444.1923,278.9615
1,6,30,3,3,2,A,F,r,g,10,10,41001,1,3,398.6538,287.5769
1,6,30,3,3,2,A,F,r,g,10,10,41001,1,1,348.1923,141.1154
1,6,30,3,3,2,A,F,r,g,10,10,41001,1,3,265.7308,125.1154
1,6,30,3,3,2,A,F,r,g,10,10,41001,1,1,327.2692,319.5769
1,6,30,3,3,2,A,F,r,g,10,10,41001,1,1,345.7308,378.6538
1,6,30,3,3,2,A,F,r,g,10,10,41001,1,3,385.1154,360.1923
1,6,30,3,3,2,A,F,r,g,10,10,42001,1,3,567.2692,173.1154
1,6,30,3,3,2,A,F,r,g,10,10,42001,1,3,344.5,169.4231
1,6,30,3,3,2,A,F,r,g,10,10,42001,1,3,552.5,344.1923
1,6,30,3,3,2,A,F,r,g,10,10,42001,1,1,601.7308,367.5769
1,6,30,3,3,2,A,F,r,g,10,10,42001,1,2,514.3462,381.1154
1,6,30,3,3,2,A,F,r,g,10,10,42001,1,3,391.2692,357.7308
1,6,30,3,3,2,A,F,r,g,10,10,42001,1,1,343.2692,344.1923
1,6,30,3,3,2,A,F,r,g,10,10,42001,1,1,321.1154,383.5769
1,6,30,3,3,2,A,F,r,g,10,10,43001,1,3,579.5769,164.5
1,6,30,3,3,2,A,F,r,g,10,10,43001,1,1,552.5,211.2692
1,6,30,3,3,2,A,F,r,g,10,10,43001,1,1,552.5,296.1923
1,6,30,3,3,2,A,F,r,g,10,10,43001,1,3,547.5769,335.5769
1,6,30,3,3,2,A,F,r,g,10,10,43001,1,2,504.5,390.9615
1,6,30,3,3,2,A,F,r,g,10,10,43001,1,3,399.8846,365.1154
1,6,30,3,3,2,A,F,r,g,10,10,43001,1,3,361.7308,168.1923
1,6,30,3,3,2,A,F,r,g,10,10,44001,1,3,578.3462,162.0385
1,6,30,3,3,2,A,F,r,g,10,10,44001,1,3,392.5,164.5
1,6,30,3,3,2,A,F,r,g,10,10,44001,1,3,553.7308,340.5
1,6,30,3,3,2,A,F,r,g,10,10,44001,1,3,518.0385,378.6538
1,6,30,3,3,2,A,F,r,g,10,10,44001,1,1,477.4231,422.9615
1,6,30,3,3,2,A,F,r,g,10,10,44001,1,3,386.3462,351.5769
1,6,30,3,3,2,A,F,r,g,10,10,44001,1,1,355.5769,346.6538
1,6,30,3,3,2,A,F,r,g,10,10,45001,1,1,241.1154,160.8077
1,6,30,3,3,2,A,F,r,g,10,10,45001,1,1,380.1923,147.2692
1,6,30,3,3,2,A,F,r,g,10,10,45001,1,3,433.1154,142.3462
1,6,30,3,3,2,A,F,r,g,10,10,45001,1,3,577.1154,163.2692
1,6,30,3,3,2,A,F,r,g,10,10,45001,1,3,552.5,328.1923
1,6,30,3,3,2,A,F,r,g,10,10,45001,1,1,573.4231,374.9615
1,6,30,3,3,2,A,F,r,g,10,10,45001,1,2,462.6538,338.0385
1,6,30,3,3,2,A,F,r,g,10,10,45001,1,3,397.4231,302.3462
1,6,30,3,3,2,A,F,r,g,10,10,46001,1,3,477.4231,139.8846
1,6,30,3,3,2,A,F,r,g,10,10,46001,1,3,599.2692,197.7308
1,6,30,3,3,2,A,F,r,g,10,10,46001,1,1,466.3462,224.8077
1,6,30,3,3,2,A,F,r,g,10,10,46001,1,3,403.5769,286.3462
1,6,30,3,3,2,A,F,r,g,10,10,46001,1,3,552.5,347.8846
1,6,30,3,3,2,A,F,r,g,10,10,46001,1,2,382.6538,361.4231
1,6,30,3,3,2,A,F,r,g,10,10,46001,1,1,404.8077,415.5769
1,6,30,3,3,2,A,F,r,g,10,10,46001,1,3,273.1154,459.8846
1,6,30,3,3,2,A,F,r,g,10,10,47001,1,1,382.6538,494.3462
1,6,30,3,3,2,A,F,r,g,10,10,47001,1,3,410.9615,434.0385
1,6,30,3,3,2,A,F,r,g,10,10,47001,1,1,382.6538,379.8846
1,6,30,3,3,2,A,F,r,g,10,10,47001,1,1,366.6538,238.3462
1,6,30,3,3,2,A,F,r,g,10,10,47001,1,2,474.9615,328.1923
1,6,30,3,3,2,A,F,r,g,10,10,47001,1,3,535.2692,334.3462
1,6,30,3,3,2,A,F,r,g,10,10,47001,1,1,578.3462,355.2692
1,6,30,3,3,2,A,F,r,g,10,10,47001,1,3,614.0385,203.8846
1,6,30,3,3,2,A,F,r,g,10,10,47001,1,3,451.5769,117.7308
1,6,30,3,3,2,A,F,r,g,10,10,48001,1,1,153.7308,320.8077
1,6,30,3,3,2,A,F,r,g,10,10,48001,1,1,248.5,317.1154
1,6,30,3,3,2,A,F,r,g,10,10,48001,1,3,342.0385,212.5
1,6,30,3,3,2,A,F,r,g,10,10,48001,1,2,431.8846,287.5769
1,6,30,3,3,2,A,F,r,g,10,10,48001,1,3,418.3462,341.7308
1,6,30,3,3,2,A,F,r,g,10,10,48001,1,1,374.0385,356.5
1,6,30,3,3,2,A,F,r,g,10,10,48001,1,1,521.7308,340.5
1,6,30,3,3,2,A,F,r,g,10,10,48001,1,3,548.8077,335.5769
1,6,30,3,3,2,A,F,r,g,10,10,48001,1,3,588.1923,191.5769
1,6,30,3,3,2,A,F,r,g,10,10,48001,1,1,616.5,207.5769
1,6,30,3,3,2,A,F,r,g,10,10,49001,1,1,225.1154,132.5
1,6,30,3,3,2,A,F,r,g,10,10,49001,1,1,294.0385,126.3462
1,6,30,3,3,2,A,F,r,g,10,10,49001,1,3,323.5769,222.3462
1,6,30,3,3,2,A,F,r,g,10,10,49001,1,1,334.6538,309.7308
1,6,30,3,3,2,A,F,r,g,10,10,49001,1,3,402.3462,315.8846
1,6,30,3,3,2,A,F,r,g,10,10,49001,1,2,412.1923,342.9615
1,6,30,3,3,2,A,F,r,g,10,10,49001,1,1,478.6538,277.7308
1,6,30,3,3,2,A,F,r,g,10,10,49001,1,3,545.1154,287.5769
1,6,30,3,3,2,A,F,r,g,10,10,49001,1,1,591.8846,338.0385
1,6,30,3,3,2,A,F,r,g,10,10,49001,1,3,612.8077,210.0385
1,6,30,3,3,2,A,F,r,g,10,10,50001,1,1,334.6538,59.8846
1,6,30,3,3,2,A,F,r,g,10,10,50001,1,2,418.3462,93.1154
1,6,30,3,3,2,A,F,r,g,10,10,50001,1,3,620.1923,226.0385
1,6,30,3,3,2,A,F,r,g,10,10,50001,1,3,472.5,328.1923
1,6,30,3,3,2,A,F,r,g,10,10,50001,1,1,499.5769,339.2692
1,6,30,3,3,2,A,F,r,g,10,10,50001,1,1,479.8846,387.2692
1,6,30,3,3,2,A,F,r,g,10,10,50001,1,3,478.6538,445.1154
1,6,30,3,3,2,A,F,r,g,10,10,50001,1,3,399.8846,361.4231
1,6,30,3,3,2,A,F,r,g,10,10,50001,1,1,266.9615,461.1154
1,6,30,3,3,2,A,F,r,g,10,10,51001,1,3,438.0385,104.1923
1,6,30,3,3,2,A,F,r,g,10,10,51001,1,1,196.8077,189.1154
1,6,30,3,3,2,A,F,r,g,10,10,51001,1,2,308.8077,270.3462
1,6,30,3,3,2,A,F,r,g,10,10,51001,1,3,358.0385,336.8077
1,6,30,3,3,2,A,F,r,g,10,10,51001,1,1,388.8077,331.8846
1,6,30,3,3,2,A,F,r,g,10,10,51001,1,3,483.5769,438.9615
1,6,30,3,3,2,A,F,r,g,10,10,51001,1,1,506.9615,499.2692
1,6,30,3,3,2,A,F,r,g,10,10,51001,1,3,633.7308,276.5
1,6,30,3,3,2,A,F,r,g,10,10,52001,1,2,316.1923,275.2692
1,6,30,3,3,2,A,F,r,g,10,10,52001,1,3,458.9615,320.8077
1,6,30,3,3,2,A,F,r,g,10,10,52001,1,3,481.1154,387.2692
1,6,30,3,3,2,A,F,r,g,10,10,52001,1,3,474.9615,267.8846
1,6,30,3,3,2,A,F,r,g,10,10,52001,1,1,494.6538,217.4231
1,6,30,3,3,2,A,F,r,g,10,10,52001,1,3,638.6538,298.6538
1,6,30,3,3,2,A,F,r,g,10,10,52001,1,1,310.0385,543.5769
1,6,30,3,3,2,A,F,r,g,10,10,53001,1,2,319.8846,270.3462
1,6,30,3,3,2,A,F,r,g,10,10,53001,1,3,314.9615,349.1154
1,6,30,3,3,2,A,F,r,g,10,10,53001,1,3,371.5769,397.1154
1,6,30,3,3,2,A,F,r,g,10,10,53001,1,1,413.4231,372.5
1,6,30,3,3,2,A,F,r,g,10,10,53001,1,3,484.8077,344.1923
1,6,30,3,3,2,A,F,r,g,10,10,53001,1,3,625.1154,280.1923
1,6,30,3,3,2,A,F,r,g,10,10,53001,1,1,500.8077,486.9615
1,6,30,3,3,2,A,F,r,g,10,10,53001,1,1,468.8077,534.9615
1,6,30,3,3,2,A,F,r,g,10,10,54001,1,3,584.5,166.9615
1,6,30,3,3,2,A,F,r,g,10,10,54001,1,2,351.8846,291.2692
1,6,30,3,3,2,A,F,r,g,10,10,54001,1,1,226.3462,253.1154
1,6,30,3,3,2,A,F,r,g,10,10,54001,1,1,252.1923,325.7308
1,6,30,3,3,2,A,F,r,g,10,10,54001,1,3,204.1923,335.5769
1,6,30,3,3,2,A,F,r,g,10,10,54001,1,3,372.8077,368.8077
1,6,30,3,3,2,A,F,r,g,10,10,54001,1,1,471.2692,317.1154
1,6,30,3,3,2,A,F,r,g,10,10,54001,1,3,493.4231,350.3462
1,6,30,3,3,2,A,F,r,g,10,10,55001,1,1,556.1923,293.7308
1,6,30,3,3,2,A,F,r,g,10,10,55001,1,3,572.1923,354.0385
1,6,30,3,3,2,A,F,r,g,10,10,55001,1,3,444.1923,314.6538
1,6,30,3,3,2,A,F,r,g,10,10,55001,1,3,383.8846,317.1154
1,6,30,3,3,2,A,F,r,g,10,10,55001,1,2,399.8846,354.0385
1,6,30,3,3,2,A,F,r,g,10,10,55001,1,3,280.5,329.4231
1,6,30,3,3,2,A,F,r,g,10,10,56001,1,3,217.7308,200.1923
1,6,30,3,3,2,A,F,r,g,10,10,56001,1,1,215.2692,147.2692
1,6,30,3,3,2,A,F,r,g,10,10,56001,1,3,390.0385,381.1154
1,6,30,3,3,2,A,F,r,g,10,10,56001,1,3,429.4231,320.8077
1,6,30,3,3,2,A,F,r,g,10,10,56001,1,3,525.4231,416.8077
1,6,30,3,3,2,A,F,r,g,10,10,56001,1,1,530.3462,340.5
1,6,30,3,3,2,A,F,r,g,10,10,56001,1,3,623.8846,310.9615
1,6,30,3,3,2,A,F,r,g,10,10,57001,1,1,239.8846,114.0385
1,6,30,3,3,2,A,F,r,g,10,10,57001,1,2,302.6538,282.6538
1,6,30,3,3,2,A,F,r,g,10,10,57001,1,1,344.5,333.1154
1,6,30,3,3,2,A,F,r,g,10,10,57001,1,1,394.9615,335.5769
1,6,30,3,3,2,A,F,r,g,10,10,57001,1,3,429.4231,322.0385
1,6,30,3,3,2,A,F,r,g,10,10,57001,1,3,454.0385,256.8077
1,6,30,3,3,2,A,F,r,g,10,10,57001,1,1,499.5769,432.8077
1,6,30,3,3,2,A,F,r,g,10,10,57001,1,3,509.4231,466.0385
1,6,30,3,3,2,A,F,r,g,10,10,57001,1,3,524.1923,511.5769
1,6,30,3,3,2,A,F,r,g,10,10,58001,1,1,124.1923,246.9615
1,6,30,3,3,2,A,F,r,g,10,10,58001,1,1,398.6538,298.6538
1,6,30,3,3,2,A,F,r,g,10,10,58001,1,3,425.7308,322.0385
1,6,30,3,3,2,A,F,r,g,10,10,58001,1,3,483.5769,229.7308
1,6,30,3,3,2,A,F,r,g,10,10,58001,1,3,553.7308,244.5
1,6,30,3,3,2,A,F,r,g,10,10,58001,1,1,563.5769,281.4231
1,6,30,3,3,2,A,F,r,g,10,10,58001,1,2,525.4231,489.4231
1,6,30,3,3,2,A,F,r,g,10,10,58001,1,3,365.4231,562.0385
1,6,30,3,3,2,A,F,r,g,10,10,59001,1,1,578.3462,179.2692
1,6,30,3,3,2,A,F,r,g,10,10,59001,1,3,594.3462,198.9615
1,6,30,3,3,2,A,F,r,g,10,10,59001,1,3,382.6538,226.0385
1,6,30,3,3,2,A,F,r,g,10,10,59001,1,2,399.8846,280.1923
1,6,30,3,3,2,A,F,r,g,10,10,59001,1,3,424.5,328.1923
1,6,30,3,3,2,A,F,r,g,10,10,59001,1,1,519.2692,308.5
1,6,30,3,3,2,A,F,r,g,10,10,59001,1,3,364.1923,554.6538
1,6,30,3,3,2,A,F,r,g,10,10,60001,1,1,217.7308,130.0385
1,6,30,3,3,2,A,F,r,g,10,10,60001,1,2,404.8077,290.0385
1,6,30,3,3,2,A,F,r,g,10,10,60001,1,3,435.5769,320.8077
1,6,30,3,3,2,A,F,r,g,10,10,60001,1,3,412.1923,382.3462
1,6,30,3,3,2,A,F,r,g,10,10,60001,1,1,457.7308,400.8077
1,6,30,3,3,2,A,F,r,g,10,10,60001,1,1,417.1154,404.5
1,6,30,3,3,2,A,F,r,g,10,10,60001,1,3,435.5769,505.4231
1,6,30,3,3,2,A,F,r,g,10,10,60001,1,3,367.8846,563.2692
1,6,30,3,3,2,A,F,r,g,10,10,61001,1,1,225.1154,118.9615
1,6,30,3,3,2,A,F,r,g,10,10,61001,1,2,392.5,272.8077
1,6,30,3,3,2,A,F,r,g,10,10,61001,1,3,364.1923,293.7308
1,6,30,3,3,2,A,F,r,g,10,10,61001,1,1,371.5769,342.9615
1,6,30,3,3,2,A,F,r,g,10,10,61001,1,1,425.7308,328.1923
1,6,30,3,3,2,A,F,r,g,10,10,61001,1,3,412.1923,346.6538
1,6,30,3,3,2,A,F,r,g,10,10,61001,1,3,385.1154,518.9615
1,6,30,3,3,2,A,F,r,g,10,10,61001,1,3,367.8846,558.3462
1,6,30,3,3,2,A,F,r,g,10,10,62001,1,1,255.8846,99.2692
1,6,30,3,3,2,A,F,r,g,10,10,62001,1,2,440.5,306.0385
1,6,30,3,3,2,A,F,r,g,10,10,62001,1,1,455.2692,342.9615
1,6,30,3,3,2,A,F,r,g,10,10,62001,1,3,467.5769,388.5
1,6,30,3,3,2,A,F,r,g,10,10,62001,1,3,396.1923,355.2692
1,6,30,3,3,2,A,F,r,g,10,10,62001,1,1,404.8077,388.5
1,6,30,3,3,2,A,F,r,g,10,10,62001,1,3,360.5,506.6538
1,6,30,3,3,2,A,F,r,g,10,10,62001,1,3,361.7308,560.8077
1,6,30,3,3,2,A,F,r,g,10,10,63001,1,1,227.5769,102.9615
1,6,30,3,3,2,A,F,r,g,10,10,63001,1,2,415.8846,293.7308
1,6,30,3,3,2,A,F,r,g,10,10,63001,1,3,383.8846,346.6538
1,6,30,3,3,2,A,F,r,g,10,10,63001,1,1,396.1923,431.5769
1,6,30,3,3,2,A,F,r,g,10,10,63001,1,1,367.8846,469.7308
1,6,30,3,3,2,A,F,r,g,10,10,63001,1,3,365.4231,510.3462
1,6,30,3,3,2,A,F,r,g,10,10,63001,1,3,242.3462,511.5769
1,6,30,3,3,2,A,F,r,g,10,10,63001,1,3,474.9615,484.5
1,6,30,3,3,2,A,F,r,g,10,10,63001,1,1,502.0385,453.7308
1,6,30,3,3,2,A,F,r,g,10,10,64001,1,1,343.2692,260.5
1,6,30,3,3,2,A,F,r,g,10,10,64001,1,2,407.2692,286.3462
1,6,30,3,3,2,A,F,r,g,10,10,64001,1,1,355.5769,331.8846
1,6,30,3,3,2,A,F,r,g,10,10,64001,1,3,372.8077,351.5769
1,6,30,3,3,2,A,F,r,g,10,10,64001,1,3,218.9615,398.3462
1,6,30,3,3,2,A,F,r,g,10,10,64001,1,1,273.1154,376.1923
1,6,30,3,3,2,A,F,r,g,10,10,64001,1,3,242.3462,520.1923
1,6,30,3,3,2,A,F,r,g,10,10,64001,1,3,337.1154,491.8846
1,6,30,3,3,2,A,F,r,g,10,10,64001,1,1,388.8077,518.9615
1,6,30,3,3,2,A,F,r,g,10,10,65001,1,1,265.7308,90.6538
1,6,30,3,3,2,A,F,r,g,10,10,65001,1,1,227.5769,132.5
1,6,30,3,3,2,A,F,r,g,10,10,65001,1,2,396.1923,291.2692
1,6,30,3,3,2,A,F,r,g,10,10,65001,1,3,398.6538,347.8846
1,6,30,3,3,2,A,F,r,g,10,10,65001,1,1,429.4231,378.6538
1,6,30,3,3,2,A,F,r,g,10,10,65001,1,3,297.7308,437.7308
1,6,30,3,3,2,A,F,r,g,10,10,65001,1,1,285.4231,488.1923
1,6,30,3,3,2,A,F,r,g,10,10,65001,1,3,326.0385,510.3462
1,6,30,3,3,2,A,F,r,g,10,10,65001,1,3,241.1154,515.2692
1,6,30,3,3,2,A,F,r,g,10,10,66001,1,2,314.9615,201.4231
1,6,30,3,3,2,A,F,r,g,10,10,66001,1,2,255.8846,173.1154
1,6,30,3,3,2,A,F,r,g,10,10,66001,1,2,446.6538,294.9615
1,6,30,3,3,2,A,F,r,g,10,10,66001,1,3,408.5,367.5769
1,6,30,3,3,2,A,F,r,g,10,10,66001,1,1,345.7308,355.2692
1,6,30,3,3,2,A,F,r,g,10,10,66001,1,3,314.9615,418.0385
1,6,30,3,3,2,A,F,r,g,10,10,66001,1,1,291.5769,452.5
1,6,30,3,3,2,A,F,r,g,10,10,66001,1,3,327.2692,484.5
1,6,30,3,3,2,A,F,r,g,10,10,66001,1,3,238.6538,525.1154
1,6,30,3,3,2,A,F,r,g,10,10,67001,1,2,419.5769,296.1923
1,6,30,3,3,2,A,F,r,g,10,10,67001,1,3,397.4231,363.8846
1,6,30,3,3,2,A,F,r,g,10,10,67001,1,1,413.4231,416.8077
1,6,30,3,3,2,A,F,r,g,10,10,67001,1,3,262.0385,413.1154
1,6,30,3,3,2,A,F,r,g,10,10,67001,1,3,248.5,527.5769
1,6,30,3,3,2,A,F,r,g,10,10,67001,1,3,362.9615,501.7308
1,6,30,3,3,2,A,F,r,g,10,10,67001,1,1,417.1154,490.6538
1,6,30,3,3,2,A,F,r,g,10,10,68001,1,3,429.4231,293.7308
1,6,30,3,3,2,A,F,r,g,10,10,68001,1,1,403.5769,341.7308
1,6,30,3,3,2,A,F,r,g,10,10,68001,1,2,358.0385,282.6538
1,6,30,3,3,2,A,F,r,g,10,10,68001,1,1,330.9615,325.7308
1,6,30,3,3,2,A,F,r,g,10,10,68001,1,1,247.2692,379.8846
1,6,30,3,3,2,A,F,r,g,10,10,68001,1,3,255.8846,312.1923
1,6,30,3,3,2,A,F,r,g,10,10,68001,1,3,191.8846,384.8077
1,6,30,3,3,2,A,F,r,g,10,10,68001,1,3,344.5,516.5
1,6,30,3,3,2,A,F,r,g,10,10,69001,1,1,252.1923,78.3462
1,6,30,3,3,2,A,F,r,g,10,10,69001,1,2,350.6538,198.9615
1,6,30,3,3,2,A,F,r,g,10,10,69001,1,3,274.3462,262.9615
1,6,30,3,3,2,A,F,r,g,10,10,69001,1,3,406.0385,290.0385
1,6,30,3,3,2,A,F,r,g,10,10,69001,1,1,425.7308,315.8846
1,6,30,3,3,2,A,F,r,g,10,10,69001,1,3,403.5769,440.1923
1,6,30,3,3,2,A,F,r,g,10,10,69001,1,3,367.8846,496.8077
1,6,30,3,3,2,A,F,r,g,10,10,69001,1,1,335.8846,547.2692
1,6,30,3,3,2,A,F,r,g,10,10,70001,1,3,274.3462,256.8077
1,6,30,3,3,2,A,F,r,g,10,10,70001,1,3,398.6538,282.6538
1,6,30,3,3,2,A,F,r,g,10,10,70001,1,1,419.5769,314.6538
1,6,30,3,3,2,A,F,r,g,10,10,70001,1,1,444.1923,293.7308
1,6,30,3,3,2,A,F,r,g,10,10,70001,1,2,385.1154,349.1154
1,6,30,3,3,2,A,F,r,g,10,10,70001,1,3,429.4231,470.9615
1,6,30,3,3,2,A,F,r,g,10,10,70001,1,1,407.2692,454.9615
1,6,30,3,3,2,A,F,r,g,10,10,70001,1,3,366.6538,505.4231
1,6,30,3,3,2,A,F,r,g,10,10,71001,1,1,392.5,48.8077
1,6,30,3,3,2,A,F,r,g,10,10,71001,1,1,193.1154,213.7308
1,6,30,3,3,2,A,F,r,g,10,10,71001,1,3,312.5,260.5
1,6,30,3,3,2,A,F,r,g,10,10,71001,1,1,393.7308,272.8077
1,6,30,3,3,2,A,F,r,g,10,10,71001,1,3,386.3462,325.7308
1,6,30,3,3,2,A,F,r,g,10,10,71001,1,2,369.1154,341.7308
1,6,30,3,3,2,A,F,r,g,10,10,71001,1,1,433.1154,301.1154
1,6,30,3,3,2,A,F,r,g,10,10,71001,1,1,477.4231,386.0385
1,6,30,3,3,2,A,F,r,g,10,10,71001,1,3,356.8077,466.0385
1,6,30,3,3,2,A,F,r,g,10,10,71001,1,3,343.2692,509.1154
1,6,30,3,3,2,A,F,r,g,10,10,72001,1,1,276.8077,153.4231
1,6,30,3,3,2,A,F,r,g,10,10,72001,1,1,324.8077,194.0385
1,6,30,3,3,2,A,F,r,g,10,10,72001,1,3,321.1154,262.9615
1,6,30,3,3,2,A,F,r,g,10,10,72001,1,3,334.6538,365.1154
1,6,30,3,3,2,A,F,r,g,10,10,72001,1,3,390.0385,314.6538
1,6,30,3,3,2,A,F,r,g,10,10,72001,1,1,386.3462,358.9615
1,6,30,3,3,2,A,F,r,g,10,10,72001,1,1,620.1923,308.5
1,6,30,3,3,2,A,F,r,g,10,10,72001,1,2,366.6538,553.4231
1,6,30,3,3,2,A,F,r,g,10,10,72001,1,1,202.9615,388.5
1,6,30,3,3,2,A,F,r,g,10,10,72001,1,3,168.5,325.7308
1,6,30,3,3,2,A,F,r,g,10,10,73001,1,3,270.6538,195.2692
1,6,30,3,3,2,A,F,r,g,10,10,73001,1,3,210.3462,159.5769
1,6,30,3,3,2,A,F,r,g,10,10,73001,1,1,278.0385,234.6538
1,6,30,3,3,2,A,F,r,g,10,10,73001,1,3,382.6538,315.8846
1,6,30,3,3,2,A,F,r,g,10,10,73001,1,3,378.9615,355.2692
1,6,30,3,3,2,A,F,r,g,10,10,73001,1,1,418.3462,324.5
1,6,30,3,3,2,A,F,r,g,10,10,73001,1,1,440.5,274.0385
1,6,30,3,3,2,A,F,r,g,10,10,73001,1,1,630.0385,313.4231
1,6,30,3,3,2,A,F,r,g,10,10,73001,1,2,365.4231,554.6538
1,6,30,3,3,2,A,F,r,g,10,10,74001,1,1,482.3462,133.7308
1,6,30,3,3,2,A,F,r,g,10,10,74001,1,1,625.1154,301.1154
1,6,30,3,3,2,A,F,r,g,10,10,74001,1,1,276.8077,109.1154
1,6,30,3,3,2,A,F,r,g,10,10,74001,1,1,221.4231,109.1154
1,6,30,3,3,2,A,F,r,g,10,10,74001,1,3,214.0385,181.7308
1,6,30,3,3,2,A,F,r,g,10,10,74001,1,3,290.3462,202.6538
1,6,30,3,3,2,A,F,r,g,10,10,74001,1,2,230.0385,287.5769
1,6,30,3,3,2,A,F,r,g,10,10,74001,1,3,380.1923,314.6538
1,6,30,3,3,2,A,F,r,g,10,10,74001,1,3,382.6538,355.2692
1,6,30,3,3,2,A,F,r,g,10,10,74001,1,2,359.2692,557.1154
1,6,30,3,3,2,A,F,r,g,10,10,75001,1,1,365.4231,89.4231
1,6,30,3,3,2,A,F,r,g,10,10,75001,1,3,342.0385,171.8846
1,6,30,3,3,2,A,F,r,g,10,10,75001,1,1,233.7308,150.9615
1,6,30,3,3,2,A,F,r,g,10,10,75001,1,1,221.4231,200.1923
1,6,30,3,3,2,A,F,r,g,10,10,75001,1,3,242.3462,192.8077
1,6,30,3,3,2,A,F,r,g,10,10,75001,1,3,367.8846,365.1154
1,6,30,3,3,2,A,F,r,g,10,10,75001,1,3,408.5,285.1154
1,6,30,3,3,2,A,F,r,g,10,10,75001,1,1,620.1923,307.2692
1,6,30,3,3,2,A,F,r,g,10,10,75001,1,2,238.6538,523.8846
1,6,30,3,3,2,A,F,r,g,10,10,76001,1,3,470.0385,165.7308
1,6,30,3,3,2,A,F,r,g,10,10,76001,1,1,429.4231,192.8077
1,6,30,3,3,2,A,F,r,g,10,10,76001,1,1,460.1923,212.5
1,6,30,3,3,2,A,F,r,g,10,10,76001,1,1,584.5,254.3462
1,6,30,3,3,2,A,F,r,g,10,10,76001,1,3,340.8077,165.7308
1,6,30,3,3,2,A,F,r,g,10,10,76001,1,3,340.8077,264.1923
1,6,30,3,3,2,A,F,r,g,10,10,76001,1,3,387.5769,304.8077
1,6,30,3,3,2,A,F,r,g,10,10,76001,1,3,375.2692,356.5
1,6,30,3,3,2,A,F,r,g,10,10,76001,1,1,236.1923,496.8077
1,6,30,3,3,2,A,F,r,g,10,10,76001,1,1,129.1154,290.0385
1,6,30,3,3,2,A,F,r,g,10,10,77001,1,1,492.1923,207.5769
1,6,30,3,3,2,A,F,r,g,10,10,77001,1,1,462.6538,203.8846
1,6,30,3,3,2,A,F,r,g,10,10,77001,1,3,524.1923,224.8077
1,6,30,3,3,2,A,F,r,g,10,10,77001,1,3,471.2692,331.8846
1,6,30,3,3,2,A,F,r,g,10,10,77001,1,3,410.9615,360.1923
1,6,30,3,3,2,A,F,r,g,10,10,77001,1,1,365.4231,339.2692
1,6,30,3,3,2,A,F,r,g,10,10,77001,1,2,348.1923,258.0385
1,6,30,3,3,2,A,F,r,g,10,10,77001,1,3,234.9615,287.5769
1,6,30,3,3,2,A,F,r,g,10,10,78001,1,1,531.5769,226.0385
1,6,30,3,3,2,A,F,r,g,10,10,78001,1,3,547.5769,256.8077
1,6,30,3,3,2,A,F,r,g,10,10,78001,1,1,447.8846,98.0385
1,6,30,3,3,2,A,F,r,g,10,10,78001,1,1,471.2692,328.1923
1,6,30,3,3,2,A,F,r,g,10,10,78001,1,3,509.4231,331.8846
1,6,30,3,3,2,A,F,r,g,10,10,78001,1,2,398.6538,278.9615
1,6,30,3,3,2,A,F,r,g,10,10,78001,1,3,190.6538,324.5
1,6,30,3,3,2,A,F,r,g,10,10,78001,1,1,225.1154,249.4231
1,6,30,3,3,2,A,F,r,g,10,10,78001,1,3,232.5,126.3462
1,6,30,3,3,2,A,F,r,g,10,10,79001,1,3,504.5,174.3462
1,6,30,3,3,2,A,F,r,g,10,10,79001,1,1,541.4231,234.6538
1,6,30,3,3,2,A,F,r,g,10,10,79001,1,1,494.6538,251.8846
1,6,30,3,3,2,A,F,r,g,10,10,79001,1,1,538.9615,315.8846
1,6,30,3,3,2,A,F,r,g,10,10,79001,1,3,561.1154,286.3462
1,6,30,3,3,2,A,F,r,g,10,10,79001,1,2,381.4231,291.2692
1,6,30,3,3,2,A,F,r,g,10,10,79001,1,3,184.5,342.9615
1,6,30,3,3,2,A,F,r,g,10,10,79001,1,3,199.2692,112.8077
1,6,30,3,3,2,A,F,r,g,10,10,79001,1,1,231.2692,154.6538
1,6,30,3,3,2,A,F,r,g,10,10,80001,1,3,142.6538,219.8846
1,6,30,3,3,2,A,F,r,g,10,10,80001,1,1,159.8846,186.6538
1,6,30,3,3,2,A,F,r,g,10,10,80001,1,3,211.5769,110.3462
1,6,30,3,3,2,A,F,r,g,10,10,80001,1,1,415.8846,80.8077
1,6,30,3,3,2,A,F,r,g,10,10,80001,1,3,559.8846,287.5769
1,6,30,3,3,2,A,F,r,g,10,10,80001,1,3,388.8077,374.9615
1,6,30,3,3,2,A,F,r,g,10,10,80001,1,1,425.7308,355.2692
1,6,30,3,3,2,A,F,r,g,10,10,80001,1,3,184.5,330.6538
1,6,30,3,3,2,A,F,r,g,10,10,80001,1,1,468.8077,562.0385
1,6,30,3,3,2,A,F,r,g,10,10,81001,1,2,413.4231,307.2692
1,6,30,3,3,2,A,F,r,g,10,10,81001,1,3,554.9615,274.0385
1,6,30,3,3,2,A,F,r,g,10,10,81001,1,1,252.1923,235.8846
1,6,30,3,3,2,A,F,r,g,10,10,81001,1,3,220.1923,315.8846
1,6,30,3,3,2,A,F,r,g,10,10,81001,1,3,173.4231,349.1154
1,6,30,3,3,2,A,F,r,g,10,10,81001,1,1,125.4231,255.5769
1,6,30,3,3,2,A,F,r,g,10,10,81001,1,3,134.0385,207.5769
1,6,30,3,3,2,A,F,r,g,10,10,81001,1,1,169.7308,191.5769
1,6,30,3,3,2,A,F,r,g,10,10,81001,1,1,233.7308,147.2692
1,6,30,3,3,2,A,F,r,g,10,10,82001,1,2,602.9615,285.1154
1,6,30,3,3,2,A,F,r,g,10,10,82001,1,1,499.5769,292.5
1,6,30,3,3,2,A,F,r,g,10,10,82001,1,3,509.4231,245.7308
1,6,30,3,3,2,A,F,r,g,10,10,82001,1,1,497.1154,211.2692
1,6,30,3,3,2,A,F,r,g,10,10,82001,1,1,407.2692,197.7308
1,6,30,3,3,2,A,F,r,g,10,10,82001,1,2,399.8846,301.1154
1,6,30,3,3,2,A,F,r,g,10,10,82001,1,3,374.0385,338.0385
1,6,30,3,3,2,A,F,r,g,10,10,82001,1,3,214.0385,325.7308
1,6,30,3,3,2,A,F,r,g,10,10,82001,1,1,281.7308,159.5769
1,6,30,3,3,2,A,F,r,g,10,10,82001,1,1,212.8077,174.3462
1,6,30,3,3,2,A,F,r,g,10,10,82001,1,3,210.3462,121.4231
1,6,30,3,3,2,A,F,r,g,10,10,83001,1,3,494.6538,291.2692
1,6,30,3,3,2,A,F,r,g,10,10,83001,1,1,503.2692,234.6538
1,6,30,3,3,2,A,F,r,g,10,10,83001,1,2,392.5,271.5769
1,6,30,3,3,2,A,F,r,g,10,10,83001,1,3,367.8846,360.1923
1,6,30,3,3,2,A,F,r,g,10,10,83001,1,1,268.1923,266.6538
1,6,30,3,3,2,A,F,r,g,10,10,83001,1,1,243.5769,211.2692
1,6,30,3,3,2,A,F,r,g,10,10,83001,1,1,186.9615,293.7308
1,6,30,3,3,2,A,F,r,g,10,10,83001,1,3,204.1923,315.8846
1,6,30,3,3,2,A,F,r,g,10,10,83001,1,1,210.3462,169.4231
1,6,30,3,3,2,A,F,r,g,10,10,83001,1,3,206.6538,114.0385
1,6,30,3,3,2,A,F,r,g,10,10,84001,1,3,563.5769,317.1154
1,6,30,3,3,2,A,F,r,g,10,10,84001,1,3,409.7308,336.8077
1,6,30,3,3,2,A,F,r,g,10,10,84001,1,2,401.1154,278.9615
1,6,30,3,3,2,A,F,r,g,10,10,84001,1,1,234.9615,405.7308
1,6,30,3,3,2,A,F,r,g,10,10,84001,1,1,164.8077,389.7308
1,6,30,3,3,2,A,F,r,g,10,10,84001,1,1,191.8846,319.5769
1,6,30,3,3,2,A,F,r,g,10,10,84001,1,3,184.5,269.1154
1,6,30,3,3,2,A,F,r,g,10,10,84001,1,1,179.5769,143.5769
1,6,30,3,3,2,A,F,r,g,10,10,84001,1,3,206.6538,115.2692
1,6,30,3,3,2,A,F,r,g,10,10,85001,1,3,558.6538,266.6538
1,6,30,3,3,2,A,F,r,g,10,10,85001,1,1,503.2692,304.8077
1,6,30,3,3,2,A,F,r,g,10,10,85001,1,2,392.5,290.0385
1,6,30,3,3,2,A,F,r,g,10,10,85001,1,3,313.7308,278.9615
1,6,30,3,3,2,A,F,r,g,10,10,85001,1,3,209.1154,360.1923
1,6,30,3,3,2,A,F,r,g,10,10,85001,1,1,202.9615,277.7308
1,6,30,3,3,2,A,F,r,g,10,10,85001,1,1,222.6538,126.3462
1,6,30,3,3,2,A,F,r,g,10,10,85001,1,3,236.1923,95.5769
1,6,30,3,3,2,A,F,r,g,10,10,85001,1,1,289.1154,53.7308
1,6,30,3,3,2,A,F,r,g,10,10,86001,1,2,385.1154,277.7308
1,6,30,3,3,2,A,F,r,g,10,10,86001,1,3,377.7308,356.5
1,6,30,3,3,2,A,F,r,g,10,10,86001,1,3,550.0385,292.5
1,6,30,3,3,2,A,F,r,g,10,10,86001,1,1,628.8077,294.9615
1,6,30,3,3,2,A,F,r,g,10,10,86001,1,1,254.6538,90.6538
1,6,30,3,3,2,A,F,r,g,10,10,86001,1,3,292.8077,70.9615
1,6,30,3,3,2,A,F,r,g,10,10,86001,1,3,193.1154,80.8077
1,6,30,3,3,2,A,F,r,g,10,10,86001,1,1,164.8077,218.6538
1,6,30,3,3,2,A,F,r,g,10,10,86001,1,1,202.9615,447.5769
1,6,30,3,3,2,A,F,r,g,10,10,86001,1,1,211.5769,501.7308
1,6,30,3,3,2,A,F,r,g,10,10,87001,1,3,419.5769,75.8846
1,6,30,3,3,2,A,F,r,g,10,10,87001,1,1,388.8077,64.8077
1,6,30,3,3,2,A,F,r,g,10,10,87001,1,1,156.1923,212.5
1,6,30,3,3,2,A,F,r,g,10,10,87001,1,2,425.7308,226.0385
1,6,30,3,3,2,A,F,r,g,10,10,87001,1,1,438.0385,278.9615
1,6,30,3,3,2,A,F,r,g,10,10,87001,1,1,358.0385,275.2692
1,6,30,3,3,2,A,F,r,g,10,10,87001,1,3,401.1154,308.5
1,6,30,3,3,2,A,F,r,g,10,10,87001,1,3,376.5,350.3462
1,6,30,3,3,2,A,F,r,g,10,10,87001,1,3,369.1154,383.5769
1,6,30,3,3,2,A,F,r,g,10,10,87001,1,3,564.8077,326.9615
1,6,30,3,3,2,A,F,r,g,10,10,88001,1,3,239.8846,104.1923
1,6,30,3,3,2,A,F,r,g,10,10,88001,1,1,270.6538,111.5769
1,6,30,3,3,2,A,F,r,g,10,10,88001,1,2,388.8077,310.9615
1,6,30,3,3,2,A,F,r,g,10,10,88001,1,3,387.5769,371.2692
1,6,30,3,3,2,A,F,r,g,10,10,88001,1,3,372.8077,394.6538
1,6,30,3,3,2,A,F,r,g,10,10,88001,1,1,226.3462,472.1923
1,6,30,3,3,2,A,F,r,g,10,10,88001,1,1,478.6538,436.5
1,6,30,3,3,2,A,F,r,g,10,10,88001,1,1,516.8077,479.5769
1,6,30,3,3,2,A,F,r,g,10,10,88001,1,3,527.8846,405.7308
1,6,30,3,3,2,A,F,r,g,10,10,89001,1,3,266.9615,256.8077
1,6,30,3,3,2,A,F,r,g,10,10,89001,1,3,364.1923,360.1923
1,6,30,3,3,2,A,F,r,g,10,10,89001,1,3,420.8077,379.8846
1,6,30,3,3,2,A,F,r,g,10,10,89001,1,3,472.5,344.1923
1,6,30,3,3,2,A,F,r,g,10,10,89001,1,2,399.8846,283.8846
1,6,30,3,3,2,A,F,r,g,10,10,89001,1,1,247.2692,206.3462
1,6,30,3,3,2,A,F,r,g,10,10,89001,1,1,209.1154,190.3462
1,6,30,3,3,2,A,F,r,g,10,10,89001,1,2,237.4231,83.2692
1,6,30,3,3,2,A,F,r,g,10,10,90001,1,1,206.6538,224.8077
1,6,30,3,3,2,A,F,r,g,10,10,90001,1,1,211.5769,399.5769
1,6,30,3,3,2,A,F,r,g,10,10,90001,1,1,157.4231,349.1154
1,6,30,3,3,2,A,F,r,g,10,10,90001,1,3,362.9615,352.8077
1,6,30,3,3,2,A,F,r,g,10,10,90001,1,3,380.1923,372.5
1,6,30,3,3,2,A,F,r,g,10,10,90001,1,3,425.7308,358.9615
1,6,30,3,3,2,A,F,r,g,10,10,90001,1,3,466.3462,336.8077
1,6,30,3,3,2,A,F,r,g,10,10,90001,1,3,404.8077,297.4231
1,6,30,3,3,2,A,F,r,g,10,10,91001,1,1,281.7308,446.3462
1,6,30,3,3,2,A,F,r,g,10,10,91001,1,1,321.1154,441.4231
1,6,30,3,3,2,A,F,r,g,10,10,91001,1,3,380.1923,395.8846
1,6,30,3,3,2,A,F,r,g,10,10,91001,1,3,390.0385,331.8846
1,6,30,3,3,2,A,F,r,g,10,10,91001,1,3,399.8846,299.8846
1,6,30,3,3,2,A,F,r,g,10,10,91001,1,3,477.4231,315.8846
1,6,30,3,3,2,A,F,r,g,10,10,91001,1,3,489.7308,356.5
1,6,30,3,3,2,A,F,r,g,10,10,91001,1,1,462.6538,393.4231
1,6,30,3,3,2,A,F,r,g,10,10,91001,1,1,500.8077,411.8846
1,6,30,3,3,2,A,F,r,g,10,10,92001,1,1,295.2692,394.6538
1,6,30,3,3,2,A,F,r,g,10,10,92001,1,3,409.7308,363.8846
1,6,30,3,3,2,A,F,r,g,10,10,92001,1,3,417.1154,336.8077
1,6,30,3,3,2,A,F,r,g,10,10,92001,1,2,423.2692,291.2692
1,6,30,3,3,2,A,F,r,g,10,10,92001,1,1,374.0385,69.7308
1,6,30,3,3,2,A,F,r,g,10,10,92001,1,3,546.3462,267.8846
1,6,30,3,3,2,A,F,r,g,10,10,92001,1,3,515.5769,351.5769
1,6,30,3,3,2,A,F,r,g,10,10,92001,1,1,466.3462,373.7308
1,6,30,3,3,2,A,F,r,g,10,10,93001,1,2,390.0385,291.2692
1,6,30,3,3,2,A,F,r,g,10,10,93001,1,3,419.5769,322.0385
1,6,30,3,3,2,A,F,r,g,10,10,93001,1,3,396.1923,347.8846
1,6,30,3,3,2,A,F,r,g,10,10,93001,1,1,394.9615,388.5
1,6,30,3,3,2,A,F,r,g,10,10,93001,1,1,371.5769,432.8077
1,6,30,3,3,2,A,F,r,g,10,10,93001,1,3,473.7308,392.1923
1,6,30,3,3,2,A,F,r,g,10,10,93001,1,1,511.8846,350.3462
1,6,30,3,3,2,A,F,r,g,10,10,93001,1,3,546.3462,347.8846
1,6,30,3,3,2,A,F,r,g,10,10,94001,1,1,300.1923,351.5769
1,6,30,3,3,2,A,F,r,g,10,10,94001,1,3,390.0385,365.1154
1,6,30,3,3,2,A,F,r,g,10,10,94001,1,2,414.6538,294.9615
1,6,30,3,3,2,A,F,r,g,10,10,94001,1,3,425.7308,372.5
1,6,30,3,3,2,A,F,r,g,10,10,94001,1,3,482.3462,335.5769
1,6,30,3,3,2,A,F,r,g,10,10,94001,1,1,483.5769,363.8846
1,6,30,3,3,2,A,F,r,g,10,10,94001,1,3,536.5,341.7308
1,6,30,3,3,2,A,F,r,g,10,10,94001,1,1,547.5769,312.1923
1,6,30,3,3,2,A,F,r,g,10,10,95001,1,1,183.2692,237.1154
1,6,30,3,3,2,A,F,r,g,10,10,95001,1,1,360.5,354.0385
1,6,30,3,3,2,A,F,r,g,10,10,95001,1,3,370.3462,399.5769
1,6,30,3,3,2,A,F,r,g,10,10,95001,1,3,371.5769,346.6538
1,6,30,3,3,2,A,F,r,g,10,10,95001,1,1,409.7308,403.2692
1,6,30,3,3,2,A,F,r,g,10,10,95001,1,2,442.9615,306.0385
1,6,30,3,3,2,A,F,r,g,10,10,95001,1,3,575.8846,345.4231
1,6,30,3,3,2,A,F,r,g,10,10,95001,1,1,612.8077,340.5
1,6,30,3,3,2,A,F,r,g,10,10,95001,1,3,470.0385,131.2692
1,6,30,3,3,2,A,F,r,g,10,10,96001,1,1,223.8846,72.1923
1,6,30,3,3,2,A,F,r,g,10,10,96001,1,1,454.0385,130.0385
1,6,30,3,3,2,A,F,r,g,10,10,96001,1,3,484.8077,134.9615
1,6,30,3,3,2,A,F,r,g,10,10,96001,1,2,410.9615,270.3462
1,6,30,3,3,2,A,F,r,g,10,10,96001,1,1,428.1923,320.8077
1,6,30,3,3,2,A,F,r,g,10,10,96001,1,3,467.5769,290.0385
1,6,30,3,3,2,A,F,r,g,10,10,96001,1,3,388.8077,382.3462
1,6,30,3,3,2,A,F,r,g,10,10,96001,1,1,478.6538,393.4231
1,6,30,3,3,2,A,F,r,g,10,10,96001,1,3,488.5,334.3462
1,6,30,3,3,2,A,F,r,g,10,10,97001,1,1,276.8077,398.3462
1,6,30,3,3,2,A,F,r,g,10,10,97001,1,1,425.7308,526.3462
1,6,30,3,3,2,A,F,r,g,10,10,97001,1,3,396.1923,338.0385
1,6,30,3,3,2,A,F,r,g,10,10,97001,1,1,319.8846,259.2692
1,6,30,3,3,2,A,F,r,g,10,10,97001,1,3,330.9615,228.5
1,6,30,3,3,2,A,F,r,g,10,10,97001,1,2,402.3462,288.8077
1,6,30,3,3,2,A,F,r,g,10,10,97001,1,1,452.8077,261.7308
1,6,30,3,3,2,A,F,r,g,10,10,97001,1,3,509.4231,402.0385
1,6,30,3,3,2,A,F,r,g,10,10,97001,1,3,554.9615,262.9615
1,6,30,3,3,2,A,F,r,g,10,10,97001,1,1,573.4231,211.2692
1,6,30,3,3,2,A,F,r,g,10,10,98001,1,1,390.0385,568.1923
1,6,30,3,3,2,A,F,r,g,10,10,98001,1,1,364.1923,527.5769
1,6,30,3,3,2,A,F,r,g,10,10,98001,1,3,514.3462,408.1923
1,6,30,3,3,2,A,F,r,g,10,10,98001,1,1,500.8077,356.5
1,6,30,3,3,2,A,F,r,g,10,10,98001,1,2,438.0385,299.8846
1,6,30,3,3,2,A,F,r,g,10,10,98001,1,3,376.5,292.5
1,6,30,3,3,2,A,F,r,g,10,10,98001,1,3,553.7308,330.6538
1,6,30,3,3,2,A,F,r,g,10,10,98001,1,1,569.7308,288.8077
1,6,30,3,3,2,A,F,r,g,10,10,98001,1,1,527.8846,259.2692
1,6,30,3,3,2,A,F,r,g,10,10,98001,1,3,440.5,149.7308
1,6,30,3,3,2,A,F,r,g,10,10,98001,1,1,478.6538,117.7308
1,6,30,3,3,2,A,F,r,g,10,10,99001,1,1,216.5,410.6538
1,6,30,3,3,2,A,F,r,g,10,10,99001,1,3,322.3462,349.1154
1,6,30,3,3,2,A,F,r,g,10,10,99001,1,3,386.3462,350.3462
1,6,30,3,3,2,A,F,r,g,10,10,99001,1,1,406.0385,386.0385
1,6,30,3,3,2,A,F,r,g,10,10,99001,1,1,495.8846,355.2692
1,6,30,3,3,2,A,F,r,g,10,10,99001,1,3,495.8846,411.8846
1,6,30,3,3,2,A,F,r,g,10,10,99001,1,2,467.5769,274.0385
1,6,30,3,3,2,A,F,r,g,10,10,99001,1,1,481.1154,159.5769
1,6,30,3,3,2,A,F,r,g,10,10,99001,1,3,526.6538,147.2692
1,6,30,3,3,2,A,F,r,g,10,10,100001,1,3,230.0385,431.5769
1,6,30,3,3,2,A,F,r,g,10,10,100001,1,1,249.7308,382.3462
1,6,30,3,3,2,A,F,r,g,10,10,100001,1,1,323.5769,349.1154
1,6,30,3,3,2,A,F,r,g,10,10,100001,1,3,396.1923,296.1923
1,6,30,3,3,2,A,F,r,g,10,10,100001,1,2,381.4231,256.8077
1,6,30,3,3,2,A,F,r,g,10,10,100001,1,3,479.8846,464.8077
1,6,30,3,3,2,A,F,r,g,10,10,100001,1,1,519.2692,166.9615
1,6,30,3,3,2,A,F,r,g,10,10,100001,1,1,516.8077,127.5769
1,6,30,3,3,2,A,F,r,g,10,10,100001,1,3,547.5769,136.1923
1,6,30,3,3,2,A,F,r,g,10,10,101001,1,3,377.7308,533.7308
1,6,30,3,3,2,A,F,r,g,10,10,101001,1,1,335.8846,499.2692
1,6,30,3,3,2,A,F,r,g,10,10,101001,1,1,397.4231,415.5769
1,6,30,3,3,2,A,F,r,g,10,10,101001,1,3,490.9615,463.5769
1,6,30,3,3,2,A,F,r,g,10,10,101001,1,3,390.0385,393.4231
1,6,30,3,3,2,A,F,r,g,10,10,101001,1,2,388.8077,265.4231
1,6,30,3,3,2,A,F,r,g,10,10,101001,1,1,380.1923,233.4231
1,6,30,3,3,2,A,F,r,g,10,10,101001,1,1,279.2692,89.4231
1,6,30,3,3,2,A,F,r,g,10,10,101001,1,3,568.5,143.5769
1,6,30,3,3,2,A,F,r,g,10,10,102001,1,3,474.9615,498.0385
1,6,30,3,3,2,A,F,r,g,10,10,102001,1,3,424.5,458.6538
1,6,30,3,3,2,A,F,r,g,10,10,102001,1,3,388.8077,377.4231
1,6,30,3,3,2,A,F,r,g,10,10,102001,1,1,362.9615,397.1154
1,6,30,3,3,2,A,F,r,g,10,10,102001,1,2,356.8077,313.4231
1,6,30,3,3,2,A,F,r,g,10,10,102001,1,1,321.1154,298.6538
1,6,30,3,3,2,A,F,r,g,10,10,102001,1,1,301.4231,262.9615
1,6,30,3,3,2,A,F,r,g,10,10,102001,1,3,622.6538,242.0385
1,6,30,3,3,2,A,F,r,g,10,10,103001,1,3,497.1154,499.2692
1,6,30,3,3,2,A,F,r,g,10,10,103001,1,1,431.8846,452.5
1,6,30,3,3,2,A,F,r,g,10,10,103001,1,3,397.4231,421.7308
1,6,30,3,3,2,A,F,r,g,10,10,103001,1,3,423.2692,304.8077
1,6,30,3,3,2,A,F,r,g,10,10,103001,1,1,343.2692,319.5769
1,6,30,3,3,2,A,F,r,g,10,10,103001,1,1,298.9615,342.9615
1,6,30,3,3,2,A,F,r,g,10,10,103001,1,2,334.6538,286.3462
1,6,30,3,3,2,A,F,r,g,10,10,103001,1,3,610.3462,238.3462
1,6,30,3,3,2,A,F,r,g,10,10,104001,1,3,490.9615,486.9615
1,6,30,3,3,2,A,F,r,g,10,10,104001,1,1,398.6538,414.3462
1,6,30,3,3,2,A,F,r,g,10,10,104001,1,3,382.6538,361.4231
1,6,30,3,3,2,A,F,r,g,10,10,104001,1,2,365.4231,376.1923
1,6,30,3,3,2,A,F,r,g,10,10,104001,1,1,350.6538,346.6538
1,6,30,3,3,2,A,F,r,g,10,10,104001,1,1,397.4231,336.8077
1,6,30,3,3,2,A,F,r,g,10,10,104001,1,3,628.8077,234.6538
1,6,30,3,3,2,A,F,r,g,10,10,104001,1,3,305.1154,368.8077
1,6,30,3,3,2,A,F,r,g,10,10,104001,1,1,237.4231,240.8077
1,6,30,3,3,2,A,F,r,g,10,10,104001,1,1,122.9615,319.5769
1,6,30,3,3,2,A,F,r,g,10,10,105001,1,3,622.6538,244.5
1,6,30,3,3,2,A,F,r,g,10,10,105001,1,3,493.4231,482.0385
1,6,30,3,3,2,A,F,r,g,10,10,105001,1,3,370.3462,383.5769
1,6,30,3,3,2,A,F,r,g,10,10,105001,1,1,398.6538,324.5
1,6,30,3,3,2,A,F,r,g,10,10,105001,1,1,370.3462,292.5
1,6,30,3,3,2,A,F,r,g,10,10,105001,1,3,344.5,264.1923
1,6,30,3,3,2,A,F,r,g,10,10,105001,1,2,210.3462,277.7308
1,6,30,3,3,2,A,F,r,g,10,10,105001,1,1,158.6538,415.5769
1,6,30,3,3,2,A,F,r,g,10,10,105001,1,1,186.9615,459.8846
1,6,30,3,3,2,A,F,r,g,10,10,106001,1,1,580.8077,259.2692
1,6,30,3,3,2,A,F,r,g,10,10,106001,1,1,589.4231,214.9615
1,6,30,3,3,2,A,F,r,g,10,10,106001,1,3,627.5769,237.1154
1,6,30,3,3,2,A,F,r,g,10,10,106001,1,3,409.7308,95.5769
1,6,30,3,3,2,A,F,r,g,10,10,106001,1,1,375.2692,85.7308
1,6,30,3,3,2,A,F,r,g,10,10,106001,1,1,338.3462,101.7308
1,6,30,3,3,2,A,F,r,g,10,10,106001,1,1,312.5,78.3462
1,6,30,3,3,2,A,F,r,g,10,10,106001,1,3,266.9615,85.7308
1,6,30,3,3,2,A,F,r,g,10,10,106001,1,2,196.8077,121.4231
1,6,30,3,3,2,A,F,r,g,10,10,107001,1,3,639.8846,245.7308
1,6,30,3,3,2,A,F,r,g,10,10,107001,1,1,462.6538,122.6538
1,6,30,3,3,2,A,F,r,g,10,10,107001,1,3,488.5,101.7308
1,6,30,3,3,2,A,F,r,g,10,10,107001,1,3,291.5769,459.8846
1,6,30,3,3,2,A,F,r,g,10,10,107001,1,1,244.8077,147.2692
1,6,30,3,3,2,A,F,r,g,10,10,107001,1,3,233.7308,99.2692
1,6,30,3,3,2,A,F,r,g,10,10,107001,1,1,265.7308,102.9615
1,6,30,3,3,2,A,F,r,g,10,10,107001,1,1,254.6538,74.6538
1,6,30,3,3,2,A,F,r,g,10,10,107001,1,2,207.8846,102.9615
