dummy,month,day,period,view,station,fgeno,mgeno,fcol,mcol,nf,nm,frame,something,sex,x,y
1,7,15,2,1,3,A,F,g,r,10,10,1,1,1,438,69
1,7,15,2,1,3,A,F,g,r,10,10,1,1,3,464,165
1,7,15,2,1,3,A,F,g,r,10,10,1,1,1,403,277
1,7,15,2,1,3,A,F,g,r,10,10,1,1,1,364,402
1,7,15,2,1,3,A,F,g,r,10,10,1,1,1,463,523
1,7,15,2,1,3,A,F,g,r,10,10,1,1,3,260,535
1,7,15,2,1,3,A,F,g,r,10,10,1001,1,1,430,392
1,7,15,2,1,3,A,F,g,r,10,10,1001,1,1,380,408
1,7,15,2,1,3,A,F,g,r,10,10,1001,1,1,385,440
1,7,15,2,1,3,A,F,g,r,10,10,1001,1,1,400,469
1,7,15,2,1,3,A,F,g,r,10,10,2001,1,1,533,365
1,7,15,2,1,3,A,F,g,r,10,10,2001,1,1,386,413
1,7,15,2,1,3,A,F,g,r,10,10,2001,1,1,402,450
1,7,15,2,1,3,A,F,g,r,10,10,2001,1,1,432,540
1,7,15,2,1,3,A,F,g,r,10,10,2001,1,3,492,540
1,7,15,2,1,3,A,F,g,r,10,10,3001,1,1,439,44
1,7,15,2,1,3,A,F,g,r,10,10,3001,1,1,349,343
1,7,15,2,1,3,A,F,g,r,10,10,3001,1,1,361,457
1,7,15,2,1,3,A,F,g,r,10,10,3001,1,1,447,542
1,7,15,2,1,3,A,F,g,r,10,10,3001,1,3,419,542
1,7,15,2,1,3,A,F,g,r,10,10,4001,1,1,457,219
1,7,15,2,1,3,A,F,g,r,10,10,4001,1,1,248,269
1,7,15,2,1,3,A,F,g,r,10,10,4001,1,1,357,434
1,7,15,2,1,3,A,F,g,r,10,10,4001,1,1,560,485
1,7,15,2,1,3,A,F,g,r,10,10,5001,1,1,205,339
1,7,15,2,1,3,A,F,g,r,10,10,5001,1,3,195,291
1,7,15,2,1,3,A,F,g,r,10,10,5001,1,3,327,296
1,7,15,2,1,3,A,F,g,r,10,10,5001,1,1,425,314
1,7,15,2,1,3,A,F,g,r,10,10,5001,1,1,521,358
1,7,15,2,1,3,A,F,g,r,10,10,5001,1,3,617,242
1,7,15,2,1,3,A,F,g,r,10,10,6001,1,1,462,269
1,7,15,2,1,3,A,F,g,r,10,10,6001,1,3,594,388
1,7,15,2,1,3,A,F,g,r,10,10,6001,1,1,434,367
1,7,15,2,1,3,A,F,g,r,10,10,6001,1,1,416,424
1,7,15,2,1,3,A,F,g,r,10,10,6001,1,3,391,496
1,7,15,2,1,3,A,F,g,r,10,10,6001,1,3,375,537
1,7,15,2,1,3,A,F,g,r,10,10,6001,1,1,411,531
1,7,15,2,1,3,A,F,g,r,10,10,6001,1,3,302,485
1,7,15,2,1,3,A,F,g,r,10,10,6001,1,1,211,484
1,7,15,2,1,3,A,F,g,r,10,10,7001,1,1,305,414
1,7,15,2,1,3,A,F,g,r,10,10,7001,1,1,412,420
1,7,15,2,1,3,A,F,g,r,10,10,7001,1,1,522,525
1,7,15,2,1,3,A,F,g,r,10,10,8001,1,1,620,471
1,7,15,2,1,3,A,F,g,r,10,10,8001,1,1,430,528
1,7,15,2,1,3,A,F,g,r,10,10,8001,1,3,421,489
1,7,15,2,1,3,A,F,g,r,10,10,8001,1,3,465,510
1,7,15,2,1,3,A,F,g,r,10,10,8001,1,3,208,476
1,7,15,2,1,3,A,F,g,r,10,10,9001,1,1,375,500
1,7,15,2,1,3,A,F,g,r,10,10,9001,1,1,431,542
1,7,15,2,1,3,A,F,g,r,10,10,9001,1,3,425,512
1,7,15,2,1,3,A,F,g,r,10,10,10001,1,1,561,471
1,7,15,2,1,3,A,F,g,r,10,10,10001,1,3,157,373
1,7,15,2,1,3,A,F,g,r,10,10,11001,1,1,548,491
1,7,15,2,1,3,A,F,g,r,10,10,11001,1,3,567,450
1,7,15,2,1,3,A,F,g,r,10,10,11001,1,1,440,302
1,7,15,2,1,3,A,F,g,r,10,10,11001,1,2,505,90
1,7,15,2,1,3,A,F,g,r,10,10,11001,1,2,507,70
1,7,15,2,1,3,A,F,g,r,10,10,12001,1,1,199,354
1,7,15,2,1,3,A,F,g,r,10,10,12001,1,3,252,317
1,7,15,2,1,3,A,F,g,r,10,10,12001,1,1,504,479
1,7,15,2,1,3,A,F,g,r,10,10,12001,1,1,532,69
1,7,15,2,1,3,A,F,g,r,10,10,12001,1,2,484,62
1,7,15,2,1,3,A,F,g,r,10,10,13001,1,1,407,423
1,7,15,2,1,3,A,F,g,r,10,10,13001,1,1,344,222
1,7,15,2,1,3,A,F,g,r,10,10,13001,1,1,524,117
1,7,15,2,1,3,A,F,g,r,10,10,14001,1,1,576,480
1,7,15,2,1,3,A,F,g,r,10,10,14001,1,1,647,226
1,7,15,2,1,3,A,F,g,r,10,10,14001,1,3,548,455
1,7,15,2,1,3,A,F,g,r,10,10,14001,1,3,559,528
1,7,15,2,1,3,A,F,g,r,10,10,15001,1,1,611,294
1,7,15,2,1,3,A,F,g,r,10,10,16001,1,3,164,233
1,7,15,2,1,3,A,F,g,r,10,10,16001,1,2,612,502
1,7,15,2,1,3,A,F,g,r,10,10,17001,1,1,359,84
1,7,15,2,1,3,A,F,g,r,10,10,17001,1,3,400,52
1,7,15,2,1,3,A,F,g,r,10,10,17001,1,1,493,523
1,7,15,2,1,3,A,F,g,r,10,10,18001,1,3,474,333
1,7,15,2,1,3,A,F,g,r,10,10,18001,1,1,347,451
1,7,15,2,1,3,A,F,g,r,10,10,18001,1,1,152,383
1,7,15,2,1,3,A,F,g,r,10,10,18001,1,3,385,520
1,7,15,2,1,3,A,F,g,r,10,10,18001,1,1,365,575
1,7,15,2,1,3,A,F,g,r,10,10,19001,1,1,400,454
1,7,15,2,1,3,A,F,g,r,10,10,19001,1,3,533,442
1,7,15,2,1,3,A,F,g,r,10,10,19001,1,1,515,513
1,7,15,2,1,3,A,F,g,r,10,10,20001,1,3,548,522
1,7,15,2,1,3,A,F,g,r,10,10,20001,1,3,585,493
1,7,15,2,1,3,A,F,g,r,10,10,20001,1,3,359,74
1,7,15,2,1,3,A,F,g,r,10,10,22001,1,1,368,140
1,7,15,2,1,3,A,F,g,r,10,10,22001,1,3,572,274
1,7,15,2,1,3,A,F,g,r,10,10,22001,1,1,363,584
1,7,15,2,1,3,A,F,g,r,10,10,22001,1,2,475,47
1,7,15,2,1,3,A,F,g,r,10,10,23001,1,1,284,387
1,7,15,2,1,3,A,F,g,r,10,10,23001,1,1,463,529
1,7,15,2,1,3,A,F,g,r,10,10,23001,1,3,624,382
1,7,15,2,1,3,A,F,g,r,10,10,23001,1,3,562,122
1,7,15,2,1,3,A,F,g,r,10,10,24001,1,1,264,263
1,7,15,2,1,3,A,F,g,r,10,10,24001,1,3,317,249
1,7,15,2,1,3,A,F,g,r,10,10,24001,1,3,427,456
1,7,15,2,1,3,A,F,g,r,10,10,24001,1,3,621,466
1,7,15,2,1,3,A,F,g,r,10,10,24001,1,1,629,412
1,7,15,2,1,3,A,F,g,r,10,10,25001,1,1,338,380
1,7,15,2,1,3,A,F,g,r,10,10,25001,1,1,646,343
1,7,15,2,1,3,A,F,g,r,10,10,26001,1,1,254,190
1,7,15,2,1,3,A,F,g,r,10,10,26001,1,1,487,328
1,7,15,2,1,3,A,F,g,r,10,10,26001,1,3,530,204
1,7,15,2,1,3,A,F,g,r,10,10,26001,1,1,540,152
1,7,15,2,1,3,A,F,g,r,10,10,26001,1,2,590,145
1,7,15,2,1,3,A,F,g,r,10,10,26001,1,2,583,122
1,7,15,2,1,3,A,F,g,r,10,10,27001,1,3,553,124
1,7,15,2,1,3,A,F,g,r,10,10,27001,1,1,554,155
1,7,15,2,1,3,A,F,g,r,10,10,27001,1,1,477,522
1,7,15,2,1,3,A,F,g,r,10,10,27001,1,1,359,391
1,7,15,2,1,3,A,F,g,r,10,10,27001,1,1,247,454
1,7,15,2,1,3,A,F,g,r,10,10,27001,1,3,211,476
1,7,15,2,1,3,A,F,g,r,10,10,28001,1,3,268,318
1,7,15,2,1,3,A,F,g,r,10,10,28001,1,1,348,468
1,7,15,2,1,3,A,F,g,r,10,10,28001,1,3,405,444
1,7,15,2,1,3,A,F,g,r,10,10,28001,1,3,432,482
1,7,15,2,1,3,A,F,g,r,10,10,28001,1,1,440,521
1,7,15,2,1,3,A,F,g,r,10,10,28001,1,1,538,439
1,7,15,2,1,3,A,F,g,r,10,10,28001,1,1,591,447
1,7,15,2,1,3,A,F,g,r,10,10,28001,1,1,582,301
1,7,15,2,1,3,A,F,g,r,10,10,29001,1,1,408,125
1,7,15,2,1,3,A,F,g,r,10,10,29001,1,3,378,84
1,7,15,2,1,3,A,F,g,r,10,10,29001,1,3,593,223
1,7,15,2,1,3,A,F,g,r,10,10,29001,1,3,587,331
1,7,15,2,1,3,A,F,g,r,10,10,29001,1,3,503,303
1,7,15,2,1,3,A,F,g,r,10,10,29001,1,3,492,341
1,7,15,2,1,3,A,F,g,r,10,10,29001,1,1,539,329
1,7,15,2,1,3,A,F,g,r,10,10,29001,1,1,554,450
1,7,15,2,1,3,A,F,g,r,10,10,29001,1,1,436,533
1,7,15,2,1,3,A,F,g,r,10,10,29001,1,1,340,408
1,7,15,2,1,3,A,F,g,r,10,10,30001,1,1,347,231
1,7,15,2,1,3,A,F,g,r,10,10,30001,1,1,313,132
1,7,15,2,1,3,A,F,g,r,10,10,30001,1,1,521,180
1,7,15,2,1,3,A,F,g,r,10,10,30001,1,1,488,144
1,7,15,2,1,3,A,F,g,r,10,10,30001,1,1,447,155
1,7,15,2,1,3,A,F,g,r,10,10,30001,1,1,426,127
1,7,15,2,1,3,A,F,g,r,10,10,30001,1,3,522,82
1,7,15,2,1,3,A,F,g,r,10,10,30001,1,1,446,58
1,7,15,2,1,3,A,F,g,r,10,10,30001,1,3,416,68
1,7,15,2,1,3,A,F,g,r,10,10,31001,1,2,468,91
1,7,15,2,1,3,A,F,g,r,10,10,31001,1,1,530,259
1,7,15,2,1,3,A,F,g,r,10,10,31001,1,1,475,419
1,7,15,2,1,3,A,F,g,r,10,10,31001,1,1,441,523
1,7,15,2,1,3,A,F,g,r,10,10,32001,1,3,659,207
1,7,15,2,1,3,A,F,g,r,10,10,32001,1,1,602,344
1,7,15,2,1,3,A,F,g,r,10,10,32001,1,3,503,266
1,7,15,2,1,3,A,F,g,r,10,10,32001,1,1,459,328
1,7,15,2,1,3,A,F,g,r,10,10,32001,1,1,432,395
1,7,15,2,1,3,A,F,g,r,10,10,32001,1,3,395,403
1,7,15,2,1,3,A,F,g,r,10,10,32001,1,1,500,524
1,7,15,2,1,3,A,F,g,r,10,10,33001,1,1,567,199
1,7,15,2,1,3,A,F,g,r,10,10,33001,1,1,616,324
1,7,15,2,1,3,A,F,g,r,10,10,33001,1,1,615,513
1,7,15,2,1,3,A,F,g,r,10,10,33001,1,2,560,472
1,7,15,2,1,3,A,F,g,r,10,10,33001,1,1,509,524
1,7,15,2,1,3,A,F,g,r,10,10,33001,1,3,453,528
1,7,15,2,1,3,A,F,g,r,10,10,33001,1,3,341,539
1,7,15,2,1,3,A,F,g,r,10,10,34001,1,3,253,353
1,7,15,2,1,3,A,F,g,r,10,10,34001,1,3,315,299
1,7,15,2,1,3,A,F,g,r,10,10,34001,1,3,452,322
1,7,15,2,1,3,A,F,g,r,10,10,34001,1,1,438,243
1,7,15,2,1,3,A,F,g,r,10,10,34001,1,1,432,352
1,7,15,2,1,3,A,F,g,r,10,10,34001,1,1,526,403
1,7,15,2,1,3,A,F,g,r,10,10,34001,1,1,457,531
1,7,15,2,1,3,A,F,g,r,10,10,35001,1,1,470,237
1,7,15,2,1,3,A,F,g,r,10,10,35001,1,1,373,307
1,7,15,2,1,3,A,F,g,r,10,10,35001,1,1,393,354
1,7,15,2,1,3,A,F,g,r,10,10,35001,1,3,374,393
1,7,15,2,1,3,A,F,g,r,10,10,35001,1,1,540,483
1,7,15,2,1,3,A,F,g,r,10,10,36001,1,1,340,221
1,7,15,2,1,3,A,F,g,r,10,10,36001,1,3,382,274
1,7,15,2,1,3,A,F,g,r,10,10,36001,1,1,515,327
1,7,15,2,1,3,A,F,g,r,10,10,36001,1,3,507,384
1,7,15,2,1,3,A,F,g,r,10,10,36001,1,1,537,489
1,7,15,2,1,3,A,F,g,r,10,10,37001,1,1,237,131
1,7,15,2,1,3,A,F,g,r,10,10,37001,1,1,371,178
1,7,15,2,1,3,A,F,g,r,10,10,37001,1,3,395,288
1,7,15,2,1,3,A,F,g,r,10,10,37001,1,1,518,502
1,7,15,2,1,3,A,F,g,r,10,10,38001,1,1,311,74
1,7,15,2,1,3,A,F,g,r,10,10,38001,1,1,427,412
1,7,15,2,1,3,A,F,g,r,10,10,38001,1,1,467,523
1,7,15,2,1,3,A,F,g,r,10,10,38001,1,3,307,494
1,7,15,2,1,3,A,F,g,r,10,10,38001,1,3,260,516
1,7,15,2,1,3,A,F,g,r,10,10,39001,1,1,308,71
1,7,15,2,1,3,A,F,g,r,10,10,39001,1,3,184,195
1,7,15,2,1,3,A,F,g,r,10,10,39001,1,3,508,308
1,7,15,2,1,3,A,F,g,r,10,10,39001,1,1,600,280
1,7,15,2,1,3,A,F,g,r,10,10,39001,1,1,499,524
1,7,15,2,1,3,A,F,g,r,10,10,40001,1,1,283,120
1,7,15,2,1,3,A,F,g,r,10,10,40001,1,1,582,355
1,7,15,2,1,3,A,F,g,r,10,10,40001,1,3,592,304
1,7,15,2,1,3,A,F,g,r,10,10,40001,1,2,209,423
1,7,15,2,1,3,A,F,g,r,10,10,40001,1,1,446,523
1,7,15,2,1,3,A,F,g,r,10,10,41001,1,2,597,151
1,7,15,2,1,3,A,F,g,r,10,10,41001,1,1,299,390
1,7,15,2,1,3,A,F,g,r,10,10,41001,1,1,361,448
1,7,15,2,1,3,A,F,g,r,10,10,41001,1,1,433,533
1,7,15,2,1,3,A,F,g,r,10,10,41001,1,1,487,472
1,7,15,2,1,3,A,F,g,r,10,10,42001,1,1,259,434
1,7,15,2,1,3,A,F,g,r,10,10,42001,1,1,440,538
1,7,15,2,1,3,A,F,g,r,10,10,42001,1,1,403,354
1,7,15,2,1,3,A,F,g,r,10,10,42001,1,1,344,108
1,7,15,2,1,3,A,F,g,r,10,10,42001,1,2,503,136
1,7,15,2,1,3,A,F,g,r,10,10,42001,1,2,677,333
1,7,15,2,1,3,A,F,g,r,10,10,43001,1,1,381,503
1,7,15,2,1,3,A,F,g,r,10,10,43001,1,1,399,434
1,7,15,2,1,3,A,F,g,r,10,10,43001,1,1,471,506
1,7,15,2,1,3,A,F,g,r,10,10,43001,1,1,524,514
1,7,15,2,1,3,A,F,g,r,10,10,44001,1,1,431,315
1,7,15,2,1,3,A,F,g,r,10,10,44001,1,1,592,277
1,7,15,2,1,3,A,F,g,r,10,10,44001,1,1,591,340
1,7,15,2,1,3,A,F,g,r,10,10,44001,1,1,483,400
1,7,15,2,1,3,A,F,g,r,10,10,44001,1,3,571,537
1,7,15,2,1,3,A,F,g,r,10,10,44001,1,3,534,514
1,7,15,2,1,3,A,F,g,r,10,10,44001,1,1,446,532
1,7,15,2,1,3,A,F,g,r,10,10,44001,1,3,426,523
1,7,15,2,1,3,A,F,g,r,10,10,45001,1,1,599,312
1,7,15,2,1,3,A,F,g,r,10,10,45001,1,1,580,389
1,7,15,2,1,3,A,F,g,r,10,10,45001,1,3,490,355
1,7,15,2,1,3,A,F,g,r,10,10,45001,1,1,400,382
1,7,15,2,1,3,A,F,g,r,10,10,45001,1,1,394,422
1,7,15,2,1,3,A,F,g,r,10,10,45001,1,1,461,524
1,7,15,2,1,3,A,F,g,r,10,10,46001,1,3,199,209
1,7,15,2,1,3,A,F,g,r,10,10,46001,1,1,425,321
1,7,15,2,1,3,A,F,g,r,10,10,46001,1,1,580,353
1,7,15,2,1,3,A,F,g,r,10,10,46001,1,1,562,479
1,7,15,2,1,3,A,F,g,r,10,10,46001,1,1,498,456
1,7,15,2,1,3,A,F,g,r,10,10,46001,1,1,371,446
1,7,15,2,1,3,A,F,g,r,10,10,46001,1,1,353,527
1,7,15,2,1,3,A,F,g,r,10,10,46001,1,3,376,555
1,7,15,2,1,3,A,F,g,r,10,10,47001,1,1,437,185
1,7,15,2,1,3,A,F,g,r,10,10,47001,1,1,402,344
1,7,15,2,1,3,A,F,g,r,10,10,47001,1,3,355,354
1,7,15,2,1,3,A,F,g,r,10,10,47001,1,3,460,398
1,7,15,2,1,3,A,F,g,r,10,10,47001,1,1,430,417
1,7,15,2,1,3,A,F,g,r,10,10,47001,1,1,398,416
1,7,15,2,1,3,A,F,g,r,10,10,47001,1,1,521,513
1,7,15,2,1,3,A,F,g,r,10,10,47001,1,1,437,551
1,7,15,2,1,3,A,F,g,r,10,10,48001,1,3,313,83
1,7,15,2,1,3,A,F,g,r,10,10,48001,1,1,357,72
1,7,15,2,1,3,A,F,g,r,10,10,48001,1,3,390,97
1,7,15,2,1,3,A,F,g,r,10,10,48001,1,3,457,109
1,7,15,2,1,3,A,F,g,r,10,10,48001,1,1,599,438
1,7,15,2,1,3,A,F,g,r,10,10,48001,1,1,500,405
1,7,15,2,1,3,A,F,g,r,10,10,48001,1,1,411,428
1,7,15,2,1,3,A,F,g,r,10,10,48001,1,1,353,446
1,7,15,2,1,3,A,F,g,r,10,10,48001,1,3,487,467
1,7,15,2,1,3,A,F,g,r,10,10,48001,1,3,382,538
1,7,15,2,1,3,A,F,g,r,10,10,48001,1,1,492,507
1,7,15,2,1,3,A,F,g,r,10,10,49001,1,3,541,177
1,7,15,2,1,3,A,F,g,r,10,10,49001,1,1,519,293
1,7,15,2,1,3,A,F,g,r,10,10,49001,1,1,368,243
1,7,15,2,1,3,A,F,g,r,10,10,49001,1,1,415,323
1,7,15,2,1,3,A,F,g,r,10,10,49001,1,1,388,435
1,7,15,2,1,3,A,F,g,r,10,10,49001,1,1,594,422
1,7,15,2,1,3,A,F,g,r,10,10,49001,1,1,485,528
1,7,15,2,1,3,A,F,g,r,10,10,50001,1,2,540,133
1,7,15,2,1,3,A,F,g,r,10,10,50001,1,1,426,146
1,7,15,2,1,3,A,F,g,r,10,10,50001,1,1,413,304
1,7,15,2,1,3,A,F,g,r,10,10,50001,1,1,380,320
1,7,15,2,1,3,A,F,g,r,10,10,50001,1,1,410,512
1,7,15,2,1,3,A,F,g,r,10,10,50001,1,1,537,499
1,7,15,2,1,3,A,F,g,r,10,10,50001,1,1,598,436
1,7,15,2,1,3,A,F,g,r,10,10,51001,1,1,359,393
1,7,15,2,1,3,A,F,g,r,10,10,51001,1,1,344,429
1,7,15,2,1,3,A,F,g,r,10,10,51001,1,1,371,464
1,7,15,2,1,3,A,F,g,r,10,10,51001,1,3,400,445
1,7,15,2,1,3,A,F,g,r,10,10,51001,1,1,569,432
1,7,15,2,1,3,A,F,g,r,10,10,51001,1,1,595,431
1,7,15,2,1,3,A,F,g,r,10,10,51001,1,1,613,508
1,7,15,2,1,3,A,F,g,r,10,10,52001,1,2,250,94
1,7,15,2,1,3,A,F,g,r,10,10,52001,1,1,405,351
1,7,15,2,1,3,A,F,g,r,10,10,52001,1,1,409,396
1,7,15,2,1,3,A,F,g,r,10,10,52001,1,1,390,441
1,7,15,2,1,3,A,F,g,r,10,10,52001,1,1,443,536
1,7,15,2,1,3,A,F,g,r,10,10,52001,1,1,606,448
1,7,15,2,1,3,A,F,g,r,10,10,52001,1,1,642,348
1,7,15,2,1,3,A,F,g,r,10,10,53001,1,3,280,127
1,7,15,2,1,3,A,F,g,r,10,10,53001,1,3,273,182
1,7,15,2,1,3,A,F,g,r,10,10,53001,1,1,582,117
1,7,15,2,1,3,A,F,g,r,10,10,53001,1,1,480,275
1,7,15,2,1,3,A,F,g,r,10,10,53001,1,1,476,334
1,7,15,2,1,3,A,F,g,r,10,10,53001,1,1,519,355
1,7,15,2,1,3,A,F,g,r,10,10,53001,1,2,502,312
1,7,15,2,1,3,A,F,g,r,10,10,53001,1,1,430,389
1,7,15,2,1,3,A,F,g,r,10,10,53001,1,1,419,437
1,7,15,2,1,3,A,F,g,r,10,10,53001,1,1,346,450
1,7,15,2,1,3,A,F,g,r,10,10,53001,1,3,401,478
1,7,15,2,1,3,A,F,g,r,10,10,54001,1,1,473,224
1,7,15,2,1,3,A,F,g,r,10,10,54001,1,1,521,320
1,7,15,2,1,3,A,F,g,r,10,10,54001,1,3,318,61
1,7,15,2,1,3,A,F,g,r,10,10,54001,1,3,159,294
1,7,15,2,1,3,A,F,g,r,10,10,54001,1,1,325,315
1,7,15,2,1,3,A,F,g,r,10,10,54001,1,3,395,317
1,7,15,2,1,3,A,F,g,r,10,10,54001,1,3,374,376
1,7,15,2,1,3,A,F,g,r,10,10,54001,1,1,426,345
1,7,15,2,1,3,A,F,g,r,10,10,54001,1,1,425,432
1,7,15,2,1,3,A,F,g,r,10,10,54001,1,1,372,417
1,7,15,2,1,3,A,F,g,r,10,10,55001,1,1,212,221
1,7,15,2,1,3,A,F,g,r,10,10,55001,1,3,241,262
1,7,15,2,1,3,A,F,g,r,10,10,55001,1,3,338,191
1,7,15,2,1,3,A,F,g,r,10,10,55001,1,1,376,320
1,7,15,2,1,3,A,F,g,r,10,10,55001,1,1,427,336
1,7,15,2,1,3,A,F,g,r,10,10,55001,1,1,562,350
1,7,15,2,1,3,A,F,g,r,10,10,55001,1,3,600,339
1,7,15,2,1,3,A,F,g,r,10,10,55001,1,1,608,424
1,7,15,2,1,3,A,F,g,r,10,10,55001,1,1,412,544
1,7,15,2,1,3,A,F,g,r,10,10,56001,1,1,415,548
1,7,15,2,1,3,A,F,g,r,10,10,56001,1,1,369,433
1,7,15,2,1,3,A,F,g,r,10,10,56001,1,1,416,338
1,7,15,2,1,3,A,F,g,r,10,10,56001,1,1,408,270
1,7,15,2,1,3,A,F,g,r,10,10,56001,1,1,492,310
1,7,15,2,1,3,A,F,g,r,10,10,56001,1,1,501,59
1,7,15,2,1,3,A,F,g,r,10,10,57001,1,1,423,538
1,7,15,2,1,3,A,F,g,r,10,10,57001,1,3,435,513
1,7,15,2,1,3,A,F,g,r,10,10,57001,1,1,406,492
1,7,15,2,1,3,A,F,g,r,10,10,57001,1,1,379,467
1,7,15,2,1,3,A,F,g,r,10,10,57001,1,1,379,405
1,7,15,2,1,3,A,F,g,r,10,10,57001,1,1,426,352
1,7,15,2,1,3,A,F,g,r,10,10,57001,1,1,440,306
1,7,15,2,1,3,A,F,g,r,10,10,57001,1,3,369,50
1,7,15,2,1,3,A,F,g,r,10,10,58001,1,1,417,561
1,7,15,2,1,3,A,F,g,r,10,10,58001,1,1,488,457
1,7,15,2,1,3,A,F,g,r,10,10,58001,1,1,437,385
1,7,15,2,1,3,A,F,g,r,10,10,58001,1,3,449,342
1,7,15,2,1,3,A,F,g,r,10,10,58001,1,1,387,331
1,7,15,2,1,3,A,F,g,r,10,10,58001,1,1,215,218
1,7,15,2,1,3,A,F,g,r,10,10,58001,1,3,265,173
1,7,15,2,1,3,A,F,g,r,10,10,59001,1,1,240,477
1,7,15,2,1,3,A,F,g,r,10,10,59001,1,3,243,427
1,7,15,2,1,3,A,F,g,r,10,10,59001,1,1,375,458
1,7,15,2,1,3,A,F,g,r,10,10,59001,1,1,413,551
1,7,15,2,1,3,A,F,g,r,10,10,59001,1,1,414,339
1,7,15,2,1,3,A,F,g,r,10,10,59001,1,1,534,106
1,7,15,2,1,3,A,F,g,r,10,10,60001,1,1,390,61
1,7,15,2,1,3,A,F,g,r,10,10,60001,1,3,349,65
1,7,15,2,1,3,A,F,g,r,10,10,60001,1,1,311,388
1,7,15,2,1,3,A,F,g,r,10,10,60001,1,1,365,408
1,7,15,2,1,3,A,F,g,r,10,10,60001,1,1,420,544
1,7,15,2,1,3,A,F,g,r,10,10,60001,1,1,497,523
1,7,15,2,1,3,A,F,g,r,10,10,60001,1,1,550,554
1,7,15,2,1,3,A,F,g,r,10,10,60001,1,3,594,478
1,7,15,2,1,3,A,F,g,r,10,10,61001,1,3,304,173
1,7,15,2,1,3,A,F,g,r,10,10,61001,1,1,511,314
1,7,15,2,1,3,A,F,g,r,10,10,61001,1,1,367,403
1,7,15,2,1,3,A,F,g,r,10,10,61001,1,1,387,452
1,7,15,2,1,3,A,F,g,r,10,10,61001,1,3,410,413
1,7,15,2,1,3,A,F,g,r,10,10,61001,1,1,445,504
1,7,15,2,1,3,A,F,g,r,10,10,61001,1,1,558,505
1,7,15,2,1,3,A,F,g,r,10,10,61001,1,1,582,447
1,7,15,2,1,3,A,F,g,r,10,10,62001,1,3,156,265
1,7,15,2,1,3,A,F,g,r,10,10,62001,1,3,443,348
1,7,15,2,1,3,A,F,g,r,10,10,62001,1,1,442,383
1,7,15,2,1,3,A,F,g,r,10,10,62001,1,1,522,361
1,7,15,2,1,3,A,F,g,r,10,10,62001,1,1,483,488
1,7,15,2,1,3,A,F,g,r,10,10,62001,1,1,466,525
1,7,15,2,1,3,A,F,g,r,10,10,62001,1,1,588,446
1,7,15,2,1,3,A,F,g,r,10,10,63001,1,1,448,538
1,7,15,2,1,3,A,F,g,r,10,10,63001,1,1,543,487
1,7,15,2,1,3,A,F,g,r,10,10,63001,1,1,608,515
1,7,15,2,1,3,A,F,g,r,10,10,63001,1,1,554,346
1,7,15,2,1,3,A,F,g,r,10,10,63001,1,1,400,425
1,7,15,2,1,3,A,F,g,r,10,10,63001,1,3,188,344
1,7,15,2,1,3,A,F,g,r,10,10,64001,1,3,271,152
1,7,15,2,1,3,A,F,g,r,10,10,64001,1,1,392,420
1,7,15,2,1,3,A,F,g,r,10,10,64001,1,1,444,523
1,7,15,2,1,3,A,F,g,r,10,10,64001,1,1,535,481
1,7,15,2,1,3,A,F,g,r,10,10,64001,1,1,579,432
1,7,15,2,1,3,A,F,g,r,10,10,64001,1,1,635,447
1,7,15,2,1,3,A,F,g,r,10,10,65001,1,3,262,144
1,7,15,2,1,3,A,F,g,r,10,10,65001,1,1,523,272
1,7,15,2,1,3,A,F,g,r,10,10,65001,1,1,406,439
1,7,15,2,1,3,A,F,g,r,10,10,65001,1,1,517,467
1,7,15,2,1,3,A,F,g,r,10,10,65001,1,1,492,523
1,7,15,2,1,3,A,F,g,r,10,10,65001,1,1,572,477
1,7,15,2,1,3,A,F,g,r,10,10,66001,1,3,260,176
1,7,15,2,1,3,A,F,g,r,10,10,66001,1,1,314,353
1,7,15,2,1,3,A,F,g,r,10,10,66001,1,3,352,369
1,7,15,2,1,3,A,F,g,r,10,10,66001,1,1,361,415
1,7,15,2,1,3,A,F,g,r,10,10,66001,1,1,452,518
1,7,15,2,1,3,A,F,g,r,10,10,66001,1,1,485,526
1,7,15,2,1,3,A,F,g,r,10,10,66001,1,1,586,445
1,7,15,2,1,3,A,F,g,r,10,10,67001,1,3,192,163
1,7,15,2,1,3,A,F,g,r,10,10,67001,1,3,217,150
1,7,15,2,1,3,A,F,g,r,10,10,67001,1,3,255,151
1,7,15,2,1,3,A,F,g,r,10,10,67001,1,1,241,179
1,7,15,2,1,3,A,F,g,r,10,10,67001,1,1,410,311
1,7,15,2,1,3,A,F,g,r,10,10,67001,1,1,392,468
1,7,15,2,1,3,A,F,g,r,10,10,67001,1,1,493,540
1,7,15,2,1,3,A,F,g,r,10,10,67001,1,1,519,506
1,7,15,2,1,3,A,F,g,r,10,10,67001,1,1,323,565
1,7,15,2,1,3,A,F,g,r,10,10,68001,1,3,312,177
1,7,15,2,1,3,A,F,g,r,10,10,68001,1,1,420,329
1,7,15,2,1,3,A,F,g,r,10,10,68001,1,1,365,413
1,7,15,2,1,3,A,F,g,r,10,10,68001,1,1,462,528
1,7,15,2,1,3,A,F,g,r,10,10,68001,1,1,607,438
1,7,15,2,1,3,A,F,g,r,10,10,68001,1,1,505,349
1,7,15,2,1,3,A,F,g,r,10,10,68001,1,1,592,352
1,7,15,2,1,3,A,F,g,r,10,10,68001,1,3,648,315
1,7,15,2,1,3,A,F,g,r,10,10,68001,1,3,524,303
1,7,15,2,1,3,A,F,g,r,10,10,68001,1,3,484,305
1,7,15,2,1,3,A,F,g,r,10,10,69001,1,3,231,228
1,7,15,2,1,3,A,F,g,r,10,10,69001,1,3,359,240
1,7,15,2,1,3,A,F,g,r,10,10,69001,1,1,474,287
1,7,15,2,1,3,A,F,g,r,10,10,69001,1,1,530,340
1,7,15,2,1,3,A,F,g,r,10,10,69001,1,3,505,380
1,7,15,2,1,3,A,F,g,r,10,10,69001,1,1,380,443
1,7,15,2,1,3,A,F,g,r,10,10,69001,1,1,440,538
1,7,15,2,1,3,A,F,g,r,10,10,69001,1,1,560,544
1,7,15,2,1,3,A,F,g,r,10,10,69001,1,1,570,458
1,7,15,2,1,3,A,F,g,r,10,10,70001,1,1,466,312
1,7,15,2,1,3,A,F,g,r,10,10,70001,1,3,419,316
1,7,15,2,1,3,A,F,g,r,10,10,70001,1,3,427,345
1,7,15,2,1,3,A,F,g,r,10,10,70001,1,1,408,426
1,7,15,2,1,3,A,F,g,r,10,10,70001,1,1,495,414
1,7,15,2,1,3,A,F,g,r,10,10,70001,1,1,577,463
1,7,15,2,1,3,A,F,g,r,10,10,70001,1,1,501,516
1,7,15,2,1,3,A,F,g,r,10,10,70001,1,1,434,533
1,7,15,2,1,3,A,F,g,r,10,10,71001,1,3,332,521
1,7,15,2,1,3,A,F,g,r,10,10,71001,1,1,439,513
1,7,15,2,1,3,A,F,g,r,10,10,71001,1,1,505,522
1,7,15,2,1,3,A,F,g,r,10,10,71001,1,1,460,430
1,7,15,2,1,3,A,F,g,r,10,10,71001,1,1,374,455
1,7,15,2,1,3,A,F,g,r,10,10,71001,1,1,379,411
1,7,15,2,1,3,A,F,g,r,10,10,72001,1,1,383,438
1,7,15,2,1,3,A,F,g,r,10,10,72001,1,1,423,464
1,7,15,2,1,3,A,F,g,r,10,10,72001,1,1,443,397
1,7,15,2,1,3,A,F,g,r,10,10,72001,1,1,543,483
1,7,15,2,1,3,A,F,g,r,10,10,72001,1,3,423,342
1,7,15,2,1,3,A,F,g,r,10,10,72001,1,1,394,316
1,7,15,2,1,3,A,F,g,r,10,10,73001,1,1,371,451
1,7,15,2,1,3,A,F,g,r,10,10,73001,1,1,362,376
1,7,15,2,1,3,A,F,g,r,10,10,73001,1,1,415,298
1,7,15,2,1,3,A,F,g,r,10,10,73001,1,1,540,241
1,7,15,2,1,3,A,F,g,r,10,10,73001,1,3,314,387
1,7,15,2,1,3,A,F,g,r,10,10,73001,1,3,313,353
1,7,15,2,1,3,A,F,g,r,10,10,74001,1,1,222,440
1,7,15,2,1,3,A,F,g,r,10,10,74001,1,1,361,439
1,7,15,2,1,3,A,F,g,r,10,10,74001,1,1,423,333
1,7,15,2,1,3,A,F,g,r,10,10,74001,1,1,542,355
1,7,15,2,1,3,A,F,g,r,10,10,74001,1,3,382,313
1,7,15,2,1,3,A,F,g,r,10,10,74001,1,1,483,178
1,7,15,2,1,3,A,F,g,r,10,10,74001,1,3,264,125
1,7,15,2,1,3,A,F,g,r,10,10,75001,1,1,430,517
1,7,15,2,1,3,A,F,g,r,10,10,75001,1,1,425,379
1,7,15,2,1,3,A,F,g,r,10,10,75001,1,1,589,434
1,7,15,2,1,3,A,F,g,r,10,10,75001,1,3,405,313
1,7,15,2,1,3,A,F,g,r,10,10,76001,1,1,449,540
1,7,15,2,1,3,A,F,g,r,10,10,76001,1,1,439,371
1,7,15,2,1,3,A,F,g,r,10,10,76001,1,1,361,330
1,7,15,2,1,3,A,F,g,r,10,10,76001,1,3,359,358
1,7,15,2,1,3,A,F,g,r,10,10,76001,1,1,244,401
1,7,15,2,1,3,A,F,g,r,10,10,77001,1,1,220,316
1,7,15,2,1,3,A,F,g,r,10,10,77001,1,1,414,324
1,7,15,2,1,3,A,F,g,r,10,10,77001,1,1,546,387
1,7,15,2,1,3,A,F,g,r,10,10,77001,1,3,373,223
1,7,15,2,1,3,A,F,g,r,10,10,77001,1,3,391,93
1,7,15,2,1,3,A,F,g,r,10,10,78001,1,1,387,476
1,7,15,2,1,3,A,F,g,r,10,10,78001,1,1,441,403
1,7,15,2,1,3,A,F,g,r,10,10,78001,1,1,537,511
1,7,15,2,1,3,A,F,g,r,10,10,78001,1,3,426,518
1,7,15,2,1,3,A,F,g,r,10,10,78001,1,3,340,504
1,7,15,2,1,3,A,F,g,r,10,10,78001,1,3,328,489
1,7,15,2,1,3,A,F,g,r,10,10,79001,1,1,163,228
1,7,15,2,1,3,A,F,g,r,10,10,79001,1,3,288,293
1,7,15,2,1,3,A,F,g,r,10,10,79001,1,1,352,398
1,7,15,2,1,3,A,F,g,r,10,10,79001,1,1,414,394
1,7,15,2,1,3,A,F,g,r,10,10,79001,1,1,419,317
1,7,15,2,1,3,A,F,g,r,10,10,79001,1,1,474,433
1,7,15,2,1,3,A,F,g,r,10,10,79001,1,3,459,553
1,7,15,2,1,3,A,F,g,r,10,10,79001,1,2,444,586
1,7,15,2,1,3,A,F,g,r,10,10,80001,1,1,185,348
1,7,15,2,1,3,A,F,g,r,10,10,80001,1,1,386,543
1,7,15,2,1,3,A,F,g,r,10,10,80001,1,1,455,509
1,7,15,2,1,3,A,F,g,r,10,10,80001,1,1,460,553
1,7,15,2,1,3,A,F,g,r,10,10,80001,1,3,498,535
1,7,15,2,1,3,A,F,g,r,10,10,81001,1,1,359,305
1,7,15,2,1,3,A,F,g,r,10,10,81001,1,3,285,361
1,7,15,2,1,3,A,F,g,r,10,10,81001,1,1,360,415
1,7,15,2,1,3,A,F,g,r,10,10,81001,1,1,344,454
1,7,15,2,1,3,A,F,g,r,10,10,81001,1,1,446,535
1,7,15,2,1,3,A,F,g,r,10,10,82001,1,3,265,281
1,7,15,2,1,3,A,F,g,r,10,10,82001,1,1,286,324
1,7,15,2,1,3,A,F,g,r,10,10,82001,1,1,392,418
1,7,15,2,1,3,A,F,g,r,10,10,82001,1,1,529,487
1,7,15,2,1,3,A,F,g,r,10,10,82001,1,1,591,455
1,7,15,2,1,3,A,F,g,r,10,10,83001,1,3,640,203
1,7,15,2,1,3,A,F,g,r,10,10,83001,1,3,590,202
1,7,15,2,1,3,A,F,g,r,10,10,83001,1,3,494,282
1,7,15,2,1,3,A,F,g,r,10,10,83001,1,1,526,348
1,7,15,2,1,3,A,F,g,r,10,10,83001,1,1,500,508
1,7,15,2,1,3,A,F,g,r,10,10,83001,1,1,447,534
1,7,15,2,1,3,A,F,g,r,10,10,84001,1,1,414,531
1,7,15,2,1,3,A,F,g,r,10,10,84001,1,3,175,305
1,7,15,2,1,3,A,F,g,r,10,10,84001,1,1,370,149
1,7,15,2,1,3,A,F,g,r,10,10,84001,1,2,660,288
1,7,15,2,1,3,A,F,g,r,10,10,84001,1,2,684,319
1,7,15,2,1,3,A,F,g,r,10,10,85001,1,1,366,449
1,7,15,2,1,3,A,F,g,r,10,10,85001,1,1,525,489
1,7,15,2,1,3,A,F,g,r,10,10,85001,1,1,567,314
1,7,15,2,1,3,A,F,g,r,10,10,86001,1,1,440,404
1,7,15,2,1,3,A,F,g,r,10,10,86001,1,1,500,353
1,7,15,2,1,3,A,F,g,r,10,10,86001,1,1,587,436
1,7,15,2,1,3,A,F,g,r,10,10,87001,1,3,297,143
1,7,15,2,1,3,A,F,g,r,10,10,87001,1,1,408,297
1,7,15,2,1,3,A,F,g,r,10,10,87001,1,1,449,433
1,7,15,2,1,3,A,F,g,r,10,10,87001,1,3,519,483
1,7,15,2,1,3,A,F,g,r,10,10,87001,1,1,565,488
1,7,15,2,1,3,A,F,g,r,10,10,87001,1,1,647,405
1,7,15,2,1,3,A,F,g,r,10,10,88001,1,1,370,446
1,7,15,2,1,3,A,F,g,r,10,10,88001,1,1,439,420
1,7,15,2,1,3,A,F,g,r,10,10,88001,1,1,436,535
1,7,15,2,1,3,A,F,g,r,10,10,88001,1,1,516,494
1,7,15,2,1,3,A,F,g,r,10,10,88001,1,1,529,523
1,7,15,2,1,3,A,F,g,r,10,10,89001,1,1,390,460
1,7,15,2,1,3,A,F,g,r,10,10,89001,1,1,402,400
1,7,15,2,1,3,A,F,g,r,10,10,89001,1,1,451,537
1,7,15,2,1,3,A,F,g,r,10,10,89001,1,1,525,495
1,7,15,2,1,3,A,F,g,r,10,10,89001,1,1,549,459
1,7,15,2,1,3,A,F,g,r,10,10,89001,1,3,593,468
1,7,15,2,1,3,A,F,g,r,10,10,90001,1,3,511,122
1,7,15,2,1,3,A,F,g,r,10,10,90001,1,1,531,448
1,7,15,2,1,3,A,F,g,r,10,10,90001,1,1,547,492
1,7,15,2,1,3,A,F,g,r,10,10,90001,1,1,444,446
1,7,15,2,1,3,A,F,g,r,10,10,90001,1,1,391,418
1,7,15,2,1,3,A,F,g,r,10,10,90001,1,1,370,391
1,7,15,2,1,3,A,F,g,r,10,10,90001,1,3,382,351
1,7,15,2,1,3,A,F,g,r,10,10,91001,1,1,415,302
1,7,15,2,1,3,A,F,g,r,10,10,91001,1,1,372,408
1,7,15,2,1,3,A,F,g,r,10,10,91001,1,1,454,412
1,7,15,2,1,3,A,F,g,r,10,10,91001,1,3,462,455
1,7,15,2,1,3,A,F,g,r,10,10,91001,1,1,569,447
1,7,15,2,1,3,A,F,g,r,10,10,91001,1,1,560,518
1,7,15,2,1,3,A,F,g,r,10,10,92001,1,3,246,286
1,7,15,2,1,3,A,F,g,r,10,10,92001,1,1,361,389
1,7,15,2,1,3,A,F,g,r,10,10,92001,1,1,402,418
1,7,15,2,1,3,A,F,g,r,10,10,92001,1,1,359,445
1,7,15,2,1,3,A,F,g,r,10,10,92001,1,1,395,479
1,7,15,2,1,3,A,F,g,r,10,10,92001,1,1,553,476
1,7,15,2,1,3,A,F,g,r,10,10,93001,1,1,190,215
1,7,15,2,1,3,A,F,g,r,10,10,93001,1,1,314,261
1,7,15,2,1,3,A,F,g,r,10,10,93001,1,3,326,419
1,7,15,2,1,3,A,F,g,r,10,10,93001,1,1,382,419
1,7,15,2,1,3,A,F,g,r,10,10,93001,1,1,440,524
1,7,15,2,1,3,A,F,g,r,10,10,93001,1,1,552,487
1,7,15,2,1,3,A,F,g,r,10,10,94001,1,1,344,477
1,7,15,2,1,3,A,F,g,r,10,10,94001,1,1,387,444
1,7,15,2,1,3,A,F,g,r,10,10,94001,1,1,558,474
1,7,15,2,1,3,A,F,g,r,10,10,95001,1,1,387,410
1,7,15,2,1,3,A,F,g,r,10,10,95001,1,1,431,436
1,7,15,2,1,3,A,F,g,r,10,10,95001,1,1,588,437
1,7,15,2,1,3,A,F,g,r,10,10,95001,1,3,452,478
1,7,15,2,1,3,A,F,g,r,10,10,95001,1,3,471,505
1,7,15,2,1,3,A,F,g,r,10,10,95001,1,1,449,540
1,7,15,2,1,3,A,F,g,r,10,10,96001,1,1,423,381
1,7,15,2,1,3,A,F,g,r,10,10,96001,1,1,575,466
1,7,15,2,1,3,A,F,g,r,10,10,97001,1,1,386,460
1,7,15,2,1,3,A,F,g,r,10,10,97001,1,1,460,530
1,7,15,2,1,3,A,F,g,r,10,10,97001,1,1,628,286
1,7,15,2,1,3,A,F,g,r,10,10,97001,1,1,492,117
1,7,15,2,1,3,A,F,g,r,10,10,97001,1,3,449,111
1,7,15,2,1,3,A,F,g,r,10,10,98001,1,1,399,412
1,7,15,2,1,3,A,F,g,r,10,10,98001,1,1,577,453
1,7,15,2,1,3,A,F,g,r,10,10,99001,1,1,415,393
1,7,15,2,1,3,A,F,g,r,10,10,99001,1,1,471,406
1,7,15,2,1,3,A,F,g,r,10,10,99001,1,1,564,468
1,7,15,2,1,3,A,F,g,r,10,10,99001,1,3,613,350
1,7,15,2,1,3,A,F,g,r,10,10,100001,1,1,527,356
1,7,15,2,1,3,A,F,g,r,10,10,100001,1,1,558,478
1,7,15,2,1,3,A,F,g,r,10,10,101001,1,3,305,246
1,7,15,2,1,3,A,F,g,r,10,10,101001,1,1,526,350
1,7,15,2,1,3,A,F,g,r,10,10,101001,1,1,553,483
1,7,15,2,1,3,A,F,g,r,10,10,102001,1,1,531,348
1,7,15,2,1,3,A,F,g,r,10,10,102001,1,1,587,303
1,7,15,2,1,3,A,F,g,r,10,10,102001,1,3,638,303
1,7,15,2,1,3,A,F,g,r,10,10,102001,1,1,376,48
1,7,15,2,1,3,A,F,g,r,10,10,102001,1,2,338,57
1,7,15,2,1,3,A,F,g,r,10,10,103001,1,1,397,417
1,7,15,2,1,3,A,F,g,r,10,10,103001,1,1,510,351
1,7,15,2,1,3,A,F,g,r,10,10,103001,1,1,538,194
1,7,15,2,1,3,A,F,g,r,10,10,103001,1,3,525,219
1,7,15,2,1,3,A,F,g,r,10,10,103001,1,3,339,62
1,7,15,2,1,3,A,F,g,r,10,10,104001,1,1,519,345
1,7,15,2,1,3,A,F,g,r,10,10,104001,1,1,568,471
1,7,15,2,1,3,A,F,g,r,10,10,104001,1,3,445,57
1,7,15,2,1,3,A,F,g,r,10,10,105001,1,3,455,76
1,7,15,2,1,3,A,F,g,r,10,10,105001,1,1,485,325
1,7,15,2,1,3,A,F,g,r,10,10,105001,1,1,516,363
1,7,15,2,1,3,A,F,g,r,10,10,105001,1,3,471,354
1,7,15,2,1,3,A,F,g,r,10,10,105001,1,3,480,472
1,7,15,2,1,3,A,F,g,r,10,10,105001,1,3,456,479
1,7,15,2,1,3,A,F,g,r,10,10,105001,1,1,437,512
1,7,15,2,1,3,A,F,g,r,10,10,106001,1,1,550,276
1,7,15,2,1,3,A,F,g,r,10,10,106001,1,1,577,321
1,7,15,2,1,3,A,F,g,r,10,10,106001,1,3,563,402
1,7,15,2,1,3,A,F,g,r,10,10,106001,1,3,543,418
1,7,15,2,1,3,A,F,g,r,10,10,106001,1,3,518,405
1,7,15,2,1,3,A,F,g,r,10,10,106001,1,2,683,334
1,7,15,2,1,3,A,F,g,r,10,10,106001,1,2,668,238
1,7,15,2,1,3,A,F,g,r,10,10,107001,1,1,403,432
1,7,15,2,1,3,A,F,g,r,10,10,107001,1,1,573,477
