dummy,month,day,period,view,station,fgeno,mgeno,fcol,mcol,nf,nm,frame,something,sex,x,y
1,6,29,4,1,1,A,E,r,g,10,10,1,1,1,686,325
1,6,29,4,1,1,A,E,r,g,10,10,1,1,1,613,408
1,6,29,4,1,1,A,E,r,g,10,10,1,1,3,599,373
1,6,29,4,1,1,A,E,r,g,10,10,1,1,3,486,326
1,6,29,4,1,1,A,E,r,g,10,10,1,1,3,462,428
1,6,29,4,1,1,A,E,r,g,10,10,1,1,3,421,457
1,6,29,4,1,1,A,E,r,g,10,10,1,1,1,384,436
1,6,29,4,1,1,A,E,r,g,10,10,1,1,1,378,460
1,6,29,4,1,1,A,E,r,g,10,10,1001,1,3,611,228
1,6,29,4,1,1,A,E,r,g,10,10,1001,1,1,588,254
1,6,29,4,1,1,A,E,r,g,10,10,1001,1,1,558,235
1,6,29,4,1,1,A,E,r,g,10,10,1001,1,1,347,104
1,6,29,4,1,1,A,E,r,g,10,10,1001,1,3,485,388
1,6,29,4,1,1,A,E,r,g,10,10,1001,1,3,535,399
1,6,29,4,1,1,A,E,r,g,10,10,1001,1,3,580,378
1,6,29,4,1,1,A,E,r,g,10,10,1001,1,1,525,430
1,6,29,4,1,1,A,E,r,g,10,10,2001,1,1,699,203
1,6,29,4,1,1,A,E,r,g,10,10,2001,1,3,629,231
1,6,29,4,1,1,A,E,r,g,10,10,2001,1,3,596,234
1,6,29,4,1,1,A,E,r,g,10,10,2001,1,3,608,350
1,6,29,4,1,1,A,E,r,g,10,10,2001,1,1,555,365
1,6,29,4,1,1,A,E,r,g,10,10,2001,1,3,424,354
1,6,29,4,1,1,A,E,r,g,10,10,3001,1,3,589,178
1,6,29,4,1,1,A,E,r,g,10,10,3001,1,3,425,162
1,6,29,4,1,1,A,E,r,g,10,10,3001,1,3,368,199
1,6,29,4,1,1,A,E,r,g,10,10,3001,1,1,472,184
1,6,29,4,1,1,A,E,r,g,10,10,3001,1,1,589,219
1,6,29,4,1,1,A,E,r,g,10,10,3001,1,1,576,345
1,6,29,4,1,1,A,E,r,g,10,10,3001,1,3,490,387
1,6,29,4,1,1,A,E,r,g,10,10,4001,1,3,315,98
1,6,29,4,1,1,A,E,r,g,10,10,4001,1,1,259,127
1,6,29,4,1,1,A,E,r,g,10,10,4001,1,1,259,230
1,6,29,4,1,1,A,E,r,g,10,10,4001,1,1,237,241
1,6,29,4,1,1,A,E,r,g,10,10,4001,1,3,274,243
1,6,29,4,1,1,A,E,r,g,10,10,4001,1,3,299,295
1,6,29,4,1,1,A,E,r,g,10,10,4001,1,1,282,332
1,6,29,4,1,1,A,E,r,g,10,10,5001,1,3,440,129
1,6,29,4,1,1,A,E,r,g,10,10,5001,1,3,419,268
1,6,29,4,1,1,A,E,r,g,10,10,5001,1,3,375,267
1,6,29,4,1,1,A,E,r,g,10,10,5001,1,3,292,252
1,6,29,4,1,1,A,E,r,g,10,10,5001,1,1,387,147
1,6,29,4,1,1,A,E,r,g,10,10,6001,1,1,710,217
1,6,29,4,1,1,A,E,r,g,10,10,6001,1,3,476,238
1,6,29,4,1,1,A,E,r,g,10,10,6001,1,3,458,179
1,6,29,4,1,1,A,E,r,g,10,10,6001,1,3,403,326
1,6,29,4,1,1,A,E,r,g,10,10,6001,1,1,418,187
1,6,29,4,1,1,A,E,r,g,10,10,6001,1,1,389,200
1,6,29,4,1,1,A,E,r,g,10,10,6001,1,3,279,235
1,6,29,4,1,1,A,E,r,g,10,10,7001,1,1,433,64
1,6,29,4,1,1,A,E,r,g,10,10,7001,1,3,330,157
1,6,29,4,1,1,A,E,r,g,10,10,7001,1,3,268,143
1,6,29,4,1,1,A,E,r,g,10,10,7001,1,3,417,376
1,6,29,4,1,1,A,E,r,g,10,10,8001,1,3,427,124
1,6,29,4,1,1,A,E,r,g,10,10,8001,1,3,553,336
1,6,29,4,1,1,A,E,r,g,10,10,8001,1,1,531,289
1,6,29,4,1,1,A,E,r,g,10,10,8001,1,1,437,320
1,6,29,4,1,1,A,E,r,g,10,10,8001,1,3,405,351
1,6,29,4,1,1,A,E,r,g,10,10,8001,1,3,426,431
1,6,29,4,1,1,A,E,r,g,10,10,9001,1,3,409,163
1,6,29,4,1,1,A,E,r,g,10,10,9001,1,3,384,261
1,6,29,4,1,1,A,E,r,g,10,10,9001,1,1,330,299
1,6,29,4,1,1,A,E,r,g,10,10,9001,1,3,561,229
1,6,29,4,1,1,A,E,r,g,10,10,9001,1,3,634,348
1,6,29,4,1,1,A,E,r,g,10,10,9001,1,3,504,433
1,6,29,4,1,1,A,E,r,g,10,10,9001,1,1,525,368
1,6,29,4,1,1,A,E,r,g,10,10,10001,1,3,575,196
1,6,29,4,1,1,A,E,r,g,10,10,10001,1,3,399,166
1,6,29,4,1,1,A,E,r,g,10,10,10001,1,3,340,245
1,6,29,4,1,1,A,E,r,g,10,10,10001,1,1,308,297
1,6,29,4,1,1,A,E,r,g,10,10,10001,1,1,551,244
1,6,29,4,1,1,A,E,r,g,10,10,10001,1,3,633,340
1,6,29,4,1,1,A,E,r,g,10,10,10001,1,1,465,479
1,6,29,4,1,1,A,E,r,g,10,10,11001,1,3,367,208
1,6,29,4,1,1,A,E,r,g,10,10,11001,1,3,375,109
1,6,29,4,1,1,A,E,r,g,10,10,11001,1,3,323,136
1,6,29,4,1,1,A,E,r,g,10,10,11001,1,1,307,183
1,6,29,4,1,1,A,E,r,g,10,10,11001,1,1,409,229
1,6,29,4,1,1,A,E,r,g,10,10,12001,1,3,363,129
1,6,29,4,1,1,A,E,r,g,10,10,12001,1,3,451,218
1,6,29,4,1,1,A,E,r,g,10,10,12001,1,1,436,256
1,6,29,4,1,1,A,E,r,g,10,10,12001,1,1,693,266
1,6,29,4,1,1,A,E,r,g,10,10,12001,1,3,408,500
1,6,29,4,1,1,A,E,r,g,10,10,13001,1,3,463,122
1,6,29,4,1,1,A,E,r,g,10,10,13001,1,1,179,153
1,6,29,4,1,1,A,E,r,g,10,10,13001,1,1,353,135
1,6,29,4,1,1,A,E,r,g,10,10,13001,1,1,501,73
1,6,29,4,1,1,A,E,r,g,10,10,13001,1,1,210,344
1,6,29,4,1,1,A,E,r,g,10,10,13001,1,3,246,359
1,6,29,4,1,1,A,E,r,g,10,10,13001,1,3,553,339
1,6,29,4,1,1,A,E,r,g,10,10,14001,1,3,455,129
1,6,29,4,1,1,A,E,r,g,10,10,14001,1,1,415,72
1,6,29,4,1,1,A,E,r,g,10,10,14001,1,1,524,110
1,6,29,4,1,1,A,E,r,g,10,10,14001,1,1,507,140
1,6,29,4,1,1,A,E,r,g,10,10,14001,1,3,611,275
1,6,29,4,1,1,A,E,r,g,10,10,14001,1,3,347,522
1,6,29,4,1,1,A,E,r,g,10,10,14001,1,1,374,563
1,6,29,4,1,1,A,E,r,g,10,10,15001,1,3,455,169
1,6,29,4,1,1,A,E,r,g,10,10,15001,1,3,604,288
1,6,29,4,1,1,A,E,r,g,10,10,15001,1,1,429,363
1,6,29,4,1,1,A,E,r,g,10,10,15001,1,3,331,491
1,6,29,4,1,1,A,E,r,g,10,10,15001,1,1,352,529
1,6,29,4,1,1,A,E,r,g,10,10,16001,1,3,573,200
1,6,29,4,1,1,A,E,r,g,10,10,16001,1,3,331,137
1,6,29,4,1,1,A,E,r,g,10,10,16001,1,3,668,200
1,6,29,4,1,1,A,E,r,g,10,10,16001,1,1,702,194
1,6,29,4,1,1,A,E,r,g,10,10,16001,1,1,454,426
1,6,29,4,1,1,A,E,r,g,10,10,17001,1,3,586,195
1,6,29,4,1,1,A,E,r,g,10,10,17001,1,3,302,171
1,6,29,4,1,1,A,E,r,g,10,10,17001,1,1,623,214
1,6,29,4,1,1,A,E,r,g,10,10,18001,1,3,618,89
1,6,29,4,1,1,A,E,r,g,10,10,18001,1,3,269,214
1,6,29,4,1,1,A,E,r,g,10,10,18001,1,1,492,303
1,6,29,4,1,1,A,E,r,g,10,10,18001,1,1,489,362
1,6,29,4,1,1,A,E,r,g,10,10,18001,1,3,338,490
1,6,29,4,1,1,A,E,r,g,10,10,19001,1,1,443,173
1,6,29,4,1,1,A,E,r,g,10,10,19001,1,1,320,162
1,6,29,4,1,1,A,E,r,g,10,10,19001,1,3,336,143
1,6,29,4,1,1,A,E,r,g,10,10,19001,1,3,283,116
1,6,29,4,1,1,A,E,r,g,10,10,19001,1,3,424,130
1,6,29,4,1,1,A,E,r,g,10,10,20001,1,3,579,142
1,6,29,4,1,1,A,E,r,g,10,10,20001,1,1,557,105
1,6,29,4,1,1,A,E,r,g,10,10,20001,1,3,358,175
1,6,29,4,1,1,A,E,r,g,10,10,20001,1,3,400,79
1,6,29,4,1,1,A,E,r,g,10,10,20001,1,1,347,20
1,6,29,4,1,1,A,E,r,g,10,10,21001,1,1,511,135
1,6,29,4,1,1,A,E,r,g,10,10,21001,1,3,460,151
1,6,29,4,1,1,A,E,r,g,10,10,21001,1,3,214,210
1,6,29,4,1,1,A,E,r,g,10,10,21001,1,1,572,303
1,6,29,4,1,1,A,E,r,g,10,10,22001,1,3,489,161
1,6,29,4,1,1,A,E,r,g,10,10,22001,1,3,218,208
1,6,29,4,1,1,A,E,r,g,10,10,22001,1,3,619,296
1,6,29,4,1,1,A,E,r,g,10,10,22001,1,1,657,335
1,6,29,4,1,1,A,E,r,g,10,10,23001,1,3,581,205
1,6,29,4,1,1,A,E,r,g,10,10,23001,1,3,434,285
1,6,29,4,1,1,A,E,r,g,10,10,23001,1,1,372,271
1,6,29,4,1,1,A,E,r,g,10,10,23001,1,1,176,215
1,6,29,4,1,1,A,E,r,g,10,10,23001,1,3,217,214
1,6,29,4,1,1,A,E,r,g,10,10,24001,1,3,629,211
1,6,29,4,1,1,A,E,r,g,10,10,24001,1,3,616,343
1,6,29,4,1,1,A,E,r,g,10,10,24001,1,3,247,250
1,6,29,4,1,1,A,E,r,g,10,10,24001,1,3,147,242
1,6,29,4,1,1,A,E,r,g,10,10,24001,1,1,264,273
1,6,29,4,1,1,A,E,r,g,10,10,24001,1,1,305,256
1,6,29,4,1,1,A,E,r,g,10,10,25001,1,3,574,254
1,6,29,4,1,1,A,E,r,g,10,10,25001,1,3,258,237
1,6,29,4,1,1,A,E,r,g,10,10,25001,1,3,300,159
1,6,29,4,1,1,A,E,r,g,10,10,25001,1,3,417,124
1,6,29,4,1,1,A,E,r,g,10,10,25001,1,1,392,132
1,6,29,4,1,1,A,E,r,g,10,10,25001,1,1,253,168
1,6,29,4,1,1,A,E,r,g,10,10,26001,1,3,569,272
1,6,29,4,1,1,A,E,r,g,10,10,26001,1,3,344,129
1,6,29,4,1,1,A,E,r,g,10,10,26001,1,1,324,154
1,6,29,4,1,1,A,E,r,g,10,10,26001,1,3,259,238
1,6,29,4,1,1,A,E,r,g,10,10,26001,1,1,303,400
1,6,29,4,1,1,A,E,r,g,10,10,27001,1,3,568,276
1,6,29,4,1,1,A,E,r,g,10,10,27001,1,3,261,237
1,6,29,4,1,1,A,E,r,g,10,10,27001,1,3,344,121
1,6,29,4,1,1,A,E,r,g,10,10,27001,1,1,344,67
1,6,29,4,1,1,A,E,r,g,10,10,27001,1,1,372,50
1,6,29,4,1,1,A,E,r,g,10,10,28001,1,3,561,280
1,6,29,4,1,1,A,E,r,g,10,10,28001,1,3,296,166
1,6,29,4,1,1,A,E,r,g,10,10,28001,1,3,249,229
1,6,29,4,1,1,A,E,r,g,10,10,28001,1,1,214,211
1,6,29,4,1,1,A,E,r,g,10,10,28001,1,1,216,257
1,6,29,4,1,1,A,E,r,g,10,10,29001,1,3,297,209
1,6,29,4,1,1,A,E,r,g,10,10,29001,1,3,570,283
1,6,29,4,1,1,A,E,r,g,10,10,29001,1,1,463,509
1,6,29,4,1,1,A,E,r,g,10,10,29001,1,1,414,560
1,6,29,4,1,1,A,E,r,g,10,10,30001,1,1,404,60
1,6,29,4,1,1,A,E,r,g,10,10,30001,1,3,295,217
1,6,29,4,1,1,A,E,r,g,10,10,30001,1,1,282,320
1,6,29,4,1,1,A,E,r,g,10,10,30001,1,1,273,381
1,6,29,4,1,1,A,E,r,g,10,10,30001,1,3,553,377
1,6,29,4,1,1,A,E,r,g,10,10,31001,1,1,245,66
1,6,29,4,1,1,A,E,r,g,10,10,31001,1,3,394,340
1,6,29,4,1,1,A,E,r,g,10,10,31001,1,3,501,447
1,6,29,4,1,1,A,E,r,g,10,10,32001,1,3,696,316
1,6,29,4,1,1,A,E,r,g,10,10,32001,1,1,731,312
1,6,29,4,1,1,A,E,r,g,10,10,32001,1,3,453,323
1,6,29,4,1,1,A,E,r,g,10,10,32001,1,3,400,342
1,6,29,4,1,1,A,E,r,g,10,10,32001,1,3,472,385
1,6,29,4,1,1,A,E,r,g,10,10,32001,1,1,428,367
1,6,29,4,1,1,A,E,r,g,10,10,32001,1,3,383,487
1,6,29,4,1,1,A,E,r,g,10,10,32001,1,1,341,523
1,6,29,4,1,1,A,E,r,g,10,10,33001,1,3,636,271
1,6,29,4,1,1,A,E,r,g,10,10,33001,1,1,626,223
1,6,29,4,1,1,A,E,r,g,10,10,33001,1,3,476,287
1,6,29,4,1,1,A,E,r,g,10,10,33001,1,3,462,325
1,6,29,4,1,1,A,E,r,g,10,10,33001,1,3,440,406
1,6,29,4,1,1,A,E,r,g,10,10,33001,1,1,472,380
1,6,29,4,1,1,A,E,r,g,10,10,33001,1,3,411,530
1,6,29,4,1,1,A,E,r,g,10,10,33001,1,1,365,537
1,6,29,4,1,1,A,E,r,g,10,10,34001,1,3,544,164
1,6,29,4,1,1,A,E,r,g,10,10,34001,1,3,390,267
1,6,29,4,1,1,A,E,r,g,10,10,34001,1,3,339,302
1,6,29,4,1,1,A,E,r,g,10,10,34001,1,3,432,358
1,6,29,4,1,1,A,E,r,g,10,10,34001,1,3,440,448
1,6,29,4,1,1,A,E,r,g,10,10,34001,1,1,473,322
1,6,29,4,1,1,A,E,r,g,10,10,34001,1,1,571,213
1,6,29,4,1,1,A,E,r,g,10,10,35001,1,3,352,218
1,6,29,4,1,1,A,E,r,g,10,10,35001,1,3,291,206
1,6,29,4,1,1,A,E,r,g,10,10,35001,1,1,303,247
1,6,29,4,1,1,A,E,r,g,10,10,35001,1,1,344,266
1,6,29,4,1,1,A,E,r,g,10,10,35001,1,3,339,312
1,6,29,4,1,1,A,E,r,g,10,10,36001,1,3,346,169
1,6,29,4,1,1,A,E,r,g,10,10,36001,1,3,281,240
1,6,29,4,1,1,A,E,r,g,10,10,36001,1,3,320,321
1,6,29,4,1,1,A,E,r,g,10,10,36001,1,1,398,324
1,6,29,4,1,1,A,E,r,g,10,10,36001,1,1,466,323
1,6,29,4,1,1,A,E,r,g,10,10,37001,1,3,396,124
1,6,29,4,1,1,A,E,r,g,10,10,37001,1,3,286,225
1,6,29,4,1,1,A,E,r,g,10,10,37001,1,3,312,321
1,6,29,4,1,1,A,E,r,g,10,10,37001,1,1,257,270
1,6,29,4,1,1,A,E,r,g,10,10,37001,1,1,410,323
1,6,29,4,1,1,A,E,r,g,10,10,37001,1,1,679,349
1,6,29,4,1,1,A,E,r,g,10,10,38001,1,3,404,140
1,6,29,4,1,1,A,E,r,g,10,10,38001,1,1,444,147
1,6,29,4,1,1,A,E,r,g,10,10,38001,1,3,313,235
1,6,29,4,1,1,A,E,r,g,10,10,38001,1,1,305,280
1,6,29,4,1,1,A,E,r,g,10,10,38001,1,3,224,351
1,6,29,4,1,1,A,E,r,g,10,10,38001,1,3,421,367
1,6,29,4,1,1,A,E,r,g,10,10,38001,1,1,491,384
1,6,29,4,1,1,A,E,r,g,10,10,39001,1,3,425,246
1,6,29,4,1,1,A,E,r,g,10,10,39001,1,3,347,247
1,6,29,4,1,1,A,E,r,g,10,10,39001,1,1,297,243
1,6,29,4,1,1,A,E,r,g,10,10,39001,1,1,499,330
1,6,29,4,1,1,A,E,r,g,10,10,39001,1,1,453,372
1,6,29,4,1,1,A,E,r,g,10,10,39001,1,3,339,405
1,6,29,4,1,1,A,E,r,g,10,10,40001,1,1,527,147
1,6,29,4,1,1,A,E,r,g,10,10,40001,1,1,470,144
1,6,29,4,1,1,A,E,r,g,10,10,40001,1,3,496,165
1,6,29,4,1,1,A,E,r,g,10,10,40001,1,3,423,254
1,6,29,4,1,1,A,E,r,g,10,10,40001,1,3,266,306
1,6,29,4,1,1,A,E,r,g,10,10,40001,1,3,195,419
1,6,29,4,1,1,A,E,r,g,10,10,40001,1,1,267,431
1,6,29,4,1,1,A,E,r,g,10,10,40001,1,1,477,305
1,6,29,4,1,1,A,E,r,g,10,10,41001,1,3,626,243
1,6,29,4,1,1,A,E,r,g,10,10,41001,1,1,582,220
1,6,29,4,1,1,A,E,r,g,10,10,41001,1,3,410,244
1,6,29,4,1,1,A,E,r,g,10,10,41001,1,1,302,302
1,6,29,4,1,1,A,E,r,g,10,10,41001,1,1,274,265
1,6,29,4,1,1,A,E,r,g,10,10,41001,1,3,255,293
1,6,29,4,1,1,A,E,r,g,10,10,42001,1,1,656,183
1,6,29,4,1,1,A,E,r,g,10,10,42001,1,1,610,328
1,6,29,4,1,1,A,E,r,g,10,10,42001,1,3,485,205
1,6,29,4,1,1,A,E,r,g,10,10,42001,1,3,322,103
1,6,29,4,1,1,A,E,r,g,10,10,42001,1,1,316,145
1,6,29,4,1,1,A,E,r,g,10,10,42001,1,1,324,278
1,6,29,4,1,1,A,E,r,g,10,10,42001,1,3,308,297
1,6,29,4,1,1,A,E,r,g,10,10,43001,1,3,427,231
1,6,29,4,1,1,A,E,r,g,10,10,43001,1,3,311,303
1,6,29,4,1,1,A,E,r,g,10,10,43001,1,1,494,22
1,6,29,4,1,1,A,E,r,g,10,10,44001,1,3,352,225
1,6,29,4,1,1,A,E,r,g,10,10,44001,1,3,321,309
1,6,29,4,1,1,A,E,r,g,10,10,44001,1,1,693,373
1,6,29,4,1,1,A,E,r,g,10,10,44001,1,1,663,351
1,6,29,4,1,1,A,E,r,g,10,10,45001,1,1,474,247
1,6,29,4,1,1,A,E,r,g,10,10,45001,1,1,246,267
1,6,29,4,1,1,A,E,r,g,10,10,45001,1,3,262,224
1,6,29,4,1,1,A,E,r,g,10,10,45001,1,3,344,195
1,6,29,4,1,1,A,E,r,g,10,10,46001,1,3,348,149
1,6,29,4,1,1,A,E,r,g,10,10,46001,1,3,281,165
1,6,29,4,1,1,A,E,r,g,10,10,46001,1,1,308,174
1,6,29,4,1,1,A,E,r,g,10,10,47001,1,3,222,192
1,6,29,4,1,1,A,E,r,g,10,10,47001,1,1,220,154
1,6,29,4,1,1,A,E,r,g,10,10,48001,1,3,340,236
1,6,29,4,1,1,A,E,r,g,10,10,48001,1,1,307,201
1,6,29,4,1,1,A,E,r,g,10,10,49001,1,3,381,370
1,6,29,4,1,1,A,E,r,g,10,10,49001,1,1,242,197
1,6,29,4,1,1,A,E,r,g,10,10,50001,1,3,436,411
1,6,29,4,1,1,A,E,r,g,10,10,50001,1,3,660,242
1,6,29,4,1,1,A,E,r,g,10,10,50001,1,1,427,382
1,6,29,4,1,1,A,E,r,g,10,10,51001,1,3,647,386
1,6,29,4,1,1,A,E,r,g,10,10,51001,1,3,574,362
1,6,29,4,1,1,A,E,r,g,10,10,51001,1,1,563,330
1,6,29,4,1,1,A,E,r,g,10,10,52001,1,3,564,390
1,6,29,4,1,1,A,E,r,g,10,10,52001,1,3,332,401
1,6,29,4,1,1,A,E,r,g,10,10,52001,1,1,515,358
1,6,29,4,1,1,A,E,r,g,10,10,53001,1,1,564,171
1,6,29,4,1,1,A,E,r,g,10,10,53001,1,3,556,390
1,6,29,4,1,1,A,E,r,g,10,10,53001,1,3,259,348
1,6,29,4,1,1,A,E,r,g,10,10,54001,1,3,554,389
1,6,29,4,1,1,A,E,r,g,10,10,54001,1,3,258,355
1,6,29,4,1,1,A,E,r,g,10,10,54001,1,1,249,239
1,6,29,4,1,1,A,E,r,g,10,10,54001,1,1,285,232
1,6,29,4,1,1,A,E,r,g,10,10,55001,1,3,525,280
1,6,29,4,1,1,A,E,r,g,10,10,55001,1,3,261,352
1,6,29,4,1,1,A,E,r,g,10,10,55001,1,3,269,482
1,6,29,4,1,1,A,E,r,g,10,10,55001,1,1,543,319
1,6,29,4,1,1,A,E,r,g,10,10,56001,1,1,354,214
1,6,29,4,1,1,A,E,r,g,10,10,56001,1,1,275,228
1,6,29,4,1,1,A,E,r,g,10,10,56001,1,3,279,188
1,6,29,4,1,1,A,E,r,g,10,10,56001,1,3,420,139
1,6,29,4,1,1,A,E,r,g,10,10,56001,1,3,271,419
1,6,29,4,1,1,A,E,r,g,10,10,57001,1,3,439,55
1,6,29,4,1,1,A,E,r,g,10,10,57001,1,3,259,283
1,6,29,4,1,1,A,E,r,g,10,10,57001,1,1,356,323
1,6,29,4,1,1,A,E,r,g,10,10,57001,1,1,193,343
1,6,29,4,1,1,A,E,r,g,10,10,58001,1,3,393,11
1,6,29,4,1,1,A,E,r,g,10,10,58001,1,3,321,307
1,6,29,4,1,1,A,E,r,g,10,10,58001,1,1,370,355
1,6,29,4,1,1,A,E,r,g,10,10,58001,1,1,405,380
1,6,29,4,1,1,A,E,r,g,10,10,59001,1,3,446,123
1,6,29,4,1,1,A,E,r,g,10,10,59001,1,3,309,308
1,6,29,4,1,1,A,E,r,g,10,10,59001,1,3,215,379
1,6,29,4,1,1,A,E,r,g,10,10,59001,1,1,185,425
1,6,29,4,1,1,A,E,r,g,10,10,59001,1,2,467,4
1,6,29,4,1,1,A,E,r,g,10,10,60001,1,3,466,150
1,6,29,4,1,1,A,E,r,g,10,10,60001,1,1,552,57
1,6,29,4,1,1,A,E,r,g,10,10,60001,1,3,300,261
1,6,29,4,1,1,A,E,r,g,10,10,61001,1,3,355,128
1,6,29,4,1,1,A,E,r,g,10,10,61001,1,3,275,260
1,6,29,4,1,1,A,E,r,g,10,10,61001,1,1,304,256
1,6,29,4,1,1,A,E,r,g,10,10,61001,1,1,196,381
1,6,29,4,1,1,A,E,r,g,10,10,62001,1,1,381,178
1,6,29,4,1,1,A,E,r,g,10,10,62001,1,3,289,209
1,6,29,4,1,1,A,E,r,g,10,10,62001,1,3,195,304
1,6,29,4,1,1,A,E,r,g,10,10,63001,1,3,292,202
1,6,29,4,1,1,A,E,r,g,10,10,63001,1,3,346,392
1,6,29,4,1,1,A,E,r,g,10,10,63001,1,1,664,356
1,6,29,4,1,1,A,E,r,g,10,10,64001,1,1,558,304
1,6,29,4,1,1,A,E,r,g,10,10,64001,1,3,290,182
1,6,29,4,1,1,A,E,r,g,10,10,64001,1,3,428,390
1,6,29,4,1,1,A,E,r,g,10,10,65001,1,3,282,206
1,6,29,4,1,1,A,E,r,g,10,10,65001,1,3,434,393
1,6,29,4,1,1,A,E,r,g,10,10,65001,1,1,413,183
1,6,29,4,1,1,A,E,r,g,10,10,66001,1,3,331,291
1,6,29,4,1,1,A,E,r,g,10,10,66001,1,3,470,466
1,6,29,4,1,1,A,E,r,g,10,10,66001,1,1,485,425
1,6,29,4,1,1,A,E,r,g,10,10,67001,1,3,332,291
1,6,29,4,1,1,A,E,r,g,10,10,67001,1,3,471,463
1,6,29,4,1,1,A,E,r,g,10,10,67001,1,1,473,423
1,6,29,4,1,1,A,E,r,g,10,10,68001,1,3,326,272
1,6,29,4,1,1,A,E,r,g,10,10,68001,1,3,476,457
1,6,29,4,1,1,A,E,r,g,10,10,68001,1,1,474,414
1,6,29,4,1,1,A,E,r,g,10,10,69001,1,3,333,271
1,6,29,4,1,1,A,E,r,g,10,10,69001,1,1,383,326
1,6,29,4,1,1,A,E,r,g,10,10,69001,1,1,250,439
1,6,29,4,1,1,A,E,r,g,10,10,69001,1,3,442,512
1,6,29,4,1,1,A,E,r,g,10,10,70001,1,3,356,267
1,6,29,4,1,1,A,E,r,g,10,10,70001,1,1,317,288
1,6,29,4,1,1,A,E,r,g,10,10,70001,1,3,441,570
1,6,29,4,1,1,A,E,r,g,10,10,71001,1,1,361,207
1,6,29,4,1,1,A,E,r,g,10,10,71001,1,3,368,166
1,6,29,4,1,1,A,E,r,g,10,10,71001,1,3,293,507
1,6,29,4,1,1,A,E,r,g,10,10,72001,1,3,344,146
1,6,29,4,1,1,A,E,r,g,10,10,72001,1,1,398,72
1,6,29,4,1,1,A,E,r,g,10,10,72001,1,1,245,501
1,6,29,4,1,1,A,E,r,g,10,10,72001,1,3,285,506
1,6,29,4,1,1,A,E,r,g,10,10,73001,1,3,232,205
1,6,29,4,1,1,A,E,r,g,10,10,73001,1,1,277,221
1,6,29,4,1,1,A,E,r,g,10,10,73001,1,3,289,508
1,6,29,4,1,1,A,E,r,g,10,10,74001,1,3,241,159
1,6,29,4,1,1,A,E,r,g,10,10,74001,1,1,274,205
1,6,29,4,1,1,A,E,r,g,10,10,74001,1,3,278,493
1,6,29,4,1,1,A,E,r,g,10,10,75001,1,3,250,168
1,6,29,4,1,1,A,E,r,g,10,10,75001,1,3,253,468
1,6,29,4,1,1,A,E,r,g,10,10,75001,1,1,572,160
1,6,29,4,1,1,A,E,r,g,10,10,76001,1,3,212,241
1,6,29,4,1,1,A,E,r,g,10,10,76001,1,1,223,216
1,6,29,4,1,1,A,E,r,g,10,10,76001,1,3,249,435
1,6,29,4,1,1,A,E,r,g,10,10,77001,1,3,386,366
1,6,29,4,1,1,A,E,r,g,10,10,77001,1,3,216,130
1,6,29,4,1,1,A,E,r,g,10,10,77001,1,1,179,109
1,6,29,4,1,1,A,E,r,g,10,10,78001,1,3,483,452
1,6,29,4,1,1,A,E,r,g,10,10,78001,1,1,231,439
1,6,29,4,1,1,A,E,r,g,10,10,78001,1,1,397,176
1,6,29,4,1,1,A,E,r,g,10,10,78001,1,3,374,106
1,6,29,4,1,1,A,E,r,g,10,10,79001,1,3,445,118
1,6,29,4,1,1,A,E,r,g,10,10,79001,1,3,497,464
1,6,29,4,1,1,A,E,r,g,10,10,79001,1,1,445,74
1,6,29,4,1,1,A,E,r,g,10,10,80001,1,3,492,475
1,6,29,4,1,1,A,E,r,g,10,10,80001,1,1,428,413
1,6,29,4,1,1,A,E,r,g,10,10,80001,1,1,496,402
1,6,29,4,1,1,A,E,r,g,10,10,80001,1,3,452,109
1,6,29,4,1,1,A,E,r,g,10,10,81001,1,1,459,91
1,6,29,4,1,1,A,E,r,g,10,10,81001,1,3,451,137
1,6,29,4,1,1,A,E,r,g,10,10,81001,1,3,524,404
1,6,29,4,1,1,A,E,r,g,10,10,82001,1,3,569,170
1,6,29,4,1,1,A,E,r,g,10,10,82001,1,3,533,396
1,6,29,4,1,1,A,E,r,g,10,10,82001,1,1,371,499
1,6,29,4,1,1,A,E,r,g,10,10,83001,1,3,570,184
1,6,29,4,1,1,A,E,r,g,10,10,83001,1,3,537,392
1,6,29,4,1,1,A,E,r,g,10,10,83001,1,1,359,354
1,6,29,4,1,1,A,E,r,g,10,10,84001,1,3,563,190
1,6,29,4,1,1,A,E,r,g,10,10,84001,1,3,572,381
1,6,29,4,1,1,A,E,r,g,10,10,84001,1,1,375,240
1,6,29,4,1,1,A,E,r,g,10,10,85001,1,3,576,190
1,6,29,4,1,1,A,E,r,g,10,10,85001,1,3,565,382
1,6,29,4,1,1,A,E,r,g,10,10,85001,1,1,543,311
1,6,29,4,1,1,A,E,r,g,10,10,86001,1,3,584,205
1,6,29,4,1,1,A,E,r,g,10,10,86001,1,3,592,382
1,6,29,4,1,1,A,E,r,g,10,10,86001,1,1,565,378
1,6,29,4,1,1,A,E,r,g,10,10,87001,1,3,582,194
1,6,29,4,1,1,A,E,r,g,10,10,87001,1,3,590,382
1,6,29,4,1,1,A,E,r,g,10,10,87001,1,1,379,199
1,6,29,4,1,1,A,E,r,g,10,10,88001,1,3,582,195
1,6,29,4,1,1,A,E,r,g,10,10,88001,1,3,588,379
1,6,29,4,1,1,A,E,r,g,10,10,88001,1,1,409,168
1,6,29,4,1,1,A,E,r,g,10,10,89001,1,3,591,194
1,6,29,4,1,1,A,E,r,g,10,10,89001,1,3,599,381
1,6,29,4,1,1,A,E,r,g,10,10,89001,1,1,559,373
1,6,29,4,1,1,A,E,r,g,10,10,90001,1,1,569,181
1,6,29,4,1,1,A,E,r,g,10,10,90001,1,3,610,235
1,6,29,4,1,1,A,E,r,g,10,10,90001,1,3,607,360
1,6,29,4,1,1,A,E,r,g,10,10,91001,1,3,638,263
1,6,29,4,1,1,A,E,r,g,10,10,91001,1,3,594,369
1,6,29,4,1,1,A,E,r,g,10,10,91001,1,1,555,343
1,6,29,4,1,1,A,E,r,g,10,10,91001,1,1,566,256
1,6,29,4,1,1,A,E,r,g,10,10,92001,1,3,641,253
1,6,29,4,1,1,A,E,r,g,10,10,92001,1,3,600,361
1,6,29,4,1,1,A,E,r,g,10,10,92001,1,1,308,160
1,6,29,4,1,1,A,E,r,g,10,10,93001,1,1,598,112
1,6,29,4,1,1,A,E,r,g,10,10,93001,1,1,653,177
1,6,29,4,1,1,A,E,r,g,10,10,93001,1,3,630,257
1,6,29,4,1,1,A,E,r,g,10,10,93001,1,3,613,373
1,6,29,4,1,1,A,E,r,g,10,10,94001,1,1,473,325
1,6,29,4,1,1,A,E,r,g,10,10,94001,1,3,601,354
1,6,29,4,1,1,A,E,r,g,10,10,94001,1,3,631,264
1,6,29,4,1,1,A,E,r,g,10,10,95001,1,1,382,341
1,6,29,4,1,1,A,E,r,g,10,10,95001,1,3,606,346
1,6,29,4,1,1,A,E,r,g,10,10,95001,1,3,631,270
1,6,29,4,1,1,A,E,r,g,10,10,96001,1,3,635,259
1,6,29,4,1,1,A,E,r,g,10,10,96001,1,3,635,312
1,6,29,4,1,1,A,E,r,g,10,10,96001,1,1,570,353
1,6,29,4,1,1,A,E,r,g,10,10,97001,1,1,627,236
1,6,29,4,1,1,A,E,r,g,10,10,97001,1,3,629,216
1,6,29,4,1,1,A,E,r,g,10,10,97001,1,3,619,347
1,6,29,4,1,1,A,E,r,g,10,10,98001,1,3,630,208
1,6,29,4,1,1,A,E,r,g,10,10,98001,1,3,619,337
1,6,29,4,1,1,A,E,r,g,10,10,98001,1,1,629,299
1,6,29,4,1,1,A,E,r,g,10,10,98001,1,1,589,318
1,6,29,4,1,1,A,E,r,g,10,10,99001,1,3,607,208
1,6,29,4,1,1,A,E,r,g,10,10,99001,1,3,616,340
1,6,29,4,1,1,A,E,r,g,10,10,99001,1,1,392,362
1,6,29,4,1,1,A,E,r,g,10,10,100001,1,3,576,235
1,6,29,4,1,1,A,E,r,g,10,10,100001,1,3,602,340
1,6,29,4,1,1,A,E,r,g,10,10,100001,1,3,366,10
1,6,29,4,1,1,A,E,r,g,10,10,101001,1,3,615,219
1,6,29,4,1,1,A,E,r,g,10,10,101001,1,3,597,351
1,6,29,4,1,1,A,E,r,g,10,10,101001,1,1,245,310
1,6,29,4,1,1,A,E,r,g,10,10,102001,1,3,588,230
1,6,29,4,1,1,A,E,r,g,10,10,102001,1,3,564,346
1,6,29,4,1,1,A,E,r,g,10,10,102001,1,1,400,263
1,6,29,4,1,1,A,E,r,g,10,10,103001,1,3,580,199
1,6,29,4,1,1,A,E,r,g,10,10,103001,1,3,592,347
1,6,29,4,1,1,A,E,r,g,10,10,103001,1,1,324,278
1,6,29,4,1,1,A,E,r,g,10,10,104001,1,3,569,189
1,6,29,4,1,1,A,E,r,g,10,10,104001,1,3,611,355
1,6,29,4,1,1,A,E,r,g,10,10,104001,1,1,305,89
1,6,29,4,1,1,A,E,r,g,10,10,104001,1,1,318,275
1,6,29,4,1,1,A,E,r,g,10,10,105001,1,3,566,189
1,6,29,4,1,1,A,E,r,g,10,10,105001,1,3,610,361
1,6,29,4,1,1,A,E,r,g,10,10,105001,1,1,360,94
1,6,29,4,1,1,A,E,r,g,10,10,106001,1,3,542,169
1,6,29,4,1,1,A,E,r,g,10,10,106001,1,3,611,355
1,6,29,4,1,1,A,E,r,g,10,10,106001,1,1,356,96
1,6,29,4,1,1,A,E,r,g,10,10,107001,1,3,599,350
1,6,29,4,1,1,A,E,r,g,10,10,107001,1,3,537,184
1,6,29,4,1,1,A,E,r,g,10,10,107001,1,1,361,101
