dummy,month,day,period,view,station,fgeno,mgeno,fcol,mcol,nf,nm,frame,something,sex,x,y
1,9,23,4,2,2,C,E,b,y,15,5,1,1,1,415.7623,60.7544
1,9,23,4,2,2,C,E,b,y,15,5,1,1,3,268.2266,524.9833
1,9,23,4,2,2,C,E,b,y,15,5,1001,1,1,658.6876,427.0501
1,9,23,4,2,2,C,E,b,y,15,5,1001,1,3,382.694,486.8275
1,9,23,4,2,2,C,E,b,y,15,5,2001,1,1,224.9833,116.7162
1,9,23,4,2,2,C,E,b,y,15,5,2001,1,3,294.9356,302.4078
1,9,23,4,2,2,C,E,b,y,15,5,3001,1,1,461.5493,30.2297
1,9,23,4,2,2,C,E,b,y,15,5,3001,1,3,209.721,161.2313
1,9,23,4,2,2,C,E,b,y,15,5,4001,1,1,292.3919,149.7846
1,9,23,4,2,2,C,E,b,y,15,5,4001,1,3,387.7814,42.9483
1,9,23,4,2,2,C,E,b,y,15,5,5001,1,1,629.4348,483.0119
1,9,23,4,2,2,C,E,b,y,15,5,5001,1,3,541.6765,278.2424
1,9,23,4,2,2,C,E,b,y,15,5,6001,1,1,284.7607,366.0008
1,9,23,4,2,2,C,E,b,y,15,5,6001,1,3,490.8021,376.1757
1,9,23,4,2,2,C,E,b,y,15,5,7001,1,1,694.2997,331.6606
1,9,23,4,2,2,C,E,b,y,15,5,7001,1,3,518.783,481.7401
1,9,23,4,2,2,C,E,b,y,15,5,8001,1,2,550.5795,494.4587
1,9,23,4,2,2,C,E,b,y,15,5,9001,1,2,548.0358,500.818
1,9,23,4,2,2,C,E,b,y,15,5,10001,1,3,572.2011,524.9833
1,9,23,4,2,2,C,E,b,y,15,5,11001,1,3,451.3744,549.1486
1,9,23,4,2,2,C,E,b,y,15,5,12001,1,2,315.2854,537.7019
1,9,23,4,2,2,C,E,b,y,15,5,13001,1,3,268.2266,423.2345
1,9,23,4,2,2,C,E,b,y,15,5,14001,1,3,280.9452,383.8068
1,9,23,4,2,2,C,E,b,y,15,5,15001,1,3,236.43,290.961
1,9,23,4,2,2,C,E,b,y,15,5,16001,1,3,291.12,213.3776
1,9,23,4,2,2,C,E,b,y,15,5,17001,1,3,413.2186,275.6987
1,9,23,4,2,2,C,E,b,y,15,5,18001,1,3,480.6272,280.7862
1,9,23,4,2,2,C,E,b,y,15,5,19001,1,3,500.9769,372.3601
1,9,23,4,2,2,C,E,b,y,15,5,20001,1,3,476.8116,424.5064
1,9,23,4,2,2,C,E,b,y,15,5,21001,1,3,544.2202,477.9245
1,9,23,4,2,2,C,E,b,y,15,5,22001,1,3,469.1804,551.6924
1,9,23,4,2,2,C,E,b,y,15,5,23001,1,3,336.907,498.2742
1,9,23,4,2,2,C,E,b,y,15,5,24001,1,3,619.2599,410.5159
1,9,23,4,2,2,C,E,b,y,15,5,25001,1,3,682.8529,372.3601
1,9,23,4,2,2,C,E,b,y,15,5,26001,1,2,656.1439,105.2695
1,9,23,4,2,2,C,E,b,y,15,5,27001,1,3,531.5016,93.8227
1,9,23,4,2,2,C,E,b,y,15,5,28001,1,3,432.2965,177.7655
1,9,23,4,2,2,C,E,b,y,15,5,29001,1,3,333.0914,221.0087
1,9,23,4,2,2,C,E,b,y,15,5,29001,1,2,294.9356,241.3585
1,9,23,4,2,2,C,E,b,y,15,5,30001,1,3,279.6733,123.0755
1,9,23,4,2,2,C,E,b,y,15,5,31001,1,3,615.4444,68.3855
1,9,23,4,2,2,C,E,b,y,15,5,32001,1,3,652.3283,315.1264
1,9,23,4,2,2,C,E,b,y,15,5,33001,1,3,582.376,307.4952
1,9,23,4,2,2,C,E,b,y,15,5,34001,1,3,417.0342,364.7289
1,9,23,4,2,2,C,E,b,y,15,5,35001,1,3,358.5286,518.624
1,9,23,4,2,2,C,E,b,y,15,5,36001,1,2,269.4984,383.8068
1,9,23,4,2,2,C,E,b,y,15,5,36001,1,3,401.7719,565.6828
1,9,23,4,2,2,C,E,b,y,15,5,44001,1,2,442.4714,420.6908
1,9,23,4,2,2,C,E,b,y,15,5,44001,1,1,539.1328,480.4682
1,9,23,4,2,2,C,E,b,y,15,5,46001,1,2,541.6765,27.686
1,9,23,4,2,2,C,E,b,y,15,5,46001,1,1,600.182,180.3092
1,9,23,4,2,2,C,E,b,y,15,5,47001,1,3,261.8672,135.7941
1,9,23,4,2,2,C,E,b,y,15,5,48001,1,3,494.6176,535.1582
1,9,23,4,2,2,C,E,b,y,15,5,49001,1,3,344.5382,528.7989
1,9,23,4,2,2,C,E,b,y,15,5,50001,1,3,310.1979,495.7305
1,9,23,4,2,2,C,E,b,y,15,5,51001,1,3,409.403,354.5541
1,9,23,4,2,2,C,E,b,y,15,5,52001,1,3,459.0056,64.57
1,9,23,4,2,2,C,E,b,y,15,5,53001,1,3,319.101,368.5445
1,9,23,4,2,2,C,E,b,y,15,5,54001,1,3,513.6955,199.3871
1,9,23,4,2,2,C,E,b,y,15,5,55001,1,3,651.0564,340.5636
1,9,23,4,2,2,C,E,b,y,15,5,56001,1,48,647.2409,307.4952
1,9,23,4,2,2,C,E,b,y,15,5,57001,1,3,418.306,58.2107
1,9,23,4,2,2,C,E,b,y,15,5,58001,1,2,275.8577,509.721
1,9,23,4,2,2,C,E,b,y,15,5,83001,1,3,684.1248,373.632
1,9,23,4,2,2,C,E,b,y,15,5,84001,1,3,286.0326,530.0707
1,9,23,4,2,2,C,E,b,y,15,5,85001,1,3,371.2472,556.7798
1,9,23,4,2,2,C,E,b,y,15,5,86001,1,3,155.031,288.4173
1,9,23,4,2,2,C,E,b,y,15,5,87001,1,3,559.4825,386.3506
1,9,23,4,2,2,C,E,b,y,15,5,100001,1,3,390.3251,569.4984
1,9,23,4,2,2,C,E,b,y,15,5,101001,1,3,502.2488,388.8943
1,9,23,4,2,2,C,E,b,y,15,5,102001,1,3,504.7925,168.8625
1,9,23,4,2,2,C,E,b,y,15,5,103001,1,3,375.0628,416.8752
1,9,23,4,2,2,C,E,b,y,15,5,104001,1,3,514.9674,479.1963
1,9,23,4,2,2,C,E,b,y,15,5,105001,1,3,610.3569,67.1137
1,9,23,4,2,2,C,E,b,y,15,5,106001,1,3,377.6065,26.4141
1,9,23,4,2,2,C,E,b,y,15,5,107001,1,3,502.2488,282.058
