dummy,month,day,period,view,station,fgeno,mgeno,fcol,mcol,nf,nm,frame,something,sex,x,y
1,6,30,2,2,3,B,G,r,g,5,15,1,1,1,181.329,157.4948
1,6,30,2,2,3,B,G,r,g,5,15,1,1,1,227.9611,156.4585
1,6,30,2,2,3,B,G,r,g,5,15,1,1,1,393.7642,504.6451
1,6,30,2,2,3,B,G,r,g,5,15,1001,1,1,394.8005,82.8834
1,6,30,2,2,3,B,G,r,g,5,15,3001,1,1,575.1114,270.4482
1,6,30,2,2,3,B,G,r,g,5,15,3001,1,1,596.8731,232.1062
1,6,30,2,2,3,B,G,r,g,5,15,4001,1,1,97.3912,234.1788
1,6,30,2,2,3,B,G,r,g,5,15,5001,1,1,236.2513,52.8316
1,6,30,2,2,3,B,G,r,g,5,15,6001,1,1,317.0803,512.9352
1,6,30,2,2,3,B,G,r,g,5,15,7001,1,1,160.6036,336.7694
1,6,30,2,2,3,B,G,r,g,5,15,8001,1,1,131.5881,262.158
1,6,30,2,2,3,B,G,r,g,5,15,9001,1,1,138.842,123.2979
1,6,30,2,2,3,B,G,r,g,5,15,10001,1,1,403.0907,78.7383
1,6,30,2,2,3,B,G,r,g,5,15,11001,1,3,391.6917,542.987
1,6,30,2,2,3,B,G,r,g,5,15,12001,1,3,100.5,197.9093
1,6,30,2,2,3,B,G,r,g,5,15,13001,1,3,236.2513,39.3601
1,6,30,2,2,3,B,G,r,g,5,15,14001,1,3,225.8886,356.4585
1,6,30,2,2,3,B,G,r,g,5,15,15001,1,1,288.0648,478.7383
1,6,30,2,2,3,B,G,r,g,5,15,15001,1,3,307.7539,448.6865
1,6,30,2,2,3,B,G,r,g,5,15,15001,1,2,321.2254,494.2824
1,6,30,2,2,3,B,G,r,g,5,15,16001,1,3,321.2254,84.956
1,6,30,2,2,3,B,G,r,g,5,15,16001,1,1,164.7487,452.8316
1,6,30,2,2,3,B,G,r,g,5,15,16001,1,3,168.8938,495.3187
1,6,30,2,2,3,B,G,r,g,5,15,16001,1,92,228.9974,465.2668
1,6,30,2,2,3,B,G,r,g,5,15,17001,1,3,107.7539,330.5518
1,6,30,2,2,3,B,G,r,g,5,15,17001,1,1,87.0285,296.3549
1,6,30,2,2,3,B,G,r,g,5,15,17001,1,3,508.7902,258.013
1,6,30,2,2,3,B,G,r,g,5,15,18001,1,3,104.6451,287.0285
1,6,30,2,2,3,B,G,r,g,5,15,18001,1,1,125.3705,242.4689
1,6,30,2,2,3,B,G,r,g,5,15,18001,1,3,282.8834,482.8834
1,6,30,2,2,3,B,G,r,g,5,15,19001,1,3,164.7487,301.5363
1,6,30,2,2,3,B,G,r,g,5,15,19001,1,3,146.0959,248.6865
1,6,30,2,2,3,B,G,r,g,5,15,19001,1,3,201.0181,281.8472
1,6,30,2,2,3,B,G,r,g,5,15,19001,1,3,222.7798,239.3601
1,6,30,2,2,3,B,G,r,g,5,15,19001,1,1,255.9404,253.8679
1,6,30,2,2,3,B,G,r,g,5,15,20001,1,3,249.7228,322.2617
1,6,30,2,2,3,B,G,r,g,5,15,20001,1,3,293.2461,323.2979
1,6,30,2,2,3,B,G,r,g,5,15,20001,1,3,303.6088,344.0233
1,6,30,2,2,3,B,G,r,g,5,15,20001,1,3,315.0078,364.7487
1,6,30,2,2,3,B,G,r,g,5,15,20001,1,1,275.6295,367.8575
1,6,30,2,2,3,B,G,r,g,5,15,21001,1,3,369.9301,141.9508
1,6,30,2,2,3,B,G,r,g,5,15,21001,1,3,432.1062,126.4067
1,6,30,2,2,3,B,G,r,g,5,15,21001,1,1,444.5415,161.6399
1,6,30,2,2,3,B,G,r,g,5,15,21001,1,1,405.1632,409.3083
1,6,30,2,2,3,B,G,r,g,5,15,21001,1,3,389.6192,450.7591
1,6,30,2,2,3,B,G,r,g,5,15,21001,1,3,436.2513,431.0699
1,6,30,2,2,3,B,G,r,g,5,15,22001,1,3,289.101,69.4119
1,6,30,2,2,3,B,G,r,g,5,15,23001,1,3,218.6347,202.0544
1,6,30,2,2,3,B,G,r,g,5,15,23001,1,3,236.2513,154.386
1,6,30,2,2,3,B,G,r,g,5,15,23001,1,3,213.4534,117.0803
1,6,30,2,2,3,B,G,r,g,5,15,23001,1,1,237.2876,118.1166
1,6,30,2,2,3,B,G,r,g,5,15,23001,1,3,303.6088,412.4171
1,6,30,2,2,3,B,G,r,g,5,15,24001,1,3,128.4793,254.9041
1,6,30,2,2,3,B,G,r,g,5,15,25001,1,3,96.3549,235.215
1,6,30,2,2,3,B,G,r,g,5,15,25001,1,3,292.2098,66.3031
1,6,30,2,2,3,B,G,r,g,5,15,26001,1,3,481.8472,72.5207
1,6,30,2,2,3,B,G,r,g,5,15,26001,1,3,307.7539,541.9508
1,6,30,2,2,3,B,G,r,g,5,15,27001,1,3,242.4689,142.987
1,6,30,2,2,3,B,G,r,g,5,15,28001,1,3,511.899,390.6554
1,6,30,2,2,3,B,G,r,g,5,15,28001,1,3,515.0078,360.6036
1,6,30,2,2,3,B,G,r,g,5,15,29001,1,3,106.7176,268.3756
1,6,30,2,2,3,B,G,r,g,5,15,29001,1,3,180.2927,98.4275
1,6,30,2,2,3,B,G,r,g,5,15,30001,1,3,415.5259,447.6503
1,6,30,2,2,3,B,G,r,g,5,15,30001,1,3,316.044,46.614
1,6,30,2,2,3,B,G,r,g,5,15,31001,1,3,274.5933,250.7591
1,6,30,2,2,3,B,G,r,g,5,15,32001,1,3,106.7176,315.0078
1,6,30,2,2,3,B,G,r,g,5,15,33001,1,3,442.4689,481.8472
1,6,30,2,2,3,B,G,r,g,5,15,34001,1,3,77.7021,259.0492
1,6,30,2,2,3,B,G,r,g,5,15,36001,1,3,440.3964,341.9508
1,6,30,2,2,3,B,G,r,g,5,15,36001,1,3,467.3394,309.8264
1,6,30,2,2,3,B,G,r,g,5,15,36001,1,1,451.7953,360.6036
1,6,30,2,2,3,B,G,r,g,5,15,36001,1,3,482.8834,391.6917
1,6,30,2,2,3,B,G,r,g,5,15,37001,1,3,217.5984,434.1788
1,6,30,2,2,3,B,G,r,g,5,15,37001,1,3,154.386,410.3446
1,6,30,2,2,3,B,G,r,g,5,15,37001,1,1,159.5674,430.0337
1,6,30,2,2,3,B,G,r,g,5,15,38001,1,3,147.1321,125.3705
1,6,30,2,2,3,B,G,r,g,5,15,39001,1,3,447.6503,438.3238
1,6,30,2,2,3,B,G,r,g,5,15,39001,1,3,483.9197,423.8161
1,6,30,2,2,3,B,G,r,g,5,15,40001,1,3,467.3394,508.7902
1,6,30,2,2,3,B,G,r,g,5,15,40001,1,3,366.8212,468.3756
1,6,30,2,2,3,B,G,r,g,5,15,40001,1,1,378.2202,487.0285
1,6,30,2,2,3,B,G,r,g,5,15,41001,1,3,209.3083,39.3601
1,6,30,2,2,3,B,G,r,g,5,15,41001,1,3,315.0078,380.2927
1,6,30,2,2,3,B,G,r,g,5,15,41001,1,3,458.013,442.4689
1,6,30,2,2,3,B,G,r,g,5,15,41001,1,1,504.6451,421.7435
1,6,30,2,2,3,B,G,r,g,5,15,42001,1,3,303.6088,567.8575
1,6,30,2,2,3,B,G,r,g,5,15,43001,1,3,544.0233,168.8938
1,6,30,2,2,3,B,G,r,g,5,15,44001,1,3,336.7694,409.3083
1,6,30,2,2,3,B,G,r,g,5,15,44001,1,1,370.9663,392.728
1,6,30,2,2,3,B,G,r,g,5,15,46001,1,3,92.2098,225.8886
1,6,30,2,2,3,B,G,r,g,5,15,47001,1,3,137.8057,309.8264
1,6,30,2,2,3,B,G,r,g,5,15,48001,1,3,129.5155,215.5259
1,6,30,2,2,3,B,G,r,g,5,15,51001,1,3,598.9456,360.6036
1,6,30,2,2,3,B,G,r,g,5,15,52001,1,3,120.1891,323.2979
1,6,30,2,2,3,B,G,r,g,5,15,53001,1,3,121.2254,323.2979
1,6,30,2,2,3,B,G,r,g,5,15,54001,1,3,141.9508,298.4275
1,6,30,2,2,3,B,G,r,g,5,15,55001,1,3,285.9922,65.2668
1,6,30,2,2,3,B,G,r,g,5,15,55001,1,3,260.0855,28.9974
1,6,30,2,2,3,B,G,r,g,5,15,56001,1,3,350.2409,49.7228
1,6,30,2,2,3,B,G,r,g,5,15,56001,1,3,410.3446,45.5777
1,6,30,2,2,3,B,G,r,g,5,15,57001,1,3,147.1321,342.987
1,6,30,2,2,3,B,G,r,g,5,15,57001,1,2,156.4585,361.6399
1,6,30,2,2,3,B,G,r,g,5,15,58001,1,3,466.3031,452.8316
1,6,30,2,2,3,B,G,r,g,5,15,60001,1,3,161.6399,117.0803
1,6,30,2,2,3,B,G,r,g,5,15,62001,1,3,152.3135,260.0855
1,6,30,2,2,3,B,G,r,g,5,15,63001,1,3,584.4378,166.8212
1,6,30,2,2,3,B,G,r,g,5,15,64001,1,3,166.8212,117.0803
1,6,30,2,2,3,B,G,r,g,5,15,65001,1,3,167.8575,211.3808
1,6,30,2,2,3,B,G,r,g,5,15,65001,1,3,263.1943,63.1943
1,6,30,2,2,3,B,G,r,g,5,15,66001,1,3,231.0699,43.5052
1,6,30,2,2,3,B,G,r,g,5,15,66001,1,3,403.0907,345.0596
1,6,30,2,2,3,B,G,r,g,5,15,67001,1,3,572.0026,256.9767
1,6,30,2,2,3,B,G,r,g,5,15,69001,1,3,130.5518,150.2409
1,6,30,2,2,3,B,G,r,g,5,15,70001,1,3,83.9197,302.5725
1,6,30,2,2,3,B,G,r,g,5,15,71001,1,3,476.6658,95.3187
1,6,30,2,2,3,B,G,r,g,5,15,72001,1,3,428.9974,264.2306
1,6,30,2,2,3,B,G,r,g,5,15,73001,1,3,510.8627,365.785
1,6,30,2,2,3,B,G,r,g,5,15,74001,1,3,170.9663,98.4275
1,6,30,2,2,3,B,G,r,g,5,15,75001,1,3,243.5052,208.272
1,6,30,2,2,3,B,G,r,g,5,15,75001,1,3,267.3394,163.7124
1,6,30,2,2,3,B,G,r,g,5,15,77001,1,3,413.4534,502.5725
1,6,30,2,2,3,B,G,r,g,5,15,77001,1,3,427.9611,446.614
1,6,30,2,2,3,B,G,r,g,5,15,79001,1,3,591.6917,348.1684
1,6,30,2,2,3,B,G,r,g,5,15,81001,1,3,237.2876,76.6658
1,6,30,2,2,3,B,G,r,g,5,15,82001,1,3,198.9456,63.1943
1,6,30,2,2,3,B,G,r,g,5,15,83001,1,3,326.4067,61.1218
1,6,30,2,2,3,B,G,r,g,5,15,84001,1,3,250.7591,94.2824
1,6,30,2,2,3,B,G,r,g,5,15,86001,1,3,115.0078,306.7176
1,6,30,2,2,3,B,G,r,g,5,15,87001,1,3,206.1995,450.7591
1,6,30,2,2,3,B,G,r,g,5,15,88001,1,3,205.1632,105.6813
1,6,30,2,2,3,B,G,r,g,5,15,89001,1,3,275.6295,408.272
1,6,30,2,2,3,B,G,r,g,5,15,90001,1,3,280.8109,402.0544
1,6,30,2,2,3,B,G,r,g,5,15,91001,1,3,223.8161,84.956
1,6,30,2,2,3,B,G,r,g,5,15,92001,1,3,459.0492,469.4119
1,6,30,2,2,3,B,G,r,g,5,15,93001,1,1,211.3808,495.3187
1,6,30,2,2,3,B,G,r,g,5,15,93001,1,3,186.5104,476.6658
1,6,30,2,2,3,B,G,r,g,5,15,94001,1,3,534.6969,492.2098
1,6,30,2,2,3,B,G,r,g,5,15,96001,1,3,352.3135,180.2927
1,6,30,2,2,3,B,G,r,g,5,15,97001,1,3,349.2047,177.1839
1,6,30,2,2,3,B,G,r,g,5,15,98001,1,3,269.4119,197.9093
1,6,30,2,2,3,B,G,r,g,5,15,99001,1,3,263.1943,197.9093
1,6,30,2,2,3,B,G,r,g,5,15,101001,1,3,413.4534,189.6192
1,6,30,2,2,3,B,G,r,g,5,15,102001,1,3,535.7332,181.329
1,6,30,2,2,3,B,G,r,g,5,15,102001,1,1,576.1477,181.329
1,6,30,2,2,3,B,G,r,g,5,15,102001,1,3,396.8731,428.9974
1,6,30,2,2,3,B,G,r,g,5,15,103001,1,3,464.2306,350.2409
1,6,30,2,2,3,B,G,r,g,5,15,103001,1,3,464.2306,312.9352
1,6,30,2,2,3,B,G,r,g,5,15,103001,1,1,441.4326,384.4378
1,6,30,2,2,3,B,G,r,g,5,15,103001,1,3,103.6088,348.1684
1,6,30,2,2,3,B,G,r,g,5,15,104001,1,1,117.0803,283.9197
1,6,30,2,2,3,B,G,r,g,5,15,105001,1,3,250.7591,126.4067
1,6,30,2,2,3,B,G,r,g,5,15,105001,1,3,159.5674,342.987
1,6,30,2,2,3,B,G,r,g,5,15,105001,1,1,165.785,393.7642
