dummy,month,day,period,view,station,fgeno,mgeno,fcol,mcol,nf,nm,frame,something,sex,x,y
1,9,25,4,1,1,B,F,b,y,15,5,1,1,1,500,544
1,9,25,4,1,1,B,F,b,y,15,5,1001,1,1,596,185
1,9,25,4,1,1,B,F,b,y,15,5,2001,1,1,600,133
1,9,25,4,1,1,B,F,b,y,15,5,3001,1,1,472,51
1,9,25,4,1,1,B,F,b,y,15,5,4001,1,1,194,115
1,9,25,4,1,1,B,F,b,y,15,5,5001,1,1,273,88
1,9,25,4,1,1,B,F,b,y,15,5,6001,1,1,574,339
1,9,25,4,1,1,B,F,b,y,15,5,7001,1,1,451,503
1,9,25,4,1,1,B,F,b,y,15,5,8001,1,1,415,70
1,9,25,4,1,1,B,F,b,y,15,5,9001,1,1,519,390
1,9,25,4,1,1,B,F,b,y,15,5,10001,1,1,622,235
1,9,25,4,1,1,B,F,b,y,15,5,11001,1,1,538,500
1,9,25,4,1,1,B,F,b,y,15,5,12001,1,1,249,344
1,9,25,4,1,1,B,F,b,y,15,5,13001,1,1,496,318
1,9,25,4,1,1,B,F,b,y,15,5,15001,1,1,495,473
1,9,25,4,1,1,B,F,b,y,15,5,15001,1,1,444,523
1,9,25,4,1,1,B,F,b,y,15,5,16001,1,3,344,531
1,9,25,4,1,1,B,F,b,y,15,5,16001,1,1,330,570
1,9,25,4,1,1,B,F,b,y,15,5,17001,1,1,537,167
1,9,25,4,1,1,B,F,b,y,15,5,18001,1,1,176,397
1,9,25,4,1,1,B,F,b,y,15,5,19001,1,1,485,393
1,9,25,4,1,1,B,F,b,y,15,5,20001,1,1,552,138
1,9,25,4,1,1,B,F,b,y,15,5,23001,1,1,469,477
1,9,25,4,1,1,B,F,b,y,15,5,25001,1,3,147,386
1,9,25,4,1,1,B,F,b,y,15,5,26001,1,3,342,400
1,9,25,4,1,1,B,F,b,y,15,5,26001,1,1,372,407
1,9,25,4,1,1,B,F,b,y,15,5,27001,1,1,437,287
1,9,25,4,1,1,B,F,b,y,15,5,28001,1,1,489,349
1,9,25,4,1,1,B,F,b,y,15,5,29001,1,1,396,372
1,9,25,4,1,1,B,F,b,y,15,5,30001,1,1,470,369
1,9,25,4,1,1,B,F,b,y,15,5,31001,1,1,415,492
1,9,25,4,1,1,B,F,b,y,15,5,32001,1,1,306,434
1,9,25,4,1,1,B,F,b,y,15,5,33001,1,1,390,319
1,9,25,4,1,1,B,F,b,y,15,5,34001,1,1,382,320
1,9,25,4,1,1,B,F,b,y,15,5,35001,1,1,409,326
1,9,25,4,1,1,B,F,b,y,15,5,36001,1,3,402,116
1,9,25,4,1,1,B,F,b,y,15,5,36001,1,1,467,540
1,9,25,4,1,1,B,F,b,y,15,5,37001,1,1,328,186
1,9,25,4,1,1,B,F,b,y,15,5,37001,1,3,337,473
1,9,25,4,1,1,B,F,b,y,15,5,38001,1,3,446,361
1,9,25,4,1,1,B,F,b,y,15,5,38001,1,1,307,518
1,9,25,4,1,1,B,F,b,y,15,5,38001,1,1,314,486
1,9,25,4,1,1,B,F,b,y,15,5,39001,1,1,516,142
1,9,25,4,1,1,B,F,b,y,15,5,39001,1,3,170,459
1,9,25,4,1,1,B,F,b,y,15,5,40001,1,3,286,177
1,9,25,4,1,1,B,F,b,y,15,5,40001,1,1,241,194
1,9,25,4,1,1,B,F,b,y,15,5,41001,1,3,154,322
1,9,25,4,1,1,B,F,b,y,15,5,41001,1,1,637,236
1,9,25,4,1,1,B,F,b,y,15,5,42001,1,1,496,253
1,9,25,4,1,1,B,F,b,y,15,5,42001,1,3,462,229
1,9,25,4,1,1,B,F,b,y,15,5,42001,1,3,257,156
1,9,25,4,1,1,B,F,b,y,15,5,43001,1,1,329,533
1,9,25,4,1,1,B,F,b,y,15,5,43001,1,3,349,555
1,9,25,4,1,1,B,F,b,y,15,5,44001,1,3,293,444
1,9,25,4,1,1,B,F,b,y,15,5,44001,1,1,344,515
1,9,25,4,1,1,B,F,b,y,15,5,45001,1,1,399,357
1,9,25,4,1,1,B,F,b,y,15,5,46001,1,3,392,53
1,9,25,4,1,1,B,F,b,y,15,5,46001,1,1,339,40
1,9,25,4,1,1,B,F,b,y,15,5,47001,1,3,393,416
1,9,25,4,1,1,B,F,b,y,15,5,47001,1,1,356,408
1,9,25,4,1,1,B,F,b,y,15,5,48001,1,3,230,532
1,9,25,4,1,1,B,F,b,y,15,5,49001,1,3,508,91
1,9,25,4,1,1,B,F,b,y,15,5,49001,1,1,462,71
1,9,25,4,1,1,B,F,b,y,15,5,50001,1,1,322,369
1,9,25,4,1,1,B,F,b,y,15,5,50001,1,3,282,353
1,9,25,4,1,1,B,F,b,y,15,5,51001,1,1,456,536
1,9,25,4,1,1,B,F,b,y,15,5,52001,1,1,278,146
1,9,25,4,1,1,B,F,b,y,15,5,53001,1,1,607,292
1,9,25,4,1,1,B,F,b,y,15,5,53001,1,1,431,512
1,9,25,4,1,1,B,F,b,y,15,5,54001,1,1,305,429
1,9,25,4,1,1,B,F,b,y,15,5,55001,1,1,90,306
1,9,25,4,1,1,B,F,b,y,15,5,57001,1,1,300,549
1,9,25,4,1,1,B,F,b,y,15,5,58001,1,1,322,395
1,9,25,4,1,1,B,F,b,y,15,5,59001,1,1,552,399
1,9,25,4,1,1,B,F,b,y,15,5,59001,1,3,512,401
1,9,25,4,1,1,B,F,b,y,15,5,60001,1,1,262,410
1,9,25,4,1,1,B,F,b,y,15,5,60001,1,3,225,404
1,9,25,4,1,1,B,F,b,y,15,5,61001,1,1,368,303
1,9,25,4,1,1,B,F,b,y,15,5,61001,1,3,353,293
1,9,25,4,1,1,B,F,b,y,15,5,62001,1,1,309,501
1,9,25,4,1,1,B,F,b,y,15,5,63001,1,1,346,278
1,9,25,4,1,1,B,F,b,y,15,5,64001,1,1,482,244
1,9,25,4,1,1,B,F,b,y,15,5,66001,1,1,402,295
1,9,25,4,1,1,B,F,b,y,15,5,67001,1,1,486,368
1,9,25,4,1,1,B,F,b,y,15,5,68001,1,1,421,488
1,9,25,4,1,1,B,F,b,y,15,5,69001,1,1,467,337
1,9,25,4,1,1,B,F,b,y,15,5,70001,1,1,471,43
1,9,25,4,1,1,B,F,b,y,15,5,72001,1,1,437,395
1,9,25,4,1,1,B,F,b,y,15,5,72001,1,1,256,505
1,9,25,4,1,1,B,F,b,y,15,5,73001,1,1,217,126
1,9,25,4,1,1,B,F,b,y,15,5,73001,1,1,153,109
1,9,25,4,1,1,B,F,b,y,15,5,75001,1,1,450,140
1,9,25,4,1,1,B,F,b,y,15,5,76001,1,1,461,91
1,9,25,4,1,1,B,F,b,y,15,5,77001,1,1,396,482
1,9,25,4,1,1,B,F,b,y,15,5,78001,1,1,325,62
1,9,25,4,1,1,B,F,b,y,15,5,79001,1,1,439,67
1,9,25,4,1,1,B,F,b,y,15,5,80001,1,1,500,541
1,9,25,4,1,1,B,F,b,y,15,5,81001,1,1,261,35
1,9,25,4,1,1,B,F,b,y,15,5,82001,1,1,412,281
1,9,25,4,1,1,B,F,b,y,15,5,83001,1,1,137,373
1,9,25,4,1,1,B,F,b,y,15,5,84001,1,1,330,120
1,9,25,4,1,1,B,F,b,y,15,5,86001,1,1,463,146
1,9,25,4,1,1,B,F,b,y,15,5,87001,1,1,377,361
1,9,25,4,1,1,B,F,b,y,15,5,88001,1,1,434,534
1,9,25,4,1,1,B,F,b,y,15,5,89001,1,3,283,541
1,9,25,4,1,1,B,F,b,y,15,5,89001,1,1,249,503
1,9,25,4,1,1,B,F,b,y,15,5,90001,1,3,612,367
1,9,25,4,1,1,B,F,b,y,15,5,90001,1,1,596,339
1,9,25,4,1,1,B,F,b,y,15,5,91001,1,3,617,265
1,9,25,4,1,1,B,F,b,y,15,5,91001,1,3,402,433
1,9,25,4,1,1,B,F,b,y,15,5,92001,1,3,604,381
1,9,25,4,1,1,B,F,b,y,15,5,92001,1,1,375,285
1,9,25,4,1,1,B,F,b,y,15,5,93001,1,1,587,281
1,9,25,4,1,1,B,F,b,y,15,5,93001,1,3,544,278
1,9,25,4,1,1,B,F,b,y,15,5,94001,1,3,576,399
1,9,25,4,1,1,B,F,b,y,15,5,94001,1,1,504,509
1,9,25,4,1,1,B,F,b,y,15,5,95001,1,1,295,506
1,9,25,4,1,1,B,F,b,y,15,5,95001,1,3,245,496
1,9,25,4,1,1,B,F,b,y,15,5,96001,1,3,494,252
1,9,25,4,1,1,B,F,b,y,15,5,98001,1,3,404,292
1,9,25,4,1,1,B,F,b,y,15,5,99001,1,3,191,134
1,9,25,4,1,1,B,F,b,y,15,5,101001,1,3,517,377
1,9,25,4,1,1,B,F,b,y,15,5,102001,1,3,358,152
1,9,25,4,1,1,B,F,b,y,15,5,103001,1,3,409,486
1,9,25,4,1,1,B,F,b,y,15,5,103001,1,3,375,453
1,9,25,4,1,1,B,F,b,y,15,5,104001,1,3,581,319
1,9,25,4,1,1,B,F,b,y,15,5,104001,1,3,558,431
1,9,25,4,1,1,B,F,b,y,15,5,105001,1,3,219,158
1,9,25,4,1,1,B,F,b,y,15,5,106001,1,3,550,172
1,9,25,4,1,1,B,F,b,y,15,5,106001,1,3,147,315
1,9,25,4,1,1,B,F,b,y,15,5,107001,1,3,265,471
1,9,25,4,1,1,B,F,b,y,15,5,107001,1,3,117,277
