dummy,month,day,period,view,station,fgeno,mgeno,fcol,mcol,nf,nm,frame,something,sex,x,y
1,9,25,4,0,1,B,F,b,y,15,5,1,1,3,677,228
1,9,25,4,0,1,B,F,b,y,15,5,1,1,3,265,356
1,9,25,4,0,1,B,F,b,y,15,5,1001,1,3,598,408
1,9,25,4,0,1,B,F,b,y,15,5,1001,1,3,367,517
1,9,25,4,0,1,B,F,b,y,15,5,2001,1,3,268,160
1,9,25,4,0,1,B,F,b,y,15,5,2001,1,3,380,520
1,9,25,4,0,1,B,F,b,y,15,5,3001,1,3,569,121
1,9,25,4,0,1,B,F,b,y,15,5,3001,1,3,494,507
1,9,25,4,0,1,B,F,b,y,15,5,4001,1,3,568,74
1,9,25,4,0,1,B,F,b,y,15,5,4001,1,3,665,408
1,9,25,4,0,1,B,F,b,y,15,5,5001,1,3,590,62
1,9,25,4,0,1,B,F,b,y,15,5,5001,1,3,679,260
1,9,25,4,0,1,B,F,b,y,15,5,6001,1,3,548,260
1,9,25,4,0,1,B,F,b,y,15,5,6001,1,3,674,222
1,9,25,4,0,1,B,F,b,y,15,5,7001,1,3,378,279
1,9,25,4,0,1,B,F,b,y,15,5,7001,1,3,606,79
1,9,25,4,0,1,B,F,b,y,15,5,8001,1,3,557,78
1,9,25,4,0,1,B,F,b,y,15,5,8001,1,3,577,62
1,9,25,4,0,1,B,F,b,y,15,5,9001,1,3,515,91
1,9,25,4,0,1,B,F,b,y,15,5,9001,1,3,683,349
1,9,25,4,0,1,B,F,b,y,15,5,10001,1,3,667,321
1,9,25,4,0,1,B,F,b,y,15,5,10001,1,3,675,453
1,9,25,4,0,1,B,F,b,y,15,5,11001,1,3,526,520
1,9,25,4,0,1,B,F,b,y,15,5,11001,1,3,647,483
1,9,25,4,0,1,B,F,b,y,15,5,12001,1,3,462,566
1,9,25,4,0,1,B,F,b,y,15,5,12001,1,3,442,523
1,9,25,4,0,1,B,F,b,y,15,5,12001,1,1,484,525
1,9,25,4,0,1,B,F,b,y,15,5,13001,1,3,453,559
1,9,25,4,0,1,B,F,b,y,15,5,14001,1,3,255,96
1,9,25,4,0,1,B,F,b,y,15,5,16001,1,1,428,136
1,9,25,4,0,1,B,F,b,y,15,5,16001,1,3,714,290
1,9,25,4,0,1,B,F,b,y,15,5,17001,1,3,217,142
1,9,25,4,0,1,B,F,b,y,15,5,17001,1,1,673,368
1,9,25,4,0,1,B,F,b,y,15,5,18001,1,3,655,417
1,9,25,4,0,1,B,F,b,y,15,5,19001,1,3,676,353
1,9,25,4,0,1,B,F,b,y,15,5,20001,1,3,418,209
1,9,25,4,0,1,B,F,b,y,15,5,20001,1,3,683,365
1,9,25,4,0,1,B,F,b,y,15,5,21001,1,3,286,162
1,9,25,4,0,1,B,F,b,y,15,5,21001,1,3,692,429
1,9,25,4,0,1,B,F,b,y,15,5,22001,1,3,308,224
1,9,25,4,0,1,B,F,b,y,15,5,22001,1,3,672,442
1,9,25,4,0,1,B,F,b,y,15,5,23001,1,3,439,487
1,9,25,4,0,1,B,F,b,y,15,5,23001,1,3,666,448
1,9,25,4,0,1,B,F,b,y,15,5,24001,1,3,466,147
1,9,25,4,0,1,B,F,b,y,15,5,24001,1,3,676,450
1,9,25,4,0,1,B,F,b,y,15,5,25001,1,3,585,398
1,9,25,4,0,1,B,F,b,y,15,5,25001,1,3,667,434
1,9,25,4,0,1,B,F,b,y,15,5,26001,1,3,306,301
1,9,25,4,0,1,B,F,b,y,15,5,26001,1,3,670,451
1,9,25,4,0,1,B,F,b,y,15,5,27001,1,3,678,181
1,9,25,4,0,1,B,F,b,y,15,5,27001,1,3,672,452
1,9,25,4,0,1,B,F,b,y,15,5,28001,1,3,683,434
1,9,25,4,0,1,B,F,b,y,15,5,28001,1,3,654,451
1,9,25,4,0,1,B,F,b,y,15,5,29001,1,3,664,459
1,9,25,4,0,1,B,F,b,y,15,5,29001,1,3,633,493
1,9,25,4,0,1,B,F,b,y,15,5,30001,1,3,685,423
1,9,25,4,0,1,B,F,b,y,15,5,30001,1,3,663,445
1,9,25,4,0,1,B,F,b,y,15,5,31001,1,3,701,352
1,9,25,4,0,1,B,F,b,y,15,5,31001,1,3,648,437
1,9,25,4,0,1,B,F,b,y,15,5,32001,1,3,695,394
1,9,25,4,0,1,B,F,b,y,15,5,32001,1,3,659,453
1,9,25,4,0,1,B,F,b,y,15,5,33001,1,3,695,392
1,9,25,4,0,1,B,F,b,y,15,5,33001,1,3,510,468
1,9,25,4,0,1,B,F,b,y,15,5,34001,1,3,707,398
1,9,25,4,0,1,B,F,b,y,15,5,34001,1,3,660,453
1,9,25,4,0,1,B,F,b,y,15,5,35001,1,3,711,366
1,9,25,4,0,1,B,F,b,y,15,5,35001,1,3,653,316
1,9,25,4,0,1,B,F,b,y,15,5,36001,1,3,615,91
1,9,25,4,0,1,B,F,b,y,15,5,36001,1,3,714,297
1,9,25,4,0,1,B,F,b,y,15,5,37001,1,3,556,60
1,9,25,4,0,1,B,F,b,y,15,5,37001,1,3,719,350
1,9,25,4,0,1,B,F,b,y,15,5,38001,1,3,602,75
1,9,25,4,0,1,B,F,b,y,15,5,38001,1,3,709,368
1,9,25,4,0,1,B,F,b,y,15,5,39001,1,3,705,323
1,9,25,4,0,1,B,F,b,y,15,5,39001,1,3,702,404
1,9,25,4,0,1,B,F,b,y,15,5,40001,1,3,584,417
1,9,25,4,0,1,B,F,b,y,15,5,40001,1,3,668,461
1,9,25,4,0,1,B,F,b,y,15,5,41001,1,3,583,510
1,9,25,4,0,1,B,F,b,y,15,5,41001,1,3,433,527
1,9,25,4,0,1,B,F,b,y,15,5,42001,1,3,496,557
1,9,25,4,0,1,B,F,b,y,15,5,42001,1,3,307,471
1,9,25,4,0,1,B,F,b,y,15,5,43001,1,3,379,311
1,9,25,4,0,1,B,F,b,y,15,5,43001,1,3,445,555
1,9,25,4,0,1,B,F,b,y,15,5,44001,1,3,490,52
1,9,25,4,0,1,B,F,b,y,15,5,44001,1,3,387,546
1,9,25,4,0,1,B,F,b,y,15,5,45001,1,3,471,48
1,9,25,4,0,1,B,F,b,y,15,5,45001,1,3,561,471
1,9,25,4,0,1,B,F,b,y,15,5,46001,1,3,640,278
1,9,25,4,0,1,B,F,b,y,15,5,46001,1,3,710,385
1,9,25,4,0,1,B,F,b,y,15,5,47001,1,3,612,88
1,9,25,4,0,1,B,F,b,y,15,5,47001,1,3,613,476
1,9,25,4,0,1,B,F,b,y,15,5,48001,1,3,582,71
1,9,25,4,0,1,B,F,b,y,15,5,48001,1,3,392,552
1,9,25,4,0,1,B,F,b,y,15,5,49001,1,3,484,45
1,9,25,4,0,1,B,F,b,y,15,5,49001,1,3,342,533
1,9,25,4,0,1,B,F,b,y,15,5,50001,1,3,216,304
1,9,25,4,0,1,B,F,b,y,15,5,50001,1,3,474,118
1,9,25,4,0,1,B,F,b,y,15,5,51001,1,3,575,70
1,9,25,4,0,1,B,F,b,y,15,5,51001,1,3,577,330
1,9,25,4,0,1,B,F,b,y,15,5,52001,1,3,676,330
1,9,25,4,0,1,B,F,b,y,15,5,52001,1,3,643,461
1,9,25,4,0,1,B,F,b,y,15,5,53001,1,3,695,395
1,9,25,4,0,1,B,F,b,y,15,5,53001,1,3,653,470
1,9,25,4,0,1,B,F,b,y,15,5,54001,1,3,647,431
1,9,25,4,0,1,B,F,b,y,15,5,54001,1,3,673,463
1,9,25,4,0,1,B,F,b,y,15,5,55001,1,3,701,386
1,9,25,4,0,1,B,F,b,y,15,5,55001,1,3,221,266
1,9,25,4,0,1,B,F,b,y,15,5,56001,1,3,719,279
1,9,25,4,0,1,B,F,b,y,15,5,56001,1,3,478,330
1,9,25,4,0,1,B,F,b,y,15,5,57001,1,3,706,366
1,9,25,4,0,1,B,F,b,y,15,5,57001,1,3,337,363
1,9,25,4,0,1,B,F,b,y,15,5,58001,1,3,708,402
1,9,25,4,0,1,B,F,b,y,15,5,58001,1,3,499,492
1,9,25,4,0,1,B,F,b,y,15,5,59001,1,3,686,450
1,9,25,4,0,1,B,F,b,y,15,5,59001,1,3,645,482
1,9,25,4,0,1,B,F,b,y,15,5,60001,1,3,549,512
1,9,25,4,0,1,B,F,b,y,15,5,60001,1,3,655,461
1,9,25,4,0,1,B,F,b,y,15,5,61001,1,3,586,412
1,9,25,4,0,1,B,F,b,y,15,5,61001,1,3,666,427
1,9,25,4,0,1,B,F,b,y,15,5,62001,1,3,652,319
1,9,25,4,0,1,B,F,b,y,15,5,62001,1,3,596,153
1,9,25,4,0,1,B,F,b,y,15,5,63001,1,3,665,301
1,9,25,4,0,1,B,F,b,y,15,5,63001,1,3,265,268
1,9,25,4,0,1,B,F,b,y,15,5,64001,1,3,704,358
1,9,25,4,0,1,B,F,b,y,15,5,64001,1,3,359,460
1,9,25,4,0,1,B,F,b,y,15,5,65001,1,3,670,452
1,9,25,4,0,1,B,F,b,y,15,5,65001,1,3,352,482
1,9,25,4,0,1,B,F,b,y,15,5,66001,1,3,544,509
1,9,25,4,0,1,B,F,b,y,15,5,66001,1,3,427,506
1,9,25,4,0,1,B,F,b,y,15,5,67001,1,3,590,502
1,9,25,4,0,1,B,F,b,y,15,5,67001,1,3,480,54
1,9,25,4,0,1,B,F,b,y,15,5,68001,1,3,653,274
1,9,25,4,0,1,B,F,b,y,15,5,68001,1,3,658,457
1,9,25,4,0,1,B,F,b,y,15,5,69001,1,3,683,431
1,9,25,4,0,1,B,F,b,y,15,5,69001,1,3,667,465
1,9,25,4,0,1,B,F,b,y,15,5,70001,1,3,662,466
1,9,25,4,0,1,B,F,b,y,15,5,70001,1,3,606,462
1,9,25,4,0,1,B,F,b,y,15,5,71001,1,3,668,486
1,9,25,4,0,1,B,F,b,y,15,5,71001,1,3,646,463
1,9,25,4,0,1,B,F,b,y,15,5,72001,1,3,695,404
1,9,25,4,0,1,B,F,b,y,15,5,72001,1,3,571,347
1,9,25,4,0,1,B,F,b,y,15,5,73001,1,3,544,255
1,9,25,4,0,1,B,F,b,y,15,5,73001,1,3,216,402
1,9,25,4,0,1,B,F,b,y,15,5,74001,1,1,381,476
1,9,25,4,0,1,B,F,b,y,15,5,74001,1,3,295,506
1,9,25,4,0,1,B,F,b,y,15,5,75001,1,1,362,185
1,9,25,4,0,1,B,F,b,y,15,5,75001,1,3,257,152
1,9,25,4,0,1,B,F,b,y,15,5,76001,1,1,299,167
1,9,25,4,0,1,B,F,b,y,15,5,77001,1,1,380,452
1,9,25,4,0,1,B,F,b,y,15,5,80001,1,3,519,510
1,9,25,4,0,1,B,F,b,y,15,5,81001,1,3,603,447
1,9,25,4,0,1,B,F,b,y,15,5,81001,1,1,622,506
1,9,25,4,0,1,B,F,b,y,15,5,82001,1,3,648,490
1,9,25,4,0,1,B,F,b,y,15,5,82001,1,1,604,493
1,9,25,4,0,1,B,F,b,y,15,5,83001,1,3,673,447
1,9,25,4,0,1,B,F,b,y,15,5,83001,1,1,668,489
1,9,25,4,0,1,B,F,b,y,15,5,84001,1,1,533,332
1,9,25,4,0,1,B,F,b,y,15,5,84001,1,1,658,423
1,9,25,4,0,1,B,F,b,y,15,5,84001,1,3,695,399
1,9,25,4,0,1,B,F,b,y,15,5,85001,1,1,358,507
1,9,25,4,0,1,B,F,b,y,15,5,86001,1,1,513,485
1,9,25,4,0,1,B,F,b,y,15,5,87001,1,3,595,84
1,9,25,4,0,1,B,F,b,y,15,5,87001,1,1,564,42
1,9,25,4,0,1,B,F,b,y,15,5,88001,1,3,693,420
1,9,25,4,0,1,B,F,b,y,15,5,88001,1,1,697,387
1,9,25,4,0,1,B,F,b,y,15,5,90001,1,3,472,565
1,9,25,4,0,1,B,F,b,y,15,5,90001,1,1,497,556
1,9,25,4,0,1,B,F,b,y,15,5,91001,1,3,541,554
1,9,25,4,0,1,B,F,b,y,15,5,92001,1,1,418,546
1,9,25,4,0,1,B,F,b,y,15,5,92001,1,3,384,516
1,9,25,4,0,1,B,F,b,y,15,5,93001,1,3,677,461
1,9,25,4,0,1,B,F,b,y,15,5,93001,1,1,647,518
1,9,25,4,0,1,B,F,b,y,15,5,94001,1,1,690,413
1,9,25,4,0,1,B,F,b,y,15,5,94001,1,3,655,447
1,9,25,4,0,1,B,F,b,y,15,5,95001,1,1,289,363
1,9,25,4,0,1,B,F,b,y,15,5,96001,1,1,575,108
1,9,25,4,0,1,B,F,b,y,15,5,96001,1,3,529,70
1,9,25,4,0,1,B,F,b,y,15,5,97001,1,1,644,357
1,9,25,4,0,1,B,F,b,y,15,5,98001,1,1,622,115
1,9,25,4,0,1,B,F,b,y,15,5,98001,1,3,587,70
1,9,25,4,0,1,B,F,b,y,15,5,99001,1,1,513,535
1,9,25,4,0,1,B,F,b,y,15,5,99001,1,3,482,555
1,9,25,4,0,1,B,F,b,y,15,5,100001,1,1,640,311
1,9,25,4,0,1,B,F,b,y,15,5,101001,1,1,678,227
1,9,25,4,0,1,B,F,b,y,15,5,102001,1,1,313,139
1,9,25,4,0,1,B,F,b,y,15,5,103001,1,1,663,506
1,9,25,4,0,1,B,F,b,y,15,5,104001,1,1,380,207
