dummy,month,day,period,view,station,fgeno,mgeno,fcol,mcol,nf,nm,frame,something,sex,x,y
1,9,22,2,3,1,B,G,b,y,10,10,1,1,3,283,114
1,9,22,2,3,1,B,G,b,y,10,10,1001,1,1,207,291
1,9,22,2,3,1,B,G,b,y,10,10,1001,1,3,503,449
1,9,22,2,3,1,B,G,b,y,10,10,2001,1,1,265,212
1,9,22,2,3,1,B,G,b,y,10,10,3001,1,1,533,309
1,9,22,2,3,1,B,G,b,y,10,10,3001,1,1,598,368
1,9,22,2,3,1,B,G,b,y,10,10,3001,1,3,711,223
1,9,22,2,3,1,B,G,b,y,10,10,4001,1,1,568,61
1,9,22,2,3,1,B,G,b,y,10,10,5001,1,3,546,228
1,9,22,2,3,1,B,G,b,y,10,10,5001,1,1,731,308
1,9,22,2,3,1,B,G,b,y,10,10,6001,1,3,341,119
1,9,22,2,3,1,B,G,b,y,10,10,6001,1,1,286,413
1,9,22,2,3,1,B,G,b,y,10,10,7001,1,1,264,376
1,9,22,2,3,1,B,G,b,y,10,10,8001,1,1,333,317
1,9,22,2,3,1,B,G,b,y,10,10,9001,1,3,514,555
1,9,22,2,3,1,B,G,b,y,10,10,9001,1,1,478,551
1,9,22,2,3,1,B,G,b,y,10,10,10001,1,3,435,587
1,9,22,2,3,1,B,G,b,y,10,10,10001,1,1,407,578
1,9,22,2,3,1,B,G,b,y,10,10,11001,1,1,178,376
1,9,22,2,3,1,B,G,b,y,10,10,12001,1,1,367,51
1,9,22,2,3,1,B,G,b,y,10,10,13001,1,1,207,416
1,9,22,2,3,1,B,G,b,y,10,10,14001,1,1,266,174
1,9,22,2,3,1,B,G,b,y,10,10,15001,1,1,712,252
1,9,22,2,3,1,B,G,b,y,10,10,20001,1,3,431,487
1,9,22,2,3,1,B,G,b,y,10,10,21001,1,3,177,316
1,9,22,2,3,1,B,G,b,y,10,10,22001,1,3,238,137
1,9,22,2,3,1,B,G,b,y,10,10,23001,1,3,189,378
1,9,22,2,3,1,B,G,b,y,10,10,24001,1,3,218,376
1,9,22,2,3,1,B,G,b,y,10,10,24001,1,3,667,329
1,9,22,2,3,1,B,G,b,y,10,10,25001,1,3,306,462
1,9,22,2,3,1,B,G,b,y,10,10,25001,1,3,250,426
1,9,22,2,3,1,B,G,b,y,10,10,26001,1,3,439,139
1,9,22,2,3,1,B,G,b,y,10,10,26001,1,3,341,425
1,9,22,2,3,1,B,G,b,y,10,10,27001,1,3,358,419
1,9,22,2,3,1,B,G,b,y,10,10,27001,1,3,293,427
1,9,22,2,3,1,B,G,b,y,10,10,28001,1,3,548,335
1,9,22,2,3,1,B,G,b,y,10,10,28001,1,3,447,383
1,9,22,2,3,1,B,G,b,y,10,10,28001,1,1,502,500
1,9,22,2,3,1,B,G,b,y,10,10,29001,1,3,567,380
1,9,22,2,3,1,B,G,b,y,10,10,29001,1,3,396,204
1,9,22,2,3,1,B,G,b,y,10,10,30001,1,3,526,321
1,9,22,2,3,1,B,G,b,y,10,10,30001,1,3,724,340
1,9,22,2,3,1,B,G,b,y,10,10,31001,1,3,592,145
1,9,22,2,3,1,B,G,b,y,10,10,31001,1,3,537,407
1,9,22,2,3,1,B,G,b,y,10,10,32001,1,3,342,111
1,9,22,2,3,1,B,G,b,y,10,10,32001,1,3,585,226
1,9,22,2,3,1,B,G,b,y,10,10,33001,1,3,370,320
1,9,22,2,3,1,B,G,b,y,10,10,33001,1,3,669,240
1,9,22,2,3,1,B,G,b,y,10,10,34001,1,1,665,226
1,9,22,2,3,1,B,G,b,y,10,10,34001,1,3,696,246
1,9,22,2,3,1,B,G,b,y,10,10,34001,1,3,356,488
1,9,22,2,3,1,B,G,b,y,10,10,35001,1,1,549,365
1,9,22,2,3,1,B,G,b,y,10,10,35001,1,3,495,399
1,9,22,2,3,1,B,G,b,y,10,10,35001,1,3,413,530
1,9,22,2,3,1,B,G,b,y,10,10,36001,1,3,513,130
1,9,22,2,3,1,B,G,b,y,10,10,36001,1,3,526,259
1,9,22,2,3,1,B,G,b,y,10,10,36001,1,1,537,97
1,9,22,2,3,1,B,G,b,y,10,10,37001,1,3,678,170
1,9,22,2,3,1,B,G,b,y,10,10,37001,1,1,658,132
1,9,22,2,3,1,B,G,b,y,10,10,37001,1,3,602,427
1,9,22,2,3,1,B,G,b,y,10,10,38001,1,1,536,535
1,9,22,2,3,1,B,G,b,y,10,10,38001,1,1,382,535
1,9,22,2,3,1,B,G,b,y,10,10,38001,1,3,442,542
1,9,22,2,3,1,B,G,b,y,10,10,39001,1,3,333,104
1,9,22,2,3,1,B,G,b,y,10,10,39001,1,1,400,558
1,9,22,2,3,1,B,G,b,y,10,10,40001,1,1,681,166
1,9,22,2,3,1,B,G,b,y,10,10,40001,1,3,671,292
1,9,22,2,3,1,B,G,b,y,10,10,41001,1,3,239,432
1,9,22,2,3,1,B,G,b,y,10,10,41001,1,1,245,477
1,9,22,2,3,1,B,G,b,y,10,10,41001,1,1,619,520
1,9,22,2,3,1,B,G,b,y,10,10,42001,1,3,555,163
1,9,22,2,3,1,B,G,b,y,10,10,42001,1,3,335,217
1,9,22,2,3,1,B,G,b,y,10,10,42001,1,1,490,239
1,9,22,2,3,1,B,G,b,y,10,10,42001,1,1,565,212
1,9,22,2,3,1,B,G,b,y,10,10,43001,1,3,716,259
1,9,22,2,3,1,B,G,b,y,10,10,43001,1,3,488,263
1,9,22,2,3,1,B,G,b,y,10,10,43001,1,1,468,225
1,9,22,2,3,1,B,G,b,y,10,10,44001,1,3,326,262
1,9,22,2,3,1,B,G,b,y,10,10,45001,1,1,518,516
1,9,22,2,3,1,B,G,b,y,10,10,45001,1,1,262,517
1,9,22,2,3,1,B,G,b,y,10,10,46001,1,1,265,523
1,9,22,2,3,1,B,G,b,y,10,10,47001,1,3,472,91
1,9,22,2,3,1,B,G,b,y,10,10,47001,1,1,464,52
1,9,22,2,3,1,B,G,b,y,10,10,47001,1,1,473,580
1,9,22,2,3,1,B,G,b,y,10,10,48001,1,1,369,115
1,9,22,2,3,1,B,G,b,y,10,10,48001,1,1,599,203
1,9,22,2,3,1,B,G,b,y,10,10,48001,1,1,618,196
1,9,22,2,3,1,B,G,b,y,10,10,48001,1,3,628,218
1,9,22,2,3,1,B,G,b,y,10,10,49001,1,1,464,35
1,9,22,2,3,1,B,G,b,y,10,10,49001,1,3,467,572
1,9,22,2,3,1,B,G,b,y,10,10,50001,1,3,576,278
1,9,22,2,3,1,B,G,b,y,10,10,50001,1,1,641,361
1,9,22,2,3,1,B,G,b,y,10,10,51001,1,1,698,436
1,9,22,2,3,1,B,G,b,y,10,10,52001,1,3,562,165
1,9,22,2,3,1,B,G,b,y,10,10,53001,1,1,415,564
1,9,22,2,3,1,B,G,b,y,10,10,55001,1,1,382,239
1,9,22,2,3,1,B,G,b,y,10,10,55001,1,1,349,210
1,9,22,2,3,1,B,G,b,y,10,10,56001,1,1,259,313
1,9,22,2,3,1,B,G,b,y,10,10,56001,1,1,216,318
1,9,22,2,3,1,B,G,b,y,10,10,57001,1,1,525,234
1,9,22,2,3,1,B,G,b,y,10,10,58001,1,1,724,234
1,9,22,2,3,1,B,G,b,y,10,10,59001,1,1,336,221
1,9,22,2,3,1,B,G,b,y,10,10,59001,1,1,422,300
1,9,22,2,3,1,B,G,b,y,10,10,59001,1,1,684,191
1,9,22,2,3,1,B,G,b,y,10,10,60001,1,1,737,346
1,9,22,2,3,1,B,G,b,y,10,10,61001,1,1,479,85
1,9,22,2,3,1,B,G,b,y,10,10,62001,1,1,693,332
1,9,22,2,3,1,B,G,b,y,10,10,63001,1,1,298,137
1,9,22,2,3,1,B,G,b,y,10,10,64001,1,1,539,95
1,9,22,2,3,1,B,G,b,y,10,10,65001,1,1,574,189
1,9,22,2,3,1,B,G,b,y,10,10,66001,1,1,474,452
1,9,22,2,3,1,B,G,b,y,10,10,67001,1,1,385,138
1,9,22,2,3,1,B,G,b,y,10,10,68001,1,1,391,143
1,9,22,2,3,1,B,G,b,y,10,10,69001,1,1,395,145
1,9,22,2,3,1,B,G,b,y,10,10,70001,1,1,329,480
1,9,22,2,3,1,B,G,b,y,10,10,72001,1,1,669,243
1,9,22,2,3,1,B,G,b,y,10,10,73001,1,1,320,137
1,9,22,2,3,1,B,G,b,y,10,10,74001,1,1,444,275
1,9,22,2,3,1,B,G,b,y,10,10,74001,1,1,397,363
1,9,22,2,3,1,B,G,b,y,10,10,75001,1,3,469,407
1,9,22,2,3,1,B,G,b,y,10,10,75001,1,1,508,429
1,9,22,2,3,1,B,G,b,y,10,10,76001,1,1,298,509
1,9,22,2,3,1,B,G,b,y,10,10,76001,1,1,316,493
1,9,22,2,3,1,B,G,b,y,10,10,76001,1,3,327,526
1,9,22,2,3,1,B,G,b,y,10,10,77001,1,1,360,193
1,9,22,2,3,1,B,G,b,y,10,10,77001,1,1,327,180
1,9,22,2,3,1,B,G,b,y,10,10,79001,1,1,279,195
1,9,22,2,3,1,B,G,b,y,10,10,80001,1,1,403,76
1,9,22,2,3,1,B,G,b,y,10,10,80001,1,1,305,537
1,9,22,2,3,1,B,G,b,y,10,10,81001,1,1,256,154
1,9,22,2,3,1,B,G,b,y,10,10,81001,1,1,639,388
1,9,22,2,3,1,B,G,b,y,10,10,82001,1,1,563,540
1,9,22,2,3,1,B,G,b,y,10,10,83001,1,1,318,454
1,9,22,2,3,1,B,G,b,y,10,10,83001,1,1,734,280
1,9,22,2,3,1,B,G,b,y,10,10,84001,1,1,333,173
1,9,22,2,3,1,B,G,b,y,10,10,84001,1,1,465,454
1,9,22,2,3,1,B,G,b,y,10,10,85001,1,1,571,252
1,9,22,2,3,1,B,G,b,y,10,10,87001,1,1,198,330
1,9,22,2,3,1,B,G,b,y,10,10,88001,1,1,264,334
1,9,22,2,3,1,B,G,b,y,10,10,88001,1,1,196,340
1,9,22,2,3,1,B,G,b,y,10,10,89001,1,1,691,199
1,9,22,2,3,1,B,G,b,y,10,10,90001,1,1,371,107
1,9,22,2,3,1,B,G,b,y,10,10,91001,1,1,239,329
1,9,22,2,3,1,B,G,b,y,10,10,92001,1,1,720,210
1,9,22,2,3,1,B,G,b,y,10,10,93001,1,1,490,71
1,9,22,2,3,1,B,G,b,y,10,10,95001,1,1,505,234
1,9,22,2,3,1,B,G,b,y,10,10,95001,1,1,451,131
1,9,22,2,3,1,B,G,b,y,10,10,96001,1,1,427,31
1,9,22,2,3,1,B,G,b,y,10,10,98001,1,1,710,213
1,9,22,2,3,1,B,G,b,y,10,10,99001,1,3,494,355
1,9,22,2,3,1,B,G,b,y,10,10,99001,1,1,206,369
1,9,22,2,3,1,B,G,b,y,10,10,99001,1,1,168,373
1,9,22,2,3,1,B,G,b,y,10,10,100001,1,3,692,217
1,9,22,2,3,1,B,G,b,y,10,10,100001,1,1,651,225
1,9,22,2,3,1,B,G,b,y,10,10,101001,1,1,459,48
1,9,22,2,3,1,B,G,b,y,10,10,101001,1,3,480,31
1,9,22,2,3,1,B,G,b,y,10,10,103001,1,1,495,291
1,9,22,2,3,1,B,G,b,y,10,10,103001,1,3,533,304
1,9,22,2,3,1,B,G,b,y,10,10,104001,1,1,552,443
1,9,22,2,3,1,B,G,b,y,10,10,106001,1,1,526,429
1,9,22,2,3,1,B,G,b,y,10,10,107001,1,1,699,269
