dummy,month,day,period,view,station,fgeno,mgeno,fcol,mcol,nf,nm,frame,something,sex,x,y
1,6,22,1,1,2,B,E,b,y,15,5,1,1,3,206.879,350.7814
1,6,22,1,1,2,B,E,b,y,15,5,1,1,3,206.879,311.757
1,6,22,1,1,2,B,E,b,y,15,5,1,1,3,341.9634,299.7495
1,6,22,1,1,2,B,E,b,y,15,5,1,1,1,385.4906,316.2598
1,6,22,1,1,2,B,E,b,y,15,5,1,1,3,412.5075,400.3124
1,6,22,1,1,2,B,E,b,y,15,5,1001,1,3,203.8771,380.8002
1,6,22,1,1,2,B,E,b,y,15,5,1001,1,3,187.3668,344.7777
1,6,22,1,1,2,B,E,b,y,15,5,1001,1,3,308.9428,259.2242
1,6,22,1,1,2,B,E,b,y,15,5,1001,1,3,374.9841,173.6707
1,6,22,1,1,2,B,E,b,y,15,5,2001,1,3,202.3762,386.8039
1,6,22,1,1,2,B,E,b,y,15,5,2001,1,3,226.3912,203.6895
1,6,22,1,1,2,B,E,b,y,15,5,2001,1,3,400.5,265.228
1,6,22,1,1,2,B,E,b,y,15,5,3001,1,3,218.8865,377.7983
1,6,22,1,1,2,B,E,b,y,15,5,3001,1,3,176.8602,355.2842
1,6,22,1,1,2,B,E,b,y,15,5,3001,1,3,298.4362,443.8396
1,6,22,1,1,2,B,E,b,y,15,5,4001,1,3,238.3987,368.7927
1,6,22,1,1,2,B,E,b,y,15,5,4001,1,3,253.4081,419.8246
1,6,22,1,1,2,B,E,b,y,15,5,4001,1,3,335.9597,332.7702
1,6,22,1,1,2,B,E,b,y,15,5,4001,1,3,389.9934,320.7627
1,6,22,1,1,2,B,E,b,y,15,5,4001,1,3,477.0478,305.7533
1,6,22,1,1,2,B,E,b,y,15,5,4001,1,1,302.939,44.5901
1,6,22,1,1,2,B,E,b,y,15,5,5001,1,3,296.9353,541.4006
1,6,22,1,1,2,B,E,b,y,15,5,5001,1,3,412.5075,443.8396
1,6,22,1,1,2,B,E,b,y,15,5,5001,1,3,370.4812,320.7627
1,6,22,1,1,2,B,E,b,y,15,5,5001,1,3,245.9034,209.6932
1,6,22,1,1,2,B,E,b,y,15,5,5001,1,3,355.4719,131.6445
1,6,22,1,1,2,B,E,b,y,15,5,6001,1,3,193.3705,365.7908
1,6,22,1,1,2,B,E,b,y,15,5,6001,1,3,368.9803,178.1735
1,6,22,1,1,2,B,E,b,y,15,5,6001,1,3,561.1004,245.7158
1,6,22,1,1,2,B,E,b,y,15,5,6001,1,3,529.5807,388.3049
1,6,22,1,1,2,B,E,b,y,15,5,6001,1,3,295.4343,535.3968
1,6,22,1,1,2,B,E,b,y,15,5,7001,1,3,504.0647,127.1417
1,6,22,1,1,2,B,E,b,y,15,5,7001,1,3,394.4962,323.7645
1,6,22,1,1,2,B,E,b,y,15,5,7001,1,3,241.4006,242.7139
1,6,22,1,1,2,B,E,b,y,15,5,7001,1,3,235.3968,205.1904
1,6,22,1,1,2,B,E,b,y,15,5,7001,1,3,244.4024,451.3443
1,6,22,1,1,2,B,E,b,y,15,5,8001,1,3,206.879,388.3049
1,6,22,1,1,2,B,E,b,y,15,5,8001,1,3,242.9015,485.8659
1,6,22,1,1,2,B,E,b,y,15,5,8001,1,3,328.455,491.8696
1,6,22,1,1,2,B,E,b,y,15,5,8001,1,3,559.5994,361.288
1,6,22,1,1,2,B,E,b,y,15,5,8001,1,3,395.9972,103.1266
1,6,22,1,1,2,B,E,b,y,15,5,9001,1,3,200.8752,379.2992
1,6,22,1,1,2,B,E,b,y,15,5,9001,1,3,487.5544,361.288
1,6,22,1,1,2,B,E,b,y,15,5,9001,1,3,347.9672,143.652
1,6,22,1,1,2,B,E,b,y,15,5,9001,1,3,423.0141,71.6069
1,6,22,1,1,2,B,E,b,y,15,5,10001,1,3,302.939,254.7214
1,6,22,1,1,2,B,E,b,y,15,5,10001,1,3,206.879,316.2598
1,6,22,1,1,2,B,E,b,y,15,5,10001,1,3,251.9071,344.7777
1,6,22,1,1,2,B,E,b,y,15,5,10001,1,3,412.5075,442.3386
1,6,22,1,1,2,B,E,b,y,15,5,10001,1,3,453.0328,481.363
1,6,22,1,1,2,B,E,b,y,15,5,11001,1,3,292.4325,355.2842
1,6,22,1,1,2,B,E,b,y,15,5,11001,1,3,211.3818,341.7758
1,6,22,1,1,2,B,E,b,y,15,5,11001,1,3,187.3668,382.3011
1,6,22,1,1,2,B,E,b,y,15,5,11001,1,3,229.3931,236.7101
1,6,22,1,1,2,B,E,b,y,15,5,11001,1,3,362.9765,550.4062
1,6,22,1,1,2,B,E,b,y,15,5,11001,1,3,564.1023,385.303
1,6,22,1,1,2,B,E,b,y,15,5,12001,1,3,242.9015,361.288
1,6,22,1,1,2,B,E,b,y,15,5,12001,1,3,209.8809,373.2955
1,6,22,1,1,2,B,E,b,y,15,5,12001,1,3,166.3537,379.2992
1,6,22,1,1,2,B,E,b,y,15,5,12001,1,1,296.9353,208.1923
1,6,22,1,1,2,B,E,b,y,15,5,12001,1,3,448.53,73.1079
1,6,22,1,1,2,B,E,b,y,15,5,12001,1,3,582.1135,371.7946
1,6,22,1,1,2,B,E,b,y,15,5,13001,1,3,278.924,401.8133
1,6,22,1,1,2,B,E,b,y,15,5,13001,1,3,245.9034,325.2655
1,6,22,1,1,2,B,E,b,y,15,5,13001,1,3,182.864,346.2786
1,6,22,1,1,2,B,E,b,y,15,5,13001,1,3,161.8508,319.2617
1,6,22,1,1,2,B,E,b,y,15,5,13001,1,1,349.4681,245.7158
1,6,22,1,1,2,B,E,b,y,15,5,13001,1,3,546.091,197.6857
1,6,22,1,1,2,B,E,b,y,15,5,13001,1,3,493.5582,470.8565
1,6,22,1,1,2,B,E,b,y,15,5,13001,1,1,529.5807,502.3762
1,6,22,1,1,2,B,E,b,y,15,5,14001,1,3,208.3799,401.8133
1,6,22,1,1,2,B,E,b,y,15,5,14001,1,3,251.9071,355.2842
1,6,22,1,1,2,B,E,b,y,15,5,14001,1,3,296.9353,361.288
1,6,22,1,1,2,B,E,b,y,15,5,14001,1,1,331.4568,322.2636
1,6,22,1,1,2,B,E,b,y,15,5,14001,1,1,271.4193,323.7645
1,6,22,1,1,2,B,E,b,y,15,5,14001,1,3,145.3405,239.712
1,6,22,1,1,2,B,E,b,y,15,5,15001,1,3,206.879,277.2355
1,6,22,1,1,2,B,E,b,y,15,5,15001,1,3,239.8996,293.7458
1,6,22,1,1,2,B,E,b,y,15,5,15001,1,3,221.8884,376.2974
1,6,22,1,1,2,B,E,b,y,15,5,15001,1,3,371.9822,509.8809
1,6,22,1,1,2,B,E,b,y,15,5,16001,1,3,316.4475,407.8171
1,6,22,1,1,2,B,E,b,y,15,5,16001,1,3,388.4925,253.2205
1,6,22,1,1,2,B,E,b,y,15,5,16001,1,3,242.9015,119.637
1,6,22,1,1,2,B,E,b,y,15,5,16001,1,3,136.3349,347.7795
1,6,22,1,1,2,B,E,b,y,15,5,17001,1,3,260.9128,521.8884
1,6,22,1,1,2,B,E,b,y,15,5,17001,1,3,176.8602,391.3068
1,6,22,1,1,2,B,E,b,y,15,5,17001,1,1,298.4362,233.7083
1,6,22,1,1,2,B,E,b,y,15,5,17001,1,3,382.4887,323.7645
1,6,22,1,1,2,B,E,b,y,15,5,17001,1,3,552.0947,407.8171
1,6,22,1,1,2,B,E,b,y,15,5,18001,1,3,405.0028,311.757
1,6,22,1,1,2,B,E,b,y,15,5,18001,1,1,417.0103,418.3236
1,6,22,1,1,2,B,E,b,y,15,5,18001,1,3,417.0103,461.8508
1,6,22,1,1,2,B,E,b,y,15,5,18001,1,3,444.0272,506.879
1,6,22,1,1,2,B,E,b,y,15,5,18001,1,3,205.378,208.1923
1,6,22,1,1,2,B,E,b,y,15,5,19001,1,3,346.4662,113.6332
1,6,22,1,1,2,B,E,b,y,15,5,19001,1,3,417.0103,380.8002
1,6,22,1,1,2,B,E,b,y,15,5,19001,1,1,433.5206,482.864
1,6,22,1,1,2,B,E,b,y,15,5,19001,1,3,310.4437,518.8865
1,6,22,1,1,2,B,E,b,y,15,5,19001,1,3,268.4174,482.864
1,6,22,1,1,2,B,E,b,y,15,5,20001,1,3,202.3762,379.2992
1,6,22,1,1,2,B,E,b,y,15,5,20001,1,3,358.4737,235.2092
1,6,22,1,1,2,B,E,b,y,15,5,20001,1,3,286.4287,79.1116
1,6,22,1,1,2,B,E,b,y,15,5,20001,1,1,616.6351,337.273
1,6,22,1,1,2,B,E,b,y,15,5,21001,1,3,302.939,434.834
1,6,22,1,1,2,B,E,b,y,15,5,21001,1,3,331.4568,334.2711
1,6,22,1,1,2,B,E,b,y,15,5,21001,1,3,277.4231,217.1979
1,6,22,1,1,2,B,E,b,y,15,5,21001,1,1,274.4212,112.1323
1,6,22,1,1,2,B,E,b,y,15,5,21001,1,3,373.4831,160.1623
1,6,22,1,1,2,B,E,b,y,15,5,22001,1,3,215.8846,439.3368
1,6,22,1,1,2,B,E,b,y,15,5,22001,1,3,181.363,343.2767
1,6,22,1,1,2,B,E,b,y,15,5,22001,1,3,214.3837,304.2523
1,6,22,1,1,2,B,E,b,y,15,5,22001,1,3,365.9784,332.7702
1,6,22,1,1,2,B,E,b,y,15,5,22001,1,1,338.9615,176.6726
1,6,22,1,1,2,B,E,b,y,15,5,23001,1,3,274.4212,458.849
1,6,22,1,1,2,B,E,b,y,15,5,23001,1,3,197.8734,358.2861
1,6,22,1,1,2,B,E,b,y,15,5,23001,1,3,308.9428,242.7139
1,6,22,1,1,2,B,E,b,y,15,5,24001,1,3,193.3705,370.2936
1,6,22,1,1,2,B,E,b,y,15,5,24001,1,3,211.3818,182.6764
1,6,22,1,1,2,B,E,b,y,15,5,24001,1,3,417.0103,151.1567
1,6,22,1,1,2,B,E,b,y,15,5,24001,1,3,391.4944,514.3837
1,6,22,1,1,2,B,E,b,y,15,5,24001,1,1,511.5694,419.8246
1,6,22,1,1,2,B,E,b,y,15,5,25001,1,1,274.4212,44.5901
1,6,22,1,1,2,B,E,b,y,15,5,25001,1,1,215.8846,373.2955
1,6,22,1,1,2,B,E,b,y,15,5,25001,1,3,232.3949,424.3274
1,6,22,1,1,2,B,E,b,y,15,5,25001,1,3,547.5919,302.7514
1,6,22,1,1,2,B,E,b,y,15,5,25001,1,3,661.6632,232.2073
1,6,22,1,1,2,B,E,b,y,15,5,25001,1,3,441.0253,539.8996
1,6,22,1,1,2,B,E,b,y,15,5,26001,1,3,307.4418,520.3874
1,6,22,1,1,2,B,E,b,y,15,5,26001,1,1,409.5056,539.8996
1,6,22,1,1,2,B,E,b,y,15,5,26001,1,3,502.5638,530.894
1,6,22,1,1,2,B,E,b,y,15,5,26001,1,3,562.6013,368.7927
1,6,22,1,1,2,B,E,b,y,15,5,27001,1,3,481.5507,344.7777
1,6,22,1,1,2,B,E,b,y,15,5,27001,1,3,230.894,365.7908
1,6,22,1,1,2,B,E,b,y,15,5,27001,1,3,200.8752,379.2992
1,6,22,1,1,2,B,E,b,y,15,5,27001,1,1,191.8696,283.2392
1,6,22,1,1,2,B,E,b,y,15,5,28001,1,3,205.378,308.7552
1,6,22,1,1,2,B,E,b,y,15,5,28001,1,3,202.3762,212.6951
1,6,22,1,1,2,B,E,b,y,15,5,28001,1,3,423.0141,424.3274
1,6,22,1,1,2,B,E,b,y,15,5,28001,1,1,621.1379,139.1492
1,6,22,1,1,2,B,E,b,y,15,5,29001,1,3,254.909,155.6595
1,6,22,1,1,2,B,E,b,y,15,5,29001,1,3,460.5375,173.6707
1,6,22,1,1,2,B,E,b,y,15,5,29001,1,3,430.5188,467.8546
1,6,22,1,1,2,B,E,b,y,15,5,29001,1,1,507.0666,506.879
1,6,22,1,1,2,B,E,b,y,15,5,30001,1,3,328.455,440.8377
1,6,22,1,1,2,B,E,b,y,15,5,30001,1,1,356.9728,307.2542
1,6,22,1,1,2,B,E,b,y,15,5,30001,1,3,227.8921,203.6895
1,6,22,1,1,2,B,E,b,y,15,5,30001,1,3,582.1135,382.3011
1,6,22,1,1,2,B,E,b,y,15,5,31001,1,3,310.4437,352.2824
1,6,22,1,1,2,B,E,b,y,15,5,31001,1,3,202.3762,350.7814
1,6,22,1,1,2,B,E,b,y,15,5,31001,1,1,344.9653,299.7495
1,6,22,1,1,2,B,E,b,y,15,5,31001,1,1,592.6201,119.637
1,6,22,1,1,2,B,E,b,y,15,5,31001,1,3,571.6069,485.8659
1,6,22,1,1,2,B,E,b,y,15,5,32001,1,3,359.9747,317.7608
1,6,22,1,1,2,B,E,b,y,15,5,32001,1,1,302.939,287.742
1,6,22,1,1,2,B,E,b,y,15,5,32001,1,3,205.378,367.2917
1,6,22,1,1,2,B,E,b,y,15,5,32001,1,3,224.8902,425.8283
1,6,22,1,1,2,B,E,b,y,15,5,33001,1,3,215.8846,380.8002
1,6,22,1,1,2,B,E,b,y,15,5,33001,1,3,206.879,287.742
1,6,22,1,1,2,B,E,b,y,15,5,33001,1,1,296.9353,220.1998
1,6,22,1,1,2,B,E,b,y,15,5,33001,1,1,283.4268,82.1135
1,6,22,1,1,2,B,E,b,y,15,5,33001,1,3,516.0722,307.2542
1,6,22,1,1,2,B,E,b,y,15,5,34001,1,3,280.425,349.2805
1,6,22,1,1,2,B,E,b,y,15,5,34001,1,3,221.8884,206.6914
1,6,22,1,1,2,B,E,b,y,15,5,34001,1,3,439.5244,397.3105
1,6,22,1,1,2,B,E,b,y,15,5,34001,1,1,501.0629,40.0872
1,6,22,1,1,2,B,E,b,y,15,5,35001,1,1,172.3574,209.6932
1,6,22,1,1,2,B,E,b,y,15,5,35001,1,3,316.4475,379.2992
1,6,22,1,1,2,B,E,b,y,15,5,35001,1,3,364.4775,364.2899
1,6,22,1,1,2,B,E,b,y,15,5,35001,1,3,263.9146,470.8565
1,6,22,1,1,2,B,E,b,y,15,5,36001,1,3,325.4531,545.9034
1,6,22,1,1,2,B,E,b,y,15,5,36001,1,3,335.9597,325.2655
1,6,22,1,1,2,B,E,b,y,15,5,36001,1,3,220.3874,364.2899
1,6,22,1,1,2,B,E,b,y,15,5,36001,1,1,178.3612,211.1942
1,6,22,1,1,2,B,E,b,y,15,5,37001,1,3,187.3668,271.2317
1,6,22,1,1,2,B,E,b,y,15,5,37001,1,3,233.8959,386.8039
1,6,22,1,1,2,B,E,b,y,15,5,37001,1,3,353.9709,275.7345
1,6,22,1,1,2,B,E,b,y,15,5,38001,1,3,374.9841,185.6782
1,6,22,1,1,2,B,E,b,y,15,5,38001,1,1,328.455,197.6857
1,6,22,1,1,2,B,E,b,y,15,5,38001,1,3,269.9184,143.652
1,6,22,1,1,2,B,E,b,y,15,5,38001,1,3,175.3593,205.1904
1,6,22,1,1,2,B,E,b,y,15,5,39001,1,3,361.4756,302.7514
1,6,22,1,1,2,B,E,b,y,15,5,39001,1,3,362.9765,88.1173
1,6,22,1,1,2,B,E,b,y,15,5,39001,1,3,451.5319,80.6126
1,6,22,1,1,2,B,E,b,y,15,5,40001,1,3,268.4174,86.6163
1,6,22,1,1,2,B,E,b,y,15,5,40001,1,3,313.4456,439.3368
1,6,22,1,1,2,B,E,b,y,15,5,40001,1,1,445.5281,392.8077
1,6,22,1,1,2,B,E,b,y,15,5,40001,1,3,537.0854,410.8189
1,6,22,1,1,2,B,E,b,y,15,5,41001,1,3,248.9053,242.7139
1,6,22,1,1,2,B,E,b,y,15,5,41001,1,1,337.4606,326.7664
1,6,22,1,1,2,B,E,b,y,15,5,41001,1,3,475.5469,428.8302
1,6,22,1,1,2,B,E,b,y,15,5,41001,1,3,245.9034,521.8884
1,6,22,1,1,2,B,E,b,y,15,5,42001,1,1,124.3274,257.7233
1,6,22,1,1,2,B,E,b,y,15,5,42001,1,3,185.8659,307.2542
1,6,22,1,1,2,B,E,b,y,15,5,42001,1,3,268.4174,317.7608
1,6,22,1,1,2,B,E,b,y,15,5,42001,1,3,316.4475,466.3537
1,6,22,1,1,2,B,E,b,y,15,5,43001,1,3,203.8771,374.7964
1,6,22,1,1,2,B,E,b,y,15,5,43001,1,3,245.9034,479.8621
1,6,22,1,1,2,B,E,b,y,15,5,43001,1,3,395.9972,316.2598
1,6,22,1,1,2,B,E,b,y,15,5,44001,1,3,196.3724,398.8114
1,6,22,1,1,2,B,E,b,y,15,5,44001,1,3,323.9522,454.3462
1,6,22,1,1,2,B,E,b,y,15,5,44001,1,3,525.0779,292.2448
1,6,22,1,1,2,B,E,b,y,15,5,44001,1,1,550.5938,328.2674
1,6,22,1,1,2,B,E,b,y,15,5,45001,1,3,394.4962,310.2561
1,6,22,1,1,2,B,E,b,y,15,5,45001,1,1,361.4756,343.2767
1,6,22,1,1,2,B,E,b,y,15,5,45001,1,3,269.9184,382.3011
1,6,22,1,1,2,B,E,b,y,15,5,45001,1,3,223.3893,436.3349
1,6,22,1,1,2,B,E,b,y,15,5,45001,1,3,376.485,71.6069
1,6,22,1,1,2,B,E,b,y,15,5,46001,1,3,268.4174,373.2955
1,6,22,1,1,2,B,E,b,y,15,5,46001,1,3,408.0047,388.3049
1,6,22,1,1,2,B,E,b,y,15,5,46001,1,3,408.0047,421.3255
1,6,22,1,1,2,B,E,b,y,15,5,46001,1,1,170.8565,256.2223
1,6,22,1,1,2,B,E,b,y,15,5,46001,1,3,504.0647,86.6163
1,6,22,1,1,2,B,E,b,y,15,5,47001,1,1,397.4981,389.8058
1,6,22,1,1,2,B,E,b,y,15,5,47001,1,3,364.4775,326.7664
1,6,22,1,1,2,B,E,b,y,15,5,47001,1,1,347.9672,247.2167
1,6,22,1,1,2,B,E,b,y,15,5,47001,1,3,170.8565,449.8433
1,6,22,1,1,2,B,E,b,y,15,5,47001,1,3,301.4381,529.3931
1,6,22,1,1,2,B,E,b,y,15,5,47001,1,3,511.5694,524.8902
1,6,22,1,1,2,B,E,b,y,15,5,47001,1,3,622.6388,392.8077
1,6,22,1,1,2,B,E,b,y,15,5,48001,1,3,374.9841,425.8283
1,6,22,1,1,2,B,E,b,y,15,5,48001,1,3,444.0272,451.3443
1,6,22,1,1,2,B,E,b,y,15,5,48001,1,3,594.121,338.7739
1,6,22,1,1,2,B,E,b,y,15,5,48001,1,3,352.47,253.2205
1,6,22,1,1,2,B,E,b,y,15,5,48001,1,3,220.3874,88.1173
1,6,22,1,1,2,B,E,b,y,15,5,48001,1,3,239.8996,332.7702
1,6,22,1,1,2,B,E,b,y,15,5,48001,1,1,290.9315,343.2767
1,6,22,1,1,2,B,E,b,y,15,5,48001,1,1,200.8752,421.3255
1,6,22,1,1,2,B,E,b,y,15,5,48001,1,1,331.4568,415.3218
1,6,22,1,1,2,B,E,b,y,15,5,49001,1,1,355.4719,505.378
1,6,22,1,1,2,B,E,b,y,15,5,49001,1,3,349.4681,367.2917
1,6,22,1,1,2,B,E,b,y,15,5,49001,1,3,191.8696,328.2674
1,6,22,1,1,2,B,E,b,y,15,5,49001,1,1,301.4381,241.2129
1,6,22,1,1,2,B,E,b,y,15,5,49001,1,3,271.4193,194.6839
1,6,22,1,1,2,B,E,b,y,15,5,49001,1,3,284.9278,110.6313
1,6,22,1,1,2,B,E,b,y,15,5,49001,1,3,359.9747,65.6032
1,6,22,1,1,2,B,E,b,y,15,5,49001,1,3,546.091,154.1585
1,6,22,1,1,2,B,E,b,y,15,5,50001,1,3,331.4568,541.4006
1,6,22,1,1,2,B,E,b,y,15,5,50001,1,3,193.3705,430.3311
1,6,22,1,1,2,B,E,b,y,15,5,50001,1,1,477.0478,293.7458
1,6,22,1,1,2,B,E,b,y,15,5,50001,1,3,501.0629,106.1285
1,6,22,1,1,2,B,E,b,y,15,5,50001,1,3,426.0159,103.1266
1,6,22,1,1,2,B,E,b,y,15,5,50001,1,3,439.5244,56.5976
1,6,22,1,1,2,B,E,b,y,15,5,51001,1,3,358.4737,485.8659
1,6,22,1,1,2,B,E,b,y,15,5,51001,1,3,232.3949,508.3799
1,6,22,1,1,2,B,E,b,y,15,5,51001,1,3,224.8902,299.7495
1,6,22,1,1,2,B,E,b,y,15,5,51001,1,1,435.0216,133.1454
1,6,22,1,1,2,B,E,b,y,15,5,51001,1,3,600.1248,139.1492
1,6,22,1,1,2,B,E,b,y,15,5,52001,1,3,272.9203,389.8058
1,6,22,1,1,2,B,E,b,y,15,5,52001,1,3,217.3856,370.2936
1,6,22,1,1,2,B,E,b,y,15,5,52001,1,1,166.3537,196.1848
1,6,22,1,1,2,B,E,b,y,15,5,52001,1,3,337.4606,68.6051
1,6,22,1,1,2,B,E,b,y,15,5,52001,1,3,402.0009,137.6482
1,6,22,1,1,2,B,E,b,y,15,5,52001,1,1,549.0929,262.2261
1,6,22,1,1,2,B,E,b,y,15,5,53001,1,3,224.8902,491.8696
1,6,22,1,1,2,B,E,b,y,15,5,53001,1,3,190.3687,383.8021
1,6,22,1,1,2,B,E,b,y,15,5,53001,1,3,187.3668,313.258
1,6,22,1,1,2,B,E,b,y,15,5,53001,1,1,143.8396,305.7533
1,6,22,1,1,2,B,E,b,y,15,5,53001,1,3,287.9296,269.7308
1,6,22,1,1,2,B,E,b,y,15,5,53001,1,3,469.5432,98.6238
1,6,22,1,1,2,B,E,b,y,15,5,54001,1,3,392.9953,514.3837
1,6,22,1,1,2,B,E,b,y,15,5,54001,1,3,469.5432,479.8621
1,6,22,1,1,2,B,E,b,y,15,5,54001,1,3,191.8696,371.7946
1,6,22,1,1,2,B,E,b,y,15,5,54001,1,3,254.909,187.1792
1,6,22,1,1,2,B,E,b,y,15,5,54001,1,1,211.3818,79.1116
1,6,22,1,1,2,B,E,b,y,15,5,54001,1,3,511.5694,106.1285
1,6,22,1,1,2,B,E,b,y,15,5,55001,1,3,248.9053,502.3762
1,6,22,1,1,2,B,E,b,y,15,5,55001,1,3,170.8565,344.7777
1,6,22,1,1,2,B,E,b,y,15,5,55001,1,3,182.864,263.727
1,6,22,1,1,2,B,E,b,y,15,5,55001,1,3,341.9634,287.742
1,6,22,1,1,2,B,E,b,y,15,5,55001,1,1,356.9728,223.2017
1,6,22,1,1,2,B,E,b,y,15,5,55001,1,3,487.5544,215.697
1,6,22,1,1,2,B,E,b,y,15,5,55001,1,1,212.8827,67.1041
1,6,22,1,1,2,B,E,b,y,15,5,56001,1,3,316.4475,499.3743
1,6,22,1,1,2,B,E,b,y,15,5,56001,1,3,376.485,445.3405
1,6,22,1,1,2,B,E,b,y,15,5,56001,1,3,487.5544,443.8396
1,6,22,1,1,2,B,E,b,y,15,5,56001,1,3,278.924,365.7908
1,6,22,1,1,2,B,E,b,y,15,5,56001,1,1,214.3837,76.1098
1,6,22,1,1,2,B,E,b,y,15,5,56001,1,3,484.5525,160.1623
1,6,22,1,1,2,B,E,b,y,15,5,56001,1,3,640.6501,172.1698
1,6,22,1,1,2,B,E,b,y,15,5,57001,1,3,307.4418,542.9015
1,6,22,1,1,2,B,E,b,y,15,5,57001,1,3,472.545,536.8977
1,6,22,1,1,2,B,E,b,y,15,5,57001,1,3,385.4906,332.7702
1,6,22,1,1,2,B,E,b,y,15,5,57001,1,3,260.9128,413.8208
1,6,22,1,1,2,B,E,b,y,15,5,57001,1,1,244.4024,188.6801
1,6,22,1,1,2,B,E,b,y,15,5,57001,1,1,200.8752,79.1116
1,6,22,1,1,2,B,E,b,y,15,5,57001,1,3,275.9221,49.0929
1,6,22,1,1,2,B,E,b,y,15,5,58001,1,1,432.0197,544.4024
1,6,22,1,1,2,B,E,b,y,15,5,58001,1,3,465.0403,508.3799
1,6,22,1,1,2,B,E,b,y,15,5,58001,1,3,496.56,262.2261
1,6,22,1,1,2,B,E,b,y,15,5,58001,1,3,343.4644,305.7533
1,6,22,1,1,2,B,E,b,y,15,5,58001,1,3,271.4193,232.2073
1,6,22,1,1,2,B,E,b,y,15,5,58001,1,1,242.9015,295.2467
1,6,22,1,1,2,B,E,b,y,15,5,59001,1,3,205.378,385.303
1,6,22,1,1,2,B,E,b,y,15,5,59001,1,3,316.4475,374.7964
1,6,22,1,1,2,B,E,b,y,15,5,59001,1,3,323.9522,556.4099
1,6,22,1,1,2,B,E,b,y,15,5,59001,1,3,598.6238,419.8246
1,6,22,1,1,2,B,E,b,y,15,5,59001,1,3,487.5544,260.7251
1,6,22,1,1,2,B,E,b,y,15,5,60001,1,3,319.4493,562.4137
1,6,22,1,1,2,B,E,b,y,15,5,60001,1,3,211.3818,371.7946
1,6,22,1,1,2,B,E,b,y,15,5,60001,1,3,389.9934,83.6144
1,6,22,1,1,2,B,E,b,y,15,5,60001,1,3,607.6295,160.1623
1,6,22,1,1,2,B,E,b,y,15,5,60001,1,3,613.6332,386.8039
1,6,22,1,1,2,B,E,b,y,15,5,61001,1,3,208.3799,395.8096
1,6,22,1,1,2,B,E,b,y,15,5,61001,1,3,238.3987,103.1266
1,6,22,1,1,2,B,E,b,y,15,5,61001,1,3,346.4662,140.6501
1,6,22,1,1,2,B,E,b,y,15,5,61001,1,3,356.9728,287.742
1,6,22,1,1,2,B,E,b,y,15,5,61001,1,1,561.1004,476.8602
1,6,22,1,1,2,B,E,b,y,15,5,62001,1,3,326.954,550.4062
1,6,22,1,1,2,B,E,b,y,15,5,62001,1,3,332.9578,469.3555
1,6,22,1,1,2,B,E,b,y,15,5,62001,1,3,262.4137,388.3049
1,6,22,1,1,2,B,E,b,y,15,5,62001,1,1,182.864,395.8096
1,6,22,1,1,2,B,E,b,y,15,5,62001,1,1,167.8546,122.6388
1,6,22,1,1,2,B,E,b,y,15,5,62001,1,3,595.622,146.6538
1,6,22,1,1,2,B,E,b,y,15,5,63001,1,3,263.9146,472.3574
1,6,22,1,1,2,B,E,b,y,15,5,63001,1,3,209.8809,371.7946
1,6,22,1,1,2,B,E,b,y,15,5,63001,1,1,317.9484,292.2448
1,6,22,1,1,2,B,E,b,y,15,5,63001,1,3,391.4944,221.7008
1,6,22,1,1,2,B,E,b,y,15,5,64001,1,3,287.9296,409.318
1,6,22,1,1,2,B,E,b,y,15,5,64001,1,3,242.9015,359.7871
1,6,22,1,1,2,B,E,b,y,15,5,64001,1,3,184.3649,268.2298
1,6,22,1,1,2,B,E,b,y,15,5,64001,1,1,199.3743,451.3443
1,6,22,1,1,2,B,E,b,y,15,5,64001,1,3,352.47,314.7589
1,6,22,1,1,2,B,E,b,y,15,5,65001,1,1,172.3574,394.3086
1,6,22,1,1,2,B,E,b,y,15,5,65001,1,3,203.8771,355.2842
1,6,22,1,1,2,B,E,b,y,15,5,65001,1,3,355.4719,475.3593
1,6,22,1,1,2,B,E,b,y,15,5,65001,1,3,359.9747,562.4137
1,6,22,1,1,2,B,E,b,y,15,5,65001,1,1,424.515,278.7364
1,6,22,1,1,2,B,E,b,y,15,5,66001,1,3,289.4306,346.2786
1,6,22,1,1,2,B,E,b,y,15,5,66001,1,1,316.4475,317.7608
1,6,22,1,1,2,B,E,b,y,15,5,66001,1,3,265.4156,239.712
1,6,22,1,1,2,B,E,b,y,15,5,66001,1,3,200.8752,232.2073
1,6,22,1,1,2,B,E,b,y,15,5,66001,1,1,206.879,157.1604
1,6,22,1,1,2,B,E,b,y,15,5,67001,1,3,253.4081,205.1904
1,6,22,1,1,2,B,E,b,y,15,5,67001,1,3,197.8734,257.7233
1,6,22,1,1,2,B,E,b,y,15,5,67001,1,3,143.8396,226.2036
1,6,22,1,1,2,B,E,b,y,15,5,67001,1,1,200.8752,380.8002
1,6,22,1,1,2,B,E,b,y,15,5,67001,1,1,489.0553,457.348
1,6,22,1,1,2,B,E,b,y,15,5,68001,1,3,215.8846,331.2692
1,6,22,1,1,2,B,E,b,y,15,5,68001,1,3,278.924,355.2842
1,6,22,1,1,2,B,E,b,y,15,5,68001,1,3,365.9784,304.2523
1,6,22,1,1,2,B,E,b,y,15,5,68001,1,1,227.8921,499.3743
1,6,22,1,1,2,B,E,b,y,15,5,68001,1,1,308.9428,538.3987
1,6,22,1,1,2,B,E,b,y,15,5,69001,1,3,262.4137,323.7645
1,6,22,1,1,2,B,E,b,y,15,5,69001,1,3,295.4343,404.8152
1,6,22,1,1,2,B,E,b,y,15,5,69001,1,3,439.5244,421.3255
1,6,22,1,1,2,B,E,b,y,15,5,69001,1,1,337.4606,304.2523
1,6,22,1,1,2,B,E,b,y,15,5,69001,1,1,409.5056,265.228
1,6,22,1,1,2,B,E,b,y,15,5,70001,1,1,191.8696,254.7214
1,6,22,1,1,2,B,E,b,y,15,5,70001,1,3,151.3443,344.7777
1,6,22,1,1,2,B,E,b,y,15,5,70001,1,1,316.4475,548.9053
1,6,22,1,1,2,B,E,b,y,15,5,70001,1,3,398.9991,509.8809
1,6,22,1,1,2,B,E,b,y,15,5,70001,1,3,433.5206,532.3949
1,6,22,1,1,2,B,E,b,y,15,5,71001,1,3,151.3443,371.7946
1,6,22,1,1,2,B,E,b,y,15,5,71001,1,3,368.9803,536.8977
1,6,22,1,1,2,B,E,b,y,15,5,71001,1,1,483.0516,422.8265
1,6,22,1,1,2,B,E,b,y,15,5,71001,1,1,553.5957,407.8171
1,6,22,1,1,2,B,E,b,y,15,5,71001,1,3,541.5882,361.288
1,6,22,1,1,2,B,E,b,y,15,5,72001,1,3,194.8715,397.3105
1,6,22,1,1,2,B,E,b,y,15,5,72001,1,3,529.5807,448.3424
1,6,22,1,1,2,B,E,b,y,15,5,72001,1,3,601.6257,190.1811
1,6,22,1,1,2,B,E,b,y,15,5,72001,1,1,284.9278,131.6445
1,6,22,1,1,2,B,E,b,y,15,5,73001,1,3,173.8583,287.742
1,6,22,1,1,2,B,E,b,y,15,5,73001,1,1,157.348,169.1679
1,6,22,1,1,2,B,E,b,y,15,5,73001,1,3,143.8396,145.1529
1,6,22,1,1,2,B,E,b,y,15,5,73001,1,3,119.8246,386.8039
1,6,22,1,1,2,B,E,b,y,15,5,73001,1,3,274.4212,536.8977
1,6,22,1,1,2,B,E,b,y,15,5,74001,1,3,229.3931,505.378
1,6,22,1,1,2,B,E,b,y,15,5,74001,1,3,460.5375,433.333
1,6,22,1,1,2,B,E,b,y,15,5,74001,1,3,543.0891,406.3161
1,6,22,1,1,2,B,E,b,y,15,5,75001,1,3,370.4812,346.2786
1,6,22,1,1,2,B,E,b,y,15,5,75001,1,1,115.3218,361.288
1,6,22,1,1,2,B,E,b,y,15,5,75001,1,3,388.4925,17.5732
1,6,22,1,1,2,B,E,b,y,15,5,76001,1,3,466.5413,176.6726
1,6,22,1,1,2,B,E,b,y,15,5,76001,1,3,236.8977,311.757
1,6,22,1,1,2,B,E,b,y,15,5,76001,1,1,239.8996,340.2749
1,6,22,1,1,2,B,E,b,y,15,5,77001,1,3,311.9447,496.3724
1,6,22,1,1,2,B,E,b,y,15,5,77001,1,3,367.4794,539.8996
1,6,22,1,1,2,B,E,b,y,15,5,77001,1,1,510.0685,95.622
1,6,22,1,1,2,B,E,b,y,15,5,77001,1,3,293.9334,50.5938
1,6,22,1,1,2,B,E,b,y,15,5,78001,1,3,441.0253,25.0779
1,6,22,1,1,2,B,E,b,y,15,5,78001,1,3,223.3893,347.7795
1,6,22,1,1,2,B,E,b,y,15,5,78001,1,3,271.4193,508.3799
1,6,22,1,1,2,B,E,b,y,15,5,78001,1,1,310.4437,482.864
1,6,22,1,1,2,B,E,b,y,15,5,78001,1,1,379.4869,523.3893
1,6,22,1,1,2,B,E,b,y,15,5,79001,1,3,286.4287,508.3799
1,6,22,1,1,2,B,E,b,y,15,5,79001,1,1,334.4587,488.8677
1,6,22,1,1,2,B,E,b,y,15,5,79001,1,3,248.9053,383.8021
1,6,22,1,1,2,B,E,b,y,15,5,79001,1,3,193.3705,362.7889
1,6,22,1,1,2,B,E,b,y,15,5,80001,1,1,448.53,349.2805
1,6,22,1,1,2,B,E,b,y,15,5,80001,1,3,426.0159,205.1904
1,6,22,1,1,2,B,E,b,y,15,5,80001,1,3,172.3574,185.6782
1,6,22,1,1,2,B,E,b,y,15,5,80001,1,3,209.8809,380.8002
1,6,22,1,1,2,B,E,b,y,15,5,81001,1,3,370.4812,295.2467
1,6,22,1,1,2,B,E,b,y,15,5,81001,1,3,284.9278,70.106
1,6,22,1,1,2,B,E,b,y,15,5,81001,1,1,218.8865,164.6651
1,6,22,1,1,2,B,E,b,y,15,5,81001,1,3,215.8846,421.3255
1,6,22,1,1,2,B,E,b,y,15,5,81001,1,3,445.5281,532.3949
1,6,22,1,1,2,B,E,b,y,15,5,82001,1,1,214.3837,430.3311
1,6,22,1,1,2,B,E,b,y,15,5,82001,1,3,202.3762,388.3049
1,6,22,1,1,2,B,E,b,y,15,5,82001,1,3,376.485,554.909
1,6,22,1,1,2,B,E,b,y,15,5,82001,1,3,594.121,155.6595
1,6,22,1,1,2,B,E,b,y,15,5,82001,1,3,429.0178,61.1004
1,6,22,1,1,2,B,E,b,y,15,5,83001,1,3,325.4531,319.2617
1,6,22,1,1,2,B,E,b,y,15,5,83001,1,3,202.3762,370.2936
1,6,22,1,1,2,B,E,b,y,15,5,83001,1,3,377.9859,424.3274
1,6,22,1,1,2,B,E,b,y,15,5,83001,1,1,391.4944,511.3818
1,6,22,1,1,2,B,E,b,y,15,5,83001,1,3,505.5657,505.378
1,6,22,1,1,2,B,E,b,y,15,5,84001,1,3,257.9109,464.8527
1,6,22,1,1,2,B,E,b,y,15,5,84001,1,3,260.9128,377.7983
1,6,22,1,1,2,B,E,b,y,15,5,84001,1,3,292.4325,203.6895
1,6,22,1,1,2,B,E,b,y,15,5,84001,1,1,567.1041,98.6238
1,6,22,1,1,2,B,E,b,y,15,5,84001,1,3,592.6201,190.1811
1,6,22,1,1,2,B,E,b,y,15,5,85001,1,3,319.4493,524.8902
1,6,22,1,1,2,B,E,b,y,15,5,85001,1,3,349.4681,442.3386
1,6,22,1,1,2,B,E,b,y,15,5,85001,1,3,361.4756,359.7871
1,6,22,1,1,2,B,E,b,y,15,5,85001,1,3,343.4644,307.2542
1,6,22,1,1,2,B,E,b,y,15,5,85001,1,1,442.5263,112.1323
1,6,22,1,1,2,B,E,b,y,15,5,86001,1,3,299.9371,494.8715
1,6,22,1,1,2,B,E,b,y,15,5,86001,1,3,389.9934,439.3368
1,6,22,1,1,2,B,E,b,y,15,5,86001,1,3,382.4887,380.8002
1,6,22,1,1,2,B,E,b,y,15,5,86001,1,3,139.3368,196.1848
1,6,22,1,1,2,B,E,b,y,15,5,86001,1,1,508.5675,46.091
1,6,22,1,1,2,B,E,b,y,15,5,87001,1,1,346.4662,493.3705
1,6,22,1,1,2,B,E,b,y,15,5,87001,1,3,409.5056,509.8809
1,6,22,1,1,2,B,E,b,y,15,5,87001,1,3,385.4906,397.3105
1,6,22,1,1,2,B,E,b,y,15,5,87001,1,3,364.4775,212.6951
1,6,22,1,1,2,B,E,b,y,15,5,87001,1,3,475.5469,38.5863
1,6,22,1,1,2,B,E,b,y,15,5,88001,1,1,284.9278,527.8921
1,6,22,1,1,2,B,E,b,y,15,5,88001,1,3,245.9034,455.8471
1,6,22,1,1,2,B,E,b,y,15,5,88001,1,3,444.0272,421.3255
1,6,22,1,1,2,B,E,b,y,15,5,88001,1,3,322.4512,212.6951
1,6,22,1,1,2,B,E,b,y,15,5,88001,1,3,181.363,128.6426
1,6,22,1,1,2,B,E,b,y,15,5,89001,1,3,254.909,452.8452
1,6,22,1,1,2,B,E,b,y,15,5,89001,1,3,191.8696,391.3068
1,6,22,1,1,2,B,E,b,y,15,5,89001,1,3,532.5826,394.3086
1,6,22,1,1,2,B,E,b,y,15,5,89001,1,3,448.53,200.6876
1,6,22,1,1,2,B,E,b,y,15,5,89001,1,1,194.8715,112.1323
1,6,22,1,1,2,B,E,b,y,15,5,90001,1,1,229.3931,499.3743
1,6,22,1,1,2,B,E,b,y,15,5,90001,1,3,245.9034,421.3255
1,6,22,1,1,2,B,E,b,y,15,5,90001,1,3,353.9709,443.8396
1,6,22,1,1,2,B,E,b,y,15,5,90001,1,3,538.5863,362.7889
1,6,22,1,1,2,B,E,b,y,15,5,90001,1,3,495.0591,214.1961
1,6,22,1,1,2,B,E,b,y,15,5,91001,1,3,325.4531,440.8377
1,6,22,1,1,2,B,E,b,y,15,5,91001,1,3,445.5281,272.7326
1,6,22,1,1,2,B,E,b,y,15,5,91001,1,3,541.5882,364.2899
1,6,22,1,1,2,B,E,b,y,15,5,91001,1,3,559.5994,118.136
1,6,22,1,1,2,B,E,b,y,15,5,91001,1,3,323.9522,239.712
1,6,22,1,1,2,B,E,b,y,15,5,91001,1,1,296.9353,205.1904
1,6,22,1,1,2,B,E,b,y,15,5,92001,1,3,371.9822,409.318
1,6,22,1,1,2,B,E,b,y,15,5,92001,1,1,239.8996,394.3086
1,6,22,1,1,2,B,E,b,y,15,5,92001,1,3,193.3705,391.3068
1,6,22,1,1,2,B,E,b,y,15,5,92001,1,3,257.9109,170.6689
1,6,22,1,1,2,B,E,b,y,15,5,92001,1,3,583.6144,379.2992
1,6,22,1,1,2,B,E,b,y,15,5,93001,1,3,604.6276,403.3143
1,6,22,1,1,2,B,E,b,y,15,5,93001,1,3,505.5657,419.8246
1,6,22,1,1,2,B,E,b,y,15,5,93001,1,1,486.0535,406.3161
1,6,22,1,1,2,B,E,b,y,15,5,93001,1,3,314.9465,454.3462
1,6,22,1,1,2,B,E,b,y,15,5,93001,1,3,289.4306,179.6745
1,6,22,1,1,2,B,E,b,y,15,5,94001,1,3,226.3912,412.3199
1,6,22,1,1,2,B,E,b,y,15,5,94001,1,1,266.9165,490.3687
1,6,22,1,1,2,B,E,b,y,15,5,94001,1,3,371.9822,347.7795
1,6,22,1,1,2,B,E,b,y,15,5,94001,1,3,403.5019,286.2411
1,6,22,1,1,2,B,E,b,y,15,5,94001,1,3,510.0685,308.7552
1,6,22,1,1,2,B,E,b,y,15,5,95001,1,3,546.091,241.2129
1,6,22,1,1,2,B,E,b,y,15,5,95001,1,3,453.0328,182.6764
1,6,22,1,1,2,B,E,b,y,15,5,95001,1,1,232.3949,242.7139
1,6,22,1,1,2,B,E,b,y,15,5,95001,1,3,271.4193,308.7552
1,6,22,1,1,2,B,E,b,y,15,5,95001,1,3,474.046,436.3349
1,6,22,1,1,2,B,E,b,y,15,5,96001,1,3,236.8977,362.7889
1,6,22,1,1,2,B,E,b,y,15,5,96001,1,3,190.3687,425.8283
1,6,22,1,1,2,B,E,b,y,15,5,96001,1,1,346.4662,131.6445
1,6,22,1,1,2,B,E,b,y,15,5,96001,1,3,414.0084,67.1041
1,6,22,1,1,2,B,E,b,y,15,5,96001,1,3,534.0835,154.1585
1,6,22,1,1,2,B,E,b,y,15,5,97001,1,3,532.5826,319.2617
1,6,22,1,1,2,B,E,b,y,15,5,97001,1,3,322.4512,433.333
1,6,22,1,1,2,B,E,b,y,15,5,97001,1,3,302.939,158.6614
1,6,22,1,1,2,B,E,b,y,15,5,97001,1,3,334.4587,46.091
1,6,22,1,1,2,B,E,b,y,15,5,97001,1,1,389.9934,41.5882
1,6,22,1,1,2,B,E,b,y,15,5,98001,1,3,445.5281,77.6107
1,6,22,1,1,2,B,E,b,y,15,5,98001,1,1,326.954,265.228
1,6,22,1,1,2,B,E,b,y,15,5,98001,1,3,319.4493,334.2711
1,6,22,1,1,2,B,E,b,y,15,5,98001,1,3,269.9184,362.7889
1,6,22,1,1,2,B,E,b,y,15,5,98001,1,3,262.4137,503.8771
1,6,22,1,1,2,B,E,b,y,15,5,99001,1,3,269.9184,514.3837
1,6,22,1,1,2,B,E,b,y,15,5,99001,1,3,304.44,463.3518
1,6,22,1,1,2,B,E,b,y,15,5,99001,1,1,158.849,196.1848
1,6,22,1,1,2,B,E,b,y,15,5,99001,1,3,582.1135,301.2505
1,6,22,1,1,2,B,E,b,y,15,5,99001,1,3,618.136,319.2617
1,6,22,1,1,2,B,E,b,y,15,5,100001,1,3,232.3949,443.8396
1,6,22,1,1,2,B,E,b,y,15,5,100001,1,3,233.8959,374.7964
1,6,22,1,1,2,B,E,b,y,15,5,100001,1,3,187.3668,442.3386
1,6,22,1,1,2,B,E,b,y,15,5,100001,1,1,155.8471,323.7645
1,6,22,1,1,2,B,E,b,y,15,5,100001,1,3,541.5882,364.2899
1,6,22,1,1,2,B,E,b,y,15,5,101001,1,3,208.3799,383.8021
1,6,22,1,1,2,B,E,b,y,15,5,101001,1,3,359.9747,281.7383
1,6,22,1,1,2,B,E,b,y,15,5,101001,1,3,466.5413,205.1904
1,6,22,1,1,2,B,E,b,y,15,5,101001,1,3,582.1135,322.2636
1,6,22,1,1,2,B,E,b,y,15,5,101001,1,1,507.0666,400.3124
1,6,22,1,1,2,B,E,b,y,15,5,102001,1,3,235.3968,346.2786
1,6,22,1,1,2,B,E,b,y,15,5,102001,1,3,481.5507,71.6069
1,6,22,1,1,2,B,E,b,y,15,5,102001,1,1,523.5769,130.1435
1,6,22,1,1,2,B,E,b,y,15,5,102001,1,3,567.1041,427.3293
1,6,22,1,1,2,B,E,b,y,15,5,103001,1,3,337.4606,173.6707
1,6,22,1,1,2,B,E,b,y,15,5,103001,1,3,286.4287,223.2017
1,6,22,1,1,2,B,E,b,y,15,5,103001,1,3,388.4925,377.7983
1,6,22,1,1,2,B,E,b,y,15,5,103001,1,1,346.4662,422.8265
1,6,22,1,1,2,B,E,b,y,15,5,103001,1,3,295.4343,503.8771
1,6,22,1,1,2,B,E,b,y,15,5,104001,1,3,304.44,473.8583
1,6,22,1,1,2,B,E,b,y,15,5,104001,1,1,179.8621,329.7683
1,6,22,1,1,2,B,E,b,y,15,5,104001,1,1,169.3555,269.7308
1,6,22,1,1,2,B,E,b,y,15,5,104001,1,3,353.9709,227.7045
1,6,22,1,1,2,B,E,b,y,15,5,104001,1,3,478.5488,265.228
1,6,22,1,1,2,B,E,b,y,15,5,104001,1,3,516.0722,230.7064
1,6,22,1,1,2,B,E,b,y,15,5,105001,1,3,343.4644,424.3274
1,6,22,1,1,2,B,E,b,y,15,5,105001,1,3,220.3874,463.3518
1,6,22,1,1,2,B,E,b,y,15,5,105001,1,3,343.4644,212.6951
1,6,22,1,1,2,B,E,b,y,15,5,105001,1,1,414.0084,484.3649
1,6,22,1,1,2,B,E,b,y,15,5,105001,1,3,483.0516,515.8846
1,6,22,1,1,2,B,E,b,y,15,5,106001,1,3,263.9146,448.3424
1,6,22,1,1,2,B,E,b,y,15,5,106001,1,1,274.4212,385.303
1,6,22,1,1,2,B,E,b,y,15,5,106001,1,3,179.8621,211.1942
1,6,22,1,1,2,B,E,b,y,15,5,106001,1,3,140.8377,242.7139
1,6,22,1,1,2,B,E,b,y,15,5,107001,1,3,341.9634,458.849
1,6,22,1,1,2,B,E,b,y,15,5,107001,1,1,205.378,328.2674
1,6,22,1,1,2,B,E,b,y,15,5,107001,1,3,172.3574,226.2036
1,6,22,1,1,2,B,E,b,y,15,5,107001,1,3,152.8452,196.1848
