dummy,month,day,period,view,station,fgeno,mgeno,fcol,mcol,nf,nm,frame,something,sex,x,y
1,7,14,3,0,2,B,F,g,r,5,15,1,1,1,286.4287,436.3349
1,7,14,3,0,2,B,F,g,r,5,15,1,1,1,459.0366,305.7533
1,7,14,3,0,2,B,F,g,r,5,15,1001,1,1,236.8977,442.3386
1,7,14,3,0,2,B,F,g,r,5,15,1001,1,1,403.5019,514.3837
1,7,14,3,0,2,B,F,g,r,5,15,2001,1,1,161.8508,323.7645
1,7,14,3,0,2,B,F,g,r,5,15,2001,1,1,474.046,436.3349
1,7,14,3,0,2,B,F,g,r,5,15,2001,1,1,405.0028,547.4043
1,7,14,3,0,2,B,F,g,r,5,15,3001,1,1,358.4737,487.3668
1,7,14,3,0,2,B,F,g,r,5,15,3001,1,1,504.0647,271.2317
1,7,14,3,0,2,B,F,g,r,5,15,4001,1,1,475.5469,275.7345
1,7,14,3,0,2,B,F,g,r,5,15,4001,1,1,331.4568,269.7308
1,7,14,3,0,2,B,F,g,r,5,15,5001,1,1,382.4887,118.136
1,7,14,3,0,2,B,F,g,r,5,15,5001,1,1,438.0235,455.8471
1,7,14,3,0,2,B,F,g,r,5,15,6001,1,1,310.4437,374.7964
1,7,14,3,0,2,B,F,g,r,5,15,6001,1,1,296.9353,158.6614
1,7,14,3,0,2,B,F,g,r,5,15,7001,1,1,353.9709,413.8208
1,7,14,3,0,2,B,F,g,r,5,15,7001,1,1,553.5957,247.2167
1,7,14,3,0,2,B,F,g,r,5,15,8001,1,1,478.5488,490.3687
1,7,14,3,0,2,B,F,g,r,5,15,8001,1,1,317.9484,274.2336
1,7,14,3,0,2,B,F,g,r,5,15,9001,1,1,504.0647,409.318
1,7,14,3,0,2,B,F,g,r,5,15,9001,1,1,374.9841,389.8058
1,7,14,3,0,2,B,F,g,r,5,15,10001,1,1,347.9672,413.8208
1,7,14,3,0,2,B,F,g,r,5,15,10001,1,1,499.5619,256.2223
1,7,14,3,0,2,B,F,g,r,5,15,10001,1,1,535.5844,211.1942
1,7,14,3,0,2,B,F,g,r,5,15,11001,1,1,460.5375,482.864
1,7,14,3,0,2,B,F,g,r,5,15,11001,1,1,212.8827,298.2486
1,7,14,3,0,2,B,F,g,r,5,15,11001,1,1,146.8415,395.8096
1,7,14,3,0,2,B,F,g,r,5,15,11001,1,1,146.8415,274.2336
1,7,14,3,0,2,B,F,g,r,5,15,12001,1,1,248.9053,482.864
1,7,14,3,0,2,B,F,g,r,5,15,12001,1,1,190.3687,277.2355
1,7,14,3,0,2,B,F,g,r,5,15,12001,1,1,193.3705,176.6726
1,7,14,3,0,2,B,F,g,r,5,15,12001,1,1,259.4118,130.1435
1,7,14,3,0,2,B,F,g,r,5,15,13001,1,1,408.0047,431.8321
1,7,14,3,0,2,B,F,g,r,5,15,13001,1,1,576.1098,247.2167
1,7,14,3,0,2,B,F,g,r,5,15,13001,1,1,535.5844,202.1886
1,7,14,3,0,2,B,F,g,r,5,15,13001,1,1,365.9784,106.1285
1,7,14,3,0,2,B,F,g,r,5,15,14001,1,1,462.0385,470.8565
1,7,14,3,0,2,B,F,g,r,5,15,14001,1,1,299.9371,506.879
1,7,14,3,0,2,B,F,g,r,5,15,14001,1,1,142.3386,235.2092
1,7,14,3,0,2,B,F,g,r,5,15,14001,1,1,402.0009,211.1942
1,7,14,3,0,2,B,F,g,r,5,15,15001,1,1,302.939,61.1004
1,7,14,3,0,2,B,F,g,r,5,15,15001,1,1,185.8659,289.243
1,7,14,3,0,2,B,F,g,r,5,15,15001,1,1,329.9559,491.8696
1,7,14,3,0,2,B,F,g,r,5,15,15001,1,1,577.6107,413.8208
1,7,14,3,0,2,B,F,g,r,5,15,16001,1,1,249.662,388.7682
1,7,14,3,0,2,B,F,g,r,5,15,16001,1,1,232.9022,421.1704
1,7,14,3,0,2,B,F,g,r,5,15,16001,1,1,302.176,431.2263
1,7,14,3,0,2,B,F,g,r,5,15,17001,1,1,179.2709,145.1927
1,7,14,3,0,2,B,F,g,r,5,15,17001,1,1,314.4665,154.1313
1,7,14,3,0,2,B,F,g,r,5,15,17001,1,1,503.2933,197.7067
1,7,14,3,0,2,B,F,g,r,5,15,18001,1,1,568.0978,356.3659
1,7,14,3,0,2,B,F,g,r,5,15,18001,1,1,506.6453,140.7235
1,7,14,3,0,2,B,F,g,r,5,15,18001,1,1,588.2095,173.1257
1,7,14,3,0,2,B,F,g,r,5,15,18001,1,1,165.8631,406.6453
1,7,14,3,0,2,B,F,g,r,5,15,19001,1,1,336.8128,344.0754
1,7,14,3,0,2,B,F,g,r,5,15,19001,1,1,497.7067,444.6341
1,7,14,3,0,2,B,F,g,r,5,15,19001,1,1,286.5335,59.1592
1,7,14,3,0,2,B,F,g,r,5,15,20001,1,1,330.1089,404.4106
1,7,14,3,0,2,B,F,g,r,5,15,20001,1,1,170.3324,347.4274
1,7,14,3,0,2,B,F,g,r,5,15,21001,1,1,385.9749,494.9134
1,7,14,3,0,2,B,F,g,r,5,15,21001,1,1,288.7682,235.6955
1,7,14,3,0,2,B,F,g,r,5,15,22001,1,1,347.986,518.3771
1,7,14,3,0,2,B,F,g,r,5,15,22001,1,1,584.8575,337.3715
1,7,14,3,0,2,B,F,g,r,5,15,22001,1,1,524.5223,277.0363
1,7,14,3,0,2,B,F,g,r,5,15,23001,1,1,202.7346,264.7458
1,7,14,3,0,2,B,F,g,r,5,15,23001,1,1,378.1536,262.5112
1,7,14,3,0,2,B,F,g,r,5,15,23001,1,1,428.433,189.8855
1,7,14,3,0,2,B,F,g,r,5,15,23001,1,1,506.6453,227.8743
1,7,14,3,0,2,B,F,g,r,5,15,24001,1,1,265.3045,264.7458
1,7,14,3,0,2,B,F,g,r,5,15,24001,1,1,340.1648,191.0028
1,7,14,3,0,2,B,F,g,r,5,15,24001,1,1,321.1704,546.3101
1,7,14,3,0,2,B,F,g,r,5,15,25001,1,1,418.3771,119.4944
1,7,14,3,0,2,B,F,g,r,5,15,25001,1,1,385.9749,326.1983
1,7,14,3,0,2,B,F,g,r,5,15,25001,1,1,159.1592,401.0587
1,7,14,3,0,2,B,F,g,r,5,15,25001,1,1,217.2598,490.4441
1,7,14,3,0,2,B,F,g,r,5,15,26001,1,1,140.1648,353.014
1,7,14,3,0,2,B,F,g,r,5,15,26001,1,1,314.4665,363.0698
1,7,14,3,0,2,B,F,g,r,5,15,26001,1,1,314.4665,431.2263
1,7,14,3,0,2,B,F,g,r,5,15,26001,1,1,413.9078,466.9804
1,7,14,3,0,2,B,F,g,r,5,15,27001,1,1,339.0475,443.5168
1,7,14,3,0,2,B,F,g,r,5,15,27001,1,1,419.4944,475.919
1,7,14,3,0,2,B,F,g,r,5,15,27001,1,1,409.4385,233.4609
1,7,14,3,0,2,B,F,g,r,5,15,27001,1,1,512.2318,164.1872
1,7,14,3,0,2,B,F,g,r,5,15,28001,1,1,320.0531,378.7123
1,7,14,3,0,2,B,F,g,r,5,15,28001,1,1,451.8966,485.9749
1,7,14,3,0,2,B,F,g,r,5,15,29001,1,1,266.4218,282.6229
1,7,14,3,0,2,B,F,g,r,5,15,29001,1,1,267.5391,509.4385
1,7,14,3,0,2,B,F,g,r,5,15,30001,1,1,178.1536,402.176
1,7,14,3,0,2,B,F,g,r,5,15,30001,1,1,541.2821,113.9078
1,7,14,3,0,2,B,F,g,r,5,15,31001,1,1,390.4441,345.1927
1,7,14,3,0,2,B,F,g,r,5,15,31001,1,1,231.7849,191.0028
1,7,14,3,0,2,B,F,g,r,5,15,31001,1,1,189.3268,159.7179
1,7,14,3,0,2,B,F,g,r,5,15,32001,1,1,341.2821,339.6061
1,7,14,3,0,2,B,F,g,r,5,15,32001,1,1,236.2542,339.6061
1,7,14,3,0,2,B,F,g,r,5,15,32001,1,1,482.0642,138.4888
1,7,14,3,0,2,B,F,g,r,5,15,33001,1,1,323.405,117.2598
1,7,14,3,0,2,B,F,g,r,5,15,33001,1,1,397.148,424.5223
1,7,14,3,0,2,B,F,g,r,5,15,33001,1,1,491.0028,421.1704
1,7,14,3,0,2,B,F,g,r,5,15,34001,1,1,528.9916,307.2039
1,7,14,3,0,2,B,F,g,r,5,15,34001,1,1,220.6117,462.5112
1,7,14,3,0,2,B,F,g,r,5,15,34001,1,1,163.6285,417.8184
1,7,14,3,0,2,B,F,g,r,5,15,35001,1,1,369.2151,195.4721
1,7,14,3,0,2,B,F,g,r,5,15,35001,1,1,508.8799,262.5112
1,7,14,3,0,2,B,F,g,r,5,15,35001,1,1,427.3156,456.9246
1,7,14,3,0,2,B,F,g,r,5,15,36001,1,1,323.405,386.5335
1,7,14,3,0,2,B,F,g,r,5,15,36001,1,1,201.6173,151.8966
1,7,14,3,0,2,B,F,g,r,5,15,36001,1,1,202.7346,92.6788
1,7,14,3,0,2,B,F,g,r,5,15,37001,1,1,210.5559,99.3827
1,7,14,3,0,2,B,F,g,r,5,15,37001,1,1,321.1704,386.5335
1,7,14,3,0,2,B,F,g,r,5,15,38001,1,1,315.5838,366.4218
1,7,14,3,0,2,B,F,g,r,5,15,39001,1,1,285.4162,351.8966
1,7,14,3,0,2,B,F,g,r,5,15,40001,1,1,298.824,380.9469
1,7,14,3,0,2,B,F,g,r,5,15,40001,1,1,118.9358,366.4218
1,7,14,3,0,2,B,F,g,r,5,15,41001,1,1,215.0251,435.6955
1,7,14,3,0,2,B,F,g,r,5,15,42001,1,1,361.3939,460.2765
1,7,14,3,0,2,B,F,g,r,5,15,42001,1,3,330.1089,477.0363
1,7,14,3,0,2,B,F,g,r,5,15,42001,1,1,514.4665,109.4385
1,7,14,3,0,2,B,F,g,r,5,15,43001,1,3,327.8743,294.9134
1,7,14,3,0,2,B,F,g,r,5,15,43001,1,1,320.0531,263.6285
1,7,14,3,0,2,B,F,g,r,5,15,44001,1,1,174.8017,421.1704
1,7,14,3,0,2,B,F,g,r,5,15,44001,1,3,283.1816,74.8017
1,7,14,3,0,2,B,F,g,r,5,15,45001,1,1,526.757,231.2263
1,7,14,3,0,2,B,F,g,r,5,15,45001,1,1,547.986,156.3659
1,7,14,3,0,2,B,F,g,r,5,15,46001,1,1,365.8631,325.081
1,7,14,3,0,2,B,F,g,r,5,15,46001,1,3,551.338,404.4106
1,7,14,3,0,2,B,F,g,r,5,15,47001,1,1,156.9246,282.6229
1,7,14,3,0,2,B,F,g,r,5,15,47001,1,3,425.081,468.0978
1,7,14,3,0,2,B,F,g,r,5,15,48001,1,3,223.9637,427.8743
1,7,14,3,0,2,B,F,g,r,5,15,48001,1,1,324.5223,167.5391
1,7,14,3,0,2,B,F,g,r,5,15,49001,1,3,230.6676,188.7682
1,7,14,3,0,2,B,F,g,r,5,15,49001,1,1,524.5223,132.9022
1,7,14,3,0,2,B,F,g,r,5,15,50001,1,1,468.6564,461.3939
1,7,14,3,0,2,B,F,g,r,5,15,50001,1,3,420.6117,97.148
1,7,14,3,0,2,B,F,g,r,5,15,51001,1,1,257.4832,441.2821
1,7,14,3,0,2,B,F,g,r,5,15,51001,1,3,565.8631,274.8017
1,7,14,3,0,2,B,F,g,r,5,15,52001,1,3,391.5615,451.338
1,7,14,3,0,2,B,F,g,r,5,15,52001,1,1,228.433,134.0196
1,7,14,3,0,2,B,F,g,r,5,15,53001,1,3,246.3101,425.6397
1,7,14,3,0,2,B,F,g,r,5,15,54001,1,3,149.1034,377.595
1,7,14,3,0,2,B,F,g,r,5,15,54001,1,1,286.5335,462.5112
1,7,14,3,0,2,B,F,g,r,5,15,55001,1,3,246.3101,142.9581
1,7,14,3,0,2,B,F,g,r,5,15,55001,1,1,381.5056,435.6955
1,7,14,3,0,2,B,F,g,r,5,15,56001,1,3,418.3771,123.9637
1,7,14,3,0,2,B,F,g,r,5,15,56001,1,1,313.3492,387.6508
1,7,14,3,0,2,B,F,g,r,5,15,57001,1,1,385.9749,277.0363
1,7,14,3,0,2,B,F,g,r,5,15,57001,1,3,459.7179,294.9134
1,7,14,3,0,2,B,F,g,r,5,15,58001,1,1,431.7849,422.2877
1,7,14,3,0,2,B,F,g,r,5,15,58001,1,3,440.7235,451.338
1,7,14,3,0,2,B,F,g,r,5,15,58001,1,1,396.0307,69.2151
1,7,14,3,0,2,B,F,g,r,5,15,59001,1,1,317.8184,398.824
1,7,14,3,0,2,B,F,g,r,5,15,59001,1,1,215.0251,404.4106
1,7,14,3,0,2,B,F,g,r,5,15,59001,1,3,254.1313,332.9022
1,7,14,3,0,2,B,F,g,r,5,15,60001,1,3,251.8966,122.8464
1,7,14,3,0,2,B,F,g,r,5,15,60001,1,1,426.1983,182.0642
1,7,14,3,0,2,B,F,g,r,5,15,61001,1,1,183.7402,302.7346
1,7,14,3,0,2,B,F,g,r,5,15,61001,1,3,350.2207,141.8408
1,7,14,3,0,2,B,F,g,r,5,15,62001,1,1,323.405,428.9916
1,7,14,3,0,2,B,F,g,r,5,15,62001,1,3,472.0084,203.2933
1,7,14,3,0,2,B,F,g,r,5,15,63001,1,3,454.1313,358.6006
1,7,14,3,0,2,B,F,g,r,5,15,63001,1,1,454.1313,117.2598
1,7,14,3,0,2,B,F,g,r,5,15,64001,1,1,430.6676,121.7291
1,7,14,3,0,2,B,F,g,r,5,15,64001,1,3,316.7011,386.5335
1,7,14,3,0,2,B,F,g,r,5,15,65001,1,1,315.5838,243.5168
1,7,14,3,0,2,B,F,g,r,5,15,65001,1,3,173.6844,237.9302
1,7,14,3,0,2,B,F,g,r,5,15,66001,1,1,463.0698,111.6732
1,7,14,3,0,2,B,F,g,r,5,15,66001,1,3,327.8743,85.9749
1,7,14,3,0,2,B,F,g,r,5,15,67001,1,1,426.1983,308.3212
1,7,14,3,0,2,B,F,g,r,5,15,67001,1,3,531.2263,197.7067
1,7,14,3,0,2,B,F,g,r,5,15,68001,1,1,436.2542,375.3603
1,7,14,3,0,2,B,F,g,r,5,15,68001,1,3,494.3547,341.8408
1,7,14,3,0,2,B,F,g,r,5,15,69001,1,3,377.0363,444.6341
1,7,14,3,0,2,B,F,g,r,5,15,70001,1,3,298.824,433.4609
1,7,14,3,0,2,B,F,g,r,5,15,70001,1,1,340.1648,110.5559
1,7,14,3,0,2,B,F,g,r,5,15,70001,1,1,613.9078,247.986
1,7,14,3,0,2,B,F,g,r,5,15,71001,1,1,278.7123,459.1592
1,7,14,3,0,2,B,F,g,r,5,15,71001,1,3,302.176,377.595
1,7,14,3,0,2,B,F,g,r,5,15,72001,1,1,413.9078,386.5335
1,7,14,3,0,2,B,F,g,r,5,15,72001,1,3,258.6006,280.3883
1,7,14,3,0,2,B,F,g,r,5,15,73001,1,1,183.7402,303.852
1,7,14,3,0,2,B,F,g,r,5,15,73001,1,1,248.5447,98.2654
1,7,14,3,0,2,B,F,g,r,5,15,73001,1,3,294.3547,327.3156
1,7,14,3,0,2,B,F,g,r,5,15,73001,1,1,496.5894,317.2598
1,7,14,3,0,2,B,F,g,r,5,15,74001,1,1,213.9078,503.852
1,7,14,3,0,2,B,F,g,r,5,15,74001,1,1,368.0978,294.9134
1,7,14,3,0,2,B,F,g,r,5,15,74001,1,1,485.4162,241.2821
1,7,14,3,0,2,B,F,g,r,5,15,74001,1,3,354.6899,249.1034
1,7,14,3,0,2,B,F,g,r,5,15,75001,1,3,337.9302,125.081
1,7,14,3,0,2,B,F,g,r,5,15,75001,1,1,430.6676,454.6899
1,7,14,3,0,2,B,F,g,r,5,15,75001,1,1,416.1425,536.2542
1,7,14,3,0,2,B,F,g,r,5,15,76001,1,1,363.6285,203.2933
1,7,14,3,0,2,B,F,g,r,5,15,76001,1,3,296.5894,179.8296
1,7,14,3,0,2,B,F,g,r,5,15,77001,1,1,274.243,165.3045
1,7,14,3,0,2,B,F,g,r,5,15,77001,1,3,436.2542,204.4106
1,7,14,3,0,2,B,F,g,r,5,15,78001,1,1,258.6006,350.7793
1,7,14,3,0,2,B,F,g,r,5,15,78001,1,1,213.9078,336.2542
1,7,14,3,0,2,B,F,g,r,5,15,78001,1,3,407.2039,167.5391
1,7,14,3,0,2,B,F,g,r,5,15,79001,1,1,347.986,387.6508
1,7,14,3,0,2,B,F,g,r,5,15,79001,1,1,284.2989,387.6508
1,7,14,3,0,2,B,F,g,r,5,15,79001,1,3,391.5615,192.1201
1,7,14,3,0,2,B,F,g,r,5,15,80001,1,1,320.0531,436.8128
1,7,14,3,0,2,B,F,g,r,5,15,80001,1,1,239.6061,350.7793
1,7,14,3,0,2,B,F,g,r,5,15,80001,1,3,499.9413,321.7291
1,7,14,3,0,2,B,F,g,r,5,15,81001,1,1,363.6285,391.0028
1,7,14,3,0,2,B,F,g,r,5,15,81001,1,1,425.081,347.4274
1,7,14,3,0,2,B,F,g,r,5,15,81001,1,3,404.9693,406.6453
1,7,14,3,0,2,B,F,g,r,5,15,82001,1,3,226.1983,444.6341
1,7,14,3,0,2,B,F,g,r,5,15,82001,1,1,412.7905,240.1648
1,7,14,3,0,2,B,F,g,r,5,15,82001,1,1,472.0084,178.7123
1,7,14,3,0,2,B,F,g,r,5,15,83001,1,1,221.7291,241.2821
1,7,14,3,0,2,B,F,g,r,5,15,83001,1,1,269.7737,75.919
1,7,14,3,0,2,B,F,g,r,5,15,83001,1,3,162.5112,240.1648
1,7,14,3,0,2,B,F,g,r,5,15,84001,1,3,209.4385,126.1983
1,7,14,3,0,2,B,F,g,r,5,15,84001,1,1,304.4106,339.6061
1,7,14,3,0,2,B,F,g,r,5,15,84001,1,1,486.5335,99.3827
1,7,14,3,0,2,B,F,g,r,5,15,85001,1,3,375.919,135.1369
1,7,14,3,0,2,B,F,g,r,5,15,85001,1,1,390.4441,479.2709
1,7,14,3,0,2,B,F,g,r,5,15,85001,1,1,596.0307,347.4274
1,7,14,3,0,2,B,F,g,r,5,15,86001,1,3,479.8296,180.9469
1,7,14,3,0,2,B,F,g,r,5,15,86001,1,1,437.3715,233.4609
1,7,14,3,0,2,B,F,g,r,5,15,86001,1,1,274.243,191.0028
1,7,14,3,0,2,B,F,g,r,5,15,86001,1,1,428.433,512.7905
1,7,14,3,0,2,B,F,g,r,5,15,87001,1,3,533.4609,365.3045
1,7,14,3,0,2,B,F,g,r,5,15,87001,1,1,286.5335,116.1425
1,7,14,3,0,2,B,F,g,r,5,15,87001,1,1,142.3994,365.3045
1,7,14,3,0,2,B,F,g,r,5,15,87001,1,1,141.2821,411.1145
1,7,14,3,0,2,B,F,g,r,5,15,88001,1,1,254.1313,45.7514
1,7,14,3,0,2,B,F,g,r,5,15,88001,1,1,213.9078,260.2765
1,7,14,3,0,2,B,F,g,r,5,15,88001,1,3,418.3771,458.0419
1,7,14,3,0,2,B,F,g,r,5,15,88001,1,1,501.0587,443.5168
1,7,14,3,0,2,B,F,g,r,5,15,89001,1,1,377.0363,263.6285
1,7,14,3,0,2,B,F,g,r,5,15,89001,1,1,366.9804,431.2263
1,7,14,3,0,2,B,F,g,r,5,15,89001,1,3,370.3324,490.4441
1,7,14,3,0,2,B,F,g,r,5,15,89001,1,1,373.6844,548.5447
1,7,14,3,0,2,B,F,g,r,5,15,90001,1,1,322.2877,113.9078
1,7,14,3,0,2,B,F,g,r,5,15,90001,1,1,354.6899,428.9916
1,7,14,3,0,2,B,F,g,r,5,15,90001,1,1,163.6285,433.4609
1,7,14,3,0,2,B,F,g,r,5,15,90001,1,3,325.6397,452.4553
1,7,14,3,0,2,B,F,g,r,5,15,91001,1,1,352.4553,312.7905
1,7,14,3,0,2,B,F,g,r,5,15,91001,1,1,228.433,244.6341
1,7,14,3,0,2,B,F,g,r,5,15,91001,1,1,235.1369,123.9637
1,7,14,3,0,2,B,F,g,r,5,15,91001,1,3,223.9637,298.2654
1,7,14,3,0,2,B,F,g,r,5,15,92001,1,1,384.8575,198.824
1,7,14,3,0,2,B,F,g,r,5,15,92001,1,1,362.5112,85.9749
1,7,14,3,0,2,B,F,g,r,5,15,92001,1,1,293.2374,82.6229
1,7,14,3,0,2,B,F,g,r,5,15,92001,1,3,272.0084,387.6508
1,7,14,3,0,2,B,F,g,r,5,15,93001,1,1,268.6564,132.9022
1,7,14,3,0,2,B,F,g,r,5,15,93001,1,1,230.6676,192.1201
1,7,14,3,0,2,B,F,g,r,5,15,93001,1,1,253.014,394.3547
1,7,14,3,0,2,B,F,g,r,5,15,93001,1,3,286.5335,387.6508
1,7,14,3,0,2,B,F,g,r,5,15,94001,1,1,267.5391,127.3156
1,7,14,3,0,2,B,F,g,r,5,15,94001,1,1,124.5223,332.9022
1,7,14,3,0,2,B,F,g,r,5,15,94001,1,1,268.6564,440.1648
1,7,14,3,0,2,B,F,g,r,5,15,94001,1,3,297.7067,386.5335
1,7,14,3,0,2,B,F,g,r,5,15,94001,1,1,382.6229,534.0196
1,7,14,3,0,2,B,F,g,r,5,15,95001,1,1,272.0084,123.9637
1,7,14,3,0,2,B,F,g,r,5,15,95001,1,1,301.0587,363.0698
1,7,14,3,0,2,B,F,g,r,5,15,95001,1,1,256.3659,379.8296
1,7,14,3,0,2,B,F,g,r,5,15,95001,1,3,307.7626,388.7682
1,7,14,3,0,2,B,F,g,r,5,15,95001,1,1,435.1369,475.919
1,7,14,3,0,2,B,F,g,r,5,15,95001,1,1,458.6006,530.6676
1,7,14,3,0,2,B,F,g,r,5,15,96001,1,1,269.7737,108.3212
1,7,14,3,0,2,B,F,g,r,5,15,96001,1,1,314.4665,321.7291
1,7,14,3,0,2,B,F,g,r,5,15,96001,1,1,353.5726,374.243
1,7,14,3,0,2,B,F,g,r,5,15,96001,1,3,316.7011,406.6453
1,7,14,3,0,2,B,F,g,r,5,15,96001,1,1,436.2542,465.8631
1,7,14,3,0,2,B,F,g,r,5,15,96001,1,1,574.8017,442.3994
1,7,14,3,0,2,B,F,g,r,5,15,97001,1,1,241.8408,83.7402
1,7,14,3,0,2,B,F,g,r,5,15,97001,1,3,368.0978,418.9358
1,7,14,3,0,2,B,F,g,r,5,15,97001,1,1,496.5894,121.7291
1,7,14,3,0,2,B,F,g,r,5,15,97001,1,1,532.3436,303.852
1,7,14,3,0,2,B,F,g,r,5,15,97001,1,1,578.1536,328.433
1,7,14,3,0,2,B,F,g,r,5,15,97001,1,1,611.6732,249.1034
1,7,14,3,0,2,B,F,g,r,5,15,98001,1,1,328.9916,204.4106
1,7,14,3,0,2,B,F,g,r,5,15,98001,1,1,528.9916,161.9525
1,7,14,3,0,2,B,F,g,r,5,15,98001,1,1,285.4162,376.4777
1,7,14,3,0,2,B,F,g,r,5,15,98001,1,3,305.5279,417.8184
1,7,14,3,0,2,B,F,g,r,5,15,98001,1,1,455.2486,468.0978
1,7,14,3,0,2,B,F,g,r,5,15,98001,1,1,485.4162,455.8073
1,7,14,3,0,2,B,F,g,r,5,15,99001,1,1,560.2765,198.824
1,7,14,3,0,2,B,F,g,r,5,15,99001,1,1,242.9581,431.2263
1,7,14,3,0,2,B,F,g,r,5,15,99001,1,3,309.9972,388.7682
1,7,14,3,0,2,B,F,g,r,5,15,99001,1,1,419.4944,508.3212
1,7,14,3,0,2,B,F,g,r,5,15,100001,1,1,362.5112,73.6844
1,7,14,3,0,2,B,F,g,r,5,15,100001,1,3,328.9916,396.5894
1,7,14,3,0,2,B,F,g,r,5,15,100001,1,1,308.8799,442.3994
1,7,14,3,0,2,B,F,g,r,5,15,100001,1,1,189.3268,439.0475
1,7,14,3,0,2,B,F,g,r,5,15,101001,1,1,261.9525,72.567
1,7,14,3,0,2,B,F,g,r,5,15,101001,1,1,197.148,145.1927
1,7,14,3,0,2,B,F,g,r,5,15,101001,1,3,308.8799,405.5279
1,7,14,3,0,2,B,F,g,r,5,15,102001,1,1,322.2877,454.6899
1,7,14,3,0,2,B,F,g,r,5,15,102001,1,1,288.7682,510.5559
1,7,14,3,0,2,B,F,g,r,5,15,102001,1,3,312.2318,414.4665
1,7,14,3,0,2,B,F,g,r,5,15,103001,1,3,299.9413,396.5894
1,7,14,3,0,2,B,F,g,r,5,15,103001,1,1,440.7235,274.8017
1,7,14,3,0,2,B,F,g,r,5,15,103001,1,1,199.3827,139.6061
1,7,14,3,0,2,B,F,g,r,5,15,103001,1,1,187.0922,439.0475
1,7,14,3,0,2,B,F,g,r,5,15,104001,1,1,219.4944,209.9972
1,7,14,3,0,2,B,F,g,r,5,15,104001,1,1,203.852,138.4888
1,7,14,3,0,2,B,F,g,r,5,15,104001,1,3,307.7626,388.7682
1,7,14,3,0,2,B,F,g,r,5,15,104001,1,1,404.9693,515.0251
1,7,14,3,0,2,B,F,g,r,5,15,105001,1,1,294.3547,421.1704
1,7,14,3,0,2,B,F,g,r,5,15,105001,1,3,320.0531,413.3492
1,7,14,3,0,2,B,F,g,r,5,15,105001,1,1,425.081,191.0028
1,7,14,3,0,2,B,F,g,r,5,15,106001,1,3,321.1704,398.824
1,7,14,3,0,2,B,F,g,r,5,15,106001,1,1,351.338,478.1536
1,7,14,3,0,2,B,F,g,r,5,15,106001,1,1,147.986,365.3045
1,7,14,3,0,2,B,F,g,r,5,15,107001,1,1,241.8408,409.9972
1,7,14,3,0,2,B,F,g,r,5,15,107001,1,1,246.3101,340.7235
1,7,14,3,0,2,B,F,g,r,5,15,107001,1,3,285.4162,361.9525
