dummy,month,day,period,view,station,fgeno,mgeno,fcol,mcol,nf,nm,frame,something,sex,x,y
1,6,26,1,1,1,B,E,b,y,10,10,1,1,1,566,427
1,6,26,1,1,1,B,E,b,y,10,10,1,1,3,336,286
1,6,26,1,1,1,B,E,b,y,10,10,1,1,3,286,280
1,6,26,1,1,1,B,E,b,y,10,10,1,1,3,299,230
1,6,26,1,1,1,B,E,b,y,10,10,1,1,1,307,174
1,6,26,1,1,1,B,E,b,y,10,10,1001,1,3,682,315
1,6,26,1,1,1,B,E,b,y,10,10,1001,1,1,689,281
1,6,26,1,1,1,B,E,b,y,10,10,1001,1,1,363,247
1,6,26,1,1,1,B,E,b,y,10,10,1001,1,3,264,314
1,6,26,1,1,1,B,E,b,y,10,10,1001,1,3,271,401
1,6,26,1,1,1,B,E,b,y,10,10,1001,1,3,171,477
1,6,26,1,1,1,B,E,b,y,10,10,2001,1,3,627,149
1,6,26,1,1,1,B,E,b,y,10,10,2001,1,3,382,159
1,6,26,1,1,1,B,E,b,y,10,10,2001,1,3,322,255
1,6,26,1,1,1,B,E,b,y,10,10,2001,1,3,255,540
1,6,26,1,1,1,B,E,b,y,10,10,2001,1,1,334,508
1,6,26,1,1,1,B,E,b,y,10,10,3001,1,3,631,407
1,6,26,1,1,1,B,E,b,y,10,10,3001,1,3,353,425
1,6,26,1,1,1,B,E,b,y,10,10,3001,1,1,397,443
1,6,26,1,1,1,B,E,b,y,10,10,3001,1,3,320,568
1,6,26,1,1,1,B,E,b,y,10,10,4001,1,3,661,175
1,6,26,1,1,1,B,E,b,y,10,10,4001,1,3,397,548
1,6,26,1,1,1,B,E,b,y,10,10,4001,1,3,149,234
1,6,26,1,1,1,B,E,b,y,10,10,4001,1,3,310,99
1,6,26,1,1,1,B,E,b,y,10,10,4001,1,3,323,58
1,6,26,1,1,1,B,E,b,y,10,10,4001,1,3,447,26
1,6,26,1,1,1,B,E,b,y,10,10,4001,1,1,484,142
1,6,26,1,1,1,B,E,b,y,10,10,5001,1,3,677,204
1,6,26,1,1,1,B,E,b,y,10,10,5001,1,3,338,13
1,6,26,1,1,1,B,E,b,y,10,10,5001,1,3,375,261
1,6,26,1,1,1,B,E,b,y,10,10,5001,1,3,213,472
1,6,26,1,1,1,B,E,b,y,10,10,5001,1,3,462,561
1,6,26,1,1,1,B,E,b,y,10,10,5001,1,1,607,373
1,6,26,1,1,1,B,E,b,y,10,10,5001,1,3,629,287
1,6,26,1,1,1,B,E,b,y,10,10,5001,1,1,662,265
1,6,26,1,1,1,B,E,b,y,10,10,6001,1,3,248,42
1,6,26,1,1,1,B,E,b,y,10,10,6001,1,3,230,180
1,6,26,1,1,1,B,E,b,y,10,10,6001,1,3,334,535
1,6,26,1,1,1,B,E,b,y,10,10,6001,1,1,237,514
1,6,26,1,1,1,B,E,b,y,10,10,6001,1,1,572,502
1,6,26,1,1,1,B,E,b,y,10,10,6001,1,3,586,391
1,6,26,1,1,1,B,E,b,y,10,10,7001,1,1,350,109
1,6,26,1,1,1,B,E,b,y,10,10,7001,1,1,347,208
1,6,26,1,1,1,B,E,b,y,10,10,7001,1,3,355,159
1,6,26,1,1,1,B,E,b,y,10,10,7001,1,3,154,221
1,6,26,1,1,1,B,E,b,y,10,10,7001,1,3,476,563
1,6,26,1,1,1,B,E,b,y,10,10,8001,1,3,632,121
1,6,26,1,1,1,B,E,b,y,10,10,8001,1,3,261,319
1,6,26,1,1,1,B,E,b,y,10,10,8001,1,1,319,417
1,6,26,1,1,1,B,E,b,y,10,10,9001,1,3,272,299
1,6,26,1,1,1,B,E,b,y,10,10,9001,1,3,150,392
1,6,26,1,1,1,B,E,b,y,10,10,9001,1,1,189,355
1,6,26,1,1,1,B,E,b,y,10,10,10001,1,3,289,266
1,6,26,1,1,1,B,E,b,y,10,10,10001,1,1,321,299
1,6,26,1,1,1,B,E,b,y,10,10,10001,1,1,266,459
1,6,26,1,1,1,B,E,b,y,10,10,10001,1,3,341,561
1,6,26,1,1,1,B,E,b,y,10,10,11001,1,1,516,93
1,6,26,1,1,1,B,E,b,y,10,10,11001,1,3,585,91
1,6,26,1,1,1,B,E,b,y,10,10,11001,1,3,508,547
1,6,26,1,1,1,B,E,b,y,10,10,12001,1,3,300,268
1,6,26,1,1,1,B,E,b,y,10,10,12001,1,3,333,444
1,6,26,1,1,1,B,E,b,y,10,10,12001,1,1,334,387
1,6,26,1,1,1,B,E,b,y,10,10,12001,1,1,426,408
1,6,26,1,1,1,B,E,b,y,10,10,12001,1,3,683,302
1,6,26,1,1,1,B,E,b,y,10,10,13001,1,3,275,191
1,6,26,1,1,1,B,E,b,y,10,10,13001,1,3,131,222
1,6,26,1,1,1,B,E,b,y,10,10,13001,1,1,579,393
1,6,26,1,1,1,B,E,b,y,10,10,14001,1,1,445,565
1,6,26,1,1,1,B,E,b,y,10,10,14001,1,3,405,600
1,6,26,1,1,1,B,E,b,y,10,10,15001,1,1,190,410
1,6,26,1,1,1,B,E,b,y,10,10,15001,1,1,131,353
1,6,26,1,1,1,B,E,b,y,10,10,15001,1,3,391,592
1,6,26,1,1,1,B,E,b,y,10,10,16001,1,3,515,261
1,6,26,1,1,1,B,E,b,y,10,10,16001,1,1,455,281
1,6,26,1,1,1,B,E,b,y,10,10,16001,1,3,295,241
1,6,26,1,1,1,B,E,b,y,10,10,17001,1,3,483,39
1,6,26,1,1,1,B,E,b,y,10,10,17001,1,3,258,58
1,6,26,1,1,1,B,E,b,y,10,10,17001,1,1,297,106
1,6,26,1,1,1,B,E,b,y,10,10,18001,1,3,301,166
1,6,26,1,1,1,B,E,b,y,10,10,18001,1,3,481,471
1,6,26,1,1,1,B,E,b,y,10,10,18001,1,1,511,394
1,6,26,1,1,1,B,E,b,y,10,10,19001,1,3,274,176
1,6,26,1,1,1,B,E,b,y,10,10,19001,1,1,304,223
1,6,26,1,1,1,B,E,b,y,10,10,19001,1,3,662,286
1,6,26,1,1,1,B,E,b,y,10,10,20001,1,1,321,300
1,6,26,1,1,1,B,E,b,y,10,10,20001,1,3,568,558
1,6,26,1,1,1,B,E,b,y,10,10,20001,1,3,562,51
1,6,26,1,1,1,B,E,b,y,10,10,21001,1,3,404,93
1,6,26,1,1,1,B,E,b,y,10,10,21001,1,1,470,39
1,6,26,1,1,1,B,E,b,y,10,10,21001,1,1,198,199
1,6,26,1,1,1,B,E,b,y,10,10,22001,1,3,647,231
1,6,26,1,1,1,B,E,b,y,10,10,22001,1,1,607,248
1,6,26,1,1,1,B,E,b,y,10,10,23001,1,1,526,406
1,6,26,1,1,1,B,E,b,y,10,10,23001,1,3,371,504
1,6,26,1,1,1,B,E,b,y,10,10,24001,1,3,535,60
1,6,26,1,1,1,B,E,b,y,10,10,24001,1,1,239,434
1,6,26,1,1,1,B,E,b,y,10,10,25001,1,1,498,185
1,6,26,1,1,1,B,E,b,y,10,10,25001,1,3,654,270
1,6,26,1,1,1,B,E,b,y,10,10,26001,1,1,308,84
1,6,26,1,1,1,B,E,b,y,10,10,26001,1,3,672,288
1,6,26,1,1,1,B,E,b,y,10,10,27001,1,1,634,259
1,6,26,1,1,1,B,E,b,y,10,10,27001,1,3,681,326
1,6,26,1,1,1,B,E,b,y,10,10,28001,1,1,258,367
1,6,26,1,1,1,B,E,b,y,10,10,28001,1,1,311,386
1,6,26,1,1,1,B,E,b,y,10,10,28001,1,3,564,476
1,6,26,1,1,1,B,E,b,y,10,10,29001,1,1,563,444
1,6,26,1,1,1,B,E,b,y,10,10,29001,1,3,489,527
1,6,26,1,1,1,B,E,b,y,10,10,30001,1,1,570,88
1,6,26,1,1,1,B,E,b,y,10,10,30001,1,1,544,64
1,6,26,1,1,1,B,E,b,y,10,10,30001,1,3,496,514
1,6,26,1,1,1,B,E,b,y,10,10,30001,1,3,265,568
1,6,26,1,1,1,B,E,b,y,10,10,31001,1,3,171,420
1,6,26,1,1,1,B,E,b,y,10,10,31001,1,1,282,490
1,6,26,1,1,1,B,E,b,y,10,10,32001,1,3,288,271
1,6,26,1,1,1,B,E,b,y,10,10,32001,1,1,324,304
1,6,26,1,1,1,B,E,b,y,10,10,33001,1,1,344,92
1,6,26,1,1,1,B,E,b,y,10,10,33001,1,1,506,103
1,6,26,1,1,1,B,E,b,y,10,10,33001,1,3,569,58
1,6,26,1,1,1,B,E,b,y,10,10,34001,1,1,391,240
1,6,26,1,1,1,B,E,b,y,10,10,34001,1,3,629,414
1,6,26,1,1,1,B,E,b,y,10,10,35001,1,1,274,165
1,6,26,1,1,1,B,E,b,y,10,10,35001,1,3,449,431
1,6,26,1,1,1,B,E,b,y,10,10,36001,1,3,324,344
1,6,26,1,1,1,B,E,b,y,10,10,36001,1,1,204,375
1,6,26,1,1,1,B,E,b,y,10,10,37001,1,1,598,180
1,6,26,1,1,1,B,E,b,y,10,10,37001,1,1,608,303
1,6,26,1,1,1,B,E,b,y,10,10,37001,1,3,606,249
1,6,26,1,1,1,B,E,b,y,10,10,38001,1,3,689,325
1,6,26,1,1,1,B,E,b,y,10,10,38001,1,3,262,375
1,6,26,1,1,1,B,E,b,y,10,10,38001,1,1,235,449
1,6,26,1,1,1,B,E,b,y,10,10,39001,1,3,618,119
1,6,26,1,1,1,B,E,b,y,10,10,39001,1,3,174,454
1,6,26,1,1,1,B,E,b,y,10,10,39001,1,1,328,379
1,6,26,1,1,1,B,E,b,y,10,10,39001,1,1,621,401
1,6,26,1,1,1,B,E,b,y,10,10,39001,1,1,649,383
1,6,26,1,1,1,B,E,b,y,10,10,39001,1,3,645,442
1,6,26,1,1,1,B,E,b,y,10,10,40001,1,1,301,131
1,6,26,1,1,1,B,E,b,y,10,10,40001,1,3,232,264
1,6,26,1,1,1,B,E,b,y,10,10,40001,1,3,599,399
1,6,26,1,1,1,B,E,b,y,10,10,40001,1,3,475,492
1,6,26,1,1,1,B,E,b,y,10,10,40001,1,3,173,442
1,6,26,1,1,1,B,E,b,y,10,10,40001,1,1,198,401
1,6,26,1,1,1,B,E,b,y,10,10,41001,1,3,395,96
1,6,26,1,1,1,B,E,b,y,10,10,41001,1,1,219,56
1,6,26,1,1,1,B,E,b,y,10,10,41001,1,1,329,329
1,6,26,1,1,1,B,E,b,y,10,10,41001,1,3,264,290
1,6,26,1,1,1,B,E,b,y,10,10,41001,1,3,178,465
1,6,26,1,1,1,B,E,b,y,10,10,42001,1,3,680,238
1,6,26,1,1,1,B,E,b,y,10,10,42001,1,3,487,155
1,6,26,1,1,1,B,E,b,y,10,10,42001,1,1,345,380
1,6,26,1,1,1,B,E,b,y,10,10,43001,1,3,528,54
1,6,26,1,1,1,B,E,b,y,10,10,43001,1,3,249,44
1,6,26,1,1,1,B,E,b,y,10,10,43001,1,3,567,547
1,6,26,1,1,1,B,E,b,y,10,10,43001,1,1,455,371
1,6,26,1,1,1,B,E,b,y,10,10,44001,1,3,665,237
1,6,26,1,1,1,B,E,b,y,10,10,44001,1,3,282,286
1,6,26,1,1,1,B,E,b,y,10,10,44001,1,3,194,130
1,6,26,1,1,1,B,E,b,y,10,10,44001,1,1,251,120
1,6,26,1,1,1,B,E,b,y,10,10,45001,1,3,289,245
1,6,26,1,1,1,B,E,b,y,10,10,45001,1,3,213,465
1,6,26,1,1,1,B,E,b,y,10,10,45001,1,3,301,543
1,6,26,1,1,1,B,E,b,y,10,10,45001,1,1,344,214
1,6,26,1,1,1,B,E,b,y,10,10,46001,1,1,563,291
1,6,26,1,1,1,B,E,b,y,10,10,46001,1,3,183,139
1,6,26,1,1,1,B,E,b,y,10,10,46001,1,3,131,330
1,6,26,1,1,1,B,E,b,y,10,10,46001,1,3,214,513
1,6,26,1,1,1,B,E,b,y,10,10,47001,1,3,216,96
1,6,26,1,1,1,B,E,b,y,10,10,47001,1,3,167,443
1,6,26,1,1,1,B,E,b,y,10,10,47001,1,1,189,492
1,6,26,1,1,1,B,E,b,y,10,10,47001,1,1,384,281
1,6,26,1,1,1,B,E,b,y,10,10,47001,1,3,626,441
1,6,26,1,1,1,B,E,b,y,10,10,48001,1,3,454,21
1,6,26,1,1,1,B,E,b,y,10,10,48001,1,3,633,478
1,6,26,1,1,1,B,E,b,y,10,10,48001,1,3,155,403
1,6,26,1,1,1,B,E,b,y,10,10,48001,1,1,157,440
1,6,26,1,1,1,B,E,b,y,10,10,48001,1,1,138,281
1,6,26,1,1,1,B,E,b,y,10,10,49001,1,3,654,217
1,6,26,1,1,1,B,E,b,y,10,10,49001,1,3,630,246
1,6,26,1,1,1,B,E,b,y,10,10,49001,1,1,637,437
1,6,26,1,1,1,B,E,b,y,10,10,49001,1,1,132,334
1,6,26,1,1,1,B,E,b,y,10,10,49001,1,3,128,291
1,6,26,1,1,1,B,E,b,y,10,10,50001,1,1,504,390
1,6,26,1,1,1,B,E,b,y,10,10,51001,1,1,608,223
1,6,26,1,1,1,B,E,b,y,10,10,51001,1,3,620,279
1,6,26,1,1,1,B,E,b,y,10,10,52001,1,3,569,307
1,6,26,1,1,1,B,E,b,y,10,10,52001,1,1,679,363
1,6,26,1,1,1,B,E,b,y,10,10,53001,1,1,544,225
1,6,26,1,1,1,B,E,b,y,10,10,53001,1,3,137,339
1,6,26,1,1,1,B,E,b,y,10,10,54001,1,3,391,21
1,6,26,1,1,1,B,E,b,y,10,10,54001,1,1,301,165
1,6,26,1,1,1,B,E,b,y,10,10,55001,1,3,650,281
1,6,26,1,1,1,B,E,b,y,10,10,55001,1,1,579,268
1,6,26,1,1,1,B,E,b,y,10,10,56001,1,1,601,397
1,6,26,1,1,1,B,E,b,y,10,10,56001,1,1,613,447
1,6,26,1,1,1,B,E,b,y,10,10,56001,1,3,586,496
1,6,26,1,1,1,B,E,b,y,10,10,57001,1,1,389,575
1,6,26,1,1,1,B,E,b,y,10,10,57001,1,3,371,598
1,6,26,1,1,1,B,E,b,y,10,10,57001,1,1,189,477
1,6,26,1,1,1,B,E,b,y,10,10,58001,1,1,467,441
1,6,26,1,1,1,B,E,b,y,10,10,58001,1,3,505,550
1,6,26,1,1,1,B,E,b,y,10,10,59001,1,1,275,149
1,6,26,1,1,1,B,E,b,y,10,10,59001,1,1,548,501
1,6,26,1,1,1,B,E,b,y,10,10,59001,1,3,616,475
1,6,26,1,1,1,B,E,b,y,10,10,60001,1,1,649,187
1,6,26,1,1,1,B,E,b,y,10,10,60001,1,1,624,307
1,6,26,1,1,1,B,E,b,y,10,10,60001,1,3,649,259
1,6,26,1,1,1,B,E,b,y,10,10,61001,1,3,413,5
1,6,26,1,1,1,B,E,b,y,10,10,61001,1,1,241,241
1,6,26,1,1,1,B,E,b,y,10,10,61001,1,1,335,377
1,6,26,1,1,1,B,E,b,y,10,10,62001,1,1,245,122
1,6,26,1,1,1,B,E,b,y,10,10,62001,1,1,166,392
1,6,26,1,1,1,B,E,b,y,10,10,62001,1,3,139,419
1,6,26,1,1,1,B,E,b,y,10,10,62001,1,3,112,208
1,6,26,1,1,1,B,E,b,y,10,10,63001,1,1,580,164
1,6,26,1,1,1,B,E,b,y,10,10,63001,1,1,257,525
1,6,26,1,1,1,B,E,b,y,10,10,63001,1,1,282,558
1,6,26,1,1,1,B,E,b,y,10,10,64001,1,1,386,138
1,6,26,1,1,1,B,E,b,y,10,10,64001,1,1,343,188
1,6,26,1,1,1,B,E,b,y,10,10,64001,1,1,524,499
1,6,26,1,1,1,B,E,b,y,10,10,65001,1,1,427,219
1,6,26,1,1,1,B,E,b,y,10,10,65001,1,1,236,141
1,6,26,1,1,1,B,E,b,y,10,10,66001,1,1,441,219
1,6,26,1,1,1,B,E,b,y,10,10,66001,1,1,243,140
1,6,26,1,1,1,B,E,b,y,10,10,67001,1,3,659,349
1,6,26,1,1,1,B,E,b,y,10,10,67001,1,1,468,517
1,6,26,1,1,1,B,E,b,y,10,10,68001,1,1,462,277
1,6,26,1,1,1,B,E,b,y,10,10,68001,1,1,441,12
1,6,26,1,1,1,B,E,b,y,10,10,68001,1,3,636,145
1,6,26,1,1,1,B,E,b,y,10,10,69001,1,1,523,326
1,6,26,1,1,1,B,E,b,y,10,10,69001,1,1,556,506
1,6,26,1,1,1,B,E,b,y,10,10,70001,1,1,336,406
1,6,26,1,1,1,B,E,b,y,10,10,70001,1,1,170,461
1,6,26,1,1,1,B,E,b,y,10,10,71001,1,1,356,353
1,6,26,1,1,1,B,E,b,y,10,10,71001,1,1,523,50
1,6,26,1,1,1,B,E,b,y,10,10,72001,1,1,468,268
1,6,26,1,1,1,B,E,b,y,10,10,72001,1,3,249,455
1,6,26,1,1,1,B,E,b,y,10,10,73001,1,1,481,305
1,6,26,1,1,1,B,E,b,y,10,10,73001,1,1,212,500
1,6,26,1,1,1,B,E,b,y,10,10,73001,1,3,286,117
1,6,26,1,1,1,B,E,b,y,10,10,74001,1,3,484,126
1,6,26,1,1,1,B,E,b,y,10,10,74001,1,1,415,458
1,6,26,1,1,1,B,E,b,y,10,10,74001,1,1,333,491
1,6,26,1,1,1,B,E,b,y,10,10,75001,1,1,250,442
1,6,26,1,1,1,B,E,b,y,10,10,76001,1,1,313,403
1,6,26,1,1,1,B,E,b,y,10,10,77001,1,1,313,401
1,6,26,1,1,1,B,E,b,y,10,10,78001,1,1,306,412
1,6,26,1,1,1,B,E,b,y,10,10,79001,1,1,469,401
1,6,26,1,1,1,B,E,b,y,10,10,80001,1,1,322,148
1,6,26,1,1,1,B,E,b,y,10,10,81001,1,1,441,553
1,6,26,1,1,1,B,E,b,y,10,10,82001,1,3,278,292
1,6,26,1,1,1,B,E,b,y,10,10,82001,1,1,208,310
1,6,26,1,1,1,B,E,b,y,10,10,83001,1,1,441,465
1,6,26,1,1,1,B,E,b,y,10,10,84001,1,1,376,258
1,6,26,1,1,1,B,E,b,y,10,10,85001,1,1,299,236
1,6,26,1,1,1,B,E,b,y,10,10,86001,1,1,376,445
1,6,26,1,1,1,B,E,b,y,10,10,87001,1,1,456,356
1,6,26,1,1,1,B,E,b,y,10,10,88001,1,1,375,69
1,6,26,1,1,1,B,E,b,y,10,10,89001,1,1,539,259
1,6,26,1,1,1,B,E,b,y,10,10,90001,1,1,658,230
1,6,26,1,1,1,B,E,b,y,10,10,91001,1,1,521,211
1,6,26,1,1,1,B,E,b,y,10,10,92001,1,1,327,142
1,6,26,1,1,1,B,E,b,y,10,10,93001,1,1,284,218
1,6,26,1,1,1,B,E,b,y,10,10,94001,1,1,657,245
1,6,26,1,1,1,B,E,b,y,10,10,95001,1,1,258,414
1,6,26,1,1,1,B,E,b,y,10,10,96001,1,1,332,426
1,6,26,1,1,1,B,E,b,y,10,10,97001,1,1,310,425
1,6,26,1,1,1,B,E,b,y,10,10,98001,1,1,508,203
1,6,26,1,1,1,B,E,b,y,10,10,98001,1,1,428,200
1,6,26,1,1,1,B,E,b,y,10,10,99001,1,1,548,52
1,6,26,1,1,1,B,E,b,y,10,10,100001,1,1,595,354
1,6,26,1,1,1,B,E,b,y,10,10,100001,1,3,627,323
1,6,26,1,1,1,B,E,b,y,10,10,101001,1,3,444,575
1,6,26,1,1,1,B,E,b,y,10,10,101001,1,1,307,15
1,6,26,1,1,1,B,E,b,y,10,10,102001,1,3,395,188
1,6,26,1,1,1,B,E,b,y,10,10,102001,1,3,452,513
1,6,26,1,1,1,B,E,b,y,10,10,102001,1,1,403,396
1,6,26,1,1,1,B,E,b,y,10,10,103001,1,3,476,319
1,6,26,1,1,1,B,E,b,y,10,10,103001,1,1,414,331
1,6,26,1,1,1,B,E,b,y,10,10,103001,1,1,514,359
1,6,26,1,1,1,B,E,b,y,10,10,103001,1,3,660,316
1,6,26,1,1,1,B,E,b,y,10,10,104001,1,3,602,398
1,6,26,1,1,1,B,E,b,y,10,10,104001,1,1,513,440
1,6,26,1,1,1,B,E,b,y,10,10,104001,1,3,445,553
1,6,26,1,1,1,B,E,b,y,10,10,105001,1,3,482,86
1,6,26,1,1,1,B,E,b,y,10,10,105001,1,3,422,182
1,6,26,1,1,1,B,E,b,y,10,10,105001,1,3,159,264
1,6,26,1,1,1,B,E,b,y,10,10,105001,1,1,347,347
1,6,26,1,1,1,B,E,b,y,10,10,105001,1,1,444,26
1,6,26,1,1,1,B,E,b,y,10,10,106001,1,3,603,117
1,6,26,1,1,1,B,E,b,y,10,10,106001,1,3,160,408
1,6,26,1,1,1,B,E,b,y,10,10,106001,1,1,428,260
1,6,26,1,1,1,B,E,b,y,10,10,107001,1,3,309,174
1,6,26,1,1,1,B,E,b,y,10,10,107001,1,3,166,460
1,6,26,1,1,1,B,E,b,y,10,10,107001,1,1,178,405
1,6,26,1,1,1,B,E,b,y,10,10,107001,1,1,390,454
1,6,26,1,1,1,B,E,b,y,10,10,107001,1,1,542,554
