dummy,month,day,period,view,station,fgeno,mgeno,fcol,mcol,nf,nm,frame,something,sex,x,y
1,7,14,2,1,2,B,F,g,r,5,15,1,1,1,325.6397,139.6061
1,7,14,2,1,2,B,F,g,r,5,15,1001,1,1,588.2095,350.7793
1,7,14,2,1,2,B,F,g,r,5,15,2001,1,1,289.8855,520.6117
1,7,14,2,1,2,B,F,g,r,5,15,3001,1,1,649.662,415.5838
1,7,14,2,1,2,B,F,g,r,5,15,4001,1,1,438.4888,466.9804
1,7,14,2,1,2,B,F,g,r,5,15,4001,1,1,393.7961,488.2095
1,7,14,2,1,2,B,F,g,r,5,15,5001,1,1,486.5335,404.4106
1,7,14,2,1,2,B,F,g,r,5,15,5001,1,1,279.8296,183.1816
1,7,14,2,1,2,B,F,g,r,5,15,6001,1,1,531.2263,68.0978
1,7,14,2,1,2,B,F,g,r,5,15,7001,1,1,596.0307,449.1034
1,7,14,2,1,2,B,F,g,r,5,15,8001,1,1,307.7626,481.5056
1,7,14,2,1,2,B,F,g,r,5,15,9001,1,1,581.5056,377.595
1,7,14,2,1,2,B,F,g,r,5,15,10001,1,1,664.1872,354.1313
1,7,14,2,1,2,B,F,g,r,5,15,11001,1,1,276.4777,92.6788
1,7,14,2,1,2,B,F,g,r,5,15,12001,1,1,279.8296,89.3268
1,7,14,2,1,2,B,F,g,r,5,15,13001,1,1,267.5391,98.2654
1,7,14,2,1,2,B,F,g,r,5,15,14001,1,1,435.1369,156.3659
1,7,14,2,1,2,B,F,g,r,5,15,15001,1,1,295.4721,121.7291
1,7,14,2,1,2,B,F,g,r,5,15,17001,1,1,564.7458,197.7067
1,7,14,2,1,2,B,F,g,r,5,15,18001,1,1,540.1648,538.4888
1,7,14,2,1,2,B,F,g,r,5,15,19001,1,1,522.2877,212.2318
1,7,14,2,1,2,B,F,g,r,5,15,20001,1,1,601.6173,174.243
1,7,14,2,1,2,B,F,g,r,5,15,22001,1,1,459.7179,478.1536
1,7,14,2,1,2,B,F,g,r,5,15,23001,1,1,428.433,56.9246
1,7,14,2,1,2,B,F,g,r,5,15,24001,1,1,560.2765,106.0866
1,7,14,2,1,2,B,F,g,r,5,15,25001,1,1,423.9637,112.7905
1,7,14,2,1,2,B,F,g,r,5,15,26001,1,1,312.2318,549.662
1,7,14,2,1,2,B,F,g,r,5,15,27001,1,1,394.9134,344.0754
1,7,14,2,1,2,B,F,g,r,5,15,27001,1,3,373.6844,377.595
1,7,14,2,1,2,B,F,g,r,5,15,28001,1,3,546.8687,288.2095
1,7,14,2,1,2,B,F,g,r,5,15,28001,1,1,682.0642,332.9022
1,7,14,2,1,2,B,F,g,r,5,15,29001,1,1,408.3212,396.5894
1,7,14,2,1,2,B,F,g,r,5,15,30001,1,1,352.4553,106.0866
1,7,14,2,1,2,B,F,g,r,5,15,30001,1,1,502.176,60.2765
1,7,14,2,1,2,B,F,g,r,5,15,30001,1,1,607.2039,471.4497
1,7,14,2,1,2,B,F,g,r,5,15,31001,1,1,340.1648,119.4944
1,7,14,2,1,2,B,F,g,r,5,15,31001,1,1,464.1872,94.9134
1,7,14,2,1,2,B,F,g,r,5,15,31001,1,1,484.2989,71.4497
1,7,14,2,1,2,B,F,g,r,5,15,31001,1,3,447.4274,59.1592
1,7,14,2,1,2,B,F,g,r,5,15,32001,1,1,228.433,213.3492
1,7,14,2,1,2,B,F,g,r,5,15,32001,1,1,230.6676,139.6061
1,7,14,2,1,2,B,F,g,r,5,15,32001,1,3,161.3939,227.8743
1,7,14,2,1,2,B,F,g,r,5,15,32001,1,1,444.0754,32.3436
1,7,14,2,1,2,B,F,g,r,5,15,33001,1,1,201.6173,253.5726
1,7,14,2,1,2,B,F,g,r,5,15,33001,1,1,244.0754,249.1034
1,7,14,2,1,2,B,F,g,r,5,15,33001,1,3,279.8296,227.8743
1,7,14,2,1,2,B,F,g,r,5,15,34001,1,1,377.0363,203.2933
1,7,14,2,1,2,B,F,g,r,5,15,34001,1,1,410.5559,159.7179
1,7,14,2,1,2,B,F,g,r,5,15,35001,1,1,421.7291,570.8911
1,7,14,2,1,2,B,F,g,r,5,15,36001,1,1,505.5279,338.4888
1,7,14,2,1,2,B,F,g,r,5,15,36001,1,1,466.4218,312.7905
1,7,14,2,1,2,B,F,g,r,5,15,37001,1,1,266.4218,256.9246
1,7,14,2,1,2,B,F,g,r,5,15,37001,1,1,402.7346,131.7849
1,7,14,2,1,2,B,F,g,r,5,15,38001,1,1,249.662,137.3715
1,7,14,2,1,2,B,F,g,r,5,15,40001,1,1,590.4441,265.8631
1,7,14,2,1,2,B,F,g,r,5,15,40001,1,1,301.0587,75.919
1,7,14,2,1,2,B,F,g,r,5,15,41001,1,1,324.5223,542.9581
1,7,14,2,1,2,B,F,g,r,5,15,43001,1,1,506.6453,88.2095
1,7,14,2,1,2,B,F,g,r,5,15,43001,1,1,649.662,331.7849
1,7,14,2,1,2,B,F,g,r,5,15,44001,1,1,248.5447,499.3827
1,7,14,2,1,2,B,F,g,r,5,15,45001,1,1,353.5726,478.1536
1,7,14,2,1,2,B,F,g,r,5,15,46001,1,1,391.5615,547.4274
1,7,14,2,1,2,B,F,g,r,5,15,47001,1,1,346.8687,117.2598
1,7,14,2,1,2,B,F,g,r,5,15,48001,1,1,601.6173,482.6229
1,7,14,2,1,2,B,F,g,r,5,15,49001,1,1,202.7346,268.0978
1,7,14,2,1,2,B,F,g,r,5,15,49001,1,3,215.0251,217.8184
1,7,14,2,1,2,B,F,g,r,5,15,50001,1,3,239.6061,265.8631
1,7,14,2,1,2,B,F,g,r,5,15,50001,1,1,251.8966,233.4609
1,7,14,2,1,2,B,F,g,r,5,15,50001,1,1,209.4385,220.0531
1,7,14,2,1,2,B,F,g,r,5,15,50001,1,1,187.0922,251.338
1,7,14,2,1,2,B,F,g,r,5,15,51001,1,3,601.6173,500.5
1,7,14,2,1,2,B,F,g,r,5,15,51001,1,1,640.7235,454.6899
1,7,14,2,1,2,B,F,g,r,5,15,53001,1,1,337.9302,65.8631
1,7,14,2,1,2,B,F,g,r,5,15,54001,1,1,446.3101,46.8687
1,7,14,2,1,2,B,F,g,r,5,15,55001,1,1,479.8296,240.1648
1,7,14,2,1,2,B,F,g,r,5,15,55001,1,3,434.0196,232.3436
1,7,14,2,1,2,B,F,g,r,5,15,56001,1,3,279.8296,274.8017
1,7,14,2,1,2,B,F,g,r,5,15,56001,1,1,307.7626,199.9413
1,7,14,2,1,2,B,F,g,r,5,15,57001,1,3,601.6173,383.1816
1,7,14,2,1,2,B,F,g,r,5,15,57001,1,1,615.0251,326.1983
1,7,14,2,1,2,B,F,g,r,5,15,59001,1,1,508.8799,425.6397
1,7,14,2,1,2,B,F,g,r,5,15,59001,1,1,551.338,139.6061
1,7,14,2,1,2,B,F,g,r,5,15,60001,1,1,572.567,241.2821
1,7,14,2,1,2,B,F,g,r,5,15,61001,1,1,345.7514,455.8073
1,7,14,2,1,2,B,F,g,r,5,15,62001,1,1,486.5335,74.8017
1,7,14,2,1,2,B,F,g,r,5,15,63001,1,1,608.3212,209.9972
1,7,14,2,1,2,B,F,g,r,5,15,64001,1,1,234.0196,506.0866
1,7,14,2,1,2,B,F,g,r,5,15,65001,1,1,632.9022,409.9972
1,7,14,2,1,2,B,F,g,r,5,15,66001,1,1,228.433,422.2877
1,7,14,2,1,2,B,F,g,r,5,15,67001,1,1,257.4832,174.243
1,7,14,2,1,2,B,F,g,r,5,15,68001,1,1,540.1648,490.4441
1,7,14,2,1,2,B,F,g,r,5,15,68001,1,1,474.243,60.2765
1,7,14,2,1,2,B,F,g,r,5,15,69001,1,1,248.5447,230.1089
1,7,14,2,1,2,B,F,g,r,5,15,69001,1,1,355.8073,102.7346
1,7,14,2,1,2,B,F,g,r,5,15,69001,1,1,387.0922,79.2709
1,7,14,2,1,2,B,F,g,r,5,15,69001,1,3,366.9804,62.5112
1,7,14,2,1,2,B,F,g,r,5,15,70001,1,1,504.4106,97.148
1,7,14,2,1,2,B,F,g,r,5,15,70001,1,3,530.1089,90.4441
1,7,14,2,1,2,B,F,g,r,5,15,70001,1,1,278.7123,510.5559
1,7,14,2,1,2,B,F,g,r,5,15,71001,1,1,463.0698,225.6397
1,7,14,2,1,2,B,F,g,r,5,15,71001,1,1,479.8296,179.8296
1,7,14,2,1,2,B,F,g,r,5,15,71001,1,3,497.7067,249.1034
1,7,14,2,1,2,B,F,g,r,5,15,72001,1,1,279.8296,535.1369
1,7,14,2,1,2,B,F,g,r,5,15,72001,1,1,326.757,508.3212
1,7,14,2,1,2,B,F,g,r,5,15,72001,1,3,296.5894,497.148
1,7,14,2,1,2,B,F,g,r,5,15,73001,1,1,170.3324,344.0754
1,7,14,2,1,2,B,F,g,r,5,15,73001,1,1,184.8575,312.7905
1,7,14,2,1,2,B,F,g,r,5,15,73001,1,3,204.9693,312.7905
1,7,14,2,1,2,B,F,g,r,5,15,74001,1,1,217.2598,280.3883
1,7,14,2,1,2,B,F,g,r,5,15,74001,1,1,253.014,284.8575
1,7,14,2,1,2,B,F,g,r,5,15,74001,1,3,254.1313,244.6341
1,7,14,2,1,2,B,F,g,r,5,15,80001,1,1,365.8631,346.3101
1,7,14,2,1,2,B,F,g,r,5,15,80001,1,1,494.3547,339.6061
1,7,14,2,1,2,B,F,g,r,5,15,81001,1,1,587.0922,159.7179
1,7,14,2,1,2,B,F,g,r,5,15,81001,1,3,550.2207,75.919
1,7,14,2,1,2,B,F,g,r,5,15,82001,1,3,372.567,101.6173
1,7,14,2,1,2,B,F,g,r,5,15,83001,1,3,323.405,136.2542
1,7,14,2,1,2,B,F,g,r,5,15,83001,1,1,345.7514,120.6117
1,7,14,2,1,2,B,F,g,r,5,15,84001,1,3,274.243,240.1648
1,7,14,2,1,2,B,F,g,r,5,15,85001,1,3,283.1816,234.5782
1,7,14,2,1,2,B,F,g,r,5,15,85001,1,1,655.2486,353.014
1,7,14,2,1,2,B,F,g,r,5,15,86001,1,3,332.3436,432.3436
1,7,14,2,1,2,B,F,g,r,5,15,86001,1,1,304.4106,434.5782
1,7,14,2,1,2,B,F,g,r,5,15,86001,1,1,296.5894,452.4553
1,7,14,2,1,2,B,F,g,r,5,15,86001,1,1,314.4665,493.7961
1,7,14,2,1,2,B,F,g,r,5,15,87001,1,3,466.4218,139.6061
1,7,14,2,1,2,B,F,g,r,5,15,87001,1,1,442.9581,119.4944
1,7,14,2,1,2,B,F,g,r,5,15,87001,1,1,464.1872,99.3827
1,7,14,2,1,2,B,F,g,r,5,15,88001,1,1,665.3045,283.7402
1,7,14,2,1,2,B,F,g,r,5,15,88001,1,3,684.2989,316.1425
1,7,14,2,1,2,B,F,g,r,5,15,89001,1,1,276.4777,232.3436
1,7,14,2,1,2,B,F,g,r,5,15,89001,1,3,332.3436,199.9413
1,7,14,2,1,2,B,F,g,r,5,15,89001,1,1,497.7067,296.0307
1,7,14,2,1,2,B,F,g,r,5,15,89001,1,1,532.3436,307.2039
1,7,14,2,1,2,B,F,g,r,5,15,90001,1,1,384.8575,360.8352
1,7,14,2,1,2,B,F,g,r,5,15,90001,1,1,547.986,528.433
1,7,14,2,1,2,B,F,g,r,5,15,91001,1,1,569.2151,184.2989
1,7,14,2,1,2,B,F,g,r,5,15,91001,1,1,626.1983,161.9525
1,7,14,2,1,2,B,F,g,r,5,15,92001,1,1,573.6844,205.5279
1,7,14,2,1,2,B,F,g,r,5,15,93001,1,1,275.3603,404.4106
1,7,14,2,1,2,B,F,g,r,5,15,93001,1,1,621.7291,312.7905
1,7,14,2,1,2,B,F,g,r,5,15,94001,1,1,487.6508,380.9469
1,7,14,2,1,2,B,F,g,r,5,15,94001,1,1,453.014,425.6397
1,7,14,2,1,2,B,F,g,r,5,15,95001,1,1,640.7235,298.2654
1,7,14,2,1,2,B,F,g,r,5,15,96001,1,1,230.6676,106.0866
1,7,14,2,1,2,B,F,g,r,5,15,96001,1,1,285.4162,84.8575
1,7,14,2,1,2,B,F,g,r,5,15,97001,1,1,493.2374,193.2374
1,7,14,2,1,2,B,F,g,r,5,15,97001,1,1,521.1704,291.5615
1,7,14,2,1,2,B,F,g,r,5,15,97001,1,1,555.8073,363.0698
1,7,14,2,1,2,B,F,g,r,5,15,98001,1,1,276.4777,430.1089
1,7,14,2,1,2,B,F,g,r,5,15,99001,1,1,647.4274,280.3883
1,7,14,2,1,2,B,F,g,r,5,15,103001,1,1,489.8855,554.1313
1,7,14,2,1,2,B,F,g,r,5,15,104001,1,1,563.6285,147.4274
1,7,14,2,1,2,B,F,g,r,5,15,104001,1,1,465.3045,73.6844
1,7,14,2,1,2,B,F,g,r,5,15,106001,1,1,429.5503,118.3771
1,7,14,2,1,2,B,F,g,r,5,15,107001,1,1,425.081,378.7123
1,7,14,2,1,2,B,F,g,r,5,15,107001,1,1,168.0978,195.4721
