dummy,month,day,period,view,station,fgeno,mgeno,fcol,mcol,nf,nm,frame,something,sex,x,y
1,7,14,2,3,2,B,F,g,r,5,15,1,1,3,244.0754,298.2654
1,7,14,2,3,2,B,F,g,r,5,15,1,1,1,209.4385,280.3883
1,7,14,2,3,2,B,F,g,r,5,15,1,1,1,198.2654,302.7346
1,7,14,2,3,2,B,F,g,r,5,15,1,1,1,201.6173,313.9078
1,7,14,2,3,2,B,F,g,r,5,15,1001,1,1,498.824,329.5503
1,7,14,2,3,2,B,F,g,r,5,15,1001,1,1,508.8799,135.1369
1,7,14,2,3,2,B,F,g,r,5,15,1001,1,1,505.5279,106.0866
1,7,14,2,3,2,B,F,g,r,5,15,1001,1,3,553.5726,147.4274
1,7,14,2,3,2,B,F,g,r,5,15,2001,1,1,489.8855,394.3547
1,7,14,2,3,2,B,F,g,r,5,15,2001,1,1,629.5503,331.7849
1,7,14,2,3,2,B,F,g,r,5,15,3001,1,1,564.7458,436.8128
1,7,14,2,3,2,B,F,g,r,5,15,3001,1,1,547.986,301.6173
1,7,14,2,3,2,B,F,g,r,5,15,3001,1,3,550.2207,260.2765
1,7,14,2,3,2,B,F,g,r,5,15,3001,1,1,602.7346,254.6899
1,7,14,2,3,2,B,F,g,r,5,15,3001,1,2,647.4274,227.8743
1,7,14,2,3,2,B,F,g,r,5,15,4001,1,1,202.7346,285.9749
1,7,14,2,3,2,B,F,g,r,5,15,4001,1,1,532.3436,173.1257
1,7,14,2,3,2,B,F,g,r,5,15,4001,1,1,532.3436,138.4888
1,7,14,2,3,2,B,F,g,r,5,15,4001,1,3,509.9972,144.0754
1,7,14,2,3,2,B,F,g,r,5,15,5001,1,3,409.4385,406.6453
1,7,14,2,3,2,B,F,g,r,5,15,5001,1,1,466.4218,365.3045
1,7,14,2,3,2,B,F,g,r,5,15,6001,1,3,402.7346,316.1425
1,7,14,2,3,2,B,F,g,r,5,15,6001,1,1,463.0698,264.7458
1,7,14,2,3,2,B,F,g,r,5,15,6001,1,1,391.5615,281.5056
1,7,14,2,3,2,B,F,g,r,5,15,6001,1,1,351.338,160.8352
1,7,14,2,3,2,B,F,g,r,5,15,6001,1,1,562.5112,490.4441
1,7,14,2,3,2,B,F,g,r,5,15,7001,1,1,480.9469,157.4832
1,7,14,2,3,2,B,F,g,r,5,15,7001,1,1,517.8184,138.4888
1,7,14,2,3,2,B,F,g,r,5,15,7001,1,3,482.0642,126.1983
1,7,14,2,3,2,B,F,g,r,5,15,7001,1,1,486.5335,99.3827
1,7,14,2,3,2,B,F,g,r,5,15,7001,1,2,287.6508,108.3212
1,7,14,2,3,2,B,F,g,r,5,15,8001,1,1,182.6229,230.1089
1,7,14,2,3,2,B,F,g,r,5,15,8001,1,1,249.662,167.5391
1,7,14,2,3,2,B,F,g,r,5,15,8001,1,1,284.2989,198.824
1,7,14,2,3,2,B,F,g,r,5,15,8001,1,3,296.5894,184.2989
1,7,14,2,3,2,B,F,g,r,5,15,9001,1,3,323.405,363.0698
1,7,14,2,3,2,B,F,g,r,5,15,9001,1,1,287.6508,307.2039
1,7,14,2,3,2,B,F,g,r,5,15,9001,1,1,318.9358,308.3212
1,7,14,2,3,2,B,F,g,r,5,15,9001,1,1,588.2095,399.9413
1,7,14,2,3,2,B,F,g,r,5,15,9001,1,1,584.8575,435.6955
1,7,14,2,3,2,B,F,g,r,5,15,9001,1,1,637.3715,409.9972
1,7,14,2,3,2,B,F,g,r,5,15,10001,1,1,355.8073,344.0754
1,7,14,2,3,2,B,F,g,r,5,15,10001,1,1,385.9749,293.7961
1,7,14,2,3,2,B,F,g,r,5,15,10001,1,1,403.852,415.5838
1,7,14,2,3,2,B,F,g,r,5,15,10001,1,3,292.1201,531.7849
1,7,14,2,3,2,B,F,g,r,5,15,10001,1,1,251.8966,548.5447
1,7,14,2,3,2,B,F,g,r,5,15,10001,1,1,206.0866,508.3212
1,7,14,2,3,2,B,F,g,r,5,15,12001,1,2,344.6341,221.1704
1,7,14,2,3,2,B,F,g,r,5,15,12001,1,1,314.4665,176.4777
1,7,14,2,3,2,B,F,g,r,5,15,12001,1,1,542.3994,173.1257
1,7,14,2,3,2,B,F,g,r,5,15,12001,1,1,611.6732,350.7793
1,7,14,2,3,2,B,F,g,r,5,15,12001,1,1,247.4274,538.4888
1,7,14,2,3,2,B,F,g,r,5,15,13001,1,1,498.824,209.9972
1,7,14,2,3,2,B,F,g,r,5,15,13001,1,1,556.9246,205.5279
1,7,14,2,3,2,B,F,g,r,5,15,13001,1,3,525.6397,166.4218
1,7,14,2,3,2,B,F,g,r,5,15,13001,1,1,232.9022,159.7179
1,7,14,2,3,2,B,F,g,r,5,15,13001,1,1,597.148,428.9916
1,7,14,2,3,2,B,F,g,r,5,15,13001,1,1,371.4497,556.3659
1,7,14,2,3,2,B,F,g,r,5,15,14001,1,3,479.8296,449.1034
1,7,14,2,3,2,B,F,g,r,5,15,14001,1,1,509.9972,414.4665
1,7,14,2,3,2,B,F,g,r,5,15,14001,1,1,528.9916,402.176
1,7,14,2,3,2,B,F,g,r,5,15,14001,1,1,171.4497,245.7514
1,7,14,2,3,2,B,F,g,r,5,15,14001,1,1,194.9134,191.0028
1,7,14,2,3,2,B,F,g,r,5,15,15001,1,3,274.243,261.3939
1,7,14,2,3,2,B,F,g,r,5,15,15001,1,1,253.014,216.7011
1,7,14,2,3,2,B,F,g,r,5,15,15001,1,1,288.7682,221.1704
1,7,14,2,3,2,B,F,g,r,5,15,15001,1,1,311.1145,209.9972
1,7,14,2,3,2,B,F,g,r,5,15,15001,1,1,345.7514,187.6508
1,7,14,2,3,2,B,F,g,r,5,15,16001,1,1,345.7514,373.1257
1,7,14,2,3,2,B,F,g,r,5,15,16001,1,1,534.5782,100.5
1,7,14,2,3,2,B,F,g,r,5,15,16001,1,1,516.7011,85.9749
1,7,14,2,3,2,B,F,g,r,5,15,16001,1,3,551.338,147.4274
1,7,14,2,3,2,B,F,g,r,5,15,19001,1,1,277.595,271.4497
1,7,14,2,3,2,B,F,g,r,5,15,19001,1,1,198.2654,434.5782
1,7,14,2,3,2,B,F,g,r,5,15,19001,1,1,264.1872,529.5503
1,7,14,2,3,2,B,F,g,r,5,15,19001,1,3,295.4721,482.6229
1,7,14,2,3,2,B,F,g,r,5,15,20001,1,1,351.338,398.824
1,7,14,2,3,2,B,F,g,r,5,15,20001,1,1,318.9358,481.5056
1,7,14,2,3,2,B,F,g,r,5,15,20001,1,3,368.0978,452.4553
1,7,14,2,3,2,B,F,g,r,5,15,20001,1,1,325.6397,188.7682
1,7,14,2,3,2,B,F,g,r,5,15,20001,1,1,335.6955,99.3827
1,7,14,2,3,2,B,F,g,r,5,15,21001,1,1,266.4218,553.014
1,7,14,2,3,2,B,F,g,r,5,15,21001,1,1,280.9469,520.6117
1,7,14,2,3,2,B,F,g,r,5,15,21001,1,1,303.2933,499.3827
1,7,14,2,3,2,B,F,g,r,5,15,21001,1,1,328.9916,463.6285
1,7,14,2,3,2,B,F,g,r,5,15,21001,1,1,318.9358,428.9916
1,7,14,2,3,2,B,F,g,r,5,15,21001,1,1,339.0475,522.8464
1,7,14,2,3,2,B,F,g,r,5,15,21001,1,1,371.4497,490.4441
1,7,14,2,3,2,B,F,g,r,5,15,21001,1,3,353.5726,490.4441
1,7,14,2,3,2,B,F,g,r,5,15,22001,1,1,453.014,188.7682
1,7,14,2,3,2,B,F,g,r,5,15,22001,1,1,477.595,125.081
1,7,14,2,3,2,B,F,g,r,5,15,22001,1,1,543.5168,127.3156
1,7,14,2,3,2,B,F,g,r,5,15,23001,1,1,258.6006,289.3268
1,7,14,2,3,2,B,F,g,r,5,15,23001,1,1,257.4832,270.3324
1,7,14,2,3,2,B,F,g,r,5,15,23001,1,3,521.1704,297.148
1,7,14,2,3,2,B,F,g,r,5,15,23001,1,1,530.1089,282.6229
1,7,14,2,3,2,B,F,g,r,5,15,23001,1,1,545.7514,282.6229
1,7,14,2,3,2,B,F,g,r,5,15,23001,1,1,547.986,316.1425
1,7,14,2,3,2,B,F,g,r,5,15,23001,1,1,572.567,341.8408
1,7,14,2,3,2,B,F,g,r,5,15,24001,1,1,403.852,321.7291
1,7,14,2,3,2,B,F,g,r,5,15,24001,1,1,391.5615,491.5615
1,7,14,2,3,2,B,F,g,r,5,15,25001,1,1,342.3994,129.5503
1,7,14,2,3,2,B,F,g,r,5,15,27001,1,1,384.8575,595.4721
1,7,14,2,3,2,B,F,g,r,5,15,28001,1,2,658.6006,233.4609
1,7,14,2,3,2,B,F,g,r,5,15,30001,1,1,615.0251,386.5335
1,7,14,2,3,2,B,F,g,r,5,15,31001,1,1,165.8631,364.1872
1,7,14,2,3,2,B,F,g,r,5,15,33001,1,1,516.7011,111.6732
1,7,14,2,3,2,B,F,g,r,5,15,33001,1,2,132.3436,308.3212
1,7,14,2,3,2,B,F,g,r,5,15,35001,1,2,335.6955,74.8017
1,7,14,2,3,2,B,F,g,r,5,15,35001,1,1,278.7123,523.9637
1,7,14,2,3,2,B,F,g,r,5,15,35001,1,1,570.3324,523.9637
1,7,14,2,3,2,B,F,g,r,5,15,36001,1,1,249.662,251.338
1,7,14,2,3,2,B,F,g,r,5,15,36001,1,1,282.0642,522.8464
1,7,14,2,3,2,B,F,g,r,5,15,36001,1,1,611.6732,180.9469
1,7,14,2,3,2,B,F,g,r,5,15,37001,1,1,394.9134,138.4888
1,7,14,2,3,2,B,F,g,r,5,15,37001,1,1,521.1704,569.7737
1,7,14,2,3,2,B,F,g,r,5,15,38001,1,1,232.9022,198.824
1,7,14,2,3,2,B,F,g,r,5,15,39001,1,2,646.3101,396.5894
1,7,14,2,3,2,B,F,g,r,5,15,39001,1,1,161.3939,351.8966
1,7,14,2,3,2,B,F,g,r,5,15,39001,1,2,658.6006,252.4553
1,7,14,2,3,2,B,F,g,r,5,15,40001,1,2,463.0698,569.7737
1,7,14,2,3,2,B,F,g,r,5,15,40001,1,1,632.9022,365.3045
1,7,14,2,3,2,B,F,g,r,5,15,41001,1,1,472.0084,433.4609
1,7,14,2,3,2,B,F,g,r,5,15,42001,1,1,426.1983,98.2654
1,7,14,2,3,2,B,F,g,r,5,15,42001,1,1,517.8184,503.852
1,7,14,2,3,2,B,F,g,r,5,15,43001,1,1,343.5168,388.7682
1,7,14,2,3,2,B,F,g,r,5,15,43001,1,1,577.0363,154.1313
1,7,14,2,3,2,B,F,g,r,5,15,44001,1,1,296.5894,361.9525
1,7,14,2,3,2,B,F,g,r,5,15,45001,1,1,616.1425,191.0028
1,7,14,2,3,2,B,F,g,r,5,15,46001,1,1,412.7905,264.7458
1,7,14,2,3,2,B,F,g,r,5,15,46001,1,1,591.5615,464.7458
1,7,14,2,3,2,B,F,g,r,5,15,47001,1,1,590.4441,169.7737
1,7,14,2,3,2,B,F,g,r,5,15,47001,1,1,574.8017,492.6788
1,7,14,2,3,2,B,F,g,r,5,15,48001,1,2,134.5782,303.852
1,7,14,2,3,2,B,F,g,r,5,15,49001,1,1,387.0922,322.8464
1,7,14,2,3,2,B,F,g,r,5,15,49001,1,1,439.6061,134.0196
1,7,14,2,3,2,B,F,g,r,5,15,50001,1,1,598.2654,483.7402
1,7,14,2,3,2,B,F,g,r,5,15,50001,1,1,528.9916,107.2039
1,7,14,2,3,2,B,F,g,r,5,15,51001,1,2,514.4665,81.5056
1,7,14,2,3,2,B,F,g,r,5,15,52001,1,1,477.595,145.1927
1,7,14,2,3,2,B,F,g,r,5,15,52001,1,1,610.5559,315.0251
1,7,14,2,3,2,B,F,g,r,5,15,53001,1,1,415.0251,548.5447
1,7,14,2,3,2,B,F,g,r,5,15,54001,1,3,366.9804,435.6955
1,7,14,2,3,2,B,F,g,r,5,15,54001,1,1,344.6341,492.6788
1,7,14,2,3,2,B,F,g,r,5,15,54001,1,2,196.0307,213.3492
1,7,14,2,3,2,B,F,g,r,5,15,55001,1,1,336.8128,300.5
1,7,14,2,3,2,B,F,g,r,5,15,55001,1,1,336.8128,332.9022
1,7,14,2,3,2,B,F,g,r,5,15,55001,1,1,303.2933,411.1145
1,7,14,2,3,2,B,F,g,r,5,15,55001,1,1,313.3492,563.0698
1,7,14,2,3,2,B,F,g,r,5,15,55001,1,1,392.6788,577.595
1,7,14,2,3,2,B,F,g,r,5,15,56001,1,2,483.1816,92.6788
1,7,14,2,3,2,B,F,g,r,5,15,57001,1,2,650.7793,382.0642
1,7,14,2,3,2,B,F,g,r,5,15,58001,1,1,341.2821,90.4441
1,7,14,2,3,2,B,F,g,r,5,15,58001,1,2,335.6955,61.3939
1,7,14,2,3,2,B,F,g,r,5,15,59001,1,1,312.2318,470.3324
1,7,14,2,3,2,B,F,g,r,5,15,59001,1,1,327.8743,470.3324
1,7,14,2,3,2,B,F,g,r,5,15,59001,1,1,346.8687,501.6173
1,7,14,2,3,2,B,F,g,r,5,15,59001,1,1,370.3324,513.9078
1,7,14,2,3,2,B,F,g,r,5,15,59001,1,3,384.8575,553.014
1,7,14,2,3,2,B,F,g,r,5,15,60001,1,1,221.7291,435.6955
1,7,14,2,3,2,B,F,g,r,5,15,60001,1,1,183.7402,275.919
1,7,14,2,3,2,B,F,g,r,5,15,60001,1,2,278.7123,85.9749
1,7,14,2,3,2,B,F,g,r,5,15,60001,1,1,422.8464,61.3939
1,7,14,2,3,2,B,F,g,r,5,15,61001,1,1,517.8184,548.5447
1,7,14,2,3,2,B,F,g,r,5,15,62001,1,1,406.0866,185.4162
1,7,14,2,3,2,B,F,g,r,5,15,62001,1,1,400.5,141.8408
1,7,14,2,3,2,B,F,g,r,5,15,63001,1,1,218.3771,372.0084
1,7,14,2,3,2,B,F,g,r,5,15,64001,1,1,422.8464,415.5838
1,7,14,2,3,2,B,F,g,r,5,15,65001,1,1,254.1313,427.8743
1,7,14,2,3,2,B,F,g,r,5,15,65001,1,1,594.9134,385.4162
1,7,14,2,3,2,B,F,g,r,5,15,66001,1,1,482.0642,107.2039
1,7,14,2,3,2,B,F,g,r,5,15,68001,1,1,512.2318,184.2989
1,7,14,2,3,2,B,F,g,r,5,15,69001,1,1,610.5559,250.2207
1,7,14,2,3,2,B,F,g,r,5,15,70001,1,1,283.1816,218.9358
1,7,14,2,3,2,B,F,g,r,5,15,71001,1,1,298.824,113.9078
1,7,14,2,3,2,B,F,g,r,5,15,72001,1,1,460.8352,212.2318
1,7,14,2,3,2,B,F,g,r,5,15,74001,1,1,342.3994,304.9693
1,7,14,2,3,2,B,F,g,r,5,15,74001,1,1,222.8464,397.7067
1,7,14,2,3,2,B,F,g,r,5,15,76001,1,3,404.9693,363.0698
1,7,14,2,3,2,B,F,g,r,5,15,76001,1,1,309.9972,396.5894
1,7,14,2,3,2,B,F,g,r,5,15,77001,1,3,474.243,383.1816
1,7,14,2,3,2,B,F,g,r,5,15,77001,1,1,427.3156,353.014
1,7,14,2,3,2,B,F,g,r,5,15,77001,1,1,561.3939,268.0978
1,7,14,2,3,2,B,F,g,r,5,15,78001,1,1,219.4944,170.8911
1,7,14,2,3,2,B,F,g,r,5,15,79001,1,1,581.5056,140.7235
1,7,14,2,3,2,B,F,g,r,5,15,80001,1,1,153.5726,350.7793
1,7,14,2,3,2,B,F,g,r,5,15,81001,1,1,499.9413,109.4385
1,7,14,2,3,2,B,F,g,r,5,15,82001,1,1,554.6899,135.1369
1,7,14,2,3,2,B,F,g,r,5,15,83001,1,1,215.0251,427.8743
1,7,14,2,3,2,B,F,g,r,5,15,84001,1,2,265.3045,134.0196
1,7,14,2,3,2,B,F,g,r,5,15,85001,1,1,580.3883,153.014
1,7,14,2,3,2,B,F,g,r,5,15,86001,1,1,601.6173,392.1201
1,7,14,2,3,2,B,F,g,r,5,15,86001,1,1,353.5726,479.2709
1,7,14,2,3,2,B,F,g,r,5,15,87001,1,1,156.9246,368.6564
1,7,14,2,3,2,B,F,g,r,5,15,88001,1,1,403.852,318.3771
1,7,14,2,3,2,B,F,g,r,5,15,88001,1,1,321.1704,204.4106
1,7,14,2,3,2,B,F,g,r,5,15,88001,1,1,232.9022,147.4274
1,7,14,2,3,2,B,F,g,r,5,15,89001,1,1,458.6006,500.5
1,7,14,2,3,2,B,F,g,r,5,15,89001,1,1,253.014,130.6676
1,7,14,2,3,2,B,F,g,r,5,15,90001,1,1,190.4441,306.0866
1,7,14,2,3,2,B,F,g,r,5,15,90001,1,1,448.5447,337.3715
1,7,14,2,3,2,B,F,g,r,5,15,91001,1,2,321.1704,75.919
1,7,14,2,3,2,B,F,g,r,5,15,92001,1,1,515.5838,471.4497
1,7,14,2,3,2,B,F,g,r,5,15,92001,1,1,533.4609,501.6173
1,7,14,2,3,2,B,F,g,r,5,15,92001,1,3,559.1592,469.2151
1,7,14,2,3,2,B,F,g,r,5,15,92001,1,1,581.5056,496.0307
1,7,14,2,3,2,B,F,g,r,5,15,93001,1,1,507.7626,330.6676
1,7,14,2,3,2,B,F,g,r,5,15,93001,1,3,539.0475,287.0922
1,7,14,2,3,2,B,F,g,r,5,15,94001,1,1,542.3994,385.4162
1,7,14,2,3,2,B,F,g,r,5,15,94001,1,3,579.2709,405.5279
1,7,14,2,3,2,B,F,g,r,5,15,95001,1,1,425.081,383.1816
1,7,14,2,3,2,B,F,g,r,5,15,95001,1,1,496.5894,407.7626
1,7,14,2,3,2,B,F,g,r,5,15,95001,1,3,518.9358,440.1648
1,7,14,2,3,2,B,F,g,r,5,15,95001,1,1,491.0028,98.2654
1,7,14,2,3,2,B,F,g,r,5,15,95001,1,1,555.8073,121.7291
1,7,14,2,3,2,B,F,g,r,5,15,95001,1,1,603.852,150.7793
1,7,14,2,3,2,B,F,g,r,5,15,96001,1,1,475.3603,522.8464
1,7,14,2,3,2,B,F,g,r,5,15,96001,1,1,506.6453,501.6173
1,7,14,2,3,2,B,F,g,r,5,15,96001,1,1,542.3994,462.5112
1,7,14,2,3,2,B,F,g,r,5,15,96001,1,1,585.9749,422.2877
1,7,14,2,3,2,B,F,g,r,5,15,96001,1,3,590.4441,359.7179
1,7,14,2,3,2,B,F,g,r,5,15,97001,1,1,217.2598,382.0642
1,7,14,2,3,2,B,F,g,r,5,15,97001,1,3,583.7402,367.5391
1,7,14,2,3,2,B,F,g,r,5,15,98001,1,1,247.4274,158.6006
1,7,14,2,3,2,B,F,g,r,5,15,98001,1,3,618.3771,344.0754
1,7,14,2,3,2,B,F,g,r,5,15,99001,1,3,504.4106,374.243
1,7,14,2,3,2,B,F,g,r,5,15,99001,1,1,501.0587,347.4274
1,7,14,2,3,2,B,F,g,r,5,15,99001,1,1,565.8631,491.5615
1,7,14,2,3,2,B,F,g,r,5,15,99001,1,1,158.0419,436.8128
1,7,14,2,3,2,B,F,g,r,5,15,100001,1,1,196.0307,432.3436
1,7,14,2,3,2,B,F,g,r,5,15,100001,1,3,611.6732,290.4441
1,7,14,2,3,2,B,F,g,r,5,15,100001,1,2,637.3715,395.4721
1,7,14,2,3,2,B,F,g,r,5,15,101001,1,1,174.8017,347.4274
1,7,14,2,3,2,B,F,g,r,5,15,101001,1,1,570.3324,243.5168
1,7,14,2,3,2,B,F,g,r,5,15,101001,1,3,547.986,135.1369
1,7,14,2,3,2,B,F,g,r,5,15,102001,1,2,234.0196,218.9358
1,7,14,2,3,2,B,F,g,r,5,15,102001,1,1,596.0307,254.6899
1,7,14,2,3,2,B,F,g,r,5,15,102001,1,3,600.5,222.2877
1,7,14,2,3,2,B,F,g,r,5,15,103001,1,1,472.0084,296.0307
1,7,14,2,3,2,B,F,g,r,5,15,103001,1,1,539.0475,197.7067
1,7,14,2,3,2,B,F,g,r,5,15,103001,1,3,487.6508,186.5335
1,7,14,2,3,2,B,F,g,r,5,15,104001,1,1,184.8575,441.2821
1,7,14,2,3,2,B,F,g,r,5,15,104001,1,3,491.0028,197.7067
1,7,14,2,3,2,B,F,g,r,5,15,105001,1,1,551.338,243.5168
1,7,14,2,3,2,B,F,g,r,5,15,105001,1,1,572.567,198.824
1,7,14,2,3,2,B,F,g,r,5,15,105001,1,1,648.5447,222.2877
1,7,14,2,3,2,B,F,g,r,5,15,105001,1,3,560.2765,186.5335
1,7,14,2,3,2,B,F,g,r,5,15,106001,1,2,356.9246,121.7291
1,7,14,2,3,2,B,F,g,r,5,15,106001,1,2,250.7793,107.2039
1,7,14,2,3,2,B,F,g,r,5,15,106001,1,3,641.8408,329.5503
1,7,14,2,3,2,B,F,g,r,5,15,107001,1,1,601.6173,443.5168
1,7,14,2,3,2,B,F,g,r,5,15,107001,1,3,638.4888,415.5838
1,7,14,2,3,2,B,F,g,r,5,15,107001,1,1,642.9581,388.7682
