dummy,month,day,period,view,station,fgeno,mgeno,fcol,mcol,nf,nm,frame,something,sex,x,y
1,6,17,3,2,2,B,G,b,y,10,10,1,1,3,343.4644,290.7439
1,6,17,3,2,2,B,G,b,y,10,10,1,1,1,395.9972,473.8583
1,6,17,3,2,2,B,G,b,y,10,10,1,1,1,386.9916,176.6726
1,6,17,3,2,2,B,G,b,y,10,10,1,1,1,672.1698,148.1548
1,6,17,3,2,2,B,G,b,y,10,10,1001,1,3,379.4869,209.6932
1,6,17,3,2,2,B,G,b,y,10,10,1001,1,1,194.8715,212.6951
1,6,17,3,2,2,B,G,b,y,10,10,1001,1,1,558.0985,89.6182
1,6,17,3,2,2,B,G,b,y,10,10,1001,1,1,714.1961,310.2561
1,6,17,3,2,2,B,G,b,y,10,10,2001,1,3,274.4212,169.1679
1,6,17,3,2,2,B,G,b,y,10,10,2001,1,1,702.1886,289.243
1,6,17,3,2,2,B,G,b,y,10,10,3001,1,3,307.4418,218.6989
1,6,17,3,2,2,B,G,b,y,10,10,3001,1,1,340.4625,67.1041
1,6,17,3,2,2,B,G,b,y,10,10,3001,1,1,667.667,253.2205
1,6,17,3,2,2,B,G,b,y,10,10,4001,1,3,356.9728,266.7289
1,6,17,3,2,2,B,G,b,y,10,10,4001,1,1,364.4775,169.1679
1,6,17,3,2,2,B,G,b,y,10,10,4001,1,1,247.4043,127.1417
1,6,17,3,2,2,B,G,b,y,10,10,4001,1,1,256.4099,320.7627
1,6,17,3,2,2,B,G,b,y,10,10,4001,1,3,406.5038,544.4024
1,6,17,3,2,2,B,G,b,y,10,10,4001,1,1,453.0328,547.4043
1,6,17,3,2,2,B,G,b,y,10,10,5001,1,1,292.4325,403.3143
1,6,17,3,2,2,B,G,b,y,10,10,5001,1,1,331.4568,355.2842
1,6,17,3,2,2,B,G,b,y,10,10,5001,1,3,398.9991,349.2805
1,6,17,3,2,2,B,G,b,y,10,10,5001,1,1,405.0028,278.7364
1,6,17,3,2,2,B,G,b,y,10,10,5001,1,1,511.5694,47.5919
1,6,17,3,2,2,B,G,b,y,10,10,6001,1,1,280.425,433.333
1,6,17,3,2,2,B,G,b,y,10,10,6001,1,3,284.9278,332.7702
1,6,17,3,2,2,B,G,b,y,10,10,6001,1,1,236.8977,184.1773
1,6,17,3,2,2,B,G,b,y,10,10,6001,1,1,477.0478,86.6163
1,6,17,3,2,2,B,G,b,y,10,10,6001,1,1,612.1323,149.6557
1,6,17,3,2,2,B,G,b,y,10,10,7001,1,3,257.9109,392.8077
1,6,17,3,2,2,B,G,b,y,10,10,7001,1,1,400.5,292.2448
1,6,17,3,2,2,B,G,b,y,10,10,7001,1,1,481.5507,241.2129
1,6,17,3,2,2,B,G,b,y,10,10,7001,1,1,376.485,118.136
1,6,17,3,2,2,B,G,b,y,10,10,7001,1,1,341.9634,109.1304
1,6,17,3,2,2,B,G,b,y,10,10,7001,1,1,343.4644,74.6088
1,6,17,3,2,2,B,G,b,y,10,10,8001,1,3,298.4362,452.8452
1,6,17,3,2,2,B,G,b,y,10,10,8001,1,1,301.4381,202.1886
1,6,17,3,2,2,B,G,b,y,10,10,8001,1,1,480.0497,314.7589
1,6,17,3,2,2,B,G,b,y,10,10,8001,1,1,597.1229,370.2936
1,6,17,3,2,2,B,G,b,y,10,10,8001,1,1,672.1698,352.2824
1,6,17,3,2,2,B,G,b,y,10,10,8001,1,1,705.1904,347.7795
1,6,17,3,2,2,B,G,b,y,10,10,8001,1,1,657.1604,299.7495
1,6,17,3,2,2,B,G,b,y,10,10,9001,1,3,265.4156,437.8358
1,6,17,3,2,2,B,G,b,y,10,10,9001,1,1,468.0422,499.3743
1,6,17,3,2,2,B,G,b,y,10,10,9001,1,1,335.9597,169.1679
1,6,17,3,2,2,B,G,b,y,10,10,9001,1,1,302.939,140.6501
1,6,17,3,2,2,B,G,b,y,10,10,9001,1,1,522.076,151.1567
1,6,17,3,2,2,B,G,b,y,10,10,9001,1,1,580.6126,197.6857
1,6,17,3,2,2,B,G,b,y,10,10,10001,1,1,346.4662,499.3743
1,6,17,3,2,2,B,G,b,y,10,10,10001,1,1,395.9972,418.3236
1,6,17,3,2,2,B,G,b,y,10,10,10001,1,3,271.4193,266.7289
1,6,17,3,2,2,B,G,b,y,10,10,10001,1,1,501.0629,173.6707
1,6,17,3,2,2,B,G,b,y,10,10,10001,1,1,616.6351,134.6463
1,6,17,3,2,2,B,G,b,y,10,10,10001,1,1,642.151,127.1417
1,6,17,3,2,2,B,G,b,y,10,10,11001,1,1,445.5281,454.3462
1,6,17,3,2,2,B,G,b,y,10,10,11001,1,1,438.0235,404.8152
1,6,17,3,2,2,B,G,b,y,10,10,11001,1,1,386.9916,148.1548
1,6,17,3,2,2,B,G,b,y,10,10,11001,1,3,359.9747,115.1341
1,6,17,3,2,2,B,G,b,y,10,10,11001,1,1,541.5882,155.6595
1,6,17,3,2,2,B,G,b,y,10,10,11001,1,1,601.6257,215.697
1,6,17,3,2,2,B,G,b,y,10,10,12001,1,1,353.9709,400.3124
1,6,17,3,2,2,B,G,b,y,10,10,12001,1,1,549.0929,557.9109
1,6,17,3,2,2,B,G,b,y,10,10,12001,1,1,637.6482,209.6932
1,6,17,3,2,2,B,G,b,y,10,10,12001,1,3,510.0685,148.1548
1,6,17,3,2,2,B,G,b,y,10,10,12001,1,1,477.0478,151.1567
1,6,17,3,2,2,B,G,b,y,10,10,12001,1,1,322.4512,122.6388
1,6,17,3,2,2,B,G,b,y,10,10,13001,1,1,311.9447,313.258
1,6,17,3,2,2,B,G,b,y,10,10,13001,1,1,395.9972,134.6463
1,6,17,3,2,2,B,G,b,y,10,10,13001,1,1,400.5,95.622
1,6,17,3,2,2,B,G,b,y,10,10,13001,1,3,627.1417,235.2092
1,6,17,3,2,2,B,G,b,y,10,10,13001,1,1,634.6463,149.6557
1,6,17,3,2,2,B,G,b,y,10,10,14001,1,1,370.4812,313.258
1,6,17,3,2,2,B,G,b,y,10,10,14001,1,1,343.4644,287.742
1,6,17,3,2,2,B,G,b,y,10,10,14001,1,1,493.5582,265.228
1,6,17,3,2,2,B,G,b,y,10,10,14001,1,3,499.5619,227.7045
1,6,17,3,2,2,B,G,b,y,10,10,14001,1,1,483.0516,121.1379
1,6,17,3,2,2,B,G,b,y,10,10,14001,1,1,502.5638,71.6069
1,6,17,3,2,2,B,G,b,y,10,10,15001,1,1,402.0009,467.8546
1,6,17,3,2,2,B,G,b,y,10,10,15001,1,1,424.515,439.3368
1,6,17,3,2,2,B,G,b,y,10,10,15001,1,3,383.9897,304.2523
1,6,17,3,2,2,B,G,b,y,10,10,15001,1,1,251.9071,173.6707
1,6,17,3,2,2,B,G,b,y,10,10,15001,1,1,353.9709,119.637
1,6,17,3,2,2,B,G,b,y,10,10,15001,1,1,562.6013,103.1266
1,6,17,3,2,2,B,G,b,y,10,10,16001,1,3,435.0216,373.2955
1,6,17,3,2,2,B,G,b,y,10,10,16001,1,1,514.5713,431.8321
1,6,17,3,2,2,B,G,b,y,10,10,16001,1,1,532.5826,485.8659
1,6,17,3,2,2,B,G,b,y,10,10,16001,1,1,266.9165,175.1717
1,6,17,3,2,2,B,G,b,y,10,10,16001,1,1,451.5319,58.0985
1,6,17,3,2,2,B,G,b,y,10,10,16001,1,1,577.6107,118.136
1,6,17,3,2,2,B,G,b,y,10,10,17001,1,1,376.485,349.2805
1,6,17,3,2,2,B,G,b,y,10,10,17001,1,3,465.0403,146.6538
1,6,17,3,2,2,B,G,b,y,10,10,17001,1,1,540.0872,209.6932
1,6,17,3,2,2,B,G,b,y,10,10,17001,1,1,649.6557,169.1679
1,6,17,3,2,2,B,G,b,y,10,10,17001,1,1,712.6951,319.2617
1,6,17,3,2,2,B,G,b,y,10,10,17001,1,1,658.6614,371.7946
1,6,17,3,2,2,B,G,b,y,10,10,18001,1,1,361.4756,406.3161
1,6,17,3,2,2,B,G,b,y,10,10,18001,1,1,594.121,256.2223
1,6,17,3,2,2,B,G,b,y,10,10,18001,1,1,642.151,214.1961
1,6,17,3,2,2,B,G,b,y,10,10,18001,1,1,570.106,116.6351
1,6,17,3,2,2,B,G,b,y,10,10,18001,1,1,499.5619,115.1341
1,6,17,3,2,2,B,G,b,y,10,10,18001,1,3,368.9803,79.1116
1,6,17,3,2,2,B,G,b,y,10,10,19001,1,1,370.4812,467.8546
1,6,17,3,2,2,B,G,b,y,10,10,19001,1,1,583.6144,352.2824
1,6,17,3,2,2,B,G,b,y,10,10,19001,1,1,570.106,128.6426
1,6,17,3,2,2,B,G,b,y,10,10,19001,1,1,471.0441,113.6332
1,6,17,3,2,2,B,G,b,y,10,10,19001,1,1,439.5244,101.6257
1,6,17,3,2,2,B,G,b,y,10,10,19001,1,3,350.969,91.1191
1,6,17,3,2,2,B,G,b,y,10,10,20001,1,1,398.9991,500.8752
1,6,17,3,2,2,B,G,b,y,10,10,20001,1,1,684.1773,385.303
1,6,17,3,2,2,B,G,b,y,10,10,20001,1,1,561.1004,187.1792
1,6,17,3,2,2,B,G,b,y,10,10,20001,1,1,460.5375,160.1623
1,6,17,3,2,2,B,G,b,y,10,10,20001,1,1,475.5469,95.622
1,6,17,3,2,2,B,G,b,y,10,10,20001,1,3,269.9184,154.1585
1,6,17,3,2,2,B,G,b,y,10,10,21001,1,1,423.0141,494.8715
1,6,17,3,2,2,B,G,b,y,10,10,21001,1,3,286.4287,220.1998
1,6,17,3,2,2,B,G,b,y,10,10,21001,1,1,484.5525,173.6707
1,6,17,3,2,2,B,G,b,y,10,10,21001,1,1,499.5619,71.6069
1,6,17,3,2,2,B,G,b,y,10,10,21001,1,1,559.5994,190.1811
1,6,17,3,2,2,B,G,b,y,10,10,21001,1,1,678.1735,380.8002
1,6,17,3,2,2,B,G,b,y,10,10,22001,1,1,514.5713,460.3499
1,6,17,3,2,2,B,G,b,y,10,10,22001,1,1,681.1754,388.3049
1,6,17,3,2,2,B,G,b,y,10,10,22001,1,1,553.5957,263.727
1,6,17,3,2,2,B,G,b,y,10,10,22001,1,1,558.0985,193.1829
1,6,17,3,2,2,B,G,b,y,10,10,22001,1,1,601.6257,194.6839
1,6,17,3,2,2,B,G,b,y,10,10,22001,1,3,367.4794,296.7477
1,6,17,3,2,2,B,G,b,y,10,10,23001,1,3,352.47,403.3143
1,6,17,3,2,2,B,G,b,y,10,10,23001,1,1,564.1023,380.8002
1,6,17,3,2,2,B,G,b,y,10,10,23001,1,1,673.6707,407.8171
1,6,17,3,2,2,B,G,b,y,10,10,23001,1,1,589.6182,332.7702
1,6,17,3,2,2,B,G,b,y,10,10,23001,1,1,633.1454,293.7458
1,6,17,3,2,2,B,G,b,y,10,10,23001,1,1,574.6088,214.1961
1,6,17,3,2,2,B,G,b,y,10,10,24001,1,3,277.4231,499.3743
1,6,17,3,2,2,B,G,b,y,10,10,24001,1,1,508.5675,410.8189
1,6,17,3,2,2,B,G,b,y,10,10,24001,1,1,630.1435,473.8583
1,6,17,3,2,2,B,G,b,y,10,10,24001,1,1,697.6857,370.2936
1,6,17,3,2,2,B,G,b,y,10,10,24001,1,1,532.5826,313.258
1,6,17,3,2,2,B,G,b,y,10,10,24001,1,1,597.1229,148.1548
1,6,17,3,2,2,B,G,b,y,10,10,25001,1,3,400.5,548.9053
1,6,17,3,2,2,B,G,b,y,10,10,25001,1,1,468.0422,409.318
1,6,17,3,2,2,B,G,b,y,10,10,25001,1,1,552.0947,458.849
1,6,17,3,2,2,B,G,b,y,10,10,25001,1,1,502.5638,266.7289
1,6,17,3,2,2,B,G,b,y,10,10,25001,1,1,597.1229,122.6388
1,6,17,3,2,2,B,G,b,y,10,10,25001,1,1,706.6914,302.7514
1,6,17,3,2,2,B,G,b,y,10,10,26001,1,3,376.485,440.8377
1,6,17,3,2,2,B,G,b,y,10,10,26001,1,1,403.5019,394.3086
1,6,17,3,2,2,B,G,b,y,10,10,26001,1,1,441.0253,370.2936
1,6,17,3,2,2,B,G,b,y,10,10,26001,1,1,469.5432,197.6857
1,6,17,3,2,2,B,G,b,y,10,10,26001,1,1,565.6032,85.1154
1,6,17,3,2,2,B,G,b,y,10,10,26001,1,1,693.1829,269.7308
1,6,17,3,2,2,B,G,b,y,10,10,27001,1,3,284.9278,494.8715
1,6,17,3,2,2,B,G,b,y,10,10,27001,1,1,433.5206,254.7214
1,6,17,3,2,2,B,G,b,y,10,10,27001,1,1,379.4869,157.1604
1,6,17,3,2,2,B,G,b,y,10,10,27001,1,1,481.5507,77.6107
1,6,17,3,2,2,B,G,b,y,10,10,27001,1,1,499.5619,113.6332
1,6,17,3,2,2,B,G,b,y,10,10,27001,1,1,633.1454,197.6857
1,6,17,3,2,2,B,G,b,y,10,10,28001,1,3,271.4193,407.8171
1,6,17,3,2,2,B,G,b,y,10,10,28001,1,1,320.9503,181.1754
1,6,17,3,2,2,B,G,b,y,10,10,28001,1,1,367.4794,181.1754
1,6,17,3,2,2,B,G,b,y,10,10,28001,1,1,543.0891,134.6463
1,6,17,3,2,2,B,G,b,y,10,10,28001,1,1,612.1323,130.1435
1,6,17,3,2,2,B,G,b,y,10,10,28001,1,1,559.5994,299.7495
1,6,17,3,2,2,B,G,b,y,10,10,29001,1,3,332.9578,391.3068
1,6,17,3,2,2,B,G,b,y,10,10,29001,1,1,341.9634,356.7852
1,6,17,3,2,2,B,G,b,y,10,10,29001,1,1,298.4362,347.7795
1,6,17,3,2,2,B,G,b,y,10,10,29001,1,1,600.1248,212.6951
1,6,17,3,2,2,B,G,b,y,10,10,29001,1,1,576.1098,530.894
1,6,17,3,2,2,B,G,b,y,10,10,30001,1,1,316.4475,458.849
1,6,17,3,2,2,B,G,b,y,10,10,30001,1,1,474.046,517.3856
1,6,17,3,2,2,B,G,b,y,10,10,30001,1,3,573.1079,301.2505
1,6,17,3,2,2,B,G,b,y,10,10,30001,1,1,478.5488,187.1792
1,6,17,3,2,2,B,G,b,y,10,10,31001,1,1,295.4343,139.1492
1,6,17,3,2,2,B,G,b,y,10,10,31001,1,1,489.0553,113.6332
1,6,17,3,2,2,B,G,b,y,10,10,31001,1,3,504.0647,79.1116
1,6,17,3,2,2,B,G,b,y,10,10,31001,1,3,576.1098,262.2261
1,6,17,3,2,2,B,G,b,y,10,10,31001,1,1,694.6839,337.273
1,6,17,3,2,2,B,G,b,y,10,10,32001,1,1,480.0497,29.5807
1,6,17,3,2,2,B,G,b,y,10,10,32001,1,3,436.5225,398.8114
1,6,17,3,2,2,B,G,b,y,10,10,33001,1,3,335.9597,467.8546
1,6,17,3,2,2,B,G,b,y,10,10,33001,1,1,289.4306,521.8884
1,6,17,3,2,2,B,G,b,y,10,10,33001,1,1,478.5488,544.4024
1,6,17,3,2,2,B,G,b,y,10,10,33001,1,1,424.515,127.1417
1,6,17,3,2,2,B,G,b,y,10,10,34001,1,1,260.9128,461.8508
1,6,17,3,2,2,B,G,b,y,10,10,34001,1,3,248.9053,418.3236
1,6,17,3,2,2,B,G,b,y,10,10,34001,1,1,314.9465,280.2373
1,6,17,3,2,2,B,G,b,y,10,10,34001,1,1,251.9071,145.1529
1,6,17,3,2,2,B,G,b,y,10,10,34001,1,1,442.5263,227.7045
1,6,17,3,2,2,B,G,b,y,10,10,35001,1,3,253.4081,409.318
1,6,17,3,2,2,B,G,b,y,10,10,35001,1,1,484.5525,128.6426
1,6,17,3,2,2,B,G,b,y,10,10,35001,1,1,597.1229,139.1492
1,6,17,3,2,2,B,G,b,y,10,10,35001,1,1,708.1923,380.8002
1,6,17,3,2,2,B,G,b,y,10,10,36001,1,1,317.9484,205.1904
1,6,17,3,2,2,B,G,b,y,10,10,36001,1,1,486.0535,85.1154
1,6,17,3,2,2,B,G,b,y,10,10,36001,1,3,367.4794,454.3462
1,6,17,3,2,2,B,G,b,y,10,10,36001,1,1,350.969,542.9015
1,6,17,3,2,2,B,G,b,y,10,10,36001,1,1,386.9916,551.9071
1,6,17,3,2,2,B,G,b,y,10,10,37001,1,3,386.9916,290.7439
1,6,17,3,2,2,B,G,b,y,10,10,37001,1,1,505.5657,277.2355
1,6,17,3,2,2,B,G,b,y,10,10,37001,1,1,435.0216,365.7908
1,6,17,3,2,2,B,G,b,y,10,10,37001,1,1,391.4944,467.8546
1,6,17,3,2,2,B,G,b,y,10,10,37001,1,1,370.4812,464.8527
1,6,17,3,2,2,B,G,b,y,10,10,38001,1,1,283.4268,368.7927
1,6,17,3,2,2,B,G,b,y,10,10,38001,1,1,528.0797,439.3368
1,6,17,3,2,2,B,G,b,y,10,10,38001,1,1,549.0929,266.7289
1,6,17,3,2,2,B,G,b,y,10,10,38001,1,1,493.5582,139.1492
1,6,17,3,2,2,B,G,b,y,10,10,38001,1,1,451.5319,134.6463
1,6,17,3,2,2,B,G,b,y,10,10,38001,1,3,421.5131,95.622
1,6,17,3,2,2,B,G,b,y,10,10,39001,1,3,299.9371,194.6839
1,6,17,3,2,2,B,G,b,y,10,10,39001,1,1,269.9184,155.6595
1,6,17,3,2,2,B,G,b,y,10,10,39001,1,1,304.44,236.7101
1,6,17,3,2,2,B,G,b,y,10,10,39001,1,1,429.0178,221.7008
1,6,17,3,2,2,B,G,b,y,10,10,39001,1,1,559.5994,308.7552
1,6,17,3,2,2,B,G,b,y,10,10,39001,1,1,607.6295,304.2523
1,6,17,3,2,2,B,G,b,y,10,10,40001,1,1,268.4174,158.6614
1,6,17,3,2,2,B,G,b,y,10,10,40001,1,1,371.9822,166.166
1,6,17,3,2,2,B,G,b,y,10,10,40001,1,1,411.0066,185.6782
1,6,17,3,2,2,B,G,b,y,10,10,40001,1,1,469.5432,166.166
1,6,17,3,2,2,B,G,b,y,10,10,40001,1,1,597.1229,284.7402
1,6,17,3,2,2,B,G,b,y,10,10,40001,1,3,284.9278,298.2486
1,6,17,3,2,2,B,G,b,y,10,10,41001,1,3,277.4231,481.363
1,6,17,3,2,2,B,G,b,y,10,10,41001,1,1,260.9128,217.1979
1,6,17,3,2,2,B,G,b,y,10,10,41001,1,1,398.9991,236.7101
1,6,17,3,2,2,B,G,b,y,10,10,41001,1,1,463.5394,181.1754
1,6,17,3,2,2,B,G,b,y,10,10,41001,1,1,490.5563,283.2392
1,6,17,3,2,2,B,G,b,y,10,10,41001,1,1,660.1623,356.7852
1,6,17,3,2,2,B,G,b,y,10,10,42001,1,3,254.909,394.3086
1,6,17,3,2,2,B,G,b,y,10,10,42001,1,1,343.4644,197.6857
1,6,17,3,2,2,B,G,b,y,10,10,42001,1,1,540.0872,230.7064
1,6,17,3,2,2,B,G,b,y,10,10,42001,1,1,577.6107,343.2767
1,6,17,3,2,2,B,G,b,y,10,10,42001,1,1,642.151,295.2467
1,6,17,3,2,2,B,G,b,y,10,10,42001,1,1,634.6463,334.2711
1,6,17,3,2,2,B,G,b,y,10,10,43001,1,3,406.5038,316.2598
1,6,17,3,2,2,B,G,b,y,10,10,43001,1,1,573.1079,313.258
1,6,17,3,2,2,B,G,b,y,10,10,43001,1,1,622.6388,290.7439
1,6,17,3,2,2,B,G,b,y,10,10,43001,1,1,505.5657,212.6951
1,6,17,3,2,2,B,G,b,y,10,10,43001,1,1,469.5432,197.6857
1,6,17,3,2,2,B,G,b,y,10,10,43001,1,1,540.0872,112.1323
1,6,17,3,2,2,B,G,b,y,10,10,44001,1,1,403.5019,281.7383
1,6,17,3,2,2,B,G,b,y,10,10,44001,1,1,361.4756,178.1735
1,6,17,3,2,2,B,G,b,y,10,10,44001,1,3,448.53,164.6651
1,6,17,3,2,2,B,G,b,y,10,10,44001,1,1,487.5544,137.6482
1,6,17,3,2,2,B,G,b,y,10,10,44001,1,1,519.0741,176.6726
1,6,17,3,2,2,B,G,b,y,10,10,44001,1,1,538.5863,232.2073
1,6,17,3,2,2,B,G,b,y,10,10,45001,1,3,544.5901,172.1698
1,6,17,3,2,2,B,G,b,y,10,10,45001,1,1,583.6144,361.288
1,6,17,3,2,2,B,G,b,y,10,10,45001,1,1,486.0535,263.727
1,6,17,3,2,2,B,G,b,y,10,10,45001,1,1,287.9296,302.7514
1,6,17,3,2,2,B,G,b,y,10,10,45001,1,1,361.4756,142.151
1,6,17,3,2,2,B,G,b,y,10,10,45001,1,1,335.9597,104.6276
1,6,17,3,2,2,B,G,b,y,10,10,46001,1,1,253.4081,155.6595
1,6,17,3,2,2,B,G,b,y,10,10,46001,1,1,296.9353,175.1717
1,6,17,3,2,2,B,G,b,y,10,10,46001,1,1,290.9315,260.7251
1,6,17,3,2,2,B,G,b,y,10,10,46001,1,1,465.0403,205.1904
1,6,17,3,2,2,B,G,b,y,10,10,46001,1,3,543.0891,329.7683
1,6,17,3,2,2,B,G,b,y,10,10,46001,1,1,625.6407,458.849
1,6,17,3,2,2,B,G,b,y,10,10,47001,1,1,322.4512,98.6238
1,6,17,3,2,2,B,G,b,y,10,10,47001,1,1,346.4662,241.2129
1,6,17,3,2,2,B,G,b,y,10,10,47001,1,1,280.425,251.7195
1,6,17,3,2,2,B,G,b,y,10,10,47001,1,1,266.9165,334.2711
1,6,17,3,2,2,B,G,b,y,10,10,47001,1,3,492.0572,416.8227
1,6,17,3,2,2,B,G,b,y,10,10,47001,1,1,627.1417,496.3724
1,6,17,3,2,2,B,G,b,y,10,10,48001,1,1,433.5206,110.6313
1,6,17,3,2,2,B,G,b,y,10,10,48001,1,1,398.9991,142.151
1,6,17,3,2,2,B,G,b,y,10,10,48001,1,1,301.4381,361.288
1,6,17,3,2,2,B,G,b,y,10,10,48001,1,1,353.9709,389.8058
1,6,17,3,2,2,B,G,b,y,10,10,48001,1,3,411.0066,500.8752
1,6,17,3,2,2,B,G,b,y,10,10,48001,1,1,489.0553,521.8884
1,6,17,3,2,2,B,G,b,y,10,10,49001,1,1,490.5563,226.2036
1,6,17,3,2,2,B,G,b,y,10,10,49001,1,1,386.9916,205.1904
1,6,17,3,2,2,B,G,b,y,10,10,49001,1,1,397.4981,388.3049
1,6,17,3,2,2,B,G,b,y,10,10,49001,1,1,442.5263,409.318
1,6,17,3,2,2,B,G,b,y,10,10,49001,1,3,373.4831,446.8415
1,6,17,3,2,2,B,G,b,y,10,10,49001,1,1,379.4869,536.8977
1,6,17,3,2,2,B,G,b,y,10,10,50001,1,3,260.9128,391.3068
1,6,17,3,2,2,B,G,b,y,10,10,50001,1,1,447.0291,523.3893
1,6,17,3,2,2,B,G,b,y,10,10,50001,1,1,510.0685,341.7758
1,6,17,3,2,2,B,G,b,y,10,10,50001,1,1,484.5525,298.2486
1,6,17,3,2,2,B,G,b,y,10,10,50001,1,1,417.0103,223.2017
1,6,17,3,2,2,B,G,b,y,10,10,50001,1,1,579.1116,277.2355
1,6,17,3,2,2,B,G,b,y,10,10,51001,1,3,266.9165,388.3049
1,6,17,3,2,2,B,G,b,y,10,10,51001,1,1,481.5507,371.7946
1,6,17,3,2,2,B,G,b,y,10,10,51001,1,1,487.5544,266.7289
1,6,17,3,2,2,B,G,b,y,10,10,51001,1,1,483.0516,181.1754
1,6,17,3,2,2,B,G,b,y,10,10,51001,1,1,540.0872,199.1867
1,6,17,3,2,2,B,G,b,y,10,10,51001,1,1,603.1266,287.742
1,6,17,3,2,2,B,G,b,y,10,10,52001,1,3,239.8996,400.3124
1,6,17,3,2,2,B,G,b,y,10,10,52001,1,1,583.6144,436.3349
1,6,17,3,2,2,B,G,b,y,10,10,52001,1,1,604.6276,310.2561
1,6,17,3,2,2,B,G,b,y,10,10,52001,1,1,478.5488,181.1754
1,6,17,3,2,2,B,G,b,y,10,10,52001,1,1,445.5281,53.5957
1,6,17,3,2,2,B,G,b,y,10,10,52001,1,1,370.4812,91.1191
1,6,17,3,2,2,B,G,b,y,10,10,53001,1,3,227.8921,376.2974
1,6,17,3,2,2,B,G,b,y,10,10,53001,1,1,361.4756,236.7101
1,6,17,3,2,2,B,G,b,y,10,10,53001,1,1,418.5113,190.1811
1,6,17,3,2,2,B,G,b,y,10,10,53001,1,1,411.0066,151.1567
1,6,17,3,2,2,B,G,b,y,10,10,53001,1,1,496.56,133.1454
1,6,17,3,2,2,B,G,b,y,10,10,53001,1,1,708.1923,299.7495
1,6,17,3,2,2,B,G,b,y,10,10,53001,1,1,574.6088,392.8077
1,6,17,3,2,2,B,G,b,y,10,10,54001,1,3,245.9034,395.8096
1,6,17,3,2,2,B,G,b,y,10,10,54001,1,1,356.9728,248.7176
1,6,17,3,2,2,B,G,b,y,10,10,54001,1,1,417.0103,311.757
1,6,17,3,2,2,B,G,b,y,10,10,54001,1,1,514.5713,376.2974
1,6,17,3,2,2,B,G,b,y,10,10,54001,1,1,670.6689,262.2261
1,6,17,3,2,2,B,G,b,y,10,10,54001,1,1,687.1792,208.1923
1,6,17,3,2,2,B,G,b,y,10,10,55001,1,3,244.4024,391.3068
1,6,17,3,2,2,B,G,b,y,10,10,55001,1,1,320.9503,253.2205
1,6,17,3,2,2,B,G,b,y,10,10,55001,1,1,355.4719,292.2448
1,6,17,3,2,2,B,G,b,y,10,10,55001,1,1,424.515,415.3218
1,6,17,3,2,2,B,G,b,y,10,10,55001,1,1,615.1341,287.742
1,6,17,3,2,2,B,G,b,y,10,10,55001,1,1,511.5694,109.1304
1,6,17,3,2,2,B,G,b,y,10,10,56001,1,1,263.9146,214.1961
1,6,17,3,2,2,B,G,b,y,10,10,56001,1,1,341.9634,382.3011
1,6,17,3,2,2,B,G,b,y,10,10,56001,1,1,293.9334,436.3349
1,6,17,3,2,2,B,G,b,y,10,10,56001,1,3,385.4906,395.8096
1,6,17,3,2,2,B,G,b,y,10,10,56001,1,1,535.5844,331.2692
1,6,17,3,2,2,B,G,b,y,10,10,56001,1,1,579.1116,331.2692
1,6,17,3,2,2,B,G,b,y,10,10,57001,1,1,280.425,179.6745
1,6,17,3,2,2,B,G,b,y,10,10,57001,1,1,331.4568,275.7345
1,6,17,3,2,2,B,G,b,y,10,10,57001,1,1,269.9184,473.8583
1,6,17,3,2,2,B,G,b,y,10,10,57001,1,3,429.0178,448.3424
1,6,17,3,2,2,B,G,b,y,10,10,57001,1,1,480.0497,323.7645
1,6,17,3,2,2,B,G,b,y,10,10,57001,1,1,607.6295,401.8133
1,6,17,3,2,2,B,G,b,y,10,10,58001,1,1,379.4869,161.6632
1,6,17,3,2,2,B,G,b,y,10,10,58001,1,1,456.0347,286.2411
1,6,17,3,2,2,B,G,b,y,10,10,58001,1,1,430.5188,337.273
1,6,17,3,2,2,B,G,b,y,10,10,58001,1,1,382.4887,481.363
1,6,17,3,2,2,B,G,b,y,10,10,58001,1,3,257.9109,397.3105
1,6,17,3,2,2,B,G,b,y,10,10,58001,1,1,666.166,425.8283
1,6,17,3,2,2,B,G,b,y,10,10,59001,1,1,439.5244,169.1679
1,6,17,3,2,2,B,G,b,y,10,10,59001,1,3,325.4531,269.7308
1,6,17,3,2,2,B,G,b,y,10,10,59001,1,1,418.5113,395.8096
1,6,17,3,2,2,B,G,b,y,10,10,59001,1,1,457.5356,409.318
1,6,17,3,2,2,B,G,b,y,10,10,59001,1,1,613.6332,379.2992
1,6,17,3,2,2,B,G,b,y,10,10,59001,1,1,613.6332,266.7289
1,6,17,3,2,2,B,G,b,y,10,10,60001,1,3,266.9165,383.8021
1,6,17,3,2,2,B,G,b,y,10,10,60001,1,1,326.954,314.7589
1,6,17,3,2,2,B,G,b,y,10,10,60001,1,1,556.5976,235.2092
1,6,17,3,2,2,B,G,b,y,10,10,60001,1,1,586.6163,284.7402
1,6,17,3,2,2,B,G,b,y,10,10,60001,1,1,532.5826,394.3086
1,6,17,3,2,2,B,G,b,y,10,10,60001,1,1,556.5976,439.3368
1,6,17,3,2,2,B,G,b,y,10,10,61001,1,3,344.9653,448.3424
1,6,17,3,2,2,B,G,b,y,10,10,61001,1,1,405.0028,410.8189
1,6,17,3,2,2,B,G,b,y,10,10,61001,1,3,397.4981,361.288
1,6,17,3,2,2,B,G,b,y,10,10,61001,1,1,298.4362,151.1567
1,6,17,3,2,2,B,G,b,y,10,10,61001,1,1,474.046,178.1735
1,6,17,3,2,2,B,G,b,y,10,10,61001,1,1,465.0403,251.7195
1,6,17,3,2,2,B,G,b,y,10,10,61001,1,1,597.1229,386.8039
1,6,17,3,2,2,B,G,b,y,10,10,62001,1,3,298.4362,230.7064
1,6,17,3,2,2,B,G,b,y,10,10,62001,1,1,417.0103,248.7176
1,6,17,3,2,2,B,G,b,y,10,10,62001,1,1,499.5619,52.0947
1,6,17,3,2,2,B,G,b,y,10,10,62001,1,1,543.0891,388.3049
1,6,17,3,2,2,B,G,b,y,10,10,62001,1,1,559.5994,467.8546
1,6,17,3,2,2,B,G,b,y,10,10,62001,1,1,358.4737,338.7739
1,6,17,3,2,2,B,G,b,y,10,10,62001,1,1,377.9859,535.3968
1,6,17,3,2,2,B,G,b,y,10,10,63001,1,1,371.9822,73.1079
1,6,17,3,2,2,B,G,b,y,10,10,63001,1,1,274.4212,211.1942
1,6,17,3,2,2,B,G,b,y,10,10,63001,1,3,238.3987,389.8058
1,6,17,3,2,2,B,G,b,y,10,10,63001,1,1,480.0497,323.7645
1,6,17,3,2,2,B,G,b,y,10,10,63001,1,1,529.5807,451.3443
1,6,17,3,2,2,B,G,b,y,10,10,63001,1,1,577.6107,448.3424
1,6,17,3,2,2,B,G,b,y,10,10,63001,1,1,561.1004,487.3668
1,6,17,3,2,2,B,G,b,y,10,10,64001,1,1,275.9221,124.1398
1,6,17,3,2,2,B,G,b,y,10,10,64001,1,1,414.0084,127.1417
1,6,17,3,2,2,B,G,b,y,10,10,64001,1,1,678.1735,326.7664
1,6,17,3,2,2,B,G,b,y,10,10,64001,1,1,636.1473,457.348
1,6,17,3,2,2,B,G,b,y,10,10,64001,1,1,492.0572,469.3555
1,6,17,3,2,2,B,G,b,y,10,10,64001,1,1,451.5319,419.8246
1,6,17,3,2,2,B,G,b,y,10,10,64001,1,3,266.9165,448.3424
1,6,17,3,2,2,B,G,b,y,10,10,65001,1,1,257.9109,157.1604
1,6,17,3,2,2,B,G,b,y,10,10,65001,1,1,484.5525,193.1829
1,6,17,3,2,2,B,G,b,y,10,10,65001,1,1,703.6895,260.7251
1,6,17,3,2,2,B,G,b,y,10,10,65001,1,1,678.1735,349.2805
1,6,17,3,2,2,B,G,b,y,10,10,65001,1,1,359.9747,383.8021
1,6,17,3,2,2,B,G,b,y,10,10,65001,1,3,356.9728,470.8565
1,6,17,3,2,2,B,G,b,y,10,10,65001,1,1,405.0028,496.3724
1,6,17,3,2,2,B,G,b,y,10,10,66001,1,1,241.4006,229.2054
1,6,17,3,2,2,B,G,b,y,10,10,66001,1,1,269.9184,379.2992
1,6,17,3,2,2,B,G,b,y,10,10,66001,1,1,289.4306,494.8715
1,6,17,3,2,2,B,G,b,y,10,10,66001,1,3,553.5957,473.8583
1,6,17,3,2,2,B,G,b,y,10,10,66001,1,1,553.5957,214.1961
1,6,17,3,2,2,B,G,b,y,10,10,66001,1,1,586.6163,173.6707
1,6,17,3,2,2,B,G,b,y,10,10,66001,1,1,711.1942,272.7326
1,6,17,3,2,2,B,G,b,y,10,10,67001,1,1,286.4287,488.8677
1,6,17,3,2,2,B,G,b,y,10,10,67001,1,1,257.9109,394.3086
1,6,17,3,2,2,B,G,b,y,10,10,67001,1,1,254.909,268.2298
1,6,17,3,2,2,B,G,b,y,10,10,67001,1,1,495.0591,115.1341
1,6,17,3,2,2,B,G,b,y,10,10,67001,1,1,559.5994,230.7064
1,6,17,3,2,2,B,G,b,y,10,10,67001,1,1,717.1979,301.2505
1,6,17,3,2,2,B,G,b,y,10,10,67001,1,3,594.121,364.2899
1,6,17,3,2,2,B,G,b,y,10,10,68001,1,1,305.9409,488.8677
1,6,17,3,2,2,B,G,b,y,10,10,68001,1,1,242.9015,385.303
1,6,17,3,2,2,B,G,b,y,10,10,68001,1,1,247.4043,299.7495
1,6,17,3,2,2,B,G,b,y,10,10,68001,1,3,361.4756,203.6895
1,6,17,3,2,2,B,G,b,y,10,10,68001,1,1,460.5375,62.6013
1,6,17,3,2,2,B,G,b,y,10,10,68001,1,1,550.5938,274.2336
1,6,17,3,2,2,B,G,b,y,10,10,68001,1,1,567.1041,311.757
1,6,17,3,2,2,B,G,b,y,10,10,69001,1,1,332.9578,482.864
1,6,17,3,2,2,B,G,b,y,10,10,69001,1,1,283.4268,389.8058
1,6,17,3,2,2,B,G,b,y,10,10,69001,1,3,242.9015,304.2523
1,6,17,3,2,2,B,G,b,y,10,10,69001,1,1,209.8809,286.2411
1,6,17,3,2,2,B,G,b,y,10,10,69001,1,1,374.9841,127.1417
1,6,17,3,2,2,B,G,b,y,10,10,69001,1,1,481.5507,359.7871
1,6,17,3,2,2,B,G,b,y,10,10,69001,1,1,517.5732,382.3011
1,6,17,3,2,2,B,G,b,y,10,10,70001,1,1,328.455,479.8621
1,6,17,3,2,2,B,G,b,y,10,10,70001,1,1,394.4962,424.3274
1,6,17,3,2,2,B,G,b,y,10,10,70001,1,1,468.0422,422.8265
1,6,17,3,2,2,B,G,b,y,10,10,70001,1,1,478.5488,388.3049
1,6,17,3,2,2,B,G,b,y,10,10,70001,1,3,250.4062,428.8302
1,6,17,3,2,2,B,G,b,y,10,10,70001,1,1,286.4287,281.7383
1,6,17,3,2,2,B,G,b,y,10,10,70001,1,1,362.9765,143.652
1,6,17,3,2,2,B,G,b,y,10,10,71001,1,1,296.9353,488.8677
1,6,17,3,2,2,B,G,b,y,10,10,71001,1,1,335.9597,506.879
1,6,17,3,2,2,B,G,b,y,10,10,71001,1,1,380.9878,380.8002
1,6,17,3,2,2,B,G,b,y,10,10,71001,1,1,534.0835,337.273
1,6,17,3,2,2,B,G,b,y,10,10,71001,1,1,580.6126,422.8265
1,6,17,3,2,2,B,G,b,y,10,10,71001,1,3,244.4024,398.8114
1,6,17,3,2,2,B,G,b,y,10,10,71001,1,1,383.9897,121.1379
1,6,17,3,2,2,B,G,b,y,10,10,71001,1,1,520.575,112.1323
1,6,17,3,2,2,B,G,b,y,10,10,72001,1,1,284.9278,445.3405
1,6,17,3,2,2,B,G,b,y,10,10,72001,1,3,284.9278,401.8133
1,6,17,3,2,2,B,G,b,y,10,10,72001,1,1,235.3968,362.7889
1,6,17,3,2,2,B,G,b,y,10,10,72001,1,1,438.0235,220.1998
1,6,17,3,2,2,B,G,b,y,10,10,72001,1,1,442.5263,169.1679
1,6,17,3,2,2,B,G,b,y,10,10,72001,1,1,561.1004,193.1829
1,6,17,3,2,2,B,G,b,y,10,10,72001,1,1,573.1079,349.2805
1,6,17,3,2,2,B,G,b,y,10,10,72001,1,1,618.136,392.8077
1,6,17,3,2,2,B,G,b,y,10,10,73001,1,1,409.5056,344.7777
1,6,17,3,2,2,B,G,b,y,10,10,73001,1,1,571.6069,389.8058
1,6,17,3,2,2,B,G,b,y,10,10,73001,1,1,667.667,329.7683
1,6,17,3,2,2,B,G,b,y,10,10,73001,1,1,594.121,100.1248
1,6,17,3,2,2,B,G,b,y,10,10,73001,1,1,338.9615,112.1323
1,6,17,3,2,2,B,G,b,y,10,10,73001,1,1,326.954,298.2486
1,6,17,3,2,2,B,G,b,y,10,10,73001,1,1,257.9109,257.7233
1,6,17,3,2,2,B,G,b,y,10,10,73001,1,3,233.8959,314.7589
1,6,17,3,2,2,B,G,b,y,10,10,74001,1,3,238.3987,388.3049
1,6,17,3,2,2,B,G,b,y,10,10,74001,1,1,259.4118,356.7852
1,6,17,3,2,2,B,G,b,y,10,10,74001,1,1,403.5019,127.1417
1,6,17,3,2,2,B,G,b,y,10,10,74001,1,1,495.0591,103.1266
1,6,17,3,2,2,B,G,b,y,10,10,74001,1,1,666.166,190.1811
1,6,17,3,2,2,B,G,b,y,10,10,74001,1,1,667.667,275.7345
1,6,17,3,2,2,B,G,b,y,10,10,74001,1,1,586.6163,412.3199
1,6,17,3,2,2,B,G,b,y,10,10,74001,1,1,508.5675,400.3124
1,6,17,3,2,2,B,G,b,y,10,10,75001,1,3,248.9053,394.3086
1,6,17,3,2,2,B,G,b,y,10,10,75001,1,1,374.9841,431.8321
1,6,17,3,2,2,B,G,b,y,10,10,75001,1,1,514.5713,404.8152
1,6,17,3,2,2,B,G,b,y,10,10,75001,1,1,612.1323,448.3424
1,6,17,3,2,2,B,G,b,y,10,10,75001,1,1,708.1923,337.273
1,6,17,3,2,2,B,G,b,y,10,10,75001,1,1,645.1529,217.1979
1,6,17,3,2,2,B,G,b,y,10,10,75001,1,1,589.6182,229.2054
1,6,17,3,2,2,B,G,b,y,10,10,75001,1,1,478.5488,203.6895
1,6,17,3,2,2,B,G,b,y,10,10,76001,1,3,274.4212,490.3687
1,6,17,3,2,2,B,G,b,y,10,10,76001,1,1,377.9859,430.3311
1,6,17,3,2,2,B,G,b,y,10,10,76001,1,1,559.5994,517.3856
1,6,17,3,2,2,B,G,b,y,10,10,76001,1,1,513.0704,403.3143
1,6,17,3,2,2,B,G,b,y,10,10,76001,1,1,486.0535,343.2767
1,6,17,3,2,2,B,G,b,y,10,10,76001,1,1,347.9672,128.6426
1,6,17,3,2,2,B,G,b,y,10,10,76001,1,1,564.1023,125.6407
1,6,17,3,2,2,B,G,b,y,10,10,77001,1,1,412.5075,535.3968
1,6,17,3,2,2,B,G,b,y,10,10,77001,1,3,445.5281,484.3649
1,6,17,3,2,2,B,G,b,y,10,10,77001,1,1,418.5113,412.3199
1,6,17,3,2,2,B,G,b,y,10,10,77001,1,1,475.5469,431.8321
1,6,17,3,2,2,B,G,b,y,10,10,77001,1,1,517.5732,367.2917
1,6,17,3,2,2,B,G,b,y,10,10,77001,1,3,544.5901,218.6989
1,6,17,3,2,2,B,G,b,y,10,10,77001,1,1,278.924,128.6426
1,6,17,3,2,2,B,G,b,y,10,10,77001,1,1,547.5919,221.7008
1,6,17,3,2,2,B,G,b,y,10,10,78001,1,1,346.4662,532.3949
1,6,17,3,2,2,B,G,b,y,10,10,78001,1,1,421.5131,497.8734
1,6,17,3,2,2,B,G,b,y,10,10,78001,1,1,471.0441,428.8302
1,6,17,3,2,2,B,G,b,y,10,10,78001,1,3,505.5657,352.2824
1,6,17,3,2,2,B,G,b,y,10,10,78001,1,1,565.6032,242.7139
1,6,17,3,2,2,B,G,b,y,10,10,78001,1,1,616.6351,260.7251
1,6,17,3,2,2,B,G,b,y,10,10,79001,1,1,295.4343,490.3687
1,6,17,3,2,2,B,G,b,y,10,10,79001,1,1,421.5131,490.3687
1,6,17,3,2,2,B,G,b,y,10,10,79001,1,1,471.0441,478.3612
1,6,17,3,2,2,B,G,b,y,10,10,79001,1,1,655.6595,313.258
1,6,17,3,2,2,B,G,b,y,10,10,79001,1,1,661.6632,227.7045
1,6,17,3,2,2,B,G,b,y,10,10,79001,1,3,483.0516,59.5994
1,6,17,3,2,2,B,G,b,y,10,10,80001,1,1,250.4062,409.318
1,6,17,3,2,2,B,G,b,y,10,10,80001,1,1,424.515,491.8696
1,6,17,3,2,2,B,G,b,y,10,10,80001,1,1,439.5244,439.3368
1,6,17,3,2,2,B,G,b,y,10,10,80001,1,1,621.1379,395.8096
1,6,17,3,2,2,B,G,b,y,10,10,80001,1,1,585.1154,281.7383
1,6,17,3,2,2,B,G,b,y,10,10,80001,1,3,438.0235,113.6332
1,6,17,3,2,2,B,G,b,y,10,10,81001,1,1,423.0141,517.3856
1,6,17,3,2,2,B,G,b,y,10,10,81001,1,1,388.4925,434.834
1,6,17,3,2,2,B,G,b,y,10,10,81001,1,1,263.9146,322.2636
1,6,17,3,2,2,B,G,b,y,10,10,81001,1,3,414.0084,191.682
1,6,17,3,2,2,B,G,b,y,10,10,81001,1,1,480.0497,194.6839
1,6,17,3,2,2,B,G,b,y,10,10,81001,1,1,606.1285,445.3405
1,6,17,3,2,2,B,G,b,y,10,10,82001,1,3,385.4906,320.7627
1,6,17,3,2,2,B,G,b,y,10,10,82001,1,1,346.4662,257.7233
1,6,17,3,2,2,B,G,b,y,10,10,82001,1,1,408.0047,149.6557
1,6,17,3,2,2,B,G,b,y,10,10,82001,1,1,405.0028,85.1154
1,6,17,3,2,2,B,G,b,y,10,10,82001,1,1,460.5375,524.8902
1,6,17,3,2,2,B,G,b,y,10,10,82001,1,1,601.6257,487.3668
1,6,17,3,2,2,B,G,b,y,10,10,83001,1,1,519.0741,82.1135
1,6,17,3,2,2,B,G,b,y,10,10,83001,1,1,344.9653,125.6407
1,6,17,3,2,2,B,G,b,y,10,10,83001,1,1,353.9709,200.6876
1,6,17,3,2,2,B,G,b,y,10,10,83001,1,3,352.47,475.3593
1,6,17,3,2,2,B,G,b,y,10,10,83001,1,1,510.0685,512.8827
1,6,17,3,2,2,B,G,b,y,10,10,83001,1,1,529.5807,559.4118
1,6,17,3,2,2,B,G,b,y,10,10,84001,1,1,481.5507,458.849
1,6,17,3,2,2,B,G,b,y,10,10,84001,1,1,444.0272,509.8809
1,6,17,3,2,2,B,G,b,y,10,10,84001,1,3,253.4081,386.8039
1,6,17,3,2,2,B,G,b,y,10,10,84001,1,1,338.9615,227.7045
1,6,17,3,2,2,B,G,b,y,10,10,84001,1,1,307.4418,149.6557
1,6,17,3,2,2,B,G,b,y,10,10,84001,1,1,508.5675,77.6107
1,6,17,3,2,2,B,G,b,y,10,10,85001,1,1,388.4925,460.3499
1,6,17,3,2,2,B,G,b,y,10,10,85001,1,1,444.0272,416.8227
1,6,17,3,2,2,B,G,b,y,10,10,85001,1,1,349.4681,242.7139
1,6,17,3,2,2,B,G,b,y,10,10,85001,1,3,302.939,236.7101
1,6,17,3,2,2,B,G,b,y,10,10,85001,1,1,280.425,154.1585
1,6,17,3,2,2,B,G,b,y,10,10,85001,1,1,517.5732,77.6107
1,6,17,3,2,2,B,G,b,y,10,10,86001,1,1,391.4944,371.7946
1,6,17,3,2,2,B,G,b,y,10,10,86001,1,1,353.9709,358.2861
1,6,17,3,2,2,B,G,b,y,10,10,86001,1,1,331.4568,301.2505
1,6,17,3,2,2,B,G,b,y,10,10,86001,1,1,277.4231,169.1679
1,6,17,3,2,2,B,G,b,y,10,10,86001,1,3,397.4981,199.1867
1,6,17,3,2,2,B,G,b,y,10,10,86001,1,1,514.5713,82.1135
1,6,17,3,2,2,B,G,b,y,10,10,87001,1,1,362.9765,404.8152
1,6,17,3,2,2,B,G,b,y,10,10,87001,1,1,420.0122,332.7702
1,6,17,3,2,2,B,G,b,y,10,10,87001,1,3,474.046,287.742
1,6,17,3,2,2,B,G,b,y,10,10,87001,1,1,528.0797,77.6107
1,6,17,3,2,2,B,G,b,y,10,10,87001,1,1,281.9259,223.2017
1,6,17,3,2,2,B,G,b,y,10,10,87001,1,1,277.4231,302.7514
1,6,17,3,2,2,B,G,b,y,10,10,88001,1,1,281.9259,442.3386
1,6,17,3,2,2,B,G,b,y,10,10,88001,1,1,274.4212,263.727
1,6,17,3,2,2,B,G,b,y,10,10,88001,1,1,260.9128,200.6876
1,6,17,3,2,2,B,G,b,y,10,10,88001,1,1,507.0666,353.7833
1,6,17,3,2,2,B,G,b,y,10,10,88001,1,3,553.5957,173.6707
1,6,17,3,2,2,B,G,b,y,10,10,88001,1,1,553.5957,74.6088
1,6,17,3,2,2,B,G,b,y,10,10,89001,1,1,280.425,473.8583
1,6,17,3,2,2,B,G,b,y,10,10,89001,1,1,272.9203,319.2617
1,6,17,3,2,2,B,G,b,y,10,10,89001,1,1,280.425,160.1623
1,6,17,3,2,2,B,G,b,y,10,10,89001,1,3,439.5244,92.6201
1,6,17,3,2,2,B,G,b,y,10,10,89001,1,1,522.076,242.7139
1,6,17,3,2,2,B,G,b,y,10,10,89001,1,1,556.5976,335.772
1,6,17,3,2,2,B,G,b,y,10,10,90001,1,1,292.4325,491.8696
1,6,17,3,2,2,B,G,b,y,10,10,90001,1,1,292.4325,365.7908
1,6,17,3,2,2,B,G,b,y,10,10,90001,1,3,386.9916,218.6989
1,6,17,3,2,2,B,G,b,y,10,10,90001,1,1,286.4287,155.6595
1,6,17,3,2,2,B,G,b,y,10,10,90001,1,1,622.6388,311.757
1,6,17,3,2,2,B,G,b,y,10,10,90001,1,1,642.151,340.2749
1,6,17,3,2,2,B,G,b,y,10,10,91001,1,1,350.969,439.3368
1,6,17,3,2,2,B,G,b,y,10,10,91001,1,1,325.4531,400.3124
1,6,17,3,2,2,B,G,b,y,10,10,91001,1,3,382.4887,412.3199
1,6,17,3,2,2,B,G,b,y,10,10,91001,1,1,314.9465,127.1417
1,6,17,3,2,2,B,G,b,y,10,10,91001,1,1,678.1735,272.7326
1,6,17,3,2,2,B,G,b,y,10,10,91001,1,1,702.1886,281.7383
1,6,17,3,2,2,B,G,b,y,10,10,92001,1,1,385.4906,119.637
1,6,17,3,2,2,B,G,b,y,10,10,92001,1,3,350.969,290.7439
1,6,17,3,2,2,B,G,b,y,10,10,92001,1,1,343.4644,346.2786
1,6,17,3,2,2,B,G,b,y,10,10,92001,1,1,450.031,517.3856
1,6,17,3,2,2,B,G,b,y,10,10,92001,1,1,634.6463,191.682
1,6,17,3,2,2,B,G,b,y,10,10,92001,1,1,697.6857,236.7101
1,6,17,3,2,2,B,G,b,y,10,10,93001,1,1,681.1754,196.1848
1,6,17,3,2,2,B,G,b,y,10,10,93001,1,1,562.6013,203.6895
1,6,17,3,2,2,B,G,b,y,10,10,93001,1,1,487.5544,113.6332
1,6,17,3,2,2,B,G,b,y,10,10,93001,1,3,498.061,224.7026
1,6,17,3,2,2,B,G,b,y,10,10,93001,1,1,332.9578,298.2486
1,6,17,3,2,2,B,G,b,y,10,10,93001,1,1,522.076,482.864
1,6,17,3,2,2,B,G,b,y,10,10,94001,1,1,242.9015,313.258
1,6,17,3,2,2,B,G,b,y,10,10,94001,1,3,429.0178,262.2261
1,6,17,3,2,2,B,G,b,y,10,10,94001,1,1,523.5769,395.8096
1,6,17,3,2,2,B,G,b,y,10,10,94001,1,1,627.1417,241.2129
1,6,17,3,2,2,B,G,b,y,10,10,94001,1,1,652.6576,172.1698
1,6,17,3,2,2,B,G,b,y,10,10,94001,1,1,561.1004,127.1417
1,6,17,3,2,2,B,G,b,y,10,10,95001,1,1,451.5319,284.7402
1,6,17,3,2,2,B,G,b,y,10,10,95001,1,1,278.924,220.1998
1,6,17,3,2,2,B,G,b,y,10,10,95001,1,3,278.924,187.1792
1,6,17,3,2,2,B,G,b,y,10,10,95001,1,1,585.1154,130.1435
1,6,17,3,2,2,B,G,b,y,10,10,95001,1,1,618.136,115.1341
1,6,17,3,2,2,B,G,b,y,10,10,95001,1,1,676.6726,259.2242
1,6,17,3,2,2,B,G,b,y,10,10,96001,1,1,350.969,235.2092
1,6,17,3,2,2,B,G,b,y,10,10,96001,1,1,459.0366,148.1548
1,6,17,3,2,2,B,G,b,y,10,10,96001,1,3,432.0197,110.6313
1,6,17,3,2,2,B,G,b,y,10,10,96001,1,1,519.0741,79.1116
1,6,17,3,2,2,B,G,b,y,10,10,96001,1,1,625.6407,179.6745
1,6,17,3,2,2,B,G,b,y,10,10,96001,1,1,672.1698,259.2242
1,6,17,3,2,2,B,G,b,y,10,10,97001,1,1,355.4719,235.2092
1,6,17,3,2,2,B,G,b,y,10,10,97001,1,1,388.4925,193.1829
1,6,17,3,2,2,B,G,b,y,10,10,97001,1,3,459.0366,98.6238
1,6,17,3,2,2,B,G,b,y,10,10,97001,1,1,660.1623,203.6895
1,6,17,3,2,2,B,G,b,y,10,10,97001,1,1,676.6726,262.2261
1,6,17,3,2,2,B,G,b,y,10,10,98001,1,1,278.924,220.1998
1,6,17,3,2,2,B,G,b,y,10,10,98001,1,1,361.4756,230.7064
1,6,17,3,2,2,B,G,b,y,10,10,98001,1,3,558.0985,202.1886
1,6,17,3,2,2,B,G,b,y,10,10,98001,1,1,625.6407,268.2298
1,6,17,3,2,2,B,G,b,y,10,10,98001,1,1,705.1904,281.7383
1,6,17,3,2,2,B,G,b,y,10,10,99001,1,1,365.9784,205.1904
1,6,17,3,2,2,B,G,b,y,10,10,99001,1,1,365.9784,107.6295
1,6,17,3,2,2,B,G,b,y,10,10,99001,1,3,534.0835,301.2505
1,6,17,3,2,2,B,G,b,y,10,10,99001,1,1,595.622,376.2974
1,6,17,3,2,2,B,G,b,y,10,10,99001,1,1,682.6764,287.742
1,6,17,3,2,2,B,G,b,y,10,10,100001,1,1,349.4681,163.1642
1,6,17,3,2,2,B,G,b,y,10,10,100001,1,1,414.0084,119.637
1,6,17,3,2,2,B,G,b,y,10,10,100001,1,3,562.6013,307.2542
1,6,17,3,2,2,B,G,b,y,10,10,100001,1,1,598.6238,406.3161
1,6,17,3,2,2,B,G,b,y,10,10,100001,1,1,625.6407,332.7702
1,6,17,3,2,2,B,G,b,y,10,10,100001,1,1,687.1792,388.3049
1,6,17,3,2,2,B,G,b,y,10,10,101001,1,1,313.4456,115.1341
1,6,17,3,2,2,B,G,b,y,10,10,101001,1,1,568.6051,163.1642
1,6,17,3,2,2,B,G,b,y,10,10,101001,1,3,576.1098,107.6295
1,6,17,3,2,2,B,G,b,y,10,10,101001,1,1,546.091,386.8039
1,6,17,3,2,2,B,G,b,y,10,10,101001,1,1,567.1041,442.3386
1,6,17,3,2,2,B,G,b,y,10,10,101001,1,1,646.6538,419.8246
1,6,17,3,2,2,B,G,b,y,10,10,102001,1,1,260.9128,158.6614
1,6,17,3,2,2,B,G,b,y,10,10,102001,1,3,429.0178,116.6351
1,6,17,3,2,2,B,G,b,y,10,10,102001,1,1,655.6595,254.7214
1,6,17,3,2,2,B,G,b,y,10,10,102001,1,1,640.6501,451.3443
1,6,17,3,2,2,B,G,b,y,10,10,102001,1,1,526.5788,496.3724
1,6,17,3,2,2,B,G,b,y,10,10,102001,1,1,525.0779,398.8114
1,6,17,3,2,2,B,G,b,y,10,10,103001,1,3,355.4719,112.1323
1,6,17,3,2,2,B,G,b,y,10,10,103001,1,1,302.939,230.7064
1,6,17,3,2,2,B,G,b,y,10,10,103001,1,1,505.5657,388.3049
1,6,17,3,2,2,B,G,b,y,10,10,103001,1,1,507.0666,470.8565
1,6,17,3,2,2,B,G,b,y,10,10,103001,1,1,585.1154,463.3518
1,6,17,3,2,2,B,G,b,y,10,10,103001,1,1,676.6726,328.2674
1,6,17,3,2,2,B,G,b,y,10,10,104001,1,1,391.4944,143.652
1,6,17,3,2,2,B,G,b,y,10,10,104001,1,3,281.9259,221.7008
1,6,17,3,2,2,B,G,b,y,10,10,104001,1,1,451.5319,410.8189
1,6,17,3,2,2,B,G,b,y,10,10,104001,1,1,493.5582,401.8133
1,6,17,3,2,2,B,G,b,y,10,10,104001,1,1,582.1135,410.8189
1,6,17,3,2,2,B,G,b,y,10,10,104001,1,1,481.5507,553.4081
1,6,17,3,2,2,B,G,b,y,10,10,105001,1,1,405.0028,170.6689
1,6,17,3,2,2,B,G,b,y,10,10,105001,1,3,295.4343,304.2523
1,6,17,3,2,2,B,G,b,y,10,10,105001,1,1,362.9765,494.8715
1,6,17,3,2,2,B,G,b,y,10,10,105001,1,1,420.0122,449.8433
1,6,17,3,2,2,B,G,b,y,10,10,105001,1,1,477.0478,382.3011
1,6,17,3,2,2,B,G,b,y,10,10,105001,1,1,483.0516,463.3518
1,6,17,3,2,2,B,G,b,y,10,10,106001,1,1,403.5019,173.6707
1,6,17,3,2,2,B,G,b,y,10,10,106001,1,3,370.4812,331.2692
1,6,17,3,2,2,B,G,b,y,10,10,106001,1,1,441.0253,362.7889
1,6,17,3,2,2,B,G,b,y,10,10,106001,1,1,529.5807,326.7664
1,6,17,3,2,2,B,G,b,y,10,10,106001,1,1,448.53,448.3424
1,6,17,3,2,2,B,G,b,y,10,10,106001,1,1,328.455,476.8602
1,6,17,3,2,2,B,G,b,y,10,10,107001,1,1,408.0047,379.2992
1,6,17,3,2,2,B,G,b,y,10,10,107001,1,1,269.9184,493.3705
1,6,17,3,2,2,B,G,b,y,10,10,107001,1,1,438.0235,320.7627
1,6,17,3,2,2,B,G,b,y,10,10,107001,1,1,376.485,233.7083
1,6,17,3,2,2,B,G,b,y,10,10,107001,1,3,456.0347,230.7064
1,6,17,3,2,2,B,G,b,y,10,10,107001,1,1,519.0741,182.6764
