dummy,month,day,period,view,station,fgeno,mgeno,fcol,mcol,nf,nm,frame,something,sex,x,y
1,7,17,4,3,1,A,F,b,y,5,15,1,1,1,456,448
1,7,17,4,3,1,A,F,b,y,5,15,1001,1,1,575,500
1,7,17,4,3,1,A,F,b,y,5,15,2001,1,1,266,183
1,7,17,4,3,1,A,F,b,y,5,15,3001,1,1,305,43
1,7,17,4,3,1,A,F,b,y,5,15,4001,1,1,180,188
1,7,17,4,3,1,A,F,b,y,5,15,4001,1,1,185,126
1,7,17,4,3,1,A,F,b,y,5,15,5001,1,1,628,286
1,7,17,4,3,1,A,F,b,y,5,15,5001,1,1,601,314
1,7,17,4,3,1,A,F,b,y,5,15,6001,1,1,459,277
1,7,17,4,3,1,A,F,b,y,5,15,7001,1,1,688,457
1,7,17,4,3,1,A,F,b,y,5,15,8001,1,1,300,174
1,7,17,4,3,1,A,F,b,y,5,15,8001,1,1,324,494
1,7,17,4,3,1,A,F,b,y,5,15,9001,1,3,558,81
1,7,17,4,3,1,A,F,b,y,5,15,9001,1,1,403,76
1,7,17,4,3,1,A,F,b,y,5,15,9001,1,1,352,133
1,7,17,4,3,1,A,F,b,y,5,15,10001,1,1,212,317
1,7,17,4,3,1,A,F,b,y,5,15,10001,1,3,177,373
1,7,17,4,3,1,A,F,b,y,5,15,11001,1,3,217,122
1,7,17,4,3,1,A,F,b,y,5,15,11001,1,3,521,20
1,7,17,4,3,1,A,F,b,y,5,15,11001,1,1,215,160
1,7,17,4,3,1,A,F,b,y,5,15,11001,1,1,222,205
1,7,17,4,3,1,A,F,b,y,5,15,12001,1,1,278,112
1,7,17,4,3,1,A,F,b,y,5,15,12001,1,3,285,166
1,7,17,4,3,1,A,F,b,y,5,15,13001,1,1,585,93
1,7,17,4,3,1,A,F,b,y,5,15,13001,1,3,527,304
1,7,17,4,3,1,A,F,b,y,5,15,14001,1,3,693,390
1,7,17,4,3,1,A,F,b,y,5,15,14001,1,1,292,478
1,7,17,4,3,1,A,F,b,y,5,15,15001,1,1,626,286
1,7,17,4,3,1,A,F,b,y,5,15,15001,1,1,426,34
1,7,17,4,3,1,A,F,b,y,5,15,15001,1,3,586,259
1,7,17,4,3,1,A,F,b,y,5,15,16001,1,3,548,256
1,7,17,4,3,1,A,F,b,y,5,15,16001,1,1,583,288
1,7,17,4,3,1,A,F,b,y,5,15,17001,1,3,548,350
1,7,17,4,3,1,A,F,b,y,5,15,17001,1,1,670,458
1,7,17,4,3,1,A,F,b,y,5,15,17001,1,1,694,398
1,7,17,4,3,1,A,F,b,y,5,15,18001,1,3,538,470
1,7,17,4,3,1,A,F,b,y,5,15,18001,1,1,517,431
1,7,17,4,3,1,A,F,b,y,5,15,19001,1,3,541,512
1,7,17,4,3,1,A,F,b,y,5,15,19001,1,1,505,545
1,7,17,4,3,1,A,F,b,y,5,15,20001,1,3,345,488
1,7,17,4,3,1,A,F,b,y,5,15,20001,1,1,396,486
1,7,17,4,3,1,A,F,b,y,5,15,22001,1,1,582,316
1,7,17,4,3,1,A,F,b,y,5,15,23001,1,1,427,482
1,7,17,4,3,1,A,F,b,y,5,15,24001,1,1,193,212
1,7,17,4,3,1,A,F,b,y,5,15,24001,1,1,172,248
1,7,17,4,3,1,A,F,b,y,5,15,25001,1,1,655,411
1,7,17,4,3,1,A,F,b,y,5,15,26001,1,1,327,265
1,7,17,4,3,1,A,F,b,y,5,15,27001,1,1,587,508
1,7,17,4,3,1,A,F,b,y,5,15,28001,1,1,228,228
1,7,17,4,3,1,A,F,b,y,5,15,30001,1,1,630,147
1,7,17,4,3,1,A,F,b,y,5,15,31001,1,1,541,531
1,7,17,4,3,1,A,F,b,y,5,15,32001,1,1,394,405
1,7,17,4,3,1,A,F,b,y,5,15,34001,1,1,604,372
1,7,17,4,3,1,A,F,b,y,5,15,34001,1,3,475,576
1,7,17,4,3,1,A,F,b,y,5,15,35001,1,3,471,459
1,7,17,4,3,1,A,F,b,y,5,15,35001,1,1,291,432
1,7,17,4,3,1,A,F,b,y,5,15,36001,1,1,414,109
1,7,17,4,3,1,A,F,b,y,5,15,36001,1,1,329,136
1,7,17,4,3,1,A,F,b,y,5,15,36001,1,3,262,138
1,7,17,4,3,1,A,F,b,y,5,15,37001,1,1,667,396
1,7,17,4,3,1,A,F,b,y,5,15,37001,1,1,611,440
1,7,17,4,3,1,A,F,b,y,5,15,37001,1,1,509,24
1,7,17,4,3,1,A,F,b,y,5,15,38001,1,1,226,220
1,7,17,4,3,1,A,F,b,y,5,15,39001,1,1,581,487
1,7,17,4,3,1,A,F,b,y,5,15,41001,1,1,588,220
1,7,17,4,3,1,A,F,b,y,5,15,41001,1,1,272,488
1,7,17,4,3,1,A,F,b,y,5,15,41001,1,1,617,523
1,7,17,4,3,1,A,F,b,y,5,15,42001,1,1,669,326
1,7,17,4,3,1,A,F,b,y,5,15,43001,1,1,307,397
1,7,17,4,3,1,A,F,b,y,5,15,44001,1,1,249,174
1,7,17,4,3,1,A,F,b,y,5,15,47001,1,1,272,149
1,7,17,4,3,1,A,F,b,y,5,15,47001,1,1,152,313
1,7,17,4,3,1,A,F,b,y,5,15,47001,1,1,487,574
1,7,17,4,3,1,A,F,b,y,5,15,48001,1,1,298,504
1,7,17,4,3,1,A,F,b,y,5,15,49001,1,1,408,121
1,7,17,4,3,1,A,F,b,y,5,15,50001,1,1,685,468
1,7,17,4,3,1,A,F,b,y,5,15,51001,1,1,510,557
1,7,17,4,3,1,A,F,b,y,5,15,51001,1,1,516,581
1,7,17,4,3,1,A,F,b,y,5,15,52001,1,1,688,156
1,7,17,4,3,1,A,F,b,y,5,15,53001,1,1,594,224
1,7,17,4,3,1,A,F,b,y,5,15,54001,1,1,587,379
1,7,17,4,3,1,A,F,b,y,5,15,55001,1,1,343,492
1,7,17,4,3,1,A,F,b,y,5,15,56001,1,1,251,454
1,7,17,4,3,1,A,F,b,y,5,15,57001,1,1,688,228
1,7,17,4,3,1,A,F,b,y,5,15,57001,1,1,489,66
1,7,17,4,3,1,A,F,b,y,5,15,57001,1,1,387,33
1,7,17,4,3,1,A,F,b,y,5,15,58001,1,1,276,53
1,7,17,4,3,1,A,F,b,y,5,15,60001,1,1,621,191
1,7,17,4,3,1,A,F,b,y,5,15,60001,1,1,429,304
1,7,17,4,3,1,A,F,b,y,5,15,62001,1,1,686,132
1,7,17,4,3,1,A,F,b,y,5,15,64001,1,1,207,213
1,7,17,4,3,1,A,F,b,y,5,15,65001,1,1,424,250
1,7,17,4,3,1,A,F,b,y,5,15,66001,1,1,294,361
1,7,17,4,3,1,A,F,b,y,5,15,67001,1,1,689,246
1,7,17,4,3,1,A,F,b,y,5,15,68001,1,1,677,157
1,7,17,4,3,1,A,F,b,y,5,15,71001,1,1,212,159
1,7,17,4,3,1,A,F,b,y,5,15,71001,1,1,166,227
1,7,17,4,3,1,A,F,b,y,5,15,72001,1,1,294,326
1,7,17,4,3,1,A,F,b,y,5,15,72001,1,3,258,223
1,7,17,4,3,1,A,F,b,y,5,15,73001,1,3,291,375
1,7,17,4,3,1,A,F,b,y,5,15,73001,1,1,236,361
1,7,17,4,3,1,A,F,b,y,5,15,74001,1,3,377,208
1,7,17,4,3,1,A,F,b,y,5,15,74001,1,1,355,235
1,7,17,4,3,1,A,F,b,y,5,15,75001,1,3,338,287
1,7,17,4,3,1,A,F,b,y,5,15,75001,1,1,308,257
1,7,17,4,3,1,A,F,b,y,5,15,76001,1,1,565,431
1,7,17,4,3,1,A,F,b,y,5,15,76001,1,3,460,404
1,7,17,4,3,1,A,F,b,y,5,15,76001,1,1,315,218
1,7,17,4,3,1,A,F,b,y,5,15,77001,1,3,609,421
1,7,17,4,3,1,A,F,b,y,5,15,77001,1,1,444,13
1,7,17,4,3,1,A,F,b,y,5,15,78001,1,1,554,231
1,7,17,4,3,1,A,F,b,y,5,15,78001,1,3,520,191
1,7,17,4,3,1,A,F,b,y,5,15,79001,1,1,349,104
1,7,17,4,3,1,A,F,b,y,5,15,79001,1,3,333,146
1,7,17,4,3,1,A,F,b,y,5,15,80001,1,3,596,121
1,7,17,4,3,1,A,F,b,y,5,15,80001,1,1,578,86
1,7,17,4,3,1,A,F,b,y,5,15,80001,1,1,211,127
1,7,17,4,3,1,A,F,b,y,5,15,81001,1,1,613,276
1,7,17,4,3,1,A,F,b,y,5,15,81001,1,1,510,439
1,7,17,4,3,1,A,F,b,y,5,15,81001,1,3,546,433
1,7,17,4,3,1,A,F,b,y,5,15,82001,1,3,522,346
1,7,17,4,3,1,A,F,b,y,5,15,82001,1,1,567,377
1,7,17,4,3,1,A,F,b,y,5,15,83001,1,3,524,327
1,7,17,4,3,1,A,F,b,y,5,15,83001,1,1,274,113
1,7,17,4,3,1,A,F,b,y,5,15,83001,1,1,303,24
1,7,17,4,3,1,A,F,b,y,5,15,84001,1,1,571,272
1,7,17,4,3,1,A,F,b,y,5,15,84001,1,3,542,311
1,7,17,4,3,1,A,F,b,y,5,15,84001,1,1,489,423
1,7,17,4,3,1,A,F,b,y,5,15,85001,1,1,486,200
1,7,17,4,3,1,A,F,b,y,5,15,85001,1,3,429,214
1,7,17,4,3,1,A,F,b,y,5,15,86001,1,1,394,59
1,7,17,4,3,1,A,F,b,y,5,15,86001,1,1,268,78
1,7,17,4,3,1,A,F,b,y,5,15,86001,1,3,327,117
1,7,17,4,3,1,A,F,b,y,5,15,87001,1,1,522,572
1,7,17,4,3,1,A,F,b,y,5,15,88001,1,3,395,31
1,7,17,4,3,1,A,F,b,y,5,15,88001,1,1,384,4
1,7,17,4,3,1,A,F,b,y,5,15,90001,1,1,635,453
1,7,17,4,3,1,A,F,b,y,5,15,90001,1,1,639,152
1,7,17,4,3,1,A,F,b,y,5,15,91001,1,1,241,178
1,7,17,4,3,1,A,F,b,y,5,15,92001,1,1,588,216
1,7,17,4,3,1,A,F,b,y,5,15,94001,1,1,188,174
1,7,17,4,3,1,A,F,b,y,5,15,95001,1,1,486,446
1,7,17,4,3,1,A,F,b,y,5,15,96001,1,1,268,156
1,7,17,4,3,1,A,F,b,y,5,15,97001,1,1,540,65
1,7,17,4,3,1,A,F,b,y,5,15,98001,1,1,640,298
1,7,17,4,3,1,A,F,b,y,5,15,99001,1,1,639,382
1,7,17,4,3,1,A,F,b,y,5,15,100001,1,1,647,372
1,7,17,4,3,1,A,F,b,y,5,15,102001,1,1,219,425
1,7,17,4,3,1,A,F,b,y,5,15,102001,1,1,198,400
1,7,17,4,3,1,A,F,b,y,5,15,103001,1,1,618,150
1,7,17,4,3,1,A,F,b,y,5,15,104001,1,1,523,60
1,7,17,4,3,1,A,F,b,y,5,15,105001,1,1,639,433
1,7,17,4,3,1,A,F,b,y,5,15,106001,1,1,249,455
1,7,17,4,3,1,A,F,b,y,5,15,106001,1,1,243,403
1,7,17,4,3,1,A,F,b,y,5,15,107001,1,1,279,361
