dummy,month,day,period,view,station,fgeno,mgeno,fcol,mcol,nf,nm,frame,something,sex,x,y
1,7,10,3,0,2,A,E,b,y,5,15,1,1,1,453.7895,488
1,7,10,3,0,2,A,E,b,y,5,15,1,1,1,541.9474,556.4211
1,7,10,3,0,2,A,E,b,y,5,15,1001,1,1,601.1579,393.2632
1,7,10,3,0,2,A,E,b,y,5,15,1001,1,1,268.2632,476.1579
1,7,10,3,0,2,A,E,b,y,5,15,2001,1,1,519.5789,114.3158
1,7,10,3,0,2,A,E,b,y,5,15,2001,1,1,610.3684,393.2632
1,7,10,3,0,2,A,E,b,y,5,15,3001,1,1,599.8421,341.9474
1,7,10,3,0,2,A,E,b,y,5,15,3001,1,1,607.7368,389.3158
1,7,10,3,0,2,A,E,b,y,5,15,4001,1,1,353.7895,215.6316
1,7,10,3,0,2,A,E,b,y,5,15,4001,1,1,348.5263,147.2105
1,7,10,3,0,2,A,E,b,y,5,15,5001,1,1,219.5789,291.9474
1,7,10,3,0,2,A,E,b,y,5,15,5001,1,1,399.8421,118.2632
1,7,10,3,0,2,A,E,b,y,5,15,6001,1,1,227.4737,277.4737
1,7,10,3,0,2,A,E,b,y,5,15,7001,1,1,444.5789,290.6316
1,7,10,3,0,2,A,E,b,y,5,15,8001,1,1,436.6842,298.5263
1,7,10,3,0,2,A,E,b,y,5,15,9001,1,1,497.2105,324.8421
1,7,10,3,0,2,A,E,b,y,5,15,9001,1,1,578.7895,380.1053
1,7,10,3,0,2,A,E,b,y,5,15,10001,1,1,531.4211,502.4737
1,7,10,3,0,2,A,E,b,y,5,15,10001,1,1,256.4211,380.1053
1,7,10,3,0,2,A,E,b,y,5,15,10001,1,1,643.2632,110.3684
1,7,10,3,0,2,A,E,b,y,5,15,11001,1,1,295.8947,281.4211
1,7,10,3,0,2,A,E,b,y,5,15,11001,1,1,639.3158,143.2632
1,7,10,3,0,2,A,E,b,y,5,15,12001,1,1,352.4737,219.5789
1,7,10,3,0,2,A,E,b,y,5,15,13001,1,1,377.4737,222.2105
1,7,10,3,0,2,A,E,b,y,5,15,14001,1,1,347.2105,218.2632
1,7,10,3,0,2,A,E,b,y,5,15,15001,1,1,549.8421,348.5263
1,7,10,3,0,2,A,E,b,y,5,15,15001,1,1,540.6316,434.0526
1,7,10,3,0,2,A,E,b,y,5,15,16001,1,1,336.6842,411.6842
1,7,10,3,0,2,A,E,b,y,5,15,16001,1,1,699.8421,207.7368
1,7,10,3,0,2,A,E,b,y,5,15,17001,1,1,638,215.6316
1,7,10,3,0,2,A,E,b,y,5,15,18001,1,1,359.0526,98.5263
1,7,10,3,0,2,A,E,b,y,5,15,19001,1,1,322.2105,259.0526
1,7,10,3,0,2,A,E,b,y,5,15,20001,1,1,339.3158,261.6842
1,7,10,3,0,2,A,E,b,y,5,15,21001,1,1,339.3158,261.6842
1,7,10,3,0,2,A,E,b,y,5,15,22001,1,1,443.2632,113
1,7,10,3,0,2,A,E,b,y,5,15,23001,1,1,443.2632,120.8947
1,7,10,3,0,2,A,E,b,y,5,15,24001,1,1,416.9474,493.2632
1,7,10,3,0,2,A,E,b,y,5,15,25001,1,1,415.6316,82.7368
1,7,10,3,0,2,A,E,b,y,5,15,26001,1,1,407.7368,74.8421
1,7,10,3,0,2,A,E,b,y,5,15,27001,1,1,419.5789,91.9474
1,7,10,3,0,2,A,E,b,y,5,15,28001,1,1,415.6316,84.0526
1,7,10,3,0,2,A,E,b,y,5,15,29001,1,1,440.6316,130.1053
1,7,10,3,0,2,A,E,b,y,5,15,30001,1,1,444.5789,132.7368
1,7,10,3,0,2,A,E,b,y,5,15,31001,1,1,449.8421,131.4211
1,7,10,3,0,2,A,E,b,y,5,15,32001,1,1,443.2632,132.7368
1,7,10,3,0,2,A,E,b,y,5,15,33001,1,1,394.5789,168.2632
1,7,10,3,0,2,A,E,b,y,5,15,34001,1,1,555.1053,97.2105
1,7,10,3,0,2,A,E,b,y,5,15,36001,1,1,445.8947,103.7895
1,7,10,3,0,2,A,E,b,y,5,15,37001,1,1,441.9474,102.4737
1,7,10,3,0,2,A,E,b,y,5,15,38001,1,1,488,548.5263
1,7,10,3,0,2,A,E,b,y,5,15,39001,1,1,582.7368,90.6316
1,7,10,3,0,2,A,E,b,y,5,15,40001,1,1,447.2105,334.0526
1,7,10,3,0,2,A,E,b,y,5,15,41001,1,1,452.4737,339.3158
1,7,10,3,0,2,A,E,b,y,5,15,42001,1,1,323.5263,185.3684
1,7,10,3,0,2,A,E,b,y,5,15,43001,1,1,466.9474,93.2632
1,7,10,3,0,2,A,E,b,y,5,15,44001,1,1,301.1579,266.9474
1,7,10,3,0,2,A,E,b,y,5,15,45001,1,1,306.4211,241.9474
1,7,10,3,0,2,A,E,b,y,5,15,45001,1,1,591.9474,127.4737
1,7,10,3,0,2,A,E,b,y,5,15,46001,1,1,286.6842,252.4737
1,7,10,3,0,2,A,E,b,y,5,15,46001,1,1,494.5789,153.7895
1,7,10,3,0,2,A,E,b,y,5,15,47001,1,1,370.8947,141.9474
1,7,10,3,0,2,A,E,b,y,5,15,48001,1,1,315.6316,176.1579
1,7,10,3,0,2,A,E,b,y,5,15,49001,1,1,513,114.3158
1,7,10,3,0,2,A,E,b,y,5,15,50001,1,1,511.6842,116.9474
1,7,10,3,0,2,A,E,b,y,5,15,51001,1,1,598.5263,80.1053
1,7,10,3,0,2,A,E,b,y,5,15,52001,1,1,352.4737,139.3158
1,7,10,3,0,2,A,E,b,y,5,15,53001,1,1,345.8947,244.5789
1,7,10,3,0,2,A,E,b,y,5,15,54001,1,1,526.1579,306.4211
1,7,10,3,0,2,A,E,b,y,5,15,55001,1,1,480.1053,101.1579
1,7,10,3,0,2,A,E,b,y,5,15,56001,1,1,328.7895,166.9474
1,7,10,3,0,2,A,E,b,y,5,15,57001,1,1,340.6316,164.3158
1,7,10,3,0,2,A,E,b,y,5,15,58001,1,1,393.2632,243.2632
1,7,10,3,0,2,A,E,b,y,5,15,59001,1,1,572.2105,178.7895
1,7,10,3,0,2,A,E,b,y,5,15,60001,1,1,556.4211,98.5263
1,7,10,3,0,2,A,E,b,y,5,15,61001,1,1,395.8947,111.6842
1,7,10,3,0,2,A,E,b,y,5,15,62001,1,1,407.7368,127.4737
1,7,10,3,0,2,A,E,b,y,5,15,63001,1,1,431.4211,89.3158
1,7,10,3,0,2,A,E,b,y,5,15,64001,1,1,360.3684,106.4211
1,7,10,3,0,2,A,E,b,y,5,15,65001,1,1,314.3158,127.4737
1,7,10,3,0,2,A,E,b,y,5,15,66001,1,1,366.9474,307.7368
1,7,10,3,0,2,A,E,b,y,5,15,67001,1,1,353.7895,113
1,7,10,3,0,2,A,E,b,y,5,15,68001,1,1,330.1053,107.7368
1,7,10,3,0,2,A,E,b,y,5,15,69001,1,1,465.6316,89.3158
1,7,10,3,0,2,A,E,b,y,5,15,70001,1,1,465.6316,94.5789
1,7,10,3,0,2,A,E,b,y,5,15,71001,1,1,469.5789,135.3684
1,7,10,3,0,2,A,E,b,y,5,15,72001,1,1,466.9474,130.1053
1,7,10,3,0,2,A,E,b,y,5,15,73001,1,1,303.7895,173.5263
1,7,10,3,0,2,A,E,b,y,5,15,74001,1,1,301.1579,170.8947
1,7,10,3,0,2,A,E,b,y,5,15,75001,1,1,465.6316,222.2105
1,7,10,3,0,2,A,E,b,y,5,15,76001,1,1,459.0526,206.4211
1,7,10,3,0,2,A,E,b,y,5,15,77001,1,1,465.6316,209.0526
1,7,10,3,0,2,A,E,b,y,5,15,78001,1,1,306.4211,169.5789
1,7,10,3,0,2,A,E,b,y,5,15,79001,1,1,638,144.5789
1,7,10,3,0,2,A,E,b,y,5,15,80001,1,1,586.6842,147.2105
1,7,10,3,0,2,A,E,b,y,5,15,81001,1,1,531.4211,116.9474
1,7,10,3,0,2,A,E,b,y,5,15,82001,1,1,536.6842,122.2105
1,7,10,3,0,2,A,E,b,y,5,15,83001,1,1,535.3684,110.3684
1,7,10,3,0,2,A,E,b,y,5,15,84001,1,1,281.4211,356.4211
1,7,10,3,0,2,A,E,b,y,5,15,85001,1,1,407.7368,380.1053
1,7,10,3,0,2,A,E,b,y,5,15,86001,1,1,424.8421,380.1053
1,7,10,3,0,2,A,E,b,y,5,15,87001,1,1,416.9474,381.4211
1,7,10,3,0,2,A,E,b,y,5,15,88001,1,1,435.3684,380.1053
1,7,10,3,0,2,A,E,b,y,5,15,89001,1,1,430.1053,374.8421
1,7,10,3,0,2,A,E,b,y,5,15,90001,1,1,519.5789,226.1579
1,7,10,3,0,2,A,E,b,y,5,15,91001,1,1,515.6316,235.3684
1,7,10,3,0,2,A,E,b,y,5,15,92001,1,1,534.0526,76.1579
1,7,10,3,0,2,A,E,b,y,5,15,93001,1,1,547.2105,88
1,7,10,3,0,2,A,E,b,y,5,15,94001,1,1,532.7368,88
1,7,10,3,0,2,A,E,b,y,5,15,95001,1,1,540.6316,93.2632
1,7,10,3,0,2,A,E,b,y,5,15,96001,1,1,281.4211,176.1579
1,7,10,3,0,2,A,E,b,y,5,15,97001,1,1,639.3158,203.7895
1,7,10,3,0,2,A,E,b,y,5,15,98001,1,1,647.2105,206.4211
1,7,10,3,0,2,A,E,b,y,5,15,99001,1,1,647.2105,201.1579
1,7,10,3,0,2,A,E,b,y,5,15,100001,1,1,507.7368,551.1579
1,7,10,3,0,2,A,E,b,y,5,15,100001,1,1,653.7895,210.3684
1,7,10,3,0,2,A,E,b,y,5,15,101001,1,1,678.7895,161.6842
1,7,10,3,0,2,A,E,b,y,5,15,102001,1,1,445.8947,248.5263
1,7,10,3,0,2,A,E,b,y,5,15,103001,1,1,328.7895,161.6842
1,7,10,3,0,2,A,E,b,y,5,15,104001,1,1,488,260.3684
1,7,10,3,0,2,A,E,b,y,5,15,105001,1,1,303.7895,140.6316
1,7,10,3,0,2,A,E,b,y,5,15,107001,1,1,286.6842,170.8947
