dummy,month,day,period,view,station,fgeno,mgeno,fcol,mcol,nf,nm,frame,something,sex,x,y
1,7,15,1,2,1,C,G,g,r,10,10,1,1,3,251,105
1,7,15,1,2,1,C,G,g,r,10,10,1,1,3,274,346
1,7,15,1,2,1,C,G,g,r,10,10,1,1,3,180,341
1,7,15,1,2,1,C,G,g,r,10,10,1001,1,3,268,192
1,7,15,1,2,1,C,G,g,r,10,10,1001,1,3,95,250
1,7,15,1,2,1,C,G,g,r,10,10,1001,1,1,271,124
1,7,15,1,2,1,C,G,g,r,10,10,1001,1,3,604,293
1,7,15,1,2,1,C,G,g,r,10,10,2001,1,3,513,509
1,7,15,1,2,1,C,G,g,r,10,10,2001,1,3,398,322
1,7,15,1,2,1,C,G,g,r,10,10,2001,1,3,285,266
1,7,15,1,2,1,C,G,g,r,10,10,3001,1,3,424,230
1,7,15,1,2,1,C,G,g,r,10,10,3001,1,3,411,534
1,7,15,1,2,1,C,G,g,r,10,10,4001,1,3,183,425
1,7,15,1,2,1,C,G,g,r,10,10,4001,1,3,254,514
1,7,15,1,2,1,C,G,g,r,10,10,5001,1,3,583,414
1,7,15,1,2,1,C,G,g,r,10,10,5001,1,3,433,454
1,7,15,1,2,1,C,G,g,r,10,10,5001,1,3,194,381
1,7,15,1,2,1,C,G,g,r,10,10,5001,1,3,87,275
1,7,15,1,2,1,C,G,g,r,10,10,6001,1,3,500,109
1,7,15,1,2,1,C,G,g,r,10,10,6001,1,1,223,91
1,7,15,1,2,1,C,G,g,r,10,10,6001,1,3,281,536
1,7,15,1,2,1,C,G,g,r,10,10,6001,1,3,400,532
1,7,15,1,2,1,C,G,g,r,10,10,6001,1,3,563,458
1,7,15,1,2,1,C,G,g,r,10,10,7001,1,3,448,94
1,7,15,1,2,1,C,G,g,r,10,10,7001,1,3,306,283
1,7,15,1,2,1,C,G,g,r,10,10,7001,1,3,447,359
1,7,15,1,2,1,C,G,g,r,10,10,8001,1,3,240,267
1,7,15,1,2,1,C,G,g,r,10,10,8001,1,3,299,263
1,7,15,1,2,1,C,G,g,r,10,10,9001,1,3,226,62
1,7,15,1,2,1,C,G,g,r,10,10,9001,1,3,102,271
1,7,15,1,2,1,C,G,g,r,10,10,9001,1,1,75,298
1,7,15,1,2,1,C,G,g,r,10,10,10001,1,1,609,290
1,7,15,1,2,1,C,G,g,r,10,10,10001,1,3,486,499
1,7,15,1,2,1,C,G,g,r,10,10,11001,1,3,557,211
1,7,15,1,2,1,C,G,g,r,10,10,11001,1,1,137,449
1,7,15,1,2,1,C,G,g,r,10,10,12001,1,3,522,495
1,7,15,1,2,1,C,G,g,r,10,10,13001,1,1,305,385
1,7,15,1,2,1,C,G,g,r,10,10,13001,1,1,247,334
1,7,15,1,2,1,C,G,g,r,10,10,13001,1,3,181,333
1,7,15,1,2,1,C,G,g,r,10,10,14001,1,3,171,324
1,7,15,1,2,1,C,G,g,r,10,10,14001,1,1,65,330
1,7,15,1,2,1,C,G,g,r,10,10,15001,1,3,189,322
1,7,15,1,2,1,C,G,g,r,10,10,15001,1,1,215,543
1,7,15,1,2,1,C,G,g,r,10,10,16001,1,3,169,335
1,7,15,1,2,1,C,G,g,r,10,10,16001,1,1,159,369
1,7,15,1,2,1,C,G,g,r,10,10,17001,1,3,169,330
1,7,15,1,2,1,C,G,g,r,10,10,17001,1,1,99,344
1,7,15,1,2,1,C,G,g,r,10,10,18001,1,3,177,341
1,7,15,1,2,1,C,G,g,r,10,10,18001,1,1,163,89
1,7,15,1,2,1,C,G,g,r,10,10,19001,1,3,192,363
1,7,15,1,2,1,C,G,g,r,10,10,19001,1,1,425,541
1,7,15,1,2,1,C,G,g,r,10,10,20001,1,3,191,397
1,7,15,1,2,1,C,G,g,r,10,10,21001,1,3,204,336
1,7,15,1,2,1,C,G,g,r,10,10,21001,1,3,189,368
1,7,15,1,2,1,C,G,g,r,10,10,22001,1,3,190,326
1,7,15,1,2,1,C,G,g,r,10,10,22001,1,3,182,361
1,7,15,1,2,1,C,G,g,r,10,10,23001,1,3,201,335
1,7,15,1,2,1,C,G,g,r,10,10,23001,1,3,187,358
1,7,15,1,2,1,C,G,g,r,10,10,23001,1,1,148,343
1,7,15,1,2,1,C,G,g,r,10,10,24001,1,3,186,260
1,7,15,1,2,1,C,G,g,r,10,10,24001,1,3,188,336
1,7,15,1,2,1,C,G,g,r,10,10,25001,1,3,280,292
1,7,15,1,2,1,C,G,g,r,10,10,25001,1,3,180,346
1,7,15,1,2,1,C,G,g,r,10,10,25001,1,3,299,452
1,7,15,1,2,1,C,G,g,r,10,10,26001,1,3,481,214
1,7,15,1,2,1,C,G,g,r,10,10,26001,1,3,372,328
1,7,15,1,2,1,C,G,g,r,10,10,26001,1,3,177,348
1,7,15,1,2,1,C,G,g,r,10,10,27001,1,3,365,144
1,7,15,1,2,1,C,G,g,r,10,10,27001,1,3,148,231
1,7,15,1,2,1,C,G,g,r,10,10,27001,1,3,195,343
1,7,15,1,2,1,C,G,g,r,10,10,27001,1,1,359,536
1,7,15,1,2,1,C,G,g,r,10,10,28001,1,3,177,303
1,7,15,1,2,1,C,G,g,r,10,10,28001,1,3,182,348
1,7,15,1,2,1,C,G,g,r,10,10,28001,1,3,258,465
1,7,15,1,2,1,C,G,g,r,10,10,29001,1,3,187,320
1,7,15,1,2,1,C,G,g,r,10,10,29001,1,3,181,345
1,7,15,1,2,1,C,G,g,r,10,10,29001,1,3,354,278
1,7,15,1,2,1,C,G,g,r,10,10,30001,1,3,205,336
1,7,15,1,2,1,C,G,g,r,10,10,30001,1,3,176,338
1,7,15,1,2,1,C,G,g,r,10,10,30001,1,3,184,362
1,7,15,1,2,1,C,G,g,r,10,10,31001,1,3,194,328
1,7,15,1,2,1,C,G,g,r,10,10,31001,1,3,207,358
1,7,15,1,2,1,C,G,g,r,10,10,31001,1,3,179,359
1,7,15,1,2,1,C,G,g,r,10,10,32001,1,3,149,273
1,7,15,1,2,1,C,G,g,r,10,10,32001,1,3,181,343
1,7,15,1,2,1,C,G,g,r,10,10,32001,1,3,299,461
1,7,15,1,2,1,C,G,g,r,10,10,33001,1,3,239,322
1,7,15,1,2,1,C,G,g,r,10,10,33001,1,3,258,431
1,7,15,1,2,1,C,G,g,r,10,10,33001,1,3,363,339
1,7,15,1,2,1,C,G,g,r,10,10,34001,1,3,226,360
1,7,15,1,2,1,C,G,g,r,10,10,34001,1,3,177,340
1,7,15,1,2,1,C,G,g,r,10,10,34001,1,3,143,305
1,7,15,1,2,1,C,G,g,r,10,10,35001,1,3,255,357
1,7,15,1,2,1,C,G,g,r,10,10,35001,1,3,188,364
1,7,15,1,2,1,C,G,g,r,10,10,35001,1,3,183,330
1,7,15,1,2,1,C,G,g,r,10,10,35001,1,1,94,285
1,7,15,1,2,1,C,G,g,r,10,10,36001,1,3,382,282
1,7,15,1,2,1,C,G,g,r,10,10,36001,1,3,261,514
1,7,15,1,2,1,C,G,g,r,10,10,36001,1,3,146,465
1,7,15,1,2,1,C,G,g,r,10,10,37001,1,3,444,111
1,7,15,1,2,1,C,G,g,r,10,10,37001,1,3,320,73
1,7,15,1,2,1,C,G,g,r,10,10,37001,1,3,163,363
1,7,15,1,2,1,C,G,g,r,10,10,38001,1,3,525,116
1,7,15,1,2,1,C,G,g,r,10,10,38001,1,3,192,336
1,7,15,1,2,1,C,G,g,r,10,10,38001,1,3,375,510
1,7,15,1,2,1,C,G,g,r,10,10,39001,1,3,255,88
1,7,15,1,2,1,C,G,g,r,10,10,39001,1,3,256,256
1,7,15,1,2,1,C,G,g,r,10,10,39001,1,3,219,358
1,7,15,1,2,1,C,G,g,r,10,10,40001,1,3,443,244
1,7,15,1,2,1,C,G,g,r,10,10,40001,1,3,259,265
1,7,15,1,2,1,C,G,g,r,10,10,40001,1,3,181,359
1,7,15,1,2,1,C,G,g,r,10,10,40001,1,1,241,357
1,7,15,1,2,1,C,G,g,r,10,10,41001,1,3,157,278
1,7,15,1,2,1,C,G,g,r,10,10,41001,1,3,157,339
1,7,15,1,2,1,C,G,g,r,10,10,41001,1,3,371,534
1,7,15,1,2,1,C,G,g,r,10,10,41001,1,1,545,218
1,7,15,1,2,1,C,G,g,r,10,10,42001,1,3,344,91
1,7,15,1,2,1,C,G,g,r,10,10,42001,1,3,131,203
1,7,15,1,2,1,C,G,g,r,10,10,42001,1,3,191,354
1,7,15,1,2,1,C,G,g,r,10,10,43001,1,3,201,368
1,7,15,1,2,1,C,G,g,r,10,10,43001,1,3,176,386
1,7,15,1,2,1,C,G,g,r,10,10,43001,1,3,230,69
1,7,15,1,2,1,C,G,g,r,10,10,43001,1,3,146,83
1,7,15,1,2,1,C,G,g,r,10,10,44001,1,3,151,365
1,7,15,1,2,1,C,G,g,r,10,10,44001,1,3,192,356
1,7,15,1,2,1,C,G,g,r,10,10,44001,1,3,379,562
1,7,15,1,2,1,C,G,g,r,10,10,45001,1,3,180,340
1,7,15,1,2,1,C,G,g,r,10,10,45001,1,3,106,308
1,7,15,1,2,1,C,G,g,r,10,10,46001,1,3,262,262
1,7,15,1,2,1,C,G,g,r,10,10,46001,1,3,176,327
1,7,15,1,2,1,C,G,g,r,10,10,47001,1,3,173,353
1,7,15,1,2,1,C,G,g,r,10,10,47001,1,3,118,446
1,7,15,1,2,1,C,G,g,r,10,10,48001,1,3,256,181
1,7,15,1,2,1,C,G,g,r,10,10,49001,1,3,150,113
1,7,15,1,2,1,C,G,g,r,10,10,49001,1,3,239,495
1,7,15,1,2,1,C,G,g,r,10,10,50001,1,3,175,372
1,7,15,1,2,1,C,G,g,r,10,10,51001,1,3,346,394
1,7,15,1,2,1,C,G,g,r,10,10,52001,1,3,435,547
1,7,15,1,2,1,C,G,g,r,10,10,52001,1,3,320,13
1,7,15,1,2,1,C,G,g,r,10,10,53001,1,3,354,338
1,7,15,1,2,1,C,G,g,r,10,10,53001,1,3,590,328
1,7,15,1,2,1,C,G,g,r,10,10,54001,1,3,338,58
1,7,15,1,2,1,C,G,g,r,10,10,54001,1,1,332,16
1,7,15,1,2,1,C,G,g,r,10,10,54001,1,3,162,343
1,7,15,1,2,1,C,G,g,r,10,10,55001,1,3,277,263
1,7,15,1,2,1,C,G,g,r,10,10,55001,1,3,182,358
1,7,15,1,2,1,C,G,g,r,10,10,55001,1,1,248,319
1,7,15,1,2,1,C,G,g,r,10,10,56001,1,3,179,341
1,7,15,1,2,1,C,G,g,r,10,10,56001,1,3,349,483
1,7,15,1,2,1,C,G,g,r,10,10,56001,1,1,210,493
1,7,15,1,2,1,C,G,g,r,10,10,57001,1,3,185,341
1,7,15,1,2,1,C,G,g,r,10,10,57001,1,3,157,370
1,7,15,1,2,1,C,G,g,r,10,10,58001,1,3,186,339
1,7,15,1,2,1,C,G,g,r,10,10,58001,1,3,368,497
1,7,15,1,2,1,C,G,g,r,10,10,59001,1,3,365,57
1,7,15,1,2,1,C,G,g,r,10,10,59001,1,3,359,545
1,7,15,1,2,1,C,G,g,r,10,10,60001,1,3,221,57
1,7,15,1,2,1,C,G,g,r,10,10,60001,1,3,172,342
1,7,15,1,2,1,C,G,g,r,10,10,61001,1,3,598,396
1,7,15,1,2,1,C,G,g,r,10,10,61001,1,3,182,356
1,7,15,1,2,1,C,G,g,r,10,10,62001,1,3,229,345
1,7,15,1,2,1,C,G,g,r,10,10,62001,1,3,178,350
1,7,15,1,2,1,C,G,g,r,10,10,63001,1,3,232,411
1,7,15,1,2,1,C,G,g,r,10,10,63001,1,3,81,188
1,7,15,1,2,1,C,G,g,r,10,10,64001,1,1,438,471
1,7,15,1,2,1,C,G,g,r,10,10,64001,1,3,160,463
1,7,15,1,2,1,C,G,g,r,10,10,64001,1,3,149,493
1,7,15,1,2,1,C,G,g,r,10,10,65001,1,3,299,26
1,7,15,1,2,1,C,G,g,r,10,10,66001,1,3,581,132
1,7,15,1,2,1,C,G,g,r,10,10,79001,1,1,572,233
1,7,15,1,2,1,C,G,g,r,10,10,79001,1,1,310,398
1,7,15,1,2,1,C,G,g,r,10,10,80001,1,1,448,381
1,7,15,1,2,1,C,G,g,r,10,10,81001,1,1,438,180
1,7,15,1,2,1,C,G,g,r,10,10,82001,1,1,310,530
1,7,15,1,2,1,C,G,g,r,10,10,84001,1,1,543,456
1,7,15,1,2,1,C,G,g,r,10,10,84001,1,1,522,445
1,7,15,1,2,1,C,G,g,r,10,10,85001,1,1,252,116
1,7,15,1,2,1,C,G,g,r,10,10,87001,1,1,333,230
1,7,15,1,2,1,C,G,g,r,10,10,88001,1,1,220,275
1,7,15,1,2,1,C,G,g,r,10,10,89001,1,1,595,311
1,7,15,1,2,1,C,G,g,r,10,10,89001,1,1,513,315
1,7,15,1,2,1,C,G,g,r,10,10,90001,1,1,490,189
1,7,15,1,2,1,C,G,g,r,10,10,94001,1,1,385,308
1,7,15,1,2,1,C,G,g,r,10,10,97001,1,3,195,341
1,7,15,1,2,1,C,G,g,r,10,10,100001,1,1,525,398
1,7,15,1,2,1,C,G,g,r,10,10,101001,1,1,352,18
1,7,15,1,2,1,C,G,g,r,10,10,105001,1,1,438,112
1,7,15,1,2,1,C,G,g,r,10,10,106001,1,1,400,434
1,7,15,1,2,1,C,G,g,r,10,10,107001,1,1,454,26
