dummy,month,day,period,view,station,fgeno,mgeno,fcol,mcol,nf,nm,frame,something,sex,x,y
1,6,24,4,2,2,B,G,b,y,15,5,1,1,3,522.076,287.742
1,6,24,4,2,2,B,G,b,y,15,5,1001,1,3,486.0535,307.2542
1,6,24,4,2,2,B,G,b,y,15,5,2001,1,3,480.0497,310.2561
1,6,24,4,2,2,B,G,b,y,15,5,3001,1,3,510.0685,295.2467
1,6,24,4,2,2,B,G,b,y,15,5,4001,1,3,487.5544,337.273
1,6,24,4,2,2,B,G,b,y,15,5,5001,1,3,508.5675,322.2636
1,6,24,4,2,2,B,G,b,y,15,5,6001,1,3,507.0666,310.2561
1,6,24,4,2,2,B,G,b,y,15,5,7001,1,3,553.5957,319.2617
1,6,24,4,2,2,B,G,b,y,15,5,7001,1,3,586.6163,146.6538
1,6,24,4,2,2,B,G,b,y,15,5,8001,1,3,463.5394,314.7589
1,6,24,4,2,2,B,G,b,y,15,5,8001,1,3,361.4756,53.5957
1,6,24,4,2,2,B,G,b,y,15,5,8001,1,1,423.0141,242.7139
1,6,24,4,2,2,B,G,b,y,15,5,18001,1,1,466.5413,118.136
1,6,24,4,2,2,B,G,b,y,15,5,19001,1,1,460.5375,115.1341
1,6,24,4,2,2,B,G,b,y,15,5,20001,1,1,469.5432,113.6332
1,6,24,4,2,2,B,G,b,y,15,5,21001,1,1,466.5413,104.6276
1,6,24,4,2,2,B,G,b,y,15,5,22001,1,1,465.0403,115.1341
1,6,24,4,2,2,B,G,b,y,15,5,23001,1,1,466.5413,112.1323
1,6,24,4,2,2,B,G,b,y,15,5,24001,1,1,474.046,118.136
1,6,24,4,2,2,B,G,b,y,15,5,25001,1,1,474.046,109.1304
1,6,24,4,2,2,B,G,b,y,15,5,26001,1,1,417.0103,85.1154
1,6,24,4,2,2,B,G,b,y,15,5,26001,1,1,534.0835,259.2242
1,6,24,4,2,2,B,G,b,y,15,5,26001,1,3,483.0516,284.7402
1,6,24,4,2,2,B,G,b,y,15,5,27001,1,3,525.0779,347.7795
1,6,24,4,2,2,B,G,b,y,15,5,27001,1,1,292.4325,283.2392
1,6,24,4,2,2,B,G,b,y,15,5,27001,1,1,218.8865,265.228
1,6,24,4,2,2,B,G,b,y,15,5,28001,1,3,544.5901,337.273
1,6,24,4,2,2,B,G,b,y,15,5,28001,1,1,307.4418,256.2223
1,6,24,4,2,2,B,G,b,y,15,5,29001,1,3,535.5844,319.2617
1,6,24,4,2,2,B,G,b,y,15,5,29001,1,1,302.939,245.7158
1,6,24,4,2,2,B,G,b,y,15,5,30001,1,3,519.0741,334.2711
1,6,24,4,2,2,B,G,b,y,15,5,30001,1,1,520.575,281.7383
1,6,24,4,2,2,B,G,b,y,15,5,31001,1,3,571.6069,328.2674
1,6,24,4,2,2,B,G,b,y,15,5,31001,1,1,540.0872,283.2392
1,6,24,4,2,2,B,G,b,y,15,5,32001,1,3,601.6257,319.2617
1,6,24,4,2,2,B,G,b,y,15,5,32001,1,1,537.0854,284.7402
1,6,24,4,2,2,B,G,b,y,15,5,33001,1,1,547.5919,292.2448
1,6,24,4,2,2,B,G,b,y,15,5,34001,1,1,541.5882,284.7402
1,6,24,4,2,2,B,G,b,y,15,5,35001,1,1,540.0872,280.2373
1,6,24,4,2,2,B,G,b,y,15,5,35001,1,1,274.4212,155.6595
1,6,24,4,2,2,B,G,b,y,15,5,36001,1,1,543.0891,280.2373
1,6,24,4,2,2,B,G,b,y,15,5,36001,1,1,280.425,154.1585
1,6,24,4,2,2,B,G,b,y,15,5,37001,1,1,540.0872,277.2355
1,6,24,4,2,2,B,G,b,y,15,5,38001,1,1,541.5882,280.2373
1,6,24,4,2,2,B,G,b,y,15,5,39001,1,1,537.0854,284.7402
1,6,24,4,2,2,B,G,b,y,15,5,40001,1,1,540.0872,290.7439
1,6,24,4,2,2,B,G,b,y,15,5,41001,1,1,546.091,280.2373
1,6,24,4,2,2,B,G,b,y,15,5,42001,1,1,552.0947,283.2392
1,6,24,4,2,2,B,G,b,y,15,5,43001,1,1,543.0891,280.2373
1,6,24,4,2,2,B,G,b,y,15,5,44001,1,1,544.5901,280.2373
1,6,24,4,2,2,B,G,b,y,15,5,45001,1,1,544.5901,284.7402
1,6,24,4,2,2,B,G,b,y,15,5,46001,1,1,543.0891,280.2373
1,6,24,4,2,2,B,G,b,y,15,5,47001,1,1,541.5882,280.2373
1,6,24,4,2,2,B,G,b,y,15,5,48001,1,1,609.1304,199.1867
1,6,24,4,2,2,B,G,b,y,15,5,49001,1,1,631.6445,208.1923
1,6,24,4,2,2,B,G,b,y,15,5,50001,1,1,642.151,206.6914
1,6,24,4,2,2,B,G,b,y,15,5,51001,1,1,643.652,205.1904
1,6,24,4,2,2,B,G,b,y,15,5,52001,1,1,651.1567,206.6914
1,6,24,4,2,2,B,G,b,y,15,5,53001,1,3,712.6951,289.243
1,6,24,4,2,2,B,G,b,y,15,5,54001,1,3,693.1829,314.7589
1,6,24,4,2,2,B,G,b,y,15,5,54001,1,1,535.5844,73.1079
1,6,24,4,2,2,B,G,b,y,15,5,55001,1,1,534.0835,68.6051
1,6,24,4,2,2,B,G,b,y,15,5,55001,1,3,388.4925,553.4081
1,6,24,4,2,2,B,G,b,y,15,5,56001,1,1,412.5075,79.1116
1,6,24,4,2,2,B,G,b,y,15,5,58001,1,1,310.4437,130.1435
1,6,24,4,2,2,B,G,b,y,15,5,59001,1,1,304.44,119.637
1,6,24,4,2,2,B,G,b,y,15,5,59001,1,3,397.4981,523.3893
1,6,24,4,2,2,B,G,b,y,15,5,60001,1,1,304.44,119.637
1,6,24,4,2,2,B,G,b,y,15,5,60001,1,3,382.4887,455.8471
1,6,24,4,2,2,B,G,b,y,15,5,61001,1,1,400.5,448.3424
1,6,24,4,2,2,B,G,b,y,15,5,61001,1,3,397.4981,388.3049
1,6,24,4,2,2,B,G,b,y,15,5,62001,1,1,382.4887,331.2692
1,6,24,4,2,2,B,G,b,y,15,5,62001,1,3,412.5075,293.7458
1,6,24,4,2,2,B,G,b,y,15,5,63001,1,3,531.0816,247.2167
1,6,24,4,2,2,B,G,b,y,15,5,63001,1,1,481.5507,256.2223
1,6,24,4,2,2,B,G,b,y,15,5,64001,1,3,532.5826,232.2073
1,6,24,4,2,2,B,G,b,y,15,5,64001,1,1,460.5375,208.1923
1,6,24,4,2,2,B,G,b,y,15,5,65001,1,3,615.1341,239.712
1,6,24,4,2,2,B,G,b,y,15,5,65001,1,1,462.0385,205.1904
1,6,24,4,2,2,B,G,b,y,15,5,66001,1,3,429.0178,83.6144
1,6,24,4,2,2,B,G,b,y,15,5,66001,1,1,447.0291,68.6051
1,6,24,4,2,2,B,G,b,y,15,5,67001,1,3,392.9953,106.1285
1,6,24,4,2,2,B,G,b,y,15,5,68001,1,3,244.4024,328.2674
1,6,24,4,2,2,B,G,b,y,15,5,69001,1,3,347.9672,140.6501
1,6,24,4,2,2,B,G,b,y,15,5,70001,1,1,481.5507,100.1248
1,6,24,4,2,2,B,G,b,y,15,5,70001,1,3,522.076,79.1116
1,6,24,4,2,2,B,G,b,y,15,5,71001,1,1,346.4662,125.6407
1,6,24,4,2,2,B,G,b,y,15,5,71001,1,3,405.0028,136.1473
1,6,24,4,2,2,B,G,b,y,15,5,71001,1,3,550.5938,80.6126
1,6,24,4,2,2,B,G,b,y,15,5,72001,1,1,280.425,283.2392
1,6,24,4,2,2,B,G,b,y,15,5,72001,1,3,394.4962,130.1435
1,6,24,4,2,2,B,G,b,y,15,5,72001,1,3,559.5994,76.1098
1,6,24,4,2,2,B,G,b,y,15,5,73001,1,1,275.9221,287.742
1,6,24,4,2,2,B,G,b,y,15,5,73001,1,3,423.0141,136.1473
1,6,24,4,2,2,B,G,b,y,15,5,73001,1,3,547.5919,74.6088
1,6,24,4,2,2,B,G,b,y,15,5,74001,1,3,562.6013,77.6107
1,6,24,4,2,2,B,G,b,y,15,5,75001,1,3,561.1004,82.1135
1,6,24,4,2,2,B,G,b,y,15,5,76001,1,3,556.5976,82.1135
1,6,24,4,2,2,B,G,b,y,15,5,77001,1,3,565.6032,79.1116
1,6,24,4,2,2,B,G,b,y,15,5,78001,1,3,561.1004,89.6182
1,6,24,4,2,2,B,G,b,y,15,5,79001,1,3,564.1023,89.6182
1,6,24,4,2,2,B,G,b,y,15,5,80001,1,3,564.1023,89.6182
1,6,24,4,2,2,B,G,b,y,15,5,81001,1,3,582.1135,103.1266
1,6,24,4,2,2,B,G,b,y,15,5,82001,1,3,582.1135,103.1266
1,6,24,4,2,2,B,G,b,y,15,5,93001,1,2,202.3762,314.7589
1,6,24,4,2,2,B,G,b,y,15,5,95001,1,2,472.545,208.1923
1,6,24,4,2,2,B,G,b,y,15,5,96001,1,2,690.1811,209.6932
1,6,24,4,2,2,B,G,b,y,15,5,97001,1,3,552.0947,97.1229
1,6,24,4,2,2,B,G,b,y,15,5,97001,1,3,320.9503,182.6764
1,6,24,4,2,2,B,G,b,y,15,5,98001,1,3,585.1154,125.6407
1,6,24,4,2,2,B,G,b,y,15,5,98001,1,3,508.5675,328.2674
1,6,24,4,2,2,B,G,b,y,15,5,99001,1,3,469.5432,320.7627
1,6,24,4,2,2,B,G,b,y,15,5,99001,1,1,522.076,199.1867
1,6,24,4,2,2,B,G,b,y,15,5,99001,1,3,582.1135,112.1323
1,6,24,4,2,2,B,G,b,y,15,5,100001,1,3,595.622,125.6407
1,6,24,4,2,2,B,G,b,y,15,5,100001,1,3,534.0835,323.7645
1,6,24,4,2,2,B,G,b,y,15,5,100001,1,1,712.6951,235.2092
1,6,24,4,2,2,B,G,b,y,15,5,101001,1,3,586.6163,148.1548
1,6,24,4,2,2,B,G,b,y,15,5,101001,1,3,517.5732,308.7552
1,6,24,4,2,2,B,G,b,y,15,5,101001,1,1,717.1979,238.2111
1,6,24,4,2,2,B,G,b,y,15,5,102001,1,3,448.53,287.742
1,6,24,4,2,2,B,G,b,y,15,5,102001,1,3,517.5732,299.7495
1,6,24,4,2,2,B,G,b,y,15,5,102001,1,1,714.1961,229.2054
1,6,24,4,2,2,B,G,b,y,15,5,103001,1,3,442.5263,302.7514
1,6,24,4,2,2,B,G,b,y,15,5,103001,1,3,487.5544,365.7908
1,6,24,4,2,2,B,G,b,y,15,5,103001,1,1,712.6951,232.2073
1,6,24,4,2,2,B,G,b,y,15,5,104001,1,3,445.5281,314.7589
1,6,24,4,2,2,B,G,b,y,15,5,104001,1,3,424.515,371.7946
1,6,24,4,2,2,B,G,b,y,15,5,104001,1,1,708.1923,227.7045
1,6,24,4,2,2,B,G,b,y,15,5,105001,1,3,486.0535,401.8133
1,6,24,4,2,2,B,G,b,y,15,5,105001,1,3,499.5619,316.2598
1,6,24,4,2,2,B,G,b,y,15,5,105001,1,1,709.6932,238.2111
1,6,24,4,2,2,B,G,b,y,15,5,106001,1,3,513.0704,356.7852
1,6,24,4,2,2,B,G,b,y,15,5,106001,1,3,486.0535,269.7308
1,6,24,4,2,2,B,G,b,y,15,5,106001,1,1,712.6951,236.7101
1,6,24,4,2,2,B,G,b,y,15,5,107001,1,3,529.5807,301.2505
1,6,24,4,2,2,B,G,b,y,15,5,107001,1,2,486.0535,251.7195
1,6,24,4,2,2,B,G,b,y,15,5,107001,1,1,711.1942,241.2129
