dummy,month,day,period,view,station,fgeno,mgeno,fcol,mcol,nf,nm,frame,something,sex,x,y
1,6,30,4,1,2,A,F,r,g,10,10,1,1,1,702.3595,165.9959
1,6,30,4,1,2,A,F,r,g,10,10,1,1,3,397.4008,510.624
1,6,30,4,1,2,A,F,r,g,10,10,1001,1,1,439.5496,81.6983
1,6,30,4,1,2,A,F,r,g,10,10,1001,1,3,539.9628,438.7231
1,6,30,4,1,2,A,F,r,g,10,10,2001,1,1,432.1116,82.938
1,6,30,4,1,2,A,F,r,g,10,10,2001,1,3,573.4339,423.8471
1,6,30,4,1,2,A,F,r,g,10,10,3001,1,1,631.6983,131.2851
1,6,30,4,1,2,A,F,r,g,10,10,3001,1,3,657.7314,417.6488
1,6,30,4,1,2,A,F,r,g,10,10,4001,1,1,626.7397,126.3264
1,6,30,4,1,2,A,F,r,g,10,10,4001,1,3,663.9298,426.3264
1,6,30,4,1,2,A,F,r,g,10,10,5001,1,1,315.5826,159.7975
1,6,30,4,1,2,A,F,r,g,10,10,5001,1,3,660.2107,425.0868
1,6,30,4,1,2,A,F,r,g,10,10,6001,1,3,666.4091,421.3678
1,6,30,4,1,2,A,F,r,g,10,10,7001,1,3,686.2438,421.3678
1,6,30,4,1,2,A,F,r,g,10,10,8001,1,3,680.0455,426.3264
1,6,30,4,1,2,A,F,r,g,10,10,9001,1,3,613.1033,443.6818
1,6,30,4,1,2,A,F,r,g,10,10,9001,1,1,708.5579,369.3017
1,6,30,4,1,2,A,F,r,g,10,10,10001,1,3,574.6736,428.8058
1,6,30,4,1,2,A,F,r,g,10,10,11001,1,1,600.7066,463.5165
1,6,30,4,1,2,A,F,r,g,10,10,11001,1,3,718.4752,425.0868
1,6,30,4,1,2,A,F,r,g,10,10,12001,1,1,461.8636,359.3843
1,6,30,4,1,2,A,F,r,g,10,10,12001,1,1,456.905,210.624
1,6,30,4,1,2,A,F,r,g,10,10,12001,1,3,494.095,577.5661
1,6,30,4,1,2,A,F,r,g,10,10,13001,1,3,510.2107,572.6074
1,6,30,4,1,2,A,F,r,g,10,10,13001,1,1,590.7893,427.5661
1,6,30,4,1,2,A,F,r,g,10,10,14001,1,1,247.4008,332.1116
1,6,30,4,1,2,A,F,r,g,10,10,14001,1,3,500.2934,566.4091
1,6,30,4,1,2,A,F,r,g,10,10,15001,1,1,563.5165,439.9628
1,6,30,4,1,2,A,F,r,g,10,10,15001,1,3,508.9711,496.9876
1,6,30,4,1,2,A,F,r,g,10,10,15001,1,1,542.4421,525.5
1,6,30,4,1,2,A,F,r,g,10,10,16001,1,1,484.1777,130.0455
1,6,30,4,1,2,A,F,r,g,10,10,16001,1,3,484.1777,570.1281
1,6,30,4,1,2,A,F,r,g,10,10,17001,1,1,635.4174,116.4091
1,6,30,4,1,2,A,F,r,g,10,10,17001,1,1,666.4091,210.624
1,6,30,4,1,2,A,F,r,g,10,10,17001,1,2,702.3595,198.2273
1,6,30,4,1,2,A,F,r,g,10,10,18001,1,3,437.0702,111.4504
1,6,30,4,1,2,A,F,r,g,10,10,18001,1,1,592.0289,158.5579
1,6,30,4,1,2,A,F,r,g,10,10,19001,1,3,393.6818,211.8636
1,6,30,4,1,2,A,F,r,g,10,10,19001,1,1,486.657,443.6818
1,6,30,4,1,2,A,F,r,g,10,10,20001,1,3,360.2107,229.219
1,6,30,4,1,2,A,F,r,g,10,10,21001,1,3,403.5992,169.7149
1,6,30,4,1,2,A,F,r,g,10,10,21001,1,1,227.5661,198.2273
1,6,30,4,1,2,A,F,r,g,10,10,22001,1,1,341.6157,247.814
1,6,30,4,1,2,A,F,r,g,10,10,22001,1,3,370.1281,346.9876
1,6,30,4,1,2,A,F,r,g,10,10,22001,1,1,647.814,483.3512
1,6,30,4,1,2,A,F,r,g,10,10,23001,1,1,366.4091,387.8967
1,6,30,4,1,2,A,F,r,g,10,10,23001,1,1,331.6983,349.4669
1,6,30,4,1,2,A,F,r,g,10,10,23001,1,3,382.5248,339.5496
1,6,30,4,1,2,A,F,r,g,10,10,24001,1,1,318.062,304.8388
1,6,30,4,1,2,A,F,r,g,10,10,24001,1,3,341.6157,354.4256
1,6,30,4,1,2,A,F,r,g,10,10,25001,1,3,372.6074,257.7314
1,6,30,4,1,2,A,F,r,g,10,10,25001,1,1,507.7314,149.8802
1,6,30,4,1,2,A,F,r,g,10,10,26001,1,3,358.9711,369.3017
1,6,30,4,1,2,A,F,r,g,10,10,26001,1,2,398.6405,342.0289
1,6,30,4,1,2,A,F,r,g,10,10,26001,1,1,277.1529,487.0702
1,6,30,4,1,2,A,F,r,g,10,10,27001,1,3,344.095,323.4339
1,6,30,4,1,2,A,F,r,g,10,10,27001,1,1,396.1612,328.3926
1,6,30,4,1,2,A,F,r,g,10,10,28001,1,3,407.3182,95.3347
1,6,30,4,1,2,A,F,r,g,10,10,28001,1,1,476.7397,360.624
1,6,30,4,1,2,A,F,r,g,10,10,29001,1,3,385.0041,144.9215
1,6,30,4,1,2,A,F,r,g,10,10,29001,1,1,642.8554,187.0702
1,6,30,4,1,2,A,F,r,g,10,10,30001,1,3,391.2025,143.6818
1,6,30,4,1,2,A,F,r,g,10,10,30001,1,1,473.0207,446.1612
1,6,30,4,1,2,A,F,r,g,10,10,31001,1,3,402.3595,58.1446
1,6,30,4,1,2,A,F,r,g,10,10,31001,1,1,538.7231,54.4256
1,6,30,4,1,2,A,F,r,g,10,10,32001,1,3,420.9545,108.9711
1,6,30,4,1,2,A,F,r,g,10,10,32001,1,1,326.7397,451.1198
1,6,30,4,1,2,A,F,r,g,10,10,33001,1,3,428.3926,192.0289
1,6,30,4,1,2,A,F,r,g,10,10,33001,1,1,692.4421,210.624
1,6,30,4,1,2,A,F,r,g,10,10,34001,1,3,535.0041,170.9545
1,6,30,4,1,2,A,F,r,g,10,10,34001,1,1,542.4421,118.8884
1,6,30,4,1,2,A,F,r,g,10,10,34001,1,3,583.3512,342.0289
1,6,30,4,1,2,A,F,r,g,10,10,35001,1,3,386.2438,400.2934
1,6,30,4,1,2,A,F,r,g,10,10,35001,1,1,619.3017,102.7727
1,6,30,4,1,2,A,F,r,g,10,10,36001,1,1,606.905,131.2851
1,6,30,4,1,2,A,F,r,g,10,10,36001,1,3,682.5248,251.5331
1,6,30,4,1,2,A,F,r,g,10,10,37001,1,1,635.4174,257.7314
1,6,30,4,1,2,A,F,r,g,10,10,37001,1,3,637.8967,335.8306
1,6,30,4,1,2,A,F,r,g,10,10,38001,1,3,642.8554,325.9132
1,6,30,4,1,2,A,F,r,g,10,10,38001,1,1,642.8554,385.4174
1,6,30,4,1,2,A,F,r,g,10,10,38001,1,1,305.6653,515.5826
1,6,30,4,1,2,A,F,r,g,10,10,39001,1,1,651.5331,330.8719
1,6,30,4,1,2,A,F,r,g,10,10,40001,1,1,569.7149,346.9876
1,6,30,4,1,2,A,F,r,g,10,10,40001,1,1,487.8967,541.6157
1,6,30,4,1,2,A,F,r,g,10,10,43001,1,3,547.4008,201.9463
1,6,30,4,1,2,A,F,r,g,10,10,43001,1,1,394.9215,448.6405
1,6,30,4,1,2,A,F,r,g,10,10,44001,1,3,367.6488,227.9793
1,6,30,4,1,2,A,F,r,g,10,10,44001,1,1,458.1446,180.8719
1,6,30,4,1,2,A,F,r,g,10,10,45001,1,3,389.9628,267.6488
1,6,30,4,1,2,A,F,r,g,10,10,45001,1,1,561.0372,373.0207
1,6,30,4,1,2,A,F,r,g,10,10,46001,1,3,375.0868,178.3926
1,6,30,4,1,2,A,F,r,g,10,10,46001,1,1,624.2603,177.1529
1,6,30,4,1,2,A,F,r,g,10,10,47001,1,1,518.8884,529.219
1,6,30,4,1,2,A,F,r,g,10,10,48001,1,3,325.5,441.2025
1,6,30,4,1,2,A,F,r,g,10,10,49001,1,1,439.5496,376.7397
1,6,30,4,1,2,A,F,r,g,10,10,49001,1,3,454.4256,325.9132
1,6,30,4,1,2,A,F,r,g,10,10,49001,1,1,506.4917,51.9463
1,6,30,4,1,2,A,F,r,g,10,10,50001,1,3,351.5331,416.4091
1,6,30,4,1,2,A,F,r,g,10,10,50001,1,1,620.5413,500.7066
1,6,30,4,1,2,A,F,r,g,10,10,51001,1,3,350.2934,256.4917
1,6,30,4,1,2,A,F,r,g,10,10,51001,1,1,340.376,167.2355
1,6,30,4,1,2,A,F,r,g,10,10,52001,1,3,345.3347,262.6901
1,6,30,4,1,2,A,F,r,g,10,10,52001,1,1,321.781,364.343
1,6,30,4,1,2,A,F,r,g,10,10,53001,1,3,366.4091,146.1612
1,6,30,4,1,2,A,F,r,g,10,10,53001,1,1,298.2273,282.5248
1,6,30,4,1,2,A,F,r,g,10,10,53001,1,1,420.9545,489.5496
1,6,30,4,1,2,A,F,r,g,10,10,54001,1,3,350.2934,94.095
1,6,30,4,1,2,A,F,r,g,10,10,54001,1,1,596.9876,113.9298
1,6,30,4,1,2,A,F,r,g,10,10,55001,1,3,564.7562,85.4174
1,6,30,4,1,2,A,F,r,g,10,10,55001,1,1,499.0537,48.2273
1,6,30,4,1,2,A,F,r,g,10,10,56001,1,3,372.6074,225.5
1,6,30,4,1,2,A,F,r,g,10,10,56001,1,1,417.2355,152.3595
1,6,30,4,1,2,A,F,r,g,10,10,57001,1,3,396.1612,215.5826
1,6,30,4,1,2,A,F,r,g,10,10,57001,1,1,350.2934,250.2934
1,6,30,4,1,2,A,F,r,g,10,10,58001,1,3,559.7975,50.7066
1,6,30,4,1,2,A,F,r,g,10,10,58001,1,1,734.5909,386.657
1,6,30,4,1,2,A,F,r,g,10,10,59001,1,3,520.1281,63.1033
1,6,30,4,1,2,A,F,r,g,10,10,59001,1,1,287.0702,211.8636
1,6,30,4,1,2,A,F,r,g,10,10,60001,1,3,520.1281,85.4174
1,6,30,4,1,2,A,F,r,g,10,10,60001,1,1,543.6818,170.9545
1,6,30,4,1,2,A,F,r,g,10,10,61001,1,3,461.8636,87.8967
1,6,30,4,1,2,A,F,r,g,10,10,61001,1,1,492.8554,120.1281
1,6,30,4,1,2,A,F,r,g,10,10,62001,1,3,371.3678,237.8967
1,6,30,4,1,2,A,F,r,g,10,10,62001,1,1,287.0702,195.7479
1,6,30,4,1,2,A,F,r,g,10,10,63001,1,3,357.7314,342.0289
1,6,30,4,1,2,A,F,r,g,10,10,63001,1,1,413.5165,224.2603
1,6,30,4,1,2,A,F,r,g,10,10,64001,1,3,352.7727,402.7727
1,6,30,4,1,2,A,F,r,g,10,10,64001,1,1,306.905,368.062
1,6,30,4,1,2,A,F,r,g,10,10,65001,1,3,394.9215,442.4421
1,6,30,4,1,2,A,F,r,g,10,10,66001,1,3,318.062,363.1033
1,6,30,4,1,2,A,F,r,g,10,10,66001,1,1,497.814,55.6653
1,6,30,4,1,2,A,F,r,g,10,10,67001,1,3,315.5826,301.1198
1,6,30,4,1,2,A,F,r,g,10,10,67001,1,1,630.4587,344.5083
1,6,30,4,1,2,A,F,r,g,10,10,68001,1,3,334.1777,261.4504
1,6,30,4,1,2,A,F,r,g,10,10,68001,1,1,482.938,376.7397
1,6,30,4,1,2,A,F,r,g,10,10,69001,1,3,389.9628,261.4504
1,6,30,4,1,2,A,F,r,g,10,10,69001,1,1,497.814,174.6736
1,6,30,4,1,2,A,F,r,g,10,10,70001,1,1,318.062,200.7066
1,6,30,4,1,2,A,F,r,g,10,10,70001,1,3,433.3512,303.5992
1,6,30,4,1,2,A,F,r,g,10,10,71001,1,1,326.7397,199.4669
1,6,30,4,1,2,A,F,r,g,10,10,71001,1,3,356.4917,415.1694
1,6,30,4,1,2,A,F,r,g,10,10,72001,1,3,375.0868,209.3843
1,6,30,4,1,2,A,F,r,g,10,10,72001,1,1,491.6157,320.9545
1,6,30,4,1,2,A,F,r,g,10,10,73001,1,1,554.8388,120.1281
1,6,30,4,1,2,A,F,r,g,10,10,73001,1,1,600.7066,127.5661
1,6,30,4,1,2,A,F,r,g,10,10,73001,1,3,629.219,317.2355
1,6,30,4,1,2,A,F,r,g,10,10,74001,1,1,288.3099,96.5744
1,6,30,4,1,2,A,F,r,g,10,10,74001,1,3,520.1281,120.1281
1,6,30,4,1,2,A,F,r,g,10,10,75001,1,1,272.1942,144.9215
1,6,30,4,1,2,A,F,r,g,10,10,75001,1,3,517.6488,90.376
1,6,30,4,1,2,A,F,r,g,10,10,76001,1,1,254.8388,151.1198
1,6,30,4,1,2,A,F,r,g,10,10,76001,1,3,520.1281,95.3347
1,6,30,4,1,2,A,F,r,g,10,10,77001,1,3,521.3678,92.8554
1,6,30,4,1,2,A,F,r,g,10,10,78001,1,3,543.6818,115.1694
1,6,30,4,1,2,A,F,r,g,10,10,78001,1,1,618.062,252.7727
1,6,30,4,1,2,A,F,r,g,10,10,79001,1,3,456.905,32.1116
1,6,30,4,1,2,A,F,r,g,10,10,79001,1,1,626.7397,183.3512
1,6,30,4,1,2,A,F,r,g,10,10,80001,1,3,463.1033,215.5826
1,6,30,4,1,2,A,F,r,g,10,10,80001,1,1,615.5826,111.4504
1,6,30,4,1,2,A,F,r,g,10,10,81001,1,3,424.6736,280.0455
1,6,30,4,1,2,A,F,r,g,10,10,81001,1,1,672.6074,121.3678
1,6,30,4,1,2,A,F,r,g,10,10,82001,1,3,365.1694,405.2521
1,6,30,4,1,2,A,F,r,g,10,10,82001,1,1,474.2603,306.0785
1,6,30,4,1,2,A,F,r,g,10,10,83001,1,3,358.9711,408.9711
1,6,30,4,1,2,A,F,r,g,10,10,83001,1,1,547.4008,223.0207
1,6,30,4,1,2,A,F,r,g,10,10,85001,1,1,686.2438,167.2355
1,6,30,4,1,2,A,F,r,g,10,10,86001,1,1,662.6901,236.657
1,6,30,4,1,2,A,F,r,g,10,10,86001,1,2,722.1942,245.3347
1,6,30,4,1,2,A,F,r,g,10,10,87001,1,3,501.5331,175.9132
1,6,30,4,1,2,A,F,r,g,10,10,87001,1,1,215.1694,368.062
1,6,30,4,1,2,A,F,r,g,10,10,88001,1,3,476.7397,163.5165
1,6,30,4,1,2,A,F,r,g,10,10,88001,1,1,564.7562,306.0785
1,6,30,4,1,2,A,F,r,g,10,10,89001,1,3,448.2273,136.2438
1,6,30,4,1,2,A,F,r,g,10,10,89001,1,1,537.4835,230.4587
1,6,30,4,1,2,A,F,r,g,10,10,89001,1,1,604.4256,399.0537
1,6,30,4,1,2,A,F,r,g,10,10,90001,1,3,415.9959,115.1694
1,6,30,4,1,2,A,F,r,g,10,10,90001,1,1,624.2603,115.1694
1,6,30,4,1,2,A,F,r,g,10,10,91001,1,3,391.2025,208.1446
1,6,30,4,1,2,A,F,r,g,10,10,91001,1,1,535.0041,467.2355
1,6,30,4,1,2,A,F,r,g,10,10,92001,1,3,375.0868,277.5661
1,6,30,4,1,2,A,F,r,g,10,10,92001,1,1,604.4256,277.5661
1,6,30,4,1,2,A,F,r,g,10,10,93001,1,3,386.2438,287.4835
1,6,30,4,1,2,A,F,r,g,10,10,93001,1,1,298.2273,361.8636
1,6,30,4,1,2,A,F,r,g,10,10,94001,1,3,382.5248,313.5165
1,6,30,4,1,2,A,F,r,g,10,10,95001,1,3,401.1198,324.6736
1,6,30,4,1,2,A,F,r,g,10,10,95001,1,1,541.2025,55.6653
1,6,30,4,1,2,A,F,r,g,10,10,96001,1,3,432.1116,280.0455
1,6,30,4,1,2,A,F,r,g,10,10,96001,1,1,324.2603,149.8802
1,6,30,4,1,2,A,F,r,g,10,10,97001,1,3,480.4587,293.6818
1,6,30,4,1,2,A,F,r,g,10,10,97001,1,1,594.5083,338.3099
1,6,30,4,1,2,A,F,r,g,10,10,97001,1,1,640.376,345.7479
1,6,30,4,1,2,A,F,r,g,10,10,97001,1,2,753.186,286.2438
1,6,30,4,1,2,A,F,r,g,10,10,98001,1,3,357.7314,261.4504
1,6,30,4,1,2,A,F,r,g,10,10,98001,1,1,601.9463,303.5992
1,6,30,4,1,2,A,F,r,g,10,10,99001,1,3,404.8388,211.8636
1,6,30,4,1,2,A,F,r,g,10,10,100001,1,3,456.905,180.8719
1,6,30,4,1,2,A,F,r,g,10,10,101001,1,3,502.7727,163.5165
1,6,30,4,1,2,A,F,r,g,10,10,102001,1,3,616.8223,252.7727
1,6,30,4,1,2,A,F,r,g,10,10,103001,1,3,652.7727,280.0455
1,6,30,4,1,2,A,F,r,g,10,10,104001,1,2,625.5,162.2769
1,6,30,4,1,2,A,F,r,g,10,10,105001,1,3,523.8471,90.376
1,6,30,4,1,2,A,F,r,g,10,10,106001,1,3,435.8306,100.2934
1,6,30,4,1,2,A,F,r,g,10,10,106001,1,1,363.9298,438.7231
1,6,30,4,1,2,A,F,r,g,10,10,107001,1,3,406.0785,139.9628
1,6,30,4,1,2,A,F,r,g,10,10,107001,1,1,526.3264,63.1033
1,6,30,4,1,2,A,F,r,g,10,10,107001,1,2,639.1364,84.1777
