dummy,month,day,period,view,station,fgeno,mgeno,fcol,mcol,nf,nm,frame,something,sex,x,y
1,6,25,4,1,3,A,E,b,y,15,5,1,1,1,217.3856,215.697
1,6,25,4,1,3,A,E,b,y,15,5,1001,1,1,250.4062,251.7195
1,6,25,4,1,3,A,E,b,y,15,5,2001,1,1,239.8996,239.712
1,6,25,4,1,3,A,E,b,y,15,5,3001,1,1,265.4156,254.7214
1,6,25,4,1,3,A,E,b,y,15,5,4001,1,1,289.4306,289.243
1,6,25,4,1,3,A,E,b,y,15,5,5001,1,1,221.8884,452.8452
1,6,25,4,1,3,A,E,b,y,15,5,6001,1,1,370.4812,446.8415
1,6,25,4,1,3,A,E,b,y,15,5,26001,1,1,265.4156,65.6032
1,6,25,4,1,3,A,E,b,y,15,5,45001,1,1,277.4231,73.1079
1,6,25,4,1,3,A,E,b,y,15,5,46001,1,1,284.9278,92.6201
1,6,25,4,1,3,A,E,b,y,15,5,47001,1,1,278.924,91.1191
1,6,25,4,1,3,A,E,b,y,15,5,48001,1,1,290.9315,149.6557
1,6,25,4,1,3,A,E,b,y,15,5,49001,1,1,233.8959,196.1848
1,6,25,4,1,3,A,E,b,y,15,5,50001,1,1,492.0572,227.7045
1,6,25,4,1,3,A,E,b,y,15,5,51001,1,1,426.0159,319.2617
1,6,25,4,1,3,A,E,b,y,15,5,51001,1,1,460.5375,494.8715
1,6,25,4,1,3,A,E,b,y,15,5,52001,1,1,343.4644,445.3405
1,6,25,4,1,3,A,E,b,y,15,5,52001,1,1,113.8208,283.2392
1,6,25,4,1,3,A,E,b,y,15,5,53001,1,1,435.0216,325.2655
1,6,25,4,1,3,A,E,b,y,15,5,54001,1,1,418.5113,283.2392
1,6,25,4,1,3,A,E,b,y,15,5,54001,1,1,325.4531,226.2036
1,6,25,4,1,3,A,E,b,y,15,5,54001,1,1,517.5732,118.136
1,6,25,4,1,3,A,E,b,y,15,5,55001,1,1,329.9559,223.2017
1,6,25,4,1,3,A,E,b,y,15,5,55001,1,1,134.834,197.6857
1,6,25,4,1,3,A,E,b,y,15,5,55001,1,1,251.9071,86.6163
1,6,25,4,1,3,A,E,b,y,15,5,56001,1,1,340.4625,230.7064
1,6,25,4,1,3,A,E,b,y,15,5,56001,1,1,151.3443,164.6651
1,6,25,4,1,3,A,E,b,y,15,5,57001,1,1,314.9465,235.2092
1,6,25,4,1,3,A,E,b,y,15,5,57001,1,1,136.3349,155.6595
1,6,25,4,1,3,A,E,b,y,15,5,58001,1,1,301.4381,226.2036
1,6,25,4,1,3,A,E,b,y,15,5,58001,1,1,131.8321,149.6557
1,6,25,4,1,3,A,E,b,y,15,5,59001,1,1,377.9859,266.7289
1,6,25,4,1,3,A,E,b,y,15,5,59001,1,1,148.3424,148.1548
1,6,25,4,1,3,A,E,b,y,15,5,60001,1,1,406.5038,317.7608
1,6,25,4,1,3,A,E,b,y,15,5,60001,1,1,558.0985,164.6651
1,6,25,4,1,3,A,E,b,y,15,5,61001,1,1,299.9371,290.7439
1,6,25,4,1,3,A,E,b,y,15,5,61001,1,1,609.1304,454.3462
1,6,25,4,1,3,A,E,b,y,15,5,62001,1,1,543.0891,412.3199
1,6,25,4,1,3,A,E,b,y,15,5,62001,1,1,588.1173,428.8302
1,6,25,4,1,3,A,E,b,y,15,5,63001,1,1,546.091,427.3293
1,6,25,4,1,3,A,E,b,y,15,5,64001,1,1,203.8771,112.1323
1,6,25,4,1,3,A,E,b,y,15,5,67001,1,1,139.3368,208.1923
1,6,25,4,1,3,A,E,b,y,15,5,68001,1,1,298.4362,322.2636
1,6,25,4,1,3,A,E,b,y,15,5,68001,1,1,227.8921,256.2223
1,6,25,4,1,3,A,E,b,y,15,5,69001,1,1,514.5713,473.8583
1,6,25,4,1,3,A,E,b,y,15,5,69001,1,1,253.4081,91.1191
1,6,25,4,1,3,A,E,b,y,15,5,70001,1,1,478.5488,473.8583
1,6,25,4,1,3,A,E,b,y,15,5,70001,1,1,499.5619,95.622
1,6,25,4,1,3,A,E,b,y,15,5,71001,1,1,531.0816,428.8302
1,6,25,4,1,3,A,E,b,y,15,5,71001,1,1,235.3968,167.667
1,6,25,4,1,3,A,E,b,y,15,5,72001,1,1,380.9878,170.6689
1,6,25,4,1,3,A,E,b,y,15,5,73001,1,1,206.879,118.136
1,6,25,4,1,3,A,E,b,y,15,5,74001,1,1,196.3724,119.637
1,6,25,4,1,3,A,E,b,y,15,5,75001,1,1,179.8621,106.1285
1,6,25,4,1,3,A,E,b,y,15,5,76001,1,1,157.348,250.2186
1,6,25,4,1,3,A,E,b,y,15,5,76001,1,1,220.3874,107.6295
1,6,25,4,1,3,A,E,b,y,15,5,77001,1,1,284.9278,382.3011
1,6,25,4,1,3,A,E,b,y,15,5,77001,1,1,405.0028,292.2448
1,6,25,4,1,3,A,E,b,y,15,5,78001,1,1,250.4062,94.121
1,6,25,4,1,3,A,E,b,y,15,5,78001,1,1,573.1079,341.7758
1,6,25,4,1,3,A,E,b,y,15,5,79001,1,1,140.8377,191.682
1,6,25,4,1,3,A,E,b,y,15,5,79001,1,1,239.8996,88.1173
1,6,25,4,1,3,A,E,b,y,15,5,80001,1,1,245.9034,113.6332
1,6,25,4,1,3,A,E,b,y,15,5,80001,1,1,619.637,346.2786
1,6,25,4,1,3,A,E,b,y,15,5,81001,1,1,217.3856,134.6463
1,6,25,4,1,3,A,E,b,y,15,5,82001,1,1,441.0253,86.6163
1,6,25,4,1,3,A,E,b,y,15,5,83001,1,1,439.5244,83.6144
1,6,25,4,1,3,A,E,b,y,15,5,84001,1,1,490.5563,175.1717
1,6,25,4,1,3,A,E,b,y,15,5,85001,1,1,429.0178,92.6201
1,6,25,4,1,3,A,E,b,y,15,5,85001,1,1,370.4812,550.4062
1,6,25,4,1,3,A,E,b,y,15,5,86001,1,1,326.954,83.6144
1,6,25,4,1,3,A,E,b,y,15,5,86001,1,1,395.9972,553.4081
1,6,25,4,1,3,A,E,b,y,15,5,87001,1,1,274.4212,427.3293
1,6,25,4,1,3,A,E,b,y,15,5,87001,1,1,477.0478,506.879
1,6,25,4,1,3,A,E,b,y,15,5,87001,1,1,307.4418,71.6069
1,6,25,4,1,3,A,E,b,y,15,5,88001,1,1,142.3386,124.8902
1,6,25,4,1,3,A,E,b,y,15,5,88001,1,1,398.9991,108.3799
1,6,25,4,1,3,A,E,b,y,15,5,88001,1,1,514.5713,414.5713
1,6,25,4,1,3,A,E,b,y,15,5,89001,1,1,438.0235,341.0253
1,6,25,4,1,3,A,E,b,y,15,5,89001,1,1,395.9972,371.0441
1,6,25,4,1,3,A,E,b,y,15,5,89001,1,1,343.4644,96.3724
1,6,25,4,1,3,A,E,b,y,15,5,90001,1,1,188.8677,229.9559
1,6,25,4,1,3,A,E,b,y,15,5,91001,1,1,127.3293,157.9109
1,6,25,4,1,3,A,E,b,y,15,5,91001,1,1,269.9184,157.9109
1,6,25,4,1,3,A,E,b,y,15,5,92001,1,1,268.4174,154.909
1,6,25,4,1,3,A,E,b,y,15,5,93001,1,1,289.4306,159.4118
1,6,25,4,1,3,A,E,b,y,15,5,93001,1,1,576.1098,246.4662
1,6,25,4,1,3,A,E,b,y,15,5,94001,1,1,179.8621,240.4625
1,6,25,4,1,3,A,E,b,y,15,5,95001,1,1,143.8396,180.425
1,6,25,4,1,3,A,E,b,y,15,5,96001,1,1,389.9934,241.9634
1,6,25,4,1,3,A,E,b,y,15,5,97001,1,1,301.4381,79.8621
1,6,25,4,1,3,A,E,b,y,15,5,98001,1,1,262.4137,82.864
1,6,25,4,1,3,A,E,b,y,15,5,99001,1,1,253.4081,81.363
1,6,25,4,1,3,A,E,b,y,15,5,100001,1,1,206.879,108.3799
1,6,25,4,1,3,A,E,b,y,15,5,103001,1,1,149.8433,321.5131
1,6,25,4,1,3,A,E,b,y,15,5,104001,1,1,233.8959,419.0741
1,6,25,4,1,3,A,E,b,y,15,5,104001,1,1,256.4099,477.6107
1,6,25,4,1,3,A,E,b,y,15,5,105001,1,1,272.9203,464.1023
1,6,25,4,1,3,A,E,b,y,15,5,106001,1,1,292.4325,455.0966
1,6,25,4,1,3,A,E,b,y,15,5,107001,1,1,292.4325,456.5976
