dummy,month,day,period,view,station,fgeno,mgeno,fcol,mcol,nf,nm,frame,something,sex,x,y
1,9,24,4,2,2,A,F,b,y,5,15,1,1,3,154.0484,447.5968
1,9,24,4,2,2,A,F,b,y,5,15,1001,1,3,143.7258,439.8548
1,9,24,4,2,2,A,F,b,y,5,15,1001,1,1,517.9194,134.0484
1,9,24,4,2,2,A,F,b,y,5,15,2001,1,3,168.2419,459.2097
1,9,24,4,2,2,A,F,b,y,5,15,2001,1,1,356.629,219.2097
1,9,24,4,2,2,A,F,b,y,5,15,3001,1,3,111.4677,428.2419
1,9,24,4,2,2,A,F,b,y,5,15,3001,1,1,129.5323,450.1774
1,9,24,4,2,2,A,F,b,y,5,15,4001,1,3,173.4032,414.0484
1,9,24,4,2,2,A,F,b,y,5,15,4001,1,1,137.2742,451.4677
1,9,24,4,2,2,A,F,b,y,5,15,5001,1,1,221.1452,149.5323
1,9,24,4,2,2,A,F,b,y,5,15,6001,1,1,554.0484,233.4032
1,9,24,4,2,2,A,F,b,y,5,15,6001,1,3,93.4032,308.2419
1,9,24,4,2,2,A,F,b,y,5,15,7001,1,1,355.3387,561.1452
1,9,24,4,2,2,A,F,b,y,5,15,7001,1,3,302.4355,579.2097
1,9,24,4,2,2,A,F,b,y,5,15,8001,1,1,276.629,250.1774
1,9,24,4,2,2,A,F,b,y,5,15,8001,1,3,218.5645,550.8226
1,9,24,4,2,2,A,F,b,y,5,15,9001,1,1,142.4355,348.2419
1,9,24,4,2,2,A,F,b,y,5,15,9001,1,3,488.2419,531.4677
1,9,24,4,2,2,A,F,b,y,5,15,10001,1,1,437.9194,192.1129
1,9,24,4,2,2,A,F,b,y,5,15,10001,1,3,295.9839,537.9194
1,9,24,4,2,2,A,F,b,y,5,15,11001,1,1,210.8226,426.9516
1,9,24,4,2,2,A,F,b,y,5,15,11001,1,1,206.9516,513.4032
1,9,24,4,2,2,A,F,b,y,5,15,11001,1,1,145.0161,537.9194
1,9,24,4,2,2,A,F,b,y,5,15,11001,1,3,187.5968,536.629
1,9,24,4,2,2,A,F,b,y,5,15,12001,1,1,417.2742,85.0161
1,9,24,4,2,2,A,F,b,y,5,15,12001,1,3,62.4355,389.5323
1,9,24,4,2,2,A,F,b,y,5,15,13001,1,1,337.2742,392.1129
1,9,24,4,2,2,A,F,b,y,5,15,13001,1,3,62.4355,389.5323
1,9,24,4,2,2,A,F,b,y,5,15,14001,1,3,72.7581,381.7903
1,9,24,4,2,2,A,F,b,y,5,15,15001,1,1,459.8548,150.8226
1,9,24,4,2,2,A,F,b,y,5,15,15001,1,3,92.1129,355.9839
1,9,24,4,2,2,A,F,b,y,5,15,16001,1,1,139.8548,392.1129
1,9,24,4,2,2,A,F,b,y,5,15,16001,1,3,139.8548,334.0484
1,9,24,4,2,2,A,F,b,y,5,15,17001,1,1,103.7258,346.9516
1,9,24,4,2,2,A,F,b,y,5,15,17001,1,3,326.9516,581.7903
1,9,24,4,2,2,A,F,b,y,5,15,18001,1,2,351.4677,563.7258
1,9,24,4,2,2,A,F,b,y,5,15,20001,1,1,422.4355,185.6613
1,9,24,4,2,2,A,F,b,y,5,15,20001,1,1,404.371,143.0806
1,9,24,4,2,2,A,F,b,y,5,15,20001,1,3,390.1774,177.9194
1,9,24,4,2,2,A,F,b,y,5,15,21001,1,1,124.371,155.9839
1,9,24,4,2,2,A,F,b,y,5,15,21001,1,3,103.7258,201.1452
1,9,24,4,2,2,A,F,b,y,5,15,22001,1,1,498.5645,121.1452
1,9,24,4,2,2,A,F,b,y,5,15,22001,1,3,43.0806,261.7903
1,9,24,4,2,2,A,F,b,y,5,15,23001,1,1,254.6935,523.7258
1,9,24,4,2,2,A,F,b,y,5,15,23001,1,3,312.7581,530.1774
1,9,24,4,2,2,A,F,b,y,5,15,24001,1,1,215.9839,99.2097
1,9,24,4,2,2,A,F,b,y,5,15,25001,1,1,151.4677,175.3387
1,9,24,4,2,2,A,F,b,y,5,15,26001,1,1,423.7258,423.0806
1,9,24,4,2,2,A,F,b,y,5,15,27001,1,1,486.9516,479.8548
1,9,24,4,2,2,A,F,b,y,5,15,27001,1,3,445.6613,491.4677
1,9,24,4,2,2,A,F,b,y,5,15,28001,1,1,468.8871,77.2742
1,9,24,4,2,2,A,F,b,y,5,15,28001,1,3,470.1774,106.9516
1,9,24,4,2,2,A,F,b,y,5,15,29001,1,1,564.371,455.3387
1,9,24,4,2,2,A,F,b,y,5,15,30001,1,1,555.3387,259.2097
1,9,24,4,2,2,A,F,b,y,5,15,31001,1,1,472.7581,146.9516
1,9,24,4,2,2,A,F,b,y,5,15,32001,1,1,281.7903,161.1452
1,9,24,4,2,2,A,F,b,y,5,15,32001,1,1,248.2419,208.8871
1,9,24,4,2,2,A,F,b,y,5,15,32001,1,1,185.0161,247.5968
1,9,24,4,2,2,A,F,b,y,5,15,33001,1,1,582.4355,274.6935
1,9,24,4,2,2,A,F,b,y,5,15,33001,1,1,222.4355,424.371
1,9,24,4,2,2,A,F,b,y,5,15,34001,1,1,157.9194,248.8871
1,9,24,4,2,2,A,F,b,y,5,15,35001,1,1,250.8226,265.6613
1,9,24,4,2,2,A,F,b,y,5,15,36001,1,1,289.5323,460.5
1,9,24,4,2,2,A,F,b,y,5,15,37001,1,1,337.2742,251.4677
1,9,24,4,2,2,A,F,b,y,5,15,38001,1,1,190.1774,154.6935
1,9,24,4,2,2,A,F,b,y,5,15,39001,1,1,106.3065,354.6935
1,9,24,4,2,2,A,F,b,y,5,15,40001,1,1,188.8871,188.2419
1,9,24,4,2,2,A,F,b,y,5,15,41001,1,1,66.3065,377.9194
1,9,24,4,2,2,A,F,b,y,5,15,42001,1,1,396.629,272.1129
1,9,24,4,2,2,A,F,b,y,5,15,43001,1,1,400.5,452.7581
1,9,24,4,2,2,A,F,b,y,5,15,44001,1,1,125.6613,407.5968
1,9,24,4,2,2,A,F,b,y,5,15,45001,1,1,138.5645,385.6613
1,9,24,4,2,2,A,F,b,y,5,15,46001,1,1,439.2097,186.9516
1,9,24,4,2,2,A,F,b,y,5,15,47001,1,1,107.5968,322.4355
1,9,24,4,2,2,A,F,b,y,5,15,48001,1,1,492.1129,243.7258
1,9,24,4,2,2,A,F,b,y,5,15,49001,1,1,133.4032,473.4032
1,9,24,4,2,2,A,F,b,y,5,15,50001,1,1,99.8548,304.371
1,9,24,4,2,2,A,F,b,y,5,15,51001,1,1,448.2419,134.0484
1,9,24,4,2,2,A,F,b,y,5,15,52001,1,1,373.4032,64.371
1,9,24,4,2,2,A,F,b,y,5,15,53001,1,1,187.5968,461.7903
1,9,24,4,2,2,A,F,b,y,5,15,54001,1,1,123.0806,330.1774
1,9,24,4,2,2,A,F,b,y,5,15,55001,1,1,355.3387,110.8226
1,9,24,4,2,2,A,F,b,y,5,15,56001,1,1,210.8226,317.2742
1,9,24,4,2,2,A,F,b,y,5,15,57001,1,1,539.8548,407.5968
1,9,24,4,2,2,A,F,b,y,5,15,58001,1,1,110.1774,183.0806
1,9,24,4,2,2,A,F,b,y,5,15,59001,1,1,244.371,185.6613
1,9,24,4,2,2,A,F,b,y,5,15,59001,1,1,215.9839,216.629
1,9,24,4,2,2,A,F,b,y,5,15,59001,1,3,196.629,238.5645
1,9,24,4,2,2,A,F,b,y,5,15,60001,1,1,392.7581,145.6613
1,9,24,4,2,2,A,F,b,y,5,15,60001,1,3,399.2097,230.8226
1,9,24,4,2,2,A,F,b,y,5,15,61001,1,1,157.9194,304.371
1,9,24,4,2,2,A,F,b,y,5,15,61001,1,1,79.2097,357.2742
1,9,24,4,2,2,A,F,b,y,5,15,61001,1,3,114.0484,346.9516
1,9,24,4,2,2,A,F,b,y,5,15,62001,1,1,88.2419,266.9516
1,9,24,4,2,2,A,F,b,y,5,15,62001,1,3,89.5323,290.1774
1,9,24,4,2,2,A,F,b,y,5,15,63001,1,3,174.6935,536.629
1,9,24,4,2,2,A,F,b,y,5,15,64001,1,1,383.7258,475.9839
1,9,24,4,2,2,A,F,b,y,5,15,65001,1,1,466.3065,264.371
1,9,24,4,2,2,A,F,b,y,5,15,66001,1,1,430.1774,137.9194
1,9,24,4,2,2,A,F,b,y,5,15,67001,1,1,395.3387,513.4032
1,9,24,4,2,2,A,F,b,y,5,15,68001,1,1,249.5323,481.1452
1,9,24,4,2,2,A,F,b,y,5,15,69001,1,1,484.371,394.6935
1,9,24,4,2,2,A,F,b,y,5,15,70001,1,1,395.3387,350.8226
1,9,24,4,2,2,A,F,b,y,5,15,71001,1,1,390.1774,362.4355
1,9,24,4,2,2,A,F,b,y,5,15,72001,1,1,394.0484,367.5968
1,9,24,4,2,2,A,F,b,y,5,15,73001,1,1,342.4355,512.1129
1,9,24,4,2,2,A,F,b,y,5,15,73001,1,1,383.7258,518.5645
1,9,24,4,2,2,A,F,b,y,5,15,74001,1,1,453.4032,330.1774
1,9,24,4,2,2,A,F,b,y,5,15,74001,1,48,453.4032,330.1774
1,9,24,4,2,2,A,F,b,y,5,15,75001,1,1,94.6935,223.0806
1,9,24,4,2,2,A,F,b,y,5,15,75001,1,1,59.8548,278.5645
1,9,24,4,2,2,A,F,b,y,5,15,76001,1,1,110.1774,429.5323
1,9,24,4,2,2,A,F,b,y,5,15,77001,1,1,223.7258,377.9194
1,9,24,4,2,2,A,F,b,y,5,15,78001,1,1,364.371,158.5645
1,9,24,4,2,2,A,F,b,y,5,15,79001,1,1,474.0484,152.1129
1,9,24,4,2,2,A,F,b,y,5,15,80001,1,1,452.1129,167.5968
1,9,24,4,2,2,A,F,b,y,5,15,81001,1,1,463.7258,148.2419
1,9,24,4,2,2,A,F,b,y,5,15,82001,1,1,430.1774,131.4677
1,9,24,4,2,2,A,F,b,y,5,15,83001,1,1,506.3065,274.6935
1,9,24,4,2,2,A,F,b,y,5,15,84001,1,1,199.2097,123.7258
1,9,24,4,2,2,A,F,b,y,5,15,84001,1,3,174.6935,161.1452
1,9,24,4,2,2,A,F,b,y,5,15,84001,1,1,177.2742,358.5645
1,9,24,4,2,2,A,F,b,y,5,15,85001,1,1,99.8548,235.9839
1,9,24,4,2,2,A,F,b,y,5,15,85001,1,3,83.0806,303.0806
1,9,24,4,2,2,A,F,b,y,5,15,86001,1,1,210.8226,416.629
1,9,24,4,2,2,A,F,b,y,5,15,86001,1,3,235.3387,455.3387
1,9,24,4,2,2,A,F,b,y,5,15,87001,1,3,281.7903,509.5323
1,9,24,4,2,2,A,F,b,y,5,15,87001,1,3,146.3065,465.6613
1,9,24,4,2,2,A,F,b,y,5,15,87001,1,1,132.1129,403.7258
1,9,24,4,2,2,A,F,b,y,5,15,88001,1,1,379.8548,88.8871
1,9,24,4,2,2,A,F,b,y,5,15,88001,1,3,366.9516,144.371
1,9,24,4,2,2,A,F,b,y,5,15,89001,1,1,484.371,128.8871
1,9,24,4,2,2,A,F,b,y,5,15,89001,1,3,94.6935,318.5645
1,9,24,4,2,2,A,F,b,y,5,15,91001,1,1,375.9839,70.8226
1,9,24,4,2,2,A,F,b,y,5,15,92001,1,1,170.8226,477.2742
1,9,24,4,2,2,A,F,b,y,5,15,93001,1,1,286.9516,371.4677
1,9,24,4,2,2,A,F,b,y,5,15,94001,1,1,119.2097,281.1452
1,9,24,4,2,2,A,F,b,y,5,15,95001,1,1,99.8548,188.2419
1,9,24,4,2,2,A,F,b,y,5,15,96001,1,1,95.9839,334.0484
1,9,24,4,2,2,A,F,b,y,5,15,97001,1,1,379.8548,545.6613
1,9,24,4,2,2,A,F,b,y,5,15,97001,1,3,410.8226,488.8871
1,9,24,4,2,2,A,F,b,y,5,15,98001,1,1,298.5645,425.6613
1,9,24,4,2,2,A,F,b,y,5,15,98001,1,3,261.1452,402.4355
1,9,24,4,2,2,A,F,b,y,5,15,99001,1,1,483.0806,394.6935
1,9,24,4,2,2,A,F,b,y,5,15,99001,1,3,430.1774,412.7581
1,9,24,4,2,2,A,F,b,y,5,15,100001,1,1,66.3065,257.9194
1,9,24,4,2,2,A,F,b,y,5,15,100001,1,3,74.0484,208.8871
1,9,24,4,2,2,A,F,b,y,5,15,101001,1,1,137.2742,309.5323
1,9,24,4,2,2,A,F,b,y,5,15,102001,1,1,455.9839,110.8226
1,9,24,4,2,2,A,F,b,y,5,15,103001,1,1,320.5,275.9839
1,9,24,4,2,2,A,F,b,y,5,15,103001,1,1,295.9839,246.3065
1,9,24,4,2,2,A,F,b,y,5,15,103001,1,3,295.9839,291.4677
1,9,24,4,2,2,A,F,b,y,5,15,104001,1,1,76.629,314.6935
1,9,24,4,2,2,A,F,b,y,5,15,104001,1,1,21.1452,303.0806
1,9,24,4,2,2,A,F,b,y,5,15,104001,1,3,46.9516,343.0806
1,9,24,4,2,2,A,F,b,y,5,15,105001,1,1,382.4355,435.9839
1,9,24,4,2,2,A,F,b,y,5,15,105001,1,1,413.4032,424.371
1,9,24,4,2,2,A,F,b,y,5,15,105001,1,3,366.9516,451.4677
1,9,24,4,2,2,A,F,b,y,5,15,106001,1,1,543.7258,223.0806
1,9,24,4,2,2,A,F,b,y,5,15,107001,1,1,170.8226,322.4355
