dummy,month,day,period,view,station,fgeno,mgeno,fcol,mcol,nf,nm,frame,something,sex,x,y
1,9,24,4,3,2,A,F,b,y,5,15,1,1,1,426.3065,439.8548
1,9,24,4,3,2,A,F,b,y,5,15,1001,1,1,621.1452,464.371
1,9,24,4,3,2,A,F,b,y,5,15,1001,1,1,644.371,490.1774
1,9,24,4,3,2,A,F,b,y,5,15,2001,1,1,614.6935,352.1129
1,9,24,4,3,2,A,F,b,y,5,15,3001,1,1,683.0806,257.9194
1,9,24,4,3,2,A,F,b,y,5,15,4001,1,1,222.4355,292.7581
1,9,24,4,3,2,A,F,b,y,5,15,5001,1,1,523.0806,403.7258
1,9,24,4,3,2,A,F,b,y,5,15,5001,1,1,548.8871,388.2419
1,9,24,4,3,2,A,F,b,y,5,15,6001,1,1,413.4032,376.629
1,9,24,4,3,2,A,F,b,y,5,15,6001,1,1,559.2097,553.4032
1,9,24,4,3,2,A,F,b,y,5,15,8001,1,1,248.2419,285.0161
1,9,24,4,3,2,A,F,b,y,5,15,8001,1,1,724.371,198.5645
1,9,24,4,3,2,A,F,b,y,5,15,9001,1,1,354.0484,499.2097
1,9,24,4,3,2,A,F,b,y,5,15,9001,1,1,374.6935,518.5645
1,9,24,4,3,2,A,F,b,y,5,15,11001,1,1,328.2419,326.3065
1,9,24,4,3,2,A,F,b,y,5,15,11001,1,1,326.9516,359.8548
1,9,24,4,3,2,A,F,b,y,5,15,12001,1,1,524.371,535.3387
1,9,24,4,3,2,A,F,b,y,5,15,13001,1,1,472.7581,296.629
1,9,24,4,3,2,A,F,b,y,5,15,13001,1,1,623.7258,485.0161
1,9,24,4,3,2,A,F,b,y,5,15,14001,1,1,317.9194,399.8548
1,9,24,4,3,2,A,F,b,y,5,15,15001,1,1,503.7258,68.2419
1,9,24,4,3,2,A,F,b,y,5,15,15001,1,1,394.0484,70.8226
1,9,24,4,3,2,A,F,b,y,5,15,16001,1,1,258.5645,197.2742
1,9,24,4,3,2,A,F,b,y,5,15,17001,1,1,417.2742,525.0161
1,9,24,4,3,2,A,F,b,y,5,15,18001,1,1,609.5323,170.1774
1,9,24,4,3,2,A,F,b,y,5,15,20001,1,1,209.5323,376.629
1,9,24,4,3,2,A,F,b,y,5,15,21001,1,1,622.4355,552.1129
1,9,24,4,3,2,A,F,b,y,5,15,22001,1,1,199.2097,281.1452
1,9,24,4,3,2,A,F,b,y,5,15,23001,1,1,249.5323,496.629
1,9,24,4,3,2,A,F,b,y,5,15,23001,1,1,378.5645,460.5
1,9,24,4,3,2,A,F,b,y,5,15,23001,1,1,450.8226,48.8871
1,9,24,4,3,2,A,F,b,y,5,15,24001,1,1,695.9839,423.0806
1,9,24,4,3,2,A,F,b,y,5,15,25001,1,1,480.5,82.4355
1,9,24,4,3,2,A,F,b,y,5,15,25001,1,1,217.2742,318.5645
1,9,24,4,3,2,A,F,b,y,5,15,26001,1,1,275.3387,171.4677
1,9,24,4,3,2,A,F,b,y,5,15,26001,1,1,241.7903,215.3387
1,9,24,4,3,2,A,F,b,y,5,15,27001,1,1,319.2097,148.2419
1,9,24,4,3,2,A,F,b,y,5,15,27001,1,1,703.7258,295.3387
1,9,24,4,3,2,A,F,b,y,5,15,28001,1,1,630.1774,97.9194
1,9,24,4,3,2,A,F,b,y,5,15,28001,1,1,688.2419,135.3387
1,9,24,4,3,2,A,F,b,y,5,15,29001,1,1,428.8871,64.371
1,9,24,4,3,2,A,F,b,y,5,15,30001,1,1,268.8871,496.629
1,9,24,4,3,2,A,F,b,y,5,15,31001,1,1,327.8743,130.6676
1,9,24,4,3,2,A,F,b,y,5,15,33001,1,1,422.8464,496.0307
1,9,24,4,3,2,A,F,b,y,5,15,33001,1,1,378.1536,491.5615
1,9,24,4,3,2,A,F,b,y,5,15,33001,1,1,264.1872,512.7905
1,9,24,4,3,2,A,F,b,y,5,15,34001,1,1,242.9581,180.9469
1,9,24,4,3,2,A,F,b,y,5,15,35001,1,1,416.1425,170.8911
1,9,24,4,3,2,A,F,b,y,5,15,35001,1,1,260.8352,353.014
1,9,24,4,3,2,A,F,b,y,5,15,36001,1,3,619.4944,417.8184
1,9,24,4,3,2,A,F,b,y,5,15,36001,1,1,651.8966,455.8073
1,9,24,4,3,2,A,F,b,y,5,15,37001,1,3,352.4553,361.9525
1,9,24,4,3,2,A,F,b,y,5,15,37001,1,1,359.1592,307.2039
1,9,24,4,3,2,A,F,b,y,5,15,37001,1,1,342.3994,289.3268
1,9,24,4,3,2,A,F,b,y,5,15,37001,1,1,600.5,529.5503
1,9,24,4,3,2,A,F,b,y,5,15,38001,1,1,597.148,131.7849
1,9,24,4,3,2,A,F,b,y,5,15,38001,1,3,244.0754,217.8184
1,9,24,4,3,2,A,F,b,y,5,15,39001,1,1,272.0084,299.3827
1,9,24,4,3,2,A,F,b,y,5,15,39001,1,3,588.2095,89.3268
1,9,24,4,3,2,A,F,b,y,5,15,40001,1,1,712.2318,287.0922
1,9,24,4,3,2,A,F,b,y,5,15,40001,1,3,664.1872,254.6899
1,9,24,4,3,2,A,F,b,y,5,15,41001,1,1,251.8966,296.0307
1,9,24,4,3,2,A,F,b,y,5,15,41001,1,3,232.9022,256.9246
1,9,24,4,3,2,A,F,b,y,5,15,42001,1,3,628.433,102.7346
1,9,24,4,3,2,A,F,b,y,5,15,42001,1,1,333.4609,474.8017
1,9,24,4,3,2,A,F,b,y,5,15,43001,1,3,363.6285,167.5391
1,9,24,4,3,2,A,F,b,y,5,15,43001,1,1,714.4665,320.6117
1,9,24,4,3,2,A,F,b,y,5,15,44001,1,1,239.6061,205.5279
1,9,24,4,3,2,A,F,b,y,5,15,45001,1,1,600.5,302.7346
1,9,24,4,3,2,A,F,b,y,5,15,45001,1,1,639.6061,418.9358
1,9,24,4,3,2,A,F,b,y,5,15,45001,1,3,640.7235,373.1257
1,9,24,4,3,2,A,F,b,y,5,15,46001,1,2,530.1089,155.2486
1,9,24,4,3,2,A,F,b,y,5,15,46001,1,1,326.757,183.1816
1,9,24,4,3,2,A,F,b,y,5,15,47001,1,1,396.0307,455.8073
1,9,24,4,3,2,A,F,b,y,5,15,48001,1,1,267.5391,475.919
1,9,24,4,3,2,A,F,b,y,5,15,48001,1,1,387.0922,545.1927
1,9,24,4,3,2,A,F,b,y,5,15,49001,1,1,321.1704,408.8799
1,9,24,4,3,2,A,F,b,y,5,15,50001,1,1,389.3268,164.1872
1,9,24,4,3,2,A,F,b,y,5,15,50001,1,1,185.9749,354.1313
1,9,24,4,3,2,A,F,b,y,5,15,51001,1,1,400.5,89.3268
1,9,24,4,3,2,A,F,b,y,5,15,52001,1,1,286.5335,436.8128
1,9,24,4,3,2,A,F,b,y,5,15,53001,1,1,669.7737,440.1648
1,9,24,4,3,2,A,F,b,y,5,15,55001,1,1,415.0251,463.6285
1,9,24,4,3,2,A,F,b,y,5,15,56001,1,1,228.433,354.1313
1,9,24,4,3,2,A,F,b,y,5,15,56001,1,1,234.0196,218.9358
1,9,24,4,3,2,A,F,b,y,5,15,57001,1,1,494.3547,449.1034
1,9,24,4,3,2,A,F,b,y,5,15,59001,1,1,585.9749,340.7235
1,9,24,4,3,2,A,F,b,y,5,15,60001,1,1,221.7291,258.0419
1,9,24,4,3,2,A,F,b,y,5,15,60001,1,1,213.9078,214.4665
1,9,24,4,3,2,A,F,b,y,5,15,61001,1,1,687.6508,116.1425
1,9,24,4,3,2,A,F,b,y,5,15,62001,1,1,723.405,317.2598
1,9,24,4,3,2,A,F,b,y,5,15,63001,1,1,230.6676,489.3268
1,9,24,4,3,2,A,F,b,y,5,15,64001,1,1,634.0196,408.8799
1,9,24,4,3,2,A,F,b,y,5,15,64001,1,1,689.8855,477.0363
1,9,24,4,3,2,A,F,b,y,5,15,65001,1,1,251.8966,164.1872
1,9,24,4,3,2,A,F,b,y,5,15,66001,1,1,656.3659,99.3827
1,9,24,4,3,2,A,F,b,y,5,15,66001,1,1,677.595,94.9134
1,9,24,4,3,2,A,F,b,y,5,15,67001,1,1,589.3268,302.7346
1,9,24,4,3,2,A,F,b,y,5,15,67001,1,1,547.986,443.5168
1,9,24,4,3,2,A,F,b,y,5,15,68001,1,1,649.662,432.3436
1,9,24,4,3,2,A,F,b,y,5,15,69001,1,1,469.7737,452.4553
1,9,24,4,3,2,A,F,b,y,5,15,69001,1,1,371.4497,527.3156
1,9,24,4,3,2,A,F,b,y,5,15,70001,1,1,228.433,186.5335
1,9,24,4,3,2,A,F,b,y,5,15,70001,1,1,406.0866,548.5447
1,9,24,4,3,2,A,F,b,y,5,15,71001,1,1,406.0866,428.9916
1,9,24,4,3,2,A,F,b,y,5,15,71001,1,1,429.5503,555.2486
1,9,24,4,3,2,A,F,b,y,5,15,72001,1,1,377.0363,298.2654
1,9,24,4,3,2,A,F,b,y,5,15,72001,1,1,345.7514,187.6508
1,9,24,4,3,2,A,F,b,y,5,15,72001,1,1,280.9469,194.3547
1,9,24,4,3,2,A,F,b,y,5,15,73001,1,1,437.3715,293.7961
1,9,24,4,3,2,A,F,b,y,5,15,73001,1,1,391.5615,358.6006
1,9,24,4,3,2,A,F,b,y,5,15,73001,1,3,601.6173,510.5559
1,9,24,4,3,2,A,F,b,y,5,15,74001,1,1,512.2318,292.6788
1,9,24,4,3,2,A,F,b,y,5,15,74001,1,1,539.0475,385.4162
1,9,24,4,3,2,A,F,b,y,5,15,74001,1,3,617.2598,389.8855
1,9,24,4,3,2,A,F,b,y,5,15,74001,1,1,625.081,387.6508
1,9,24,4,3,2,A,F,b,y,5,15,74001,1,1,644.0754,349.662
1,9,24,4,3,2,A,F,b,y,5,15,75001,1,1,484.2989,450.2207
1,9,24,4,3,2,A,F,b,y,5,15,75001,1,3,494.3547,497.148
1,9,24,4,3,2,A,F,b,y,5,15,75001,1,1,641.8408,280.3883
1,9,24,4,3,2,A,F,b,y,5,15,75001,1,1,669.7737,145.1927
1,9,24,4,3,2,A,F,b,y,5,15,76001,1,1,291.0028,468.0978
1,9,24,4,3,2,A,F,b,y,5,15,77001,1,1,285.4162,175.3603
1,9,24,4,3,2,A,F,b,y,5,15,77001,1,1,508.8799,75.919
1,9,24,4,3,2,A,F,b,y,5,15,77001,1,1,453.014,556.3659
1,9,24,4,3,2,A,F,b,y,5,15,78001,1,1,550.2207,432.3436
1,9,24,4,3,2,A,F,b,y,5,15,79001,1,1,565.8631,364.1872
1,9,24,4,3,2,A,F,b,y,5,15,79001,1,1,228.433,246.8687
1,9,24,4,3,2,A,F,b,y,5,15,79001,1,1,366.9804,120.6117
1,9,24,4,3,2,A,F,b,y,5,15,80001,1,1,666.4218,164.1872
1,9,24,4,3,2,A,F,b,y,5,15,81001,1,1,526.757,134.0196
1,9,24,4,3,2,A,F,b,y,5,15,82001,1,1,743.5168,245.7514
1,9,24,4,3,2,A,F,b,y,5,15,83001,1,1,430.6676,521.7291
1,9,24,4,3,2,A,F,b,y,5,15,84001,1,1,680.9469,215.5838
1,9,24,4,3,2,A,F,b,y,5,15,85001,1,1,240.7235,358.6006
1,9,24,4,3,2,A,F,b,y,5,15,86001,1,1,636.2542,373.1257
1,9,24,4,3,2,A,F,b,y,5,15,88001,1,1,515.5838,85.9749
1,9,24,4,3,2,A,F,b,y,5,15,89001,1,1,680.5,417.9194
1,9,24,4,3,2,A,F,b,y,5,15,90001,1,1,474.0484,283.7258
1,9,24,4,3,2,A,F,b,y,5,15,90001,1,1,534.6935,326.3065
1,9,24,4,3,2,A,F,b,y,5,15,91001,1,1,257.2742,161.1452
1,9,24,4,3,2,A,F,b,y,5,15,92001,1,1,288.2419,385.6613
1,9,24,4,3,2,A,F,b,y,5,15,93001,1,1,480.5,488.8871
1,9,24,4,3,2,A,F,b,y,5,15,94001,1,1,528.2419,226.9516
1,9,24,4,3,2,A,F,b,y,5,15,95001,1,1,741.1452,330.1774
1,9,24,4,3,2,A,F,b,y,5,15,96001,1,1,422.4355,439.8548
1,9,24,4,3,2,A,F,b,y,5,15,97001,1,1,401.7903,483.7258
1,9,24,4,3,2,A,F,b,y,5,15,98001,1,1,257.2742,301.7903
1,9,24,4,3,2,A,F,b,y,5,15,99001,1,1,646.9516,225.6613
1,9,24,4,3,2,A,F,b,y,5,15,100001,1,1,615.9839,91.4677
1,9,24,4,3,2,A,F,b,y,5,15,101001,1,1,223.7258,229.5323
1,9,24,4,3,2,A,F,b,y,5,15,102001,1,1,458.5645,523.7258
1,9,24,4,3,2,A,F,b,y,5,15,103001,1,1,244.371,221.7903
1,9,24,4,3,2,A,F,b,y,5,15,104001,1,1,612.1129,393.4032
1,9,24,4,3,2,A,F,b,y,5,15,104001,1,1,582.4355,394.6935
1,9,24,4,3,2,A,F,b,y,5,15,104001,1,1,354.0484,519.8548
1,9,24,4,3,2,A,F,b,y,5,15,104001,1,1,285.6613,121.1452
1,9,24,4,3,2,A,F,b,y,5,15,105001,1,1,244.371,235.9839
1,9,24,4,3,2,A,F,b,y,5,15,106001,1,1,628.8871,144.371
1,9,24,4,3,2,A,F,b,y,5,15,107001,1,1,427.5968,411.4677
1,9,24,4,3,2,A,F,b,y,5,15,107001,1,1,354.0484,506.9516
