dummy,month,day,period,view,station,fgeno,mgeno,fcol,mcol,nf,nm,frame,something,sex,x,y
1,9,24,4,1,2,A,F,b,y,5,15,1,1,3,307.7464,209.6787
1,9,24,4,1,2,A,F,b,y,5,15,1,1,1,307.7464,295.9911
1,9,24,4,1,2,A,F,b,y,5,15,1,1,1,324.4936,339.7915
1,9,24,4,1,2,A,F,b,y,5,15,1,1,2,355.4114,328.1973
1,9,24,4,1,2,A,F,b,y,5,15,1001,1,3,426.2649,55.0894
1,9,24,4,1,2,A,F,b,y,5,15,1001,1,1,369.5821,62.8188
1,9,24,4,1,2,A,F,b,y,5,15,1001,1,2,385.0411,180.0491
1,9,24,4,1,2,A,F,b,y,5,15,1001,1,1,482.9477,315.3148
1,9,24,4,1,2,A,F,b,y,5,15,1001,1,1,481.6594,352.6739
1,9,24,4,1,2,A,F,b,y,5,15,1001,1,2,473.93,420.9509
1,9,24,4,1,2,A,F,b,y,5,15,2001,1,3,427.5531,125.9428
1,9,24,4,1,2,A,F,b,y,5,15,2001,1,1,435.2826,280.5322
1,9,24,4,1,2,A,F,b,y,5,15,2001,1,1,394.0588,321.756
1,9,24,4,1,2,A,F,b,y,5,15,2001,1,2,400.5,368.1329
1,9,24,4,1,2,A,F,b,y,5,15,3001,1,1,481.6594,164.5902
1,9,24,4,1,2,A,F,b,y,5,15,3001,1,1,399.2118,186.4903
1,9,24,4,1,2,A,F,b,y,5,15,3001,1,3,390.194,223.8494
1,9,24,4,1,2,A,F,b,y,5,15,3001,1,2,439.1473,298.5676
1,9,24,4,1,2,A,F,b,y,5,15,4001,1,1,315.4758,207.1023
1,9,24,4,1,2,A,F,b,y,5,15,4001,1,1,270.3873,524.0105
1,9,24,4,1,2,A,F,b,y,5,15,4001,1,2,467.4887,281.8205
1,9,24,4,1,2,A,F,b,y,5,15,4001,1,1,502.2713,464.7512
1,9,24,4,1,2,A,F,b,y,5,15,4001,1,3,521.595,507.2633
1,9,24,4,1,2,A,F,b,y,5,15,5001,1,1,378.5998,38.3422
1,9,24,4,1,2,A,F,b,y,5,15,5001,1,2,412.0942,301.1441
1,9,24,4,1,2,A,F,b,y,5,15,5001,1,1,467.4887,422.2391
1,9,24,4,1,2,A,F,b,y,5,15,5001,1,3,428.8414,441.5628
1,9,24,4,1,2,A,F,b,y,5,15,6001,1,1,213.7045,183.9138
1,9,24,4,1,2,A,F,b,y,5,15,6001,1,1,303.8816,333.3502
1,9,24,4,1,2,A,F,b,y,5,15,6001,1,1,327.07,364.2681
1,9,24,4,1,2,A,F,b,y,5,15,6001,1,2,400.5,333.3502
1,9,24,4,1,2,A,F,b,y,5,15,6001,1,3,388.9058,388.7448
1,9,24,4,1,2,A,F,b,y,5,15,7001,1,1,261.3696,65.3953
1,9,24,4,1,2,A,F,b,y,5,15,7001,1,3,347.682,295.9911
1,9,24,4,1,2,A,F,b,y,5,15,7001,1,1,381.1763,321.756
1,9,24,4,1,2,A,F,b,y,5,15,7001,1,2,543.4952,305.0089
1,9,24,4,1,2,A,F,b,y,5,15,8001,1,3,341.2407,163.3019
1,9,24,4,1,2,A,F,b,y,5,15,8001,1,1,454.6063,317.8913
1,9,24,4,1,2,A,F,b,y,5,15,8001,1,1,515.1538,341.0797
1,9,24,4,1,2,A,F,b,y,5,15,8001,1,2,468.777,365.5564
1,9,24,4,1,2,A,F,b,y,5,15,9001,1,1,350.2585,387.4565
1,9,24,4,1,2,A,F,b,y,5,15,9001,1,2,382.4646,397.7625
1,9,24,4,1,2,A,F,b,y,5,15,9001,1,1,454.6063,361.6916
1,9,24,4,1,2,A,F,b,y,5,15,9001,1,1,571.8366,247.0378
1,9,24,4,1,2,A,F,b,y,5,15,10001,1,1,181.4984,106.6192
1,9,24,4,1,2,A,F,b,y,5,15,10001,1,1,146.7158,142.69
1,9,24,4,1,2,A,F,b,y,5,15,10001,1,1,160.8865,321.756
1,9,24,4,1,2,A,F,b,y,5,15,10001,1,1,381.1763,384.88
1,9,24,4,1,2,A,F,b,y,5,15,10001,1,2,396.6353,431.2568
1,9,24,4,1,2,A,F,b,y,5,15,11001,1,2,404.3647,436.4098
1,9,24,4,1,2,A,F,b,y,5,15,11001,1,3,401.7882,330.7738
1,9,24,4,1,2,A,F,b,y,5,15,11001,1,1,426.2649,49.9364
1,9,24,4,1,2,A,F,b,y,5,15,12001,1,2,367.0056,469.9042
1,9,24,4,1,2,A,F,b,y,5,15,12001,1,1,436.5709,413.2214
1,9,24,4,1,2,A,F,b,y,5,15,12001,1,3,436.5709,462.1747
1,9,24,4,1,2,A,F,b,y,5,15,12001,1,1,244.6224,75.7013
1,9,24,4,1,2,A,F,b,y,5,15,12001,1,1,266.5225,26.748
1,9,24,4,1,2,A,F,b,y,5,15,13001,1,3,267.8108,526.587
1,9,24,4,1,2,A,F,b,y,5,15,13001,1,1,307.7464,581.9815
1,9,24,4,1,2,A,F,b,y,5,15,13001,1,1,395.347,397.7625
1,9,24,4,1,2,A,F,b,y,5,15,13001,1,2,415.9589,362.9799
1,9,24,4,1,2,A,F,b,y,5,15,14001,1,1,275.5403,420.9509
1,9,24,4,1,2,A,F,b,y,5,15,14001,1,1,368.2939,428.6804
1,9,24,4,1,2,A,F,b,y,5,15,14001,1,1,521.595,432.5451
1,9,24,4,1,2,A,F,b,y,5,15,14001,1,1,551.2246,438.9863
1,9,24,4,1,2,A,F,b,y,5,15,14001,1,2,533.1892,486.6514
1,9,24,4,1,2,A,F,b,y,5,15,15001,1,1,368.2939,64.1071
1,9,24,4,1,2,A,F,b,y,5,15,15001,1,3,180.2101,284.3969
1,9,24,4,1,2,A,F,b,y,5,15,15001,1,1,198.2456,310.1618
1,9,24,4,1,2,A,F,b,y,5,15,15001,1,1,287.1345,402.9155
1,9,24,4,1,2,A,F,b,y,5,15,15001,1,1,311.6111,450.5805
1,9,24,4,1,2,A,F,b,y,5,15,15001,1,1,298.7287,468.6159
1,9,24,4,1,2,A,F,b,y,5,15,15001,1,2,274.252,438.9863
1,9,24,4,1,2,A,F,b,y,5,15,16001,1,1,462.3357,234.1554
1,9,24,4,1,2,A,F,b,y,5,15,16001,1,1,473.93,268.938
1,9,24,4,1,2,A,F,b,y,5,15,16001,1,2,336.0878,240.5966
1,9,24,4,1,2,A,F,b,y,5,15,16001,1,1,528.0362,538.1812
1,9,24,4,1,2,A,F,b,y,5,15,16001,1,1,230.4517,155.5725
1,9,24,4,1,2,A,F,b,y,5,15,16001,1,1,221.434,226.4259
1,9,24,4,1,2,A,F,b,y,5,15,16001,1,3,193.0926,164.5902
1,9,24,4,1,2,A,F,b,y,5,15,17001,1,1,271.6755,131.0958
1,9,24,4,1,2,A,F,b,y,5,15,17001,1,1,296.1522,172.3196
1,9,24,4,1,2,A,F,b,y,5,15,17001,1,1,307.7464,236.7319
1,9,24,4,1,2,A,F,b,y,5,15,17001,1,1,203.3986,332.062
1,9,24,4,1,2,A,F,b,y,5,15,17001,1,2,338.6643,176.1844
1,9,24,4,1,2,A,F,b,y,5,15,18001,1,1,327.07,230.2907
1,9,24,4,1,2,A,F,b,y,5,15,18001,1,1,372.1586,263.785
1,9,24,4,1,2,A,F,b,y,5,15,18001,1,1,467.4887,311.4501
1,9,24,4,1,2,A,F,b,y,5,15,18001,1,2,392.7705,227.7142
1,9,24,4,1,2,A,F,b,y,5,15,18001,1,1,593.7367,180.0491
1,9,24,4,1,2,A,F,b,y,5,15,19001,1,1,110.6449,204.5258
1,9,24,4,1,2,A,F,b,y,5,15,19001,1,1,258.7931,189.0668
1,9,24,4,1,2,A,F,b,y,5,15,19001,1,1,292.2874,178.7609
1,9,24,4,1,2,A,F,b,y,5,15,19001,1,1,355.4114,158.149
1,9,24,4,1,2,A,F,b,y,5,15,19001,1,2,284.558,216.12
1,9,24,4,1,2,A,F,b,y,5,15,20001,1,1,222.7222,74.413
1,9,24,4,1,2,A,F,b,y,5,15,20001,1,1,234.3164,116.9251
1,9,24,4,1,2,A,F,b,y,5,15,20001,1,1,376.0233,279.244
1,9,24,4,1,2,A,F,b,y,5,15,20001,1,2,418.5354,225.1377
1,9,24,4,1,2,A,F,b,y,5,15,20001,1,1,508.7126,359.1151
1,9,24,4,1,2,A,F,b,y,5,15,21001,1,1,136.4098,180.0491
1,9,24,4,1,2,A,F,b,y,5,15,21001,1,1,385.0411,338.5032
1,9,24,4,1,2,A,F,b,y,5,15,21001,1,2,450.7415,266.3615
1,9,24,4,1,2,A,F,b,y,5,15,21001,1,1,466.2005,323.0443
1,9,24,4,1,2,A,F,b,y,5,15,21001,1,1,430.1296,383.5918
1,9,24,4,1,2,A,F,b,y,5,15,21001,1,1,497.1184,491.8043
1,9,24,4,1,2,A,F,b,y,5,15,22001,1,1,167.3277,143.9783
1,9,24,4,1,2,A,F,b,y,5,15,22001,1,1,430.1296,155.5725
1,9,24,4,1,2,A,F,b,y,5,15,22001,1,1,461.0475,189.0668
1,9,24,4,1,2,A,F,b,y,5,15,22001,1,1,611.7721,171.0314
1,9,24,4,1,2,A,F,b,y,5,15,22001,1,2,468.777,321.756
1,9,24,4,1,2,A,F,b,y,5,15,23001,1,2,463.624,332.062
1,9,24,4,1,2,A,F,b,y,5,15,23001,1,1,458.471,449.2923
1,9,24,4,1,2,A,F,b,y,5,15,23001,1,1,486.8124,529.1634
1,9,24,4,1,2,A,F,b,y,5,15,23001,1,1,311.6111,535.6047
1,9,24,4,1,2,A,F,b,y,5,15,23001,1,1,311.6111,561.3696
1,9,24,4,1,2,A,F,b,y,5,15,24001,1,1,297.4404,145.2665
1,9,24,4,1,2,A,F,b,y,5,15,24001,1,1,573.1248,133.6723
1,9,24,4,1,2,A,F,b,y,5,15,24001,1,2,423.6884,272.8027
1,9,24,4,1,2,A,F,b,y,5,15,24001,1,1,445.5886,299.8559
1,9,24,4,1,2,A,F,b,y,5,15,24001,1,1,589.872,329.4855
1,9,24,4,1,2,A,F,b,y,5,15,25001,1,1,261.3696,83.4308
1,9,24,4,1,2,A,F,b,y,5,15,25001,1,1,342.529,95.025
1,9,24,4,1,2,A,F,b,y,5,15,25001,1,2,464.9122,231.5789
1,9,24,4,1,2,A,F,b,y,5,15,25001,1,1,439.1473,451.8688
1,9,24,4,1,2,A,F,b,y,5,15,25001,1,2,400.5,507.2633
1,9,24,4,1,2,A,F,b,y,5,15,26001,1,1,93.8977,286.9734
1,9,24,4,1,2,A,F,b,y,5,15,26001,1,1,158.31,182.6256
1,9,24,4,1,2,A,F,b,y,5,15,26001,1,1,502.2713,216.12
1,9,24,4,1,2,A,F,b,y,5,15,26001,1,2,528.0362,151.7077
1,9,24,4,1,2,A,F,b,y,5,15,26001,1,2,500.9831,253.4791
1,9,24,4,1,2,A,F,b,y,5,15,27001,1,2,319.3406,236.7319
1,9,24,4,1,2,A,F,b,y,5,15,27001,1,1,348.9702,180.0491
1,9,24,4,1,2,A,F,b,y,5,15,27001,1,1,363.1409,218.6965
1,9,24,4,1,2,A,F,b,y,5,15,27001,1,1,436.5709,205.814
1,9,24,4,1,2,A,F,b,y,5,15,27001,1,2,503.5596,268.938
1,9,24,4,1,2,A,F,b,y,5,15,27001,1,1,495.8301,302.4324
1,9,24,4,1,2,A,F,b,y,5,15,27001,1,1,595.025,326.909
1,9,24,4,1,2,A,F,b,y,5,15,27001,1,3,557.6659,352.6739
1,9,24,4,1,2,A,F,b,y,5,15,28001,1,2,243.3341,196.7963
1,9,24,4,1,2,A,F,b,y,5,15,28001,1,1,433.9944,286.9734
1,9,24,4,1,2,A,F,b,y,5,15,28001,1,3,433.9944,329.4855
1,9,24,4,1,2,A,F,b,y,5,15,28001,1,2,485.5242,225.1377
1,9,24,4,1,2,A,F,b,y,5,15,28001,1,1,520.3068,229.0024
1,9,24,4,1,2,A,F,b,y,5,15,28001,1,1,562.8188,222.5612
1,9,24,4,1,2,A,F,b,y,5,15,29001,1,2,272.9638,83.4308
1,9,24,4,1,2,A,F,b,y,5,15,29001,1,1,426.2649,241.8849
1,9,24,4,1,2,A,F,b,y,5,15,29001,1,2,463.624,261.2085
1,9,24,4,1,2,A,F,b,y,5,15,29001,1,3,409.5177,303.7206
1,9,24,4,1,2,A,F,b,y,5,15,29001,1,1,529.3245,464.7512
1,9,24,4,1,2,A,F,b,y,5,15,30001,1,2,440.4356,217.4082
1,9,24,4,1,2,A,F,b,y,5,15,30001,1,1,444.3003,274.091
1,9,24,4,1,2,A,F,b,y,5,15,30001,1,1,427.5531,307.5853
1,9,24,4,1,2,A,F,b,y,5,15,30001,1,3,437.8591,335.9267
1,9,24,4,1,2,A,F,b,y,5,15,30001,1,2,473.93,315.3148
1,9,24,4,1,2,A,F,b,y,5,15,31001,1,3,221.434,225.1377
1,9,24,4,1,2,A,F,b,y,5,15,31001,1,2,455.8945,350.0974
1,9,24,4,1,2,A,F,b,y,5,15,31001,1,1,490.6771,303.7206
1,9,24,4,1,2,A,F,b,y,5,15,31001,1,1,426.2649,379.7271
1,9,24,4,1,2,A,F,b,y,5,15,31001,1,1,397.9235,415.7979
1,9,24,4,1,2,A,F,b,y,5,15,31001,1,2,508.7126,361.6916
1,9,24,4,1,2,A,F,b,y,5,15,32001,1,2,424.9767,234.1554
1,9,24,4,1,2,A,F,b,y,5,15,32001,1,2,409.5177,293.4147
1,9,24,4,1,2,A,F,b,y,5,15,32001,1,1,457.1828,277.9557
1,9,24,4,1,2,A,F,b,y,5,15,33001,1,2,334.7995,174.8961
1,9,24,4,1,2,A,F,b,y,5,15,33001,1,2,403.0765,212.2552
1,9,24,4,1,2,A,F,b,y,5,15,33001,1,1,489.3889,214.8317
1,9,24,4,1,2,A,F,b,y,5,15,33001,1,1,547.3599,276.6675
1,9,24,4,1,2,A,F,b,y,5,15,34001,1,3,271.6755,49.9364
1,9,24,4,1,2,A,F,b,y,5,15,34001,1,2,417.2472,97.6014
1,9,24,4,1,2,A,F,b,y,5,15,34001,1,1,391.4823,173.6079
1,9,24,4,1,2,A,F,b,y,5,15,34001,1,1,379.8881,227.7142
1,9,24,4,1,2,A,F,b,y,5,15,34001,1,1,417.2472,221.2729
1,9,24,4,1,2,A,F,b,y,5,15,34001,1,2,388.9058,267.6498
1,9,24,4,1,2,A,F,b,y,5,15,34001,1,1,403.0765,284.3969
1,9,24,4,1,2,A,F,b,y,5,15,35001,1,1,212.4163,101.4662
1,9,24,4,1,2,A,F,b,y,5,15,35001,1,2,231.7399,136.2488
1,9,24,4,1,2,A,F,b,y,5,15,35001,1,3,265.2343,140.1135
1,9,24,4,1,2,A,F,b,y,5,15,35001,1,2,361.8527,293.4147
1,9,24,4,1,2,A,F,b,y,5,15,35001,1,1,579.566,275.3792
1,9,24,4,1,2,A,F,b,y,5,15,35001,1,1,616.9251,275.3792
1,9,24,4,1,2,A,F,b,y,5,15,36001,1,1,230.4517,199.3728
1,9,24,4,1,2,A,F,b,y,5,15,36001,1,1,249.7754,169.7432
1,9,24,4,1,2,A,F,b,y,5,15,36001,1,1,310.3229,178.7609
1,9,24,4,1,2,A,F,b,y,5,15,36001,1,3,279.405,194.2198
1,9,24,4,1,2,A,F,b,y,5,15,36001,1,2,249.7754,235.4436
1,9,24,4,1,2,A,F,b,y,5,15,36001,1,2,258.7931,274.091
1,9,24,4,1,2,A,F,b,y,5,15,36001,1,1,278.1167,307.5853
1,9,24,4,1,2,A,F,b,y,5,15,37001,1,1,187.9396,101.4662
1,9,24,4,1,2,A,F,b,y,5,15,37001,1,1,257.5048,124.6546
1,9,24,4,1,2,A,F,b,y,5,15,37001,1,3,265.2343,82.1425
1,9,24,4,1,2,A,F,b,y,5,15,37001,1,2,302.5934,190.3551
1,9,24,4,1,2,A,F,b,y,5,15,37001,1,1,302.5934,253.4791
1,9,24,4,1,2,A,F,b,y,5,15,37001,1,1,342.529,256.0556
1,9,24,4,1,2,A,F,b,y,5,15,37001,1,2,267.8108,360.4034
1,9,24,4,1,2,A,F,b,y,5,15,38001,1,3,386.3293,60.2424
1,9,24,4,1,2,A,F,b,y,5,15,38001,1,1,386.3293,122.0781
1,9,24,4,1,2,A,F,b,y,5,15,38001,1,2,391.4823,199.3728
1,9,24,4,1,2,A,F,b,y,5,15,38001,1,1,424.9767,213.5435
1,9,24,4,1,2,A,F,b,y,5,15,38001,1,1,307.7464,459.5982
1,9,24,4,1,2,A,F,b,y,5,15,38001,1,2,321.9171,410.6449
1,9,24,4,1,2,A,F,b,y,5,15,39001,1,1,418.5354,46.0717
1,9,24,4,1,2,A,F,b,y,5,15,39001,1,3,448.1651,79.566
1,9,24,4,1,2,A,F,b,y,5,15,39001,1,1,129.9686,217.4082
1,9,24,4,1,2,A,F,b,y,5,15,39001,1,1,383.7528,241.8849
1,9,24,4,1,2,A,F,b,y,5,15,39001,1,1,432.7061,235.4436
1,9,24,4,1,2,A,F,b,y,5,15,39001,1,2,449.4533,279.244
1,9,24,4,1,2,A,F,b,y,5,15,39001,1,2,262.6578,373.2858
1,9,24,4,1,2,A,F,b,y,5,15,39001,1,1,528.0362,418.3744
1,9,24,4,1,2,A,F,b,y,5,15,40001,1,3,467.4887,95.025
1,9,24,4,1,2,A,F,b,y,5,15,40001,1,1,482.9477,164.5902
1,9,24,4,1,2,A,F,b,y,5,15,40001,1,1,481.6594,280.5322
1,9,24,4,1,2,A,F,b,y,5,15,40001,1,1,455.8945,290.8382
1,9,24,4,1,2,A,F,b,y,5,15,40001,1,1,431.4179,365.5564
1,9,24,4,1,2,A,F,b,y,5,15,40001,1,2,472.6417,329.4855
1,9,24,4,1,2,A,F,b,y,5,15,40001,1,2,274.252,341.0797
1,9,24,4,1,2,A,F,b,y,5,15,40001,1,1,244.6224,459.5982
1,9,24,4,1,2,A,F,b,y,5,15,41001,1,2,409.5177,294.7029
1,9,24,4,1,2,A,F,b,y,5,15,41001,1,1,361.8527,306.2971
1,9,24,4,1,2,A,F,b,y,5,15,41001,1,1,314.1876,333.3502
1,9,24,4,1,2,A,F,b,y,5,15,41001,1,2,258.7931,344.9444
1,9,24,4,1,2,A,F,b,y,5,15,41001,1,1,169.9042,365.5564
1,9,24,4,1,2,A,F,b,y,5,15,41001,1,1,172.4807,347.5209
1,9,24,4,1,2,A,F,b,y,5,15,41001,1,1,106.7802,250.9026
1,9,24,4,1,2,A,F,b,y,5,15,41001,1,1,79.7271,276.6675
1,9,24,4,1,2,A,F,b,y,5,15,41001,1,3,485.5242,534.3164
1,9,24,4,1,2,A,F,b,y,5,15,42001,1,1,339.9525,48.6481
1,9,24,4,1,2,A,F,b,y,5,15,42001,1,1,124.8156,133.6723
1,9,24,4,1,2,A,F,b,y,5,15,42001,1,1,266.5225,333.3502
1,9,24,4,1,2,A,F,b,y,5,15,42001,1,2,329.6465,310.1618
1,9,24,4,1,2,A,F,b,y,5,15,42001,1,2,476.5064,334.6385
1,9,24,4,1,2,A,F,b,y,5,15,42001,1,1,500.9831,377.1506
1,9,24,4,1,2,A,F,b,y,5,15,42001,1,1,457.1828,540.7576
1,9,24,4,1,2,A,F,b,y,5,15,42001,1,3,432.7061,558.7931
1,9,24,4,1,2,A,F,b,y,5,15,43001,1,1,307.7464,277.9557
1,9,24,4,1,2,A,F,b,y,5,15,43001,1,2,310.3229,244.4614
1,9,24,4,1,2,A,F,b,y,5,15,43001,1,2,403.0765,180.0491
1,9,24,4,1,2,A,F,b,y,5,15,43001,1,1,645.2665,241.8849
1,9,24,4,1,2,A,F,b,y,5,15,44001,1,3,444.3003,467.3277
1,9,24,4,1,2,A,F,b,y,5,15,44001,1,1,455.8945,422.2391
1,9,24,4,1,2,A,F,b,y,5,15,44001,1,1,476.5064,303.7206
1,9,24,4,1,2,A,F,b,y,5,15,44001,1,1,418.5354,301.1441
1,9,24,4,1,2,A,F,b,y,5,15,44001,1,1,271.6755,303.7206
1,9,24,4,1,2,A,F,b,y,5,15,44001,1,2,332.223,235.4436
1,9,24,4,1,2,A,F,b,y,5,15,44001,1,2,448.1651,257.3438
1,9,24,4,1,2,A,F,b,y,5,15,44001,1,1,276.8285,57.6659
1,9,24,4,1,2,A,F,b,y,5,15,45001,1,2,311.6111,214.8317
1,9,24,4,1,2,A,F,b,y,5,15,45001,1,1,473.93,290.8382
1,9,24,4,1,2,A,F,b,y,5,15,45001,1,2,486.8124,342.368
1,9,24,4,1,2,A,F,b,y,5,15,45001,1,3,443.0121,576.8285
1,9,24,4,1,2,A,F,b,y,5,15,45001,1,1,482.9477,572.9638
1,9,24,4,1,2,A,F,b,y,5,15,46001,1,2,327.07,250.9026
1,9,24,4,1,2,A,F,b,y,5,15,46001,1,2,427.5531,329.4855
1,9,24,4,1,2,A,F,b,y,5,15,46001,1,1,448.1651,342.368
1,9,24,4,1,2,A,F,b,y,5,15,46001,1,3,437.8591,562.6578
1,9,24,4,1,2,A,F,b,y,5,15,47001,1,1,338.6643,183.9138
1,9,24,4,1,2,A,F,b,y,5,15,47001,1,2,355.4114,256.0556
1,9,24,4,1,2,A,F,b,y,5,15,47001,1,1,477.7947,265.0733
1,9,24,4,1,2,A,F,b,y,5,15,47001,1,2,476.5064,317.8913
1,9,24,4,1,2,A,F,b,y,5,15,47001,1,3,387.6176,478.9219
1,9,24,4,1,2,A,F,b,y,5,15,47001,1,1,417.2472,512.4163
1,9,24,4,1,2,A,F,b,y,5,15,48001,1,2,310.3229,241.8849
1,9,24,4,1,2,A,F,b,y,5,15,48001,1,1,345.1055,241.8849
1,9,24,4,1,2,A,F,b,y,5,15,48001,1,1,395.347,223.8494
1,9,24,4,1,2,A,F,b,y,5,15,48001,1,2,432.7061,243.1731
1,9,24,4,1,2,A,F,b,y,5,15,48001,1,1,354.1232,489.2279
1,9,24,4,1,2,A,F,b,y,5,15,48001,1,3,396.6353,527.8752
1,9,24,4,1,2,A,F,b,y,5,15,49001,1,2,472.6417,247.0378
1,9,24,4,1,2,A,F,b,y,5,15,49001,1,2,607.9074,167.1667
1,9,24,4,1,2,A,F,b,y,5,15,49001,1,1,225.2987,548.4871
1,9,24,4,1,2,A,F,b,y,5,15,50001,1,2,463.624,263.785
1,9,24,4,1,2,A,F,b,y,5,15,50001,1,2,260.0813,48.6481
1,9,24,4,1,2,A,F,b,y,5,15,51001,1,1,252.3519,105.3309
1,9,24,4,1,2,A,F,b,y,5,15,51001,1,2,207.2633,140.1135
1,9,24,4,1,2,A,F,b,y,5,15,51001,1,1,472.6417,238.0201
1,9,24,4,1,2,A,F,b,y,5,15,51001,1,2,471.3535,257.3438
1,9,24,4,1,2,A,F,b,y,5,15,51001,1,1,534.4775,441.5628
1,9,24,4,1,2,A,F,b,y,5,15,52001,1,1,495.8301,284.3969
1,9,24,4,1,2,A,F,b,y,5,15,52001,1,2,470.0652,310.1618
1,9,24,4,1,2,A,F,b,y,5,15,52001,1,1,495.8301,499.5338
1,9,24,4,1,2,A,F,b,y,5,15,52001,1,2,454.6063,484.0749
1,9,24,4,1,2,A,F,b,y,5,15,53001,1,1,292.2874,158.149
1,9,24,4,1,2,A,F,b,y,5,15,53001,1,1,260.0813,204.5258
1,9,24,4,1,2,A,F,b,y,5,15,53001,1,2,449.4533,256.0556
1,9,24,4,1,2,A,F,b,y,5,15,53001,1,1,347.682,405.4919
1,9,24,4,1,2,A,F,b,y,5,15,53001,1,2,290.9992,438.9863
1,9,24,4,1,2,A,F,b,y,5,15,54001,1,1,396.6353,261.2085
1,9,24,4,1,2,A,F,b,y,5,15,54001,1,1,418.5354,284.3969
1,9,24,4,1,2,A,F,b,y,5,15,54001,1,1,449.4533,249.6143
1,9,24,4,1,2,A,F,b,y,5,15,54001,1,2,477.7947,286.9734
1,9,24,4,1,2,A,F,b,y,5,15,55001,1,1,360.5644,249.6143
1,9,24,4,1,2,A,F,b,y,5,15,55001,1,1,354.1232,194.2198
1,9,24,4,1,2,A,F,b,y,5,15,55001,1,1,314.1876,173.6079
1,9,24,4,1,2,A,F,b,y,5,15,55001,1,2,390.194,214.8317
1,9,24,4,1,2,A,F,b,y,5,15,56001,1,1,555.8073,87.0922
1,9,24,4,1,2,A,F,b,y,5,15,56001,1,1,527.8743,103.852
1,9,24,4,1,2,A,F,b,y,5,15,56001,1,2,326.757,269.2151
1,9,24,4,1,2,A,F,b,y,5,15,56001,1,1,428.433,458.0419
1,9,24,4,1,2,A,F,b,y,5,15,56001,1,3,470.8911,575.3603
1,9,24,4,1,2,A,F,b,y,5,15,56001,1,1,580.3883,506.0866
1,9,24,4,1,2,A,F,b,y,5,15,57001,1,2,311.1145,349.662
1,9,24,4,1,2,A,F,b,y,5,15,57001,1,1,374.8017,444.6341
1,9,24,4,1,2,A,F,b,y,5,15,57001,1,3,411.6732,442.3994
1,9,24,4,1,2,A,F,b,y,5,15,57001,1,1,497.7067,522.8464
1,9,24,4,1,2,A,F,b,y,5,15,58001,1,1,313.3492,228.9916
1,9,24,4,1,2,A,F,b,y,5,15,58001,1,1,315.5838,198.824
1,9,24,4,1,2,A,F,b,y,5,15,58001,1,3,431.7849,224.5223
1,9,24,4,1,2,A,F,b,y,5,15,58001,1,2,308.8799,331.7849
1,9,24,4,1,2,A,F,b,y,5,15,58001,1,1,130.1089,403.2933
1,9,24,4,1,2,A,F,b,y,5,15,59001,1,2,336.8128,394.3547
1,9,24,4,1,2,A,F,b,y,5,15,59001,1,1,420.6117,387.6508
1,9,24,4,1,2,A,F,b,y,5,15,59001,1,1,531.2263,188.7682
1,9,24,4,1,2,A,F,b,y,5,15,59001,1,1,530.1089,172.0084
1,9,24,4,1,2,A,F,b,y,5,15,59001,1,3,572.567,204.4106
1,9,24,4,1,2,A,F,b,y,5,15,60001,1,1,316.7011,344.0754
1,9,24,4,1,2,A,F,b,y,5,15,60001,1,2,339.0475,379.8296
1,9,24,4,1,2,A,F,b,y,5,15,60001,1,1,301.0587,494.9134
1,9,24,4,1,2,A,F,b,y,5,15,60001,1,1,141.2821,452.4553
1,9,24,4,1,2,A,F,b,y,5,15,60001,1,3,275.3603,561.9525
1,9,24,4,1,2,A,F,b,y,5,15,61001,1,1,588.2095,153.014
1,9,24,4,1,2,A,F,b,y,5,15,61001,1,1,412.7905,293.7961
1,9,24,4,1,2,A,F,b,y,5,15,61001,1,2,441.8408,288.2095
1,9,24,4,1,2,A,F,b,y,5,15,61001,1,1,261.9525,474.8017
1,9,24,4,1,2,A,F,b,y,5,15,61001,1,1,286.5335,513.9078
1,9,24,4,1,2,A,F,b,y,5,15,61001,1,3,251.8966,535.1369
1,9,24,4,1,2,A,F,b,y,5,15,62001,1,1,328.9916,112.7905
1,9,24,4,1,2,A,F,b,y,5,15,62001,1,1,320.0531,73.6844
1,9,24,4,1,2,A,F,b,y,5,15,62001,1,1,268.6564,135.1369
1,9,24,4,1,2,A,F,b,y,5,15,62001,1,1,213.9078,253.5726
1,9,24,4,1,2,A,F,b,y,5,15,62001,1,2,379.2709,265.8631
1,9,24,4,1,2,A,F,b,y,5,15,62001,1,1,194.9134,513.9078
1,9,24,4,1,2,A,F,b,y,5,15,62001,1,3,179.2709,478.1536
1,9,24,4,1,2,A,F,b,y,5,15,63001,1,2,381.5056,231.2263
1,9,24,4,1,2,A,F,b,y,5,15,63001,1,1,438.4888,485.9749
1,9,24,4,1,2,A,F,b,y,5,15,63001,1,1,152.4553,412.2318
1,9,24,4,1,2,A,F,b,y,5,15,63001,1,1,171.4497,442.3994
1,9,24,4,1,2,A,F,b,y,5,15,63001,1,1,127.8743,472.567
1,9,24,4,1,2,A,F,b,y,5,15,63001,1,3,190.4441,478.1536
1,9,24,4,1,2,A,F,b,y,5,15,63001,1,1,162.5112,510.5559
1,9,24,4,1,2,A,F,b,y,5,15,64001,1,1,359.1592,225.6397
1,9,24,4,1,2,A,F,b,y,5,15,64001,1,1,321.1704,242.3994
1,9,24,4,1,2,A,F,b,y,5,15,64001,1,1,344.6341,273.6844
1,9,24,4,1,2,A,F,b,y,5,15,64001,1,2,325.6397,302.7346
1,9,24,4,1,2,A,F,b,y,5,15,64001,1,1,464.1872,302.7346
1,9,24,4,1,2,A,F,b,y,5,15,64001,1,3,286.5335,420.0531
1,9,24,4,1,2,A,F,b,y,5,15,64001,1,1,247.4274,446.8687
1,9,24,4,1,2,A,F,b,y,5,15,64001,1,1,273.1257,463.6285
1,9,24,4,1,2,A,F,b,y,5,15,65001,1,1,342.3994,232.3436
1,9,24,4,1,2,A,F,b,y,5,15,65001,1,2,384.8575,231.2263
1,9,24,4,1,2,A,F,b,y,5,15,66001,1,1,430.6676,243.5168
1,9,24,4,1,2,A,F,b,y,5,15,66001,1,2,416.1425,270.3324
1,9,24,4,1,2,A,F,b,y,5,15,66001,1,1,409.4385,61.3939
1,9,24,4,1,2,A,F,b,y,5,15,66001,1,2,378.1536,74.8017
1,9,24,4,1,2,A,F,b,y,5,15,66001,1,1,328.9916,53.5726
1,9,24,4,1,2,A,F,b,y,5,15,66001,1,1,199.3827,78.1536
1,9,24,4,1,2,A,F,b,y,5,15,66001,1,1,190.4441,136.2542
1,9,24,4,1,2,A,F,b,y,5,15,67001,1,2,463.0698,208.8799
1,9,24,4,1,2,A,F,b,y,5,15,67001,1,2,476.4777,296.0307
1,9,24,4,1,2,A,F,b,y,5,15,67001,1,1,459.7179,318.3771
1,9,24,4,1,2,A,F,b,y,5,15,67001,1,1,402.7346,336.2542
1,9,24,4,1,2,A,F,b,y,5,15,67001,1,1,295.4721,485.9749
1,9,24,4,1,2,A,F,b,y,5,15,67001,1,1,270.8911,426.757
1,9,24,4,1,2,A,F,b,y,5,15,67001,1,1,228.433,454.6899
1,9,24,4,1,2,A,F,b,y,5,15,68001,1,2,480.9469,182.0642
1,9,24,4,1,2,A,F,b,y,5,15,68001,1,2,472.0084,330.6676
1,9,24,4,1,2,A,F,b,y,5,15,68001,1,1,468.6564,460.2765
1,9,24,4,1,2,A,F,b,y,5,15,68001,1,1,543.5168,265.8631
1,9,24,4,1,2,A,F,b,y,5,15,68001,1,1,554.6899,290.4441
1,9,24,4,1,2,A,F,b,y,5,15,68001,1,1,563.6285,239.0475
1,9,24,4,1,2,A,F,b,y,5,15,69001,1,1,366.9804,60.2765
1,9,24,4,1,2,A,F,b,y,5,15,69001,1,1,466.4218,251.338
1,9,24,4,1,2,A,F,b,y,5,15,69001,1,1,499.9413,217.8184
1,9,24,4,1,2,A,F,b,y,5,15,69001,1,1,474.243,291.5615
1,9,24,4,1,2,A,F,b,y,5,15,69001,1,1,496.5894,301.6173
1,9,24,4,1,2,A,F,b,y,5,15,69001,1,1,478.7123,326.1983
1,9,24,4,1,2,A,F,b,y,5,15,69001,1,2,447.4274,299.3827
1,9,24,4,1,2,A,F,b,y,5,15,69001,1,2,535.6955,212.2318
1,9,24,4,1,2,A,F,b,y,5,15,70001,1,1,280.9469,186.5335
1,9,24,4,1,2,A,F,b,y,5,15,70001,1,1,410.5559,271.4497
1,9,24,4,1,2,A,F,b,y,5,15,70001,1,2,406.0866,321.7291
1,9,24,4,1,2,A,F,b,y,5,15,70001,1,1,503.2933,217.8184
1,9,24,4,1,2,A,F,b,y,5,15,70001,1,1,531.2263,252.4553
1,9,24,4,1,2,A,F,b,y,5,15,70001,1,1,573.6844,186.5335
1,9,24,4,1,2,A,F,b,y,5,15,70001,1,2,570.3324,232.3436
1,9,24,4,1,2,A,F,b,y,5,15,70001,1,1,616.1425,176.4777
1,9,24,4,1,2,A,F,b,y,5,15,71001,1,1,411.6732,77.0363
1,9,24,4,1,2,A,F,b,y,5,15,71001,1,1,226.1983,89.3268
1,9,24,4,1,2,A,F,b,y,5,15,71001,1,1,383.7402,244.6341
1,9,24,4,1,2,A,F,b,y,5,15,71001,1,2,352.4553,256.9246
1,9,24,4,1,2,A,F,b,y,5,15,71001,1,1,330.1089,289.3268
1,9,24,4,1,2,A,F,b,y,5,15,71001,1,1,334.5782,475.919
1,9,24,4,1,2,A,F,b,y,5,15,71001,1,1,293.2374,526.1983
1,9,24,4,1,2,A,F,b,y,5,15,71001,1,2,555.8073,205.5279
1,9,24,4,1,2,A,F,b,y,5,15,72001,1,2,475.3603,195.4721
1,9,24,4,1,2,A,F,b,y,5,15,72001,1,1,417.2598,161.9525
1,9,24,4,1,2,A,F,b,y,5,15,72001,1,1,564.7458,462.5112
1,9,24,4,1,2,A,F,b,y,5,15,72001,1,1,296.5894,280.3883
1,9,24,4,1,2,A,F,b,y,5,15,72001,1,2,270.8911,255.8073
1,9,24,4,1,2,A,F,b,y,5,15,72001,1,1,215.0251,255.8073
1,9,24,4,1,2,A,F,b,y,5,15,72001,1,1,173.6844,433.4609
1,9,24,4,1,2,A,F,b,y,5,15,73001,1,2,432.9022,273.6844
1,9,24,4,1,2,A,F,b,y,5,15,73001,1,1,139.0475,225.6397
1,9,24,4,1,2,A,F,b,y,5,15,73001,1,1,130.1089,338.4888
1,9,24,4,1,2,A,F,b,y,5,15,73001,1,1,309.9972,426.757
1,9,24,4,1,2,A,F,b,y,5,15,73001,1,2,401.6173,428.9916
1,9,24,4,1,2,A,F,b,y,5,15,73001,1,1,447.4274,454.6899
1,9,24,4,1,2,A,F,b,y,5,15,73001,1,1,480.9469,416.7011
1,9,24,4,1,2,A,F,b,y,5,15,74001,1,2,475.3603,334.0196
1,9,24,4,1,2,A,F,b,y,5,15,74001,1,1,427.3156,393.2374
1,9,24,4,1,2,A,F,b,y,5,15,74001,1,2,429.5503,460.2765
1,9,24,4,1,2,A,F,b,y,5,15,75001,1,1,473.1257,301.6173
1,9,24,4,1,2,A,F,b,y,5,15,75001,1,2,428.433,293.7961
1,9,24,4,1,2,A,F,b,y,5,15,75001,1,1,352.4553,430.1089
1,9,24,4,1,2,A,F,b,y,5,15,75001,1,2,437.3715,456.9246
1,9,24,4,1,2,A,F,b,y,5,15,75001,1,1,124.5223,392.1201
1,9,24,4,1,2,A,F,b,y,5,15,75001,1,1,137.9302,240.1648
1,9,24,4,1,2,A,F,b,y,5,15,76001,1,1,286.5335,212.2318
1,9,24,4,1,2,A,F,b,y,5,15,76001,1,1,423.9637,225.6397
1,9,24,4,1,2,A,F,b,y,5,15,76001,1,2,425.081,285.9749
1,9,24,4,1,2,A,F,b,y,5,15,76001,1,2,340.1648,384.2989
1,9,24,4,1,2,A,F,b,y,5,15,76001,1,1,444.0754,521.7291
1,9,24,4,1,2,A,F,b,y,5,15,76001,1,1,594.9134,393.2374
1,9,24,4,1,2,A,F,b,y,5,15,77001,1,1,617.2598,346.3101
1,9,24,4,1,2,A,F,b,y,5,15,77001,1,1,387.0922,302.7346
1,9,24,4,1,2,A,F,b,y,5,15,77001,1,1,418.3771,290.4441
1,9,24,4,1,2,A,F,b,y,5,15,77001,1,2,382.6229,253.5726
1,9,24,4,1,2,A,F,b,y,5,15,77001,1,2,362.5112,376.4777
1,9,24,4,1,2,A,F,b,y,5,15,78001,1,2,400.5,263.6285
1,9,24,4,1,2,A,F,b,y,5,15,78001,1,1,326.757,335.1369
1,9,24,4,1,2,A,F,b,y,5,15,78001,1,1,153.5726,290.4441
1,9,24,4,1,2,A,F,b,y,5,15,78001,1,1,291.0028,437.9302
1,9,24,4,1,2,A,F,b,y,5,15,78001,1,1,323.405,459.1592
1,9,24,4,1,2,A,F,b,y,5,15,78001,1,1,336.8128,378.7123
1,9,24,4,1,2,A,F,b,y,5,15,78001,1,2,336.8128,426.757
1,9,24,4,1,2,A,F,b,y,5,15,79001,1,1,597.148,284.8575
1,9,24,4,1,2,A,F,b,y,5,15,79001,1,1,572.567,225.6397
1,9,24,4,1,2,A,F,b,y,5,15,79001,1,1,520.0531,228.9916
1,9,24,4,1,2,A,F,b,y,5,15,79001,1,2,455.2486,269.2151
1,9,24,4,1,2,A,F,b,y,5,15,79001,1,2,328.9916,380.9469
1,9,24,4,1,2,A,F,b,y,5,15,79001,1,1,330.1089,475.919
1,9,24,4,1,2,A,F,b,y,5,15,79001,1,1,283.1816,566.4218
1,9,24,4,1,2,A,F,b,y,5,15,80001,1,1,533.4609,233.4609
1,9,24,4,1,2,A,F,b,y,5,15,80001,1,1,478.7123,170.8911
1,9,24,4,1,2,A,F,b,y,5,15,80001,1,1,459.7179,197.7067
1,9,24,4,1,2,A,F,b,y,5,15,80001,1,2,468.6564,253.5726
1,9,24,4,1,2,A,F,b,y,5,15,80001,1,2,362.5112,445.7514
1,9,24,4,1,2,A,F,b,y,5,15,80001,1,1,442.9581,535.1369
1,9,24,4,1,2,A,F,b,y,5,15,81001,1,2,394.9134,290.4441
1,9,24,4,1,2,A,F,b,y,5,15,81001,1,1,366.9804,437.9302
1,9,24,4,1,2,A,F,b,y,5,15,81001,1,2,314.4665,468.0978
1,9,24,4,1,2,A,F,b,y,5,15,81001,1,1,190.4441,363.0698
1,9,24,4,1,2,A,F,b,y,5,15,81001,1,1,123.405,335.1369
1,9,24,4,1,2,A,F,b,y,5,15,82001,1,2,429.5503,284.8575
1,9,24,4,1,2,A,F,b,y,5,15,82001,1,1,354.6899,358.6006
1,9,24,4,1,2,A,F,b,y,5,15,82001,1,1,305.5279,349.662
1,9,24,4,1,2,A,F,b,y,5,15,82001,1,1,255.2486,402.176
1,9,24,4,1,2,A,F,b,y,5,15,82001,1,1,320.0531,424.5223
1,9,24,4,1,2,A,F,b,y,5,15,82001,1,2,361.3939,391.0028
1,9,24,4,1,2,A,F,b,y,5,15,83001,1,2,477.595,316.1425
1,9,24,4,1,2,A,F,b,y,5,15,83001,1,2,413.9078,336.2542
1,9,24,4,1,2,A,F,b,y,5,15,83001,1,1,237.3715,453.5726
1,9,24,4,1,2,A,F,b,y,5,15,83001,1,1,320.0531,473.6844
1,9,24,4,1,2,A,F,b,y,5,15,83001,1,1,219.4944,602.176
1,9,24,4,1,2,A,F,b,y,5,15,83001,1,1,226.1983,569.7737
1,9,24,4,1,2,A,F,b,y,5,15,83001,1,1,221.7291,542.9581
1,9,24,4,1,2,A,F,b,y,5,15,84001,1,1,496.5894,539.6061
1,9,24,4,1,2,A,F,b,y,5,15,84001,1,1,356.9246,239.0475
1,9,24,4,1,2,A,F,b,y,5,15,84001,1,1,320.0531,245.7514
1,9,24,4,1,2,A,F,b,y,5,15,84001,1,2,460.8352,377.595
1,9,24,4,1,2,A,F,b,y,5,15,84001,1,2,426.1983,233.4609
1,9,24,4,1,2,A,F,b,y,5,15,84001,1,1,428.433,189.8855
1,9,24,4,1,2,A,F,b,y,5,15,84001,1,1,476.4777,271.4497
1,9,24,4,1,2,A,F,b,y,5,15,84001,1,1,560.2765,296.0307
1,9,24,4,1,2,A,F,b,y,5,15,85001,1,1,427.3156,404.4106
1,9,24,4,1,2,A,F,b,y,5,15,85001,1,2,379.2709,397.7067
1,9,24,4,1,2,A,F,b,y,5,15,85001,1,1,245.1927,393.2374
1,9,24,4,1,2,A,F,b,y,5,15,85001,1,1,215.0251,203.2933
1,9,24,4,1,2,A,F,b,y,5,15,85001,1,1,242.9581,85.9749
1,9,24,4,1,2,A,F,b,y,5,15,85001,1,1,369.2151,73.6844
1,9,24,4,1,2,A,F,b,y,5,15,85001,1,1,391.5615,128.433
1,9,24,4,1,2,A,F,b,y,5,15,85001,1,2,401.6173,177.595
1,9,24,4,1,2,A,F,b,y,5,15,86001,1,1,352.4553,359.7179
1,9,24,4,1,2,A,F,b,y,5,15,86001,1,2,347.986,417.8184
1,9,24,4,1,2,A,F,b,y,5,15,86001,1,1,466.4218,393.2374
1,9,24,4,1,2,A,F,b,y,5,15,86001,1,1,499.9413,378.7123
1,9,24,4,1,2,A,F,b,y,5,15,86001,1,1,472.0084,245.7514
1,9,24,4,1,2,A,F,b,y,5,15,86001,1,2,542.3994,195.4721
1,9,24,4,1,2,A,F,b,y,5,15,86001,1,1,639.6061,387.6508
1,9,24,4,1,2,A,F,b,y,5,15,87001,1,1,205.6613,97.9194
1,9,24,4,1,2,A,F,b,y,5,15,87001,1,2,337.2742,95.3387
1,9,24,4,1,2,A,F,b,y,5,15,87001,1,1,569.5323,219.2097
1,9,24,4,1,2,A,F,b,y,5,15,87001,1,1,568.2419,270.8226
1,9,24,4,1,2,A,F,b,y,5,15,87001,1,1,366.9516,363.7258
1,9,24,4,1,2,A,F,b,y,5,15,87001,1,1,399.2097,388.2419
1,9,24,4,1,2,A,F,b,y,5,15,87001,1,1,386.3065,455.3387
1,9,24,4,1,2,A,F,b,y,5,15,87001,1,2,346.3065,407.5968
1,9,24,4,1,2,A,F,b,y,5,15,88001,1,2,450.8226,208.8871
1,9,24,4,1,2,A,F,b,y,5,15,88001,1,1,199.2097,166.3065
1,9,24,4,1,2,A,F,b,y,5,15,88001,1,1,147.5968,158.5645
1,9,24,4,1,2,A,F,b,y,5,15,88001,1,1,279.2097,397.2742
1,9,24,4,1,2,A,F,b,y,5,15,88001,1,2,342.4355,398.5645
1,9,24,4,1,2,A,F,b,y,5,15,88001,1,1,375.9839,397.2742
1,9,24,4,1,2,A,F,b,y,5,15,88001,1,1,394.0484,448.8871
1,9,24,4,1,2,A,F,b,y,5,15,89001,1,2,481.7903,143.0806
1,9,24,4,1,2,A,F,b,y,5,15,89001,1,1,548.8871,317.2742
1,9,24,4,1,2,A,F,b,y,5,15,89001,1,1,625.0161,349.5323
1,9,24,4,1,2,A,F,b,y,5,15,89001,1,1,421.1452,318.5645
1,9,24,4,1,2,A,F,b,y,5,15,89001,1,1,328.2419,407.5968
1,9,24,4,1,2,A,F,b,y,5,15,89001,1,2,374.6935,417.9194
1,9,24,4,1,2,A,F,b,y,5,15,90001,1,2,470.1774,115.9839
1,9,24,4,1,2,A,F,b,y,5,15,90001,1,1,399.2097,288.8871
1,9,24,4,1,2,A,F,b,y,5,15,90001,1,1,115.3387,325.0161
1,9,24,4,1,2,A,F,b,y,5,15,90001,1,2,345.0161,412.7581
1,9,24,4,1,2,A,F,b,y,5,15,90001,1,1,377.2742,430.8226
1,9,24,4,1,2,A,F,b,y,5,15,90001,1,1,403.0806,532.7581
1,9,24,4,1,2,A,F,b,y,5,15,91001,1,2,454.6935,149.5323
1,9,24,4,1,2,A,F,b,y,5,15,91001,1,1,228.8871,101.7903
1,9,24,4,1,2,A,F,b,y,5,15,91001,1,1,194.0484,68.2419
1,9,24,4,1,2,A,F,b,y,5,15,91001,1,1,281.7903,261.7903
1,9,24,4,1,2,A,F,b,y,5,15,91001,1,2,364.371,398.5645
1,9,24,4,1,2,A,F,b,y,5,15,92001,1,2,435.3387,95.3387
1,9,24,4,1,2,A,F,b,y,5,15,92001,1,1,412.1129,344.371
1,9,24,4,1,2,A,F,b,y,5,15,92001,1,1,436.629,386.9516
1,9,24,4,1,2,A,F,b,y,5,15,92001,1,1,484.371,424.371
1,9,24,4,1,2,A,F,b,y,5,15,92001,1,2,409.5323,426.9516
1,9,24,4,1,2,A,F,b,y,5,15,92001,1,1,301.1452,483.7258
1,9,24,4,1,2,A,F,b,y,5,15,93001,1,2,437.9194,228.2419
1,9,24,4,1,2,A,F,b,y,5,15,93001,1,1,372.1129,303.0806
1,9,24,4,1,2,A,F,b,y,5,15,93001,1,1,383.7258,336.629
1,9,24,4,1,2,A,F,b,y,5,15,93001,1,1,306.3065,407.5968
1,9,24,4,1,2,A,F,b,y,5,15,93001,1,2,368.2419,417.9194
1,9,24,4,1,2,A,F,b,y,5,15,93001,1,1,369.5323,488.8871
1,9,24,4,1,2,A,F,b,y,5,15,94001,1,1,410.8226,140.5
1,9,24,4,1,2,A,F,b,y,5,15,94001,1,1,448.2419,118.5645
1,9,24,4,1,2,A,F,b,y,5,15,94001,1,2,452.1129,221.7903
1,9,24,4,1,2,A,F,b,y,5,15,94001,1,2,323.0806,361.1452
1,9,24,4,1,2,A,F,b,y,5,15,94001,1,1,330.8226,398.5645
1,9,24,4,1,2,A,F,b,y,5,15,95001,1,2,443.0806,220.5
1,9,24,4,1,2,A,F,b,y,5,15,95001,1,1,470.1774,46.3065
1,9,24,4,1,2,A,F,b,y,5,15,95001,1,2,290.8226,325.0161
1,9,24,4,1,2,A,F,b,y,5,15,95001,1,1,481.7903,472.1129
1,9,24,4,1,2,A,F,b,y,5,15,95001,1,1,530.8226,367.5968
1,9,24,4,1,2,A,F,b,y,5,15,96001,1,1,169.5323,245.0161
1,9,24,4,1,2,A,F,b,y,5,15,96001,1,2,267.5968,251.4677
1,9,24,4,1,2,A,F,b,y,5,15,96001,1,1,399.2097,323.7258
1,9,24,4,1,2,A,F,b,y,5,15,96001,1,1,426.3065,192.1129
1,9,24,4,1,2,A,F,b,y,5,15,96001,1,2,467.5968,226.9516
1,9,24,4,1,2,A,F,b,y,5,15,97001,1,2,228.8871,254.0484
1,9,24,4,1,2,A,F,b,y,5,15,97001,1,2,476.629,235.9839
1,9,24,4,1,2,A,F,b,y,5,15,97001,1,1,413.4032,254.0484
1,9,24,4,1,2,A,F,b,y,5,15,97001,1,1,462.4355,260.5
1,9,24,4,1,2,A,F,b,y,5,15,98001,1,1,315.3387,419.2097
1,9,24,4,1,2,A,F,b,y,5,15,98001,1,2,486.9516,228.2419
1,9,24,4,1,2,A,F,b,y,5,15,98001,1,1,517.9194,184.371
1,9,24,4,1,2,A,F,b,y,5,15,98001,1,1,465.0161,543.0806
1,9,24,4,1,2,A,F,b,y,5,15,98001,1,1,95.9839,368.8871
1,9,24,4,1,2,A,F,b,y,5,15,98001,1,1,62.4355,380.5
1,9,24,4,1,2,A,F,b,y,5,15,98001,1,2,204.371,246.3065
1,9,24,4,1,2,A,F,b,y,5,15,99001,1,2,449.5323,241.1452
1,9,24,4,1,2,A,F,b,y,5,15,99001,1,1,463.7258,192.1129
1,9,24,4,1,2,A,F,b,y,5,15,99001,1,1,306.3065,308.2419
1,9,24,4,1,2,A,F,b,y,5,15,99001,1,2,271.4677,275.9839
1,9,24,4,1,2,A,F,b,y,5,15,99001,1,1,674.0484,294.0484
1,9,24,4,1,2,A,F,b,y,5,15,100001,1,1,186.3065,245.0161
1,9,24,4,1,2,A,F,b,y,5,15,100001,1,2,314.0484,366.3065
1,9,24,4,1,2,A,F,b,y,5,15,100001,1,2,471.4677,286.3065
1,9,24,4,1,2,A,F,b,y,5,15,100001,1,1,446.9516,447.5968
1,9,24,4,1,2,A,F,b,y,5,15,100001,1,1,436.629,500.5
1,9,24,4,1,2,A,F,b,y,5,15,101001,1,1,406.9516,238.5645
1,9,24,4,1,2,A,F,b,y,5,15,101001,1,2,401.7903,285.0161
1,9,24,4,1,2,A,F,b,y,5,15,101001,1,2,466.3065,317.2742
1,9,24,4,1,2,A,F,b,y,5,15,101001,1,1,519.2097,225.6613
1,9,24,4,1,2,A,F,b,y,5,15,101001,1,1,485.6613,371.4677
1,9,24,4,1,2,A,F,b,y,5,15,102001,1,1,157.9194,315.9839
1,9,24,4,1,2,A,F,b,y,5,15,102001,1,2,419.8548,318.5645
1,9,24,4,1,2,A,F,b,y,5,15,102001,1,2,497.2742,322.4355
1,9,24,4,1,2,A,F,b,y,5,15,102001,1,1,488.2419,69.5323
1,9,24,4,1,2,A,F,b,y,5,15,103001,1,2,471.4677,234.6935
1,9,24,4,1,2,A,F,b,y,5,15,103001,1,2,511.4677,312.1129
1,9,24,4,1,2,A,F,b,y,5,15,103001,1,1,446.9516,326.3065
1,9,24,4,1,2,A,F,b,y,5,15,103001,1,1,139.8548,264.371
1,9,24,4,1,2,A,F,b,y,5,15,104001,1,1,120.5,195.9839
1,9,24,4,1,2,A,F,b,y,5,15,104001,1,1,432.7581,248.8871
1,9,24,4,1,2,A,F,b,y,5,15,104001,1,2,392.7581,226.9516
1,9,24,4,1,2,A,F,b,y,5,15,104001,1,2,521.7903,306.9516
1,9,24,4,1,2,A,F,b,y,5,15,105001,1,1,280.5,50.1774
1,9,24,4,1,2,A,F,b,y,5,15,105001,1,2,441.7903,243.7258
1,9,24,4,1,2,A,F,b,y,5,15,105001,1,2,501.1452,314.6935
1,9,24,4,1,2,A,F,b,y,5,15,106001,1,2,406.9516,447.5968
1,9,24,4,1,2,A,F,b,y,5,15,106001,1,1,486.9516,323.7258
1,9,24,4,1,2,A,F,b,y,5,15,106001,1,2,515.3387,321.1452
1,9,24,4,1,2,A,F,b,y,5,15,107001,1,2,385.0161,464.371
1,9,24,4,1,2,A,F,b,y,5,15,107001,1,1,497.2742,299.2097
1,9,24,4,1,2,A,F,b,y,5,15,107001,1,2,528.2419,278.5645
