dummy,month,day,period,view,station,fgeno,mgeno,fcol,mcol,nf,nm,frame,something,sex,x,y
1,6,19,2,0,3,A,G,r,g,10,10,1,1,3,508.0044,118.301
1,6,19,2,0,3,A,G,r,g,10,10,1,1,1,535.9276,542.7339
1,6,19,2,0,3,A,G,r,g,10,10,1,1,1,301.3726,549.7147
1,6,19,2,0,3,A,G,r,g,10,10,1,1,2,244.13,516.2068
1,6,19,2,0,3,A,G,r,g,10,10,1001,1,3,482.8735,426.8525
1,6,19,2,0,3,A,G,r,g,10,10,1001,1,2,372.5768,506.4337
1,6,19,2,0,3,A,G,r,g,10,10,1001,1,1,199.4529,467.3412
1,6,19,2,0,3,A,G,r,g,10,10,1001,1,1,355.8229,364.0253
1,6,19,2,0,3,A,G,r,g,10,10,2001,1,3,112.8909,348.6675
1,6,19,2,0,3,A,G,r,g,10,10,2001,1,1,413.0654,400.3255
1,6,19,2,0,3,A,G,r,g,10,10,2001,1,2,393.5192,566.4686
1,6,19,2,0,3,A,G,r,g,10,10,3001,1,1,548.493,386.3639
1,6,19,2,0,3,A,G,r,g,10,10,3001,1,2,299.9764,556.6955
1,6,19,2,0,3,A,G,r,g,10,10,4001,1,1,443.781,570.6571
1,6,19,2,0,3,A,G,r,g,10,10,5001,1,1,447.9695,580.4302
1,6,19,2,0,3,A,G,r,g,10,10,6001,1,1,401.8962,579.034
1,6,19,2,0,3,A,G,r,g,10,10,6001,1,2,461.9311,549.7147
1,6,19,2,0,3,A,G,r,g,10,10,6001,1,3,510.7967,463.1527
1,6,19,2,0,3,A,G,r,g,10,10,7001,1,1,238.5454,189.5052
1,6,19,2,0,3,A,G,r,g,10,10,7001,1,3,291.5995,234.1824
1,6,19,2,0,3,A,G,r,g,10,10,7001,1,1,288.8072,537.1492
1,6,19,2,0,3,A,G,r,g,10,10,8001,1,1,228.7723,507.8298
1,6,19,2,0,3,A,G,r,g,10,10,8001,1,1,548.493,91.774
1,6,19,2,0,3,A,G,r,g,10,10,8001,1,3,576.4162,61.0585
1,6,19,2,0,3,A,G,r,g,10,10,9001,1,1,262.2801,531.5646
1,6,19,2,0,3,A,G,r,g,10,10,9001,1,1,492.6466,447.7949
1,6,19,2,0,3,A,G,r,g,10,10,9001,1,3,509.4005,422.664
1,6,19,2,0,3,A,G,r,g,10,10,10001,1,1,228.7723,496.6606
1,6,19,2,0,3,A,G,r,g,10,10,10001,1,1,457.7426,573.4494
1,6,19,2,0,3,A,G,r,g,10,10,10001,1,3,411.6693,570.6571
1,6,19,2,0,3,A,G,r,g,10,10,11001,1,1,607.1318,489.6798
1,6,19,2,0,3,A,G,r,g,10,10,11001,1,3,561.0585,485.4913
1,6,19,2,0,3,A,G,r,g,10,10,12001,1,1,533.1353,238.3709
1,6,19,2,0,3,A,G,r,g,10,10,12001,1,1,411.6693,572.0532
1,6,19,2,0,3,A,G,r,g,10,10,13001,1,1,354.4267,579.034
1,6,19,2,0,3,A,G,r,g,10,10,14001,1,1,643.4319,228.5977
1,6,19,2,0,3,A,G,r,g,10,10,14001,1,3,635.055,257.9171
1,6,19,2,0,3,A,G,r,g,10,10,14001,1,1,213.4145,493.8682
1,6,19,2,0,3,A,G,r,g,10,10,15001,1,1,238.5454,415.6832
1,6,19,2,0,3,A,G,r,g,10,10,15001,1,1,177.1143,447.7949
1,6,19,2,0,3,A,G,r,g,10,10,15001,1,3,193.8682,390.5524
1,6,19,2,0,3,A,G,r,g,10,10,15001,1,3,157.5681,188.1091
1,6,19,2,0,3,A,G,r,g,10,10,15001,1,1,380.9538,559.4878
1,6,19,2,0,3,A,G,r,g,10,10,16001,1,1,184.0951,450.5873
1,6,19,2,0,3,A,G,r,g,10,10,17001,1,1,267.8647,532.9607
1,6,19,2,0,3,A,G,r,g,10,10,17001,1,3,411.6693,93.1702
1,6,19,2,0,3,A,G,r,g,10,10,18001,1,1,295.788,534.3569
1,6,19,2,0,3,A,G,r,g,10,10,18001,1,3,499.6274,45.7007
1,6,19,2,0,3,A,G,r,g,10,10,19001,1,1,332.0881,569.2609
1,6,19,2,0,3,A,G,r,g,10,10,20001,1,1,153.3796,372.4023
1,6,19,2,0,3,A,G,r,g,10,10,20001,1,1,394.9154,565.0724
1,6,19,2,0,3,A,G,r,g,10,10,20001,1,3,189.6798,371.0061
1,6,19,2,0,3,A,G,r,g,10,10,20001,1,3,175.7182,337.4983
1,6,19,2,0,3,A,G,r,g,10,10,21001,1,1,394.9154,468.7373
1,6,19,2,0,3,A,G,r,g,10,10,21001,1,1,351.6344,570.6571
1,6,19,2,0,3,A,G,r,g,10,10,21001,1,3,311.1457,544.13
1,6,19,2,0,3,A,G,r,g,10,10,21001,1,3,272.0532,93.1702
1,6,19,2,0,3,A,G,r,g,10,10,22001,1,1,246.9223,481.3028
1,6,19,2,0,3,A,G,r,g,10,10,22001,1,1,258.0916,538.5454
1,6,19,2,0,3,A,G,r,g,10,10,22001,1,3,315.3342,544.13
1,6,19,2,0,3,A,G,r,g,10,10,22001,1,3,196.6606,338.8944
1,6,19,2,0,3,A,G,r,g,10,10,23001,1,1,330.692,537.1492
1,6,19,2,0,3,A,G,r,g,10,10,23001,1,3,362.8037,115.5087
1,6,19,2,0,3,A,G,r,g,10,10,24001,1,1,414.4616,454.7757
1,6,19,2,0,3,A,G,r,g,10,10,26001,1,3,646.2243,362.6291
1,6,19,2,0,3,A,G,r,g,10,10,27001,1,3,404.6885,114.1126
1,6,19,2,0,3,A,G,r,g,10,10,28001,1,3,200.849,411.4948
1,6,19,2,0,3,A,G,r,g,10,10,33001,1,1,460.5349,211.8438
1,6,19,2,0,3,A,G,r,g,10,10,33001,1,2,460.5349,176.9398
1,6,19,2,0,3,A,G,r,g,10,10,34001,1,3,523.3621,432.4372
1,6,19,2,0,3,A,G,r,g,10,10,34001,1,1,572.2277,451.9834
1,6,19,2,0,3,A,G,r,g,10,10,34001,1,3,424.2347,500.849
1,6,19,2,0,3,A,G,r,g,10,10,35001,1,1,435.404,294.2173
1,6,19,2,0,3,A,G,r,g,10,10,35001,1,3,248.3185,450.5873
1,6,19,2,0,3,A,G,r,g,10,10,36001,1,1,225.9799,303.9904
1,6,19,2,0,3,A,G,r,g,10,10,36001,1,3,216.2068,357.0445
1,6,19,2,0,3,A,G,r,g,10,10,37001,1,3,252.507,236.9747
1,6,19,2,0,3,A,G,r,g,10,10,38001,1,3,198.0567,144.8281
1,6,19,2,0,3,A,G,r,g,10,10,41001,1,3,421.4424,94.5663
1,6,19,2,0,3,A,G,r,g,10,10,41001,1,1,354.4267,79.2086
1,6,19,2,0,3,A,G,r,g,10,10,42001,1,3,720.2208,337.4983
1,6,19,2,0,3,A,G,r,g,10,10,43001,1,1,583.397,506.4337
1,6,19,2,0,3,A,G,r,g,10,10,44001,1,3,453.5541,45.7007
1,6,19,2,0,3,A,G,r,g,10,10,45001,1,3,365.596,34.5314
1,6,19,2,0,3,A,G,r,g,10,10,45001,1,3,191.0759,364.0253
1,6,19,2,0,3,A,G,r,g,10,10,46001,1,3,632.2627,472.9258
1,6,19,2,0,3,A,G,r,g,10,10,47001,1,1,251.1108,313.7635
1,6,19,2,0,3,A,G,r,g,10,10,48001,1,1,252.507,509.226
1,6,19,2,0,3,A,G,r,g,10,10,49001,1,1,371.1806,457.5681
1,6,19,2,0,3,A,G,r,g,10,10,50001,1,1,313.938,450.5873
1,6,19,2,0,3,A,G,r,g,10,10,51001,1,1,186.8874,411.4948
1,6,19,2,0,3,A,G,r,g,10,10,52001,1,1,224.5838,477.1143
1,6,19,2,0,3,A,G,r,g,10,10,53001,1,1,241.3377,514.8106
1,6,19,2,0,3,A,G,r,g,10,10,54001,1,1,499.6274,520.3953
1,6,19,2,0,3,A,G,r,g,10,10,54001,1,1,575.0201,560.8839
1,6,19,2,0,3,A,G,r,g,10,10,55001,1,1,558.2661,183.9206
1,6,19,2,0,3,A,G,r,g,10,10,55001,1,1,138.0218,386.3639
1,6,19,2,0,3,A,G,r,g,10,10,56001,1,1,447.9695,37.3237
1,6,19,2,0,3,A,G,r,g,10,10,57001,1,1,607.1318,238.3709
1,6,19,2,0,3,A,G,r,g,10,10,57001,1,32,898.9293,396.137
1,6,19,2,0,3,A,G,r,g,10,10,58001,1,1,551.2853,309.575
1,6,19,2,0,3,A,G,r,g,10,10,58001,1,1,185.4913,225.8054
1,6,19,2,0,3,A,G,r,g,10,10,59001,1,1,378.1614,484.0951
1,6,19,2,0,3,A,G,r,g,10,10,59001,1,1,371.1806,562.2801
1,6,19,2,0,3,A,G,r,g,10,10,59001,1,3,319.5227,539.9415
1,6,19,2,0,3,A,G,r,g,10,10,60001,1,1,502.4197,470.1335
1,6,19,2,0,3,A,G,r,g,10,10,61001,1,1,559.6623,396.137
1,6,19,2,0,3,A,G,r,g,10,10,61001,1,3,626.678,471.5297
1,6,19,2,0,3,A,G,r,g,10,10,62001,1,1,242.7339,418.4756
1,6,19,2,0,3,A,G,r,g,10,10,62001,1,1,595.9625,228.5977
1,6,19,2,0,3,A,G,r,g,10,10,63001,1,1,366.9921,558.0916
1,6,19,2,0,3,A,G,r,g,10,10,63001,1,1,263.6763,520.3953
1,6,19,2,0,3,A,G,r,g,10,10,64001,1,1,524.7583,528.7723
1,6,19,2,0,3,A,G,r,g,10,10,64001,1,1,577.8124,553.9031
1,6,19,2,0,3,A,G,r,g,10,10,65001,1,1,526.1545,523.1876
1,6,19,2,0,3,A,G,r,g,10,10,66001,1,1,468.9119,546.9223
1,6,19,2,0,3,A,G,r,g,10,10,67001,1,1,436.8002,560.8839
1,6,19,2,0,3,A,G,r,g,10,10,67001,1,1,413.0654,21.966
1,6,19,2,0,3,A,G,r,g,10,10,68001,1,2,353.0305,482.699
1,6,19,2,0,3,A,G,r,g,10,10,68001,1,1,428.4232,563.6763
1,6,19,2,0,3,A,G,r,g,10,10,68001,1,1,491.2504,115.5087
1,6,19,2,0,3,A,G,r,g,10,10,69001,1,1,200.849,235.5785
1,6,19,2,0,3,A,G,r,g,10,10,69001,1,1,361.4075,563.6763
1,6,19,2,0,3,A,G,r,g,10,10,69001,1,1,563.8508,439.418
1,6,19,2,0,3,A,G,r,g,10,10,69001,1,2,337.6728,509.226
1,6,19,2,0,3,A,G,r,g,10,10,70001,1,1,311.1457,555.2993
1,6,19,2,0,3,A,G,r,g,10,10,70001,1,3,429.8194,544.13
1,6,19,2,0,3,A,G,r,g,10,10,70001,1,1,477.2888,482.699
1,6,19,2,0,3,A,G,r,g,10,10,70001,1,1,569.4354,521.7914
1,6,19,2,0,3,A,G,r,g,10,10,71001,1,1,239.9415,463.1527
1,6,19,2,0,3,A,G,r,g,10,10,71001,1,1,385.1422,425.4564
1,6,19,2,0,3,A,G,r,g,10,10,71001,1,1,361.4075,260.7094
1,6,19,2,0,3,A,G,r,g,10,10,71001,1,3,407.4808,278.8595
1,6,19,2,0,3,A,G,r,g,10,10,72001,1,1,205.0375,436.6257
1,6,19,2,0,3,A,G,r,g,10,10,72001,1,1,286.0148,453.3796
1,6,19,2,0,3,A,G,r,g,10,10,72001,1,3,306.9572,410.0986
1,6,19,2,0,3,A,G,r,g,10,10,72001,1,1,239.9415,144.8281
1,6,19,2,0,3,A,G,r,g,10,10,73001,1,1,224.5838,514.8106
1,6,19,2,0,3,A,G,r,g,10,10,73001,1,1,272.0532,510.6222
1,6,19,2,0,3,A,G,r,g,10,10,73001,1,1,319.5227,555.2993
1,6,19,2,0,3,A,G,r,g,10,10,74001,1,1,227.3761,499.4529
1,6,19,2,0,3,A,G,r,g,10,10,74001,1,1,259.4878,454.7757
1,6,19,2,0,3,A,G,r,g,10,10,74001,1,1,205.0375,239.767
1,6,19,2,0,3,A,G,r,g,10,10,75001,1,1,232.9607,506.4337
1,6,19,2,0,3,A,G,r,g,10,10,75001,1,1,364.1998,584.6187
1,6,19,2,0,3,A,G,r,g,10,10,75001,1,1,313.938,377.9869
1,6,19,2,0,3,A,G,r,g,10,10,75001,1,3,288.8072,371.0061
1,6,19,2,0,3,A,G,r,g,10,10,76001,1,1,380.9538,592.9956
1,6,19,2,0,3,A,G,r,g,10,10,76001,1,1,417.2539,560.8839
1,6,19,2,0,3,A,G,r,g,10,10,77001,1,1,214.8106,357.0445
1,6,19,2,0,3,A,G,r,g,10,10,77001,1,1,280.4302,213.24
1,6,19,2,0,3,A,G,r,g,10,10,77001,1,3,246.9223,154.6012
1,6,19,2,0,3,A,G,r,g,10,10,77001,1,1,315.3342,569.2609
1,6,19,2,0,3,A,G,r,g,10,10,77001,1,3,332.0881,505.0375
1,6,19,2,0,3,A,G,r,g,10,10,77001,1,3,502.4197,461.7565
1,6,19,2,0,3,A,G,r,g,10,10,77001,1,1,528.9468,391.9485
1,6,19,2,0,3,A,G,r,g,10,10,78001,1,1,189.6798,477.1143
1,6,19,2,0,3,A,G,r,g,10,10,78001,1,1,241.3377,486.8874
1,6,19,2,0,3,A,G,r,g,10,10,78001,1,1,308.3534,553.9031
1,6,19,2,0,3,A,G,r,g,10,10,78001,1,3,371.1806,518.9991
1,6,19,2,0,3,A,G,r,g,10,10,78001,1,1,389.3307,532.9607
1,6,19,2,0,3,A,G,r,g,10,10,78001,1,1,280.4302,101.5471
1,6,19,2,0,3,A,G,r,g,10,10,78001,1,1,537.3237,112.7164
1,6,19,2,0,3,A,G,r,g,10,10,79001,1,1,200.849,443.6065
1,6,19,2,0,3,A,G,r,g,10,10,79001,1,1,249.7147,507.8298
1,6,19,2,0,3,A,G,r,g,10,10,79001,1,1,269.2609,545.5262
1,6,19,2,0,3,A,G,r,g,10,10,79001,1,3,323.7112,551.1108
1,6,19,2,0,3,A,G,r,g,10,10,79001,1,3,348.8421,553.9031
1,6,19,2,0,3,A,G,r,g,10,10,79001,1,1,481.4773,389.1562
1,6,19,2,0,3,A,G,r,g,10,10,79001,1,1,535.9276,298.4058
1,6,19,2,0,3,A,G,r,g,10,10,80001,1,2,214.8106,524.5838
1,6,19,2,0,3,A,G,r,g,10,10,80001,1,1,281.8264,532.9607
1,6,19,2,0,3,A,G,r,g,10,10,80001,1,1,291.5995,485.4913
1,6,19,2,0,3,A,G,r,g,10,10,80001,1,3,207.8298,426.8525
1,6,19,2,0,3,A,G,r,g,10,10,80001,1,1,213.4145,144.8281
1,6,19,2,0,3,A,G,r,g,10,10,80001,1,1,495.4389,541.3377
1,6,19,2,0,3,A,G,r,g,10,10,81001,1,1,188.2836,456.1719
1,6,19,2,0,3,A,G,r,g,10,10,81001,1,3,185.4913,397.5332
1,6,19,2,0,3,A,G,r,g,10,10,81001,1,1,249.7147,439.418
1,6,19,2,0,3,A,G,r,g,10,10,81001,1,1,346.0497,590.2033
1,6,19,2,0,3,A,G,r,g,10,10,81001,1,1,420.0462,563.6763
1,6,19,2,0,3,A,G,r,g,10,10,81001,1,1,572.2277,123.8857
1,6,19,2,0,3,A,G,r,g,10,10,82001,1,1,205.0375,478.5105
1,6,19,2,0,3,A,G,r,g,10,10,82001,1,1,232.9607,500.849
1,6,19,2,0,3,A,G,r,g,10,10,82001,1,1,347.4459,569.2609
1,6,19,2,0,3,A,G,r,g,10,10,82001,1,1,392.123,563.6763
1,6,19,2,0,3,A,G,r,g,10,10,82001,1,1,671.3551,320.7443
1,6,19,2,0,3,A,G,r,g,10,10,83001,1,1,246.9223,512.0183
1,6,19,2,0,3,A,G,r,g,10,10,83001,1,1,266.4686,512.0183
1,6,19,2,0,3,A,G,r,g,10,10,83001,1,1,290.2033,548.3185
1,6,19,2,0,3,A,G,r,g,10,10,83001,1,1,322.315,562.2801
1,6,19,2,0,3,A,G,r,g,10,10,83001,1,1,369.7845,562.2801
1,6,19,2,0,3,A,G,r,g,10,10,83001,1,3,554.0777,55.4738
1,6,19,2,0,3,A,G,r,g,10,10,84001,1,1,182.699,467.3412
1,6,19,2,0,3,A,G,r,g,10,10,84001,1,1,238.5454,447.7949
1,6,19,2,0,3,A,G,r,g,10,10,84001,1,1,238.5454,486.8874
1,6,19,2,0,3,A,G,r,g,10,10,84001,1,1,292.9956,528.7723
1,6,19,2,0,3,A,G,r,g,10,10,84001,1,1,351.6344,525.9799
1,6,19,2,0,3,A,G,r,g,10,10,84001,1,1,404.6885,542.7339
1,6,19,2,0,3,A,G,r,g,10,10,84001,1,3,284.6187,377.9869
1,6,19,2,0,3,A,G,r,g,10,10,85001,1,1,329.2958,541.3377
1,6,19,2,0,3,A,G,r,g,10,10,85001,1,1,294.3918,538.5454
1,6,19,2,0,3,A,G,r,g,10,10,85001,1,1,246.9223,517.603
1,6,19,2,0,3,A,G,r,g,10,10,85001,1,1,224.5838,463.1527
1,6,19,2,0,3,A,G,r,g,10,10,85001,1,1,230.1684,362.6291
1,6,19,2,0,3,A,G,r,g,10,10,85001,1,3,312.5419,337.4983
1,6,19,2,0,3,A,G,r,g,10,10,85001,1,1,382.3499,248.144
1,6,19,2,0,3,A,G,r,g,10,10,86001,1,3,346.0497,250.9363
1,6,19,2,0,3,A,G,r,g,10,10,86001,1,1,355.8229,276.0672
1,6,19,2,0,3,A,G,r,g,10,10,86001,1,1,577.8124,305.3866
1,6,19,2,0,3,A,G,r,g,10,10,86001,1,1,192.4721,383.5716
1,6,19,2,0,3,A,G,r,g,10,10,86001,1,1,227.3761,486.8874
1,6,19,2,0,3,A,G,r,g,10,10,86001,1,1,279.034,513.4145
1,6,19,2,0,3,A,G,r,g,10,10,86001,1,1,322.315,551.1108
1,6,19,2,0,3,A,G,r,g,10,10,86001,1,1,454.9503,562.2801
1,6,19,2,0,3,A,G,r,g,10,10,87001,1,1,621.0934,431.041
1,6,19,2,0,3,A,G,r,g,10,10,87001,1,1,454.9503,475.7182
1,6,19,2,0,3,A,G,r,g,10,10,87001,1,1,376.7653,440.8141
1,6,19,2,0,3,A,G,r,g,10,10,87001,1,3,343.2574,489.6798
1,6,19,2,0,3,A,G,r,g,10,10,87001,1,1,283.2225,465.945
1,6,19,2,0,3,A,G,r,g,10,10,87001,1,1,232.9607,482.699
1,6,19,2,0,3,A,G,r,g,10,10,87001,1,1,311.1457,546.9223
1,6,19,2,0,3,A,G,r,g,10,10,87001,1,1,337.6728,559.4878
1,6,19,2,0,3,A,G,r,g,10,10,88001,1,1,587.5855,229.9939
1,6,19,2,0,3,A,G,r,g,10,10,88001,1,3,608.5279,266.2941
1,6,19,2,0,3,A,G,r,g,10,10,88001,1,1,551.2853,440.8141
1,6,19,2,0,3,A,G,r,g,10,10,88001,1,1,415.8578,521.7914
1,6,19,2,0,3,A,G,r,g,10,10,88001,1,1,346.0497,573.4494
1,6,19,2,0,3,A,G,r,g,10,10,88001,1,1,290.2033,532.9607
1,6,19,2,0,3,A,G,r,g,10,10,88001,1,1,241.3377,527.3761
1,6,19,2,0,3,A,G,r,g,10,10,89001,1,1,495.4389,393.3447
1,6,19,2,0,3,A,G,r,g,10,10,89001,1,1,237.1492,250.9363
1,6,19,2,0,3,A,G,r,g,10,10,89001,1,1,371.1806,17.7775
1,6,19,2,0,3,A,G,r,g,10,10,89001,1,1,245.5262,517.603
1,6,19,2,0,3,A,G,r,g,10,10,89001,1,3,274.8455,471.5297
1,6,19,2,0,3,A,G,r,g,10,10,89001,1,1,288.8072,528.7723
1,6,19,2,0,3,A,G,r,g,10,10,89001,1,1,365.596,514.8106
1,6,19,2,0,3,A,G,r,g,10,10,89001,1,1,408.877,560.8839
1,6,19,2,0,3,A,G,r,g,10,10,90001,1,1,214.8106,485.4913
1,6,19,2,0,3,A,G,r,g,10,10,90001,1,1,265.0724,541.3377
1,6,19,2,0,3,A,G,r,g,10,10,90001,1,1,309.7496,510.6222
1,6,19,2,0,3,A,G,r,g,10,10,90001,1,1,339.0689,562.2801
1,6,19,2,0,3,A,G,r,g,10,10,90001,1,1,401.8962,574.8455
1,6,19,2,0,3,A,G,r,g,10,10,90001,1,3,452.1579,539.9415
1,6,19,2,0,3,A,G,r,g,10,10,90001,1,1,480.0812,559.4878
1,6,19,2,0,3,A,G,r,g,10,10,90001,1,1,473.1003,475.7182
1,6,19,2,0,3,A,G,r,g,10,10,91001,1,1,228.7723,513.4145
1,6,19,2,0,3,A,G,r,g,10,10,91001,1,1,272.0532,517.603
1,6,19,2,0,3,A,G,r,g,10,10,91001,1,1,287.411,545.5262
1,6,19,2,0,3,A,G,r,g,10,10,91001,1,1,309.7496,520.3953
1,6,19,2,0,3,A,G,r,g,10,10,91001,1,1,414.4616,542.7339
1,6,19,2,0,3,A,G,r,g,10,10,91001,1,1,622.4895,235.5785
1,6,19,2,0,3,A,G,r,g,10,10,91001,1,2,696.486,155.9974
1,6,19,2,0,3,A,G,r,g,10,10,92001,1,1,273.4494,569.2609
1,6,19,2,0,3,A,G,r,g,10,10,92001,1,1,347.4459,546.9223
1,6,19,2,0,3,A,G,r,g,10,10,92001,1,1,302.7688,530.1684
1,6,19,2,0,3,A,G,r,g,10,10,92001,1,1,246.9223,513.4145
1,6,19,2,0,3,A,G,r,g,10,10,92001,1,1,218.9991,492.4721
1,6,19,2,0,3,A,G,r,g,10,10,92001,1,1,608.5279,153.2051
1,6,19,2,0,3,A,G,r,g,10,10,92001,1,3,621.0934,199.2784
1,6,19,2,0,3,A,G,r,g,10,10,92001,1,3,642.0358,228.5977
1,6,19,2,0,3,A,G,r,g,10,10,93001,1,1,160.3604,422.664
1,6,19,2,0,3,A,G,r,g,10,10,93001,1,1,193.8682,438.0218
1,6,19,2,0,3,A,G,r,g,10,10,93001,1,3,238.5454,435.2295
1,6,19,2,0,3,A,G,r,g,10,10,93001,1,1,266.4686,512.0183
1,6,19,2,0,3,A,G,r,g,10,10,93001,1,2,280.4302,555.2993
1,6,19,2,0,3,A,G,r,g,10,10,93001,1,1,445.1771,576.2417
1,6,19,2,0,3,A,G,r,g,10,10,93001,1,3,471.7042,535.7531
1,6,19,2,0,3,A,G,r,g,10,10,93001,1,3,411.6693,394.7408
1,6,19,2,0,3,A,G,r,g,10,10,93001,1,1,542.9084,150.4127
1,6,19,2,0,3,A,G,r,g,10,10,93001,1,1,545.7007,84.7932
1,6,19,2,0,3,A,G,r,g,10,10,94001,1,1,232.9607,521.7914
1,6,19,2,0,3,A,G,r,g,10,10,94001,1,1,326.5035,559.4878
1,6,19,2,0,3,A,G,r,g,10,10,94001,1,1,312.5419,520.3953
1,6,19,2,0,3,A,G,r,g,10,10,94001,1,1,350.2382,479.9066
1,6,19,2,0,3,A,G,r,g,10,10,94001,1,1,482.8735,470.1335
1,6,19,2,0,3,A,G,r,g,10,10,94001,1,3,456.3464,477.1143
1,6,19,2,0,3,A,G,r,g,10,10,94001,1,1,460.5349,580.4302
1,6,19,2,0,3,A,G,r,g,10,10,94001,1,3,281.8264,432.4372
1,6,19,2,0,3,A,G,r,g,10,10,94001,1,3,225.9799,164.3743
1,6,19,2,0,3,A,G,r,g,10,10,94001,1,1,195.2644,144.8281
1,6,19,2,0,3,A,G,r,g,10,10,95001,1,1,558.2661,51.2853
1,6,19,2,0,3,A,G,r,g,10,10,95001,1,1,286.0148,68.0393
1,6,19,2,0,3,A,G,r,g,10,10,95001,1,1,535.9276,317.952
1,6,19,2,0,3,A,G,r,g,10,10,95001,1,1,454.9503,465.945
1,6,19,2,0,3,A,G,r,g,10,10,95001,1,3,498.2312,471.5297
1,6,19,2,0,3,A,G,r,g,10,10,95001,1,3,655.9974,450.5873
1,6,19,2,0,3,A,G,r,g,10,10,95001,1,1,481.4773,556.6955
1,6,19,2,0,3,A,G,r,g,10,10,95001,1,1,305.5611,556.6955
1,6,19,2,0,3,A,G,r,g,10,10,95001,1,1,248.3185,503.6414
1,6,19,2,0,3,A,G,r,g,10,10,96001,1,1,528.9468,263.5017
1,6,19,2,0,3,A,G,r,g,10,10,96001,1,3,365.596,319.3482
1,6,19,2,0,3,A,G,r,g,10,10,96001,1,1,287.411,369.6099
1,6,19,2,0,3,A,G,r,g,10,10,96001,1,1,259.4878,524.5838
1,6,19,2,0,3,A,G,r,g,10,10,96001,1,1,302.7688,538.5454
1,6,19,2,0,3,A,G,r,g,10,10,96001,1,1,346.0497,541.3377
1,6,19,2,0,3,A,G,r,g,10,10,96001,1,1,449.3656,566.4686
1,6,19,2,0,3,A,G,r,g,10,10,96001,1,1,566.6431,503.6414
1,6,19,2,0,3,A,G,r,g,10,10,97001,1,1,295.788,158.7897
1,6,19,2,0,3,A,G,r,g,10,10,97001,1,3,586.1894,234.1824
1,6,19,2,0,3,A,G,r,g,10,10,97001,1,1,530.3429,341.6867
1,6,19,2,0,3,A,G,r,g,10,10,97001,1,1,410.2731,463.1527
1,6,19,2,0,3,A,G,r,g,10,10,97001,1,1,281.8264,443.6065
1,6,19,2,0,3,A,G,r,g,10,10,97001,1,1,266.4686,498.0567
1,6,19,2,0,3,A,G,r,g,10,10,97001,1,1,340.4651,580.4302
1,6,19,2,0,3,A,G,r,g,10,10,97001,1,1,365.596,562.2801
1,6,19,2,0,3,A,G,r,g,10,10,98001,1,1,447.9695,376.5908
1,6,19,2,0,3,A,G,r,g,10,10,98001,1,3,341.8613,468.7373
1,6,19,2,0,3,A,G,r,g,10,10,98001,1,1,284.6187,475.7182
1,6,19,2,0,3,A,G,r,g,10,10,98001,1,1,253.9031,422.664
1,6,19,2,0,3,A,G,r,g,10,10,98001,1,3,223.1876,429.6449
1,6,19,2,0,3,A,G,r,g,10,10,98001,1,1,223.1876,479.9066
1,6,19,2,0,3,A,G,r,g,10,10,98001,1,1,253.9031,514.8106
1,6,19,2,0,3,A,G,r,g,10,10,98001,1,1,304.1649,512.0183
1,6,19,2,0,3,A,G,r,g,10,10,99001,1,1,410.2731,400.3255
1,6,19,2,0,3,A,G,r,g,10,10,99001,1,3,378.1614,429.6449
1,6,19,2,0,3,A,G,r,g,10,10,99001,1,1,347.4459,549.7147
1,6,19,2,0,3,A,G,r,g,10,10,99001,1,1,228.7723,524.5838
1,6,19,2,0,3,A,G,r,g,10,10,99001,1,1,322.315,415.6832
1,6,19,2,0,3,A,G,r,g,10,10,99001,1,1,165.945,288.6326
1,6,19,2,0,3,A,G,r,g,10,10,99001,1,3,171.5297,135.055
1,6,19,2,0,3,A,G,r,g,10,10,100001,1,1,306.9572,539.9415
1,6,19,2,0,3,A,G,r,g,10,10,100001,1,1,255.2993,517.603
1,6,19,2,0,3,A,G,r,g,10,10,100001,1,1,212.0183,478.5105
1,6,19,2,0,3,A,G,r,g,10,10,100001,1,1,267.8647,158.7897
1,6,19,2,0,3,A,G,r,g,10,10,100001,1,1,202.2452,136.4511
1,6,19,2,0,3,A,G,r,g,10,10,101001,1,1,315.3342,549.7147
1,6,19,2,0,3,A,G,r,g,10,10,101001,1,1,255.2993,537.1492
1,6,19,2,0,3,A,G,r,g,10,10,101001,1,1,353.0305,438.0218
1,6,19,2,0,3,A,G,r,g,10,10,101001,1,2,217.603,319.3482
1,6,19,2,0,3,A,G,r,g,10,10,101001,1,1,263.6763,114.1126
1,6,19,2,0,3,A,G,r,g,10,10,101001,1,3,420.0462,28.9468
1,6,19,2,0,3,A,G,r,g,10,10,101001,1,3,355.8229,17.7775
1,6,19,2,0,3,A,G,r,g,10,10,102001,1,1,214.8106,492.4721
1,6,19,2,0,3,A,G,r,g,10,10,102001,1,1,205.0375,424.0602
1,6,19,2,0,3,A,G,r,g,10,10,102001,1,1,171.5297,227.2016
1,6,19,2,0,3,A,G,r,g,10,10,102001,1,1,371.1806,232.7862
1,6,19,2,0,3,A,G,r,g,10,10,102001,1,3,348.8421,266.2941
1,6,19,2,0,3,A,G,r,g,10,10,102001,1,1,568.0393,518.9991
1,6,19,2,0,3,A,G,r,g,10,10,103001,1,1,266.4686,521.7914
1,6,19,2,0,3,A,G,r,g,10,10,103001,1,1,205.0375,468.7373
1,6,19,2,0,3,A,G,r,g,10,10,103001,1,1,189.6798,445.0026
1,6,19,2,0,3,A,G,r,g,10,10,103001,1,1,242.7339,418.4756
1,6,19,2,0,3,A,G,r,g,10,10,103001,1,1,351.6344,290.0288
1,6,19,2,0,3,A,G,r,g,10,10,103001,1,3,279.034,227.2016
1,6,19,2,0,3,A,G,r,g,10,10,104001,1,1,218.9991,485.4913
1,6,19,2,0,3,A,G,r,g,10,10,104001,1,1,302.7688,465.945
1,6,19,2,0,3,A,G,r,g,10,10,104001,1,1,298.5803,521.7914
1,6,19,2,0,3,A,G,r,g,10,10,104001,1,1,327.8997,542.7339
1,6,19,2,0,3,A,G,r,g,10,10,104001,1,1,372.5768,549.7147
1,6,19,2,0,3,A,G,r,g,10,10,104001,1,3,572.2277,70.8316
1,6,19,2,0,3,A,G,r,g,10,10,105001,1,1,189.6798,436.6257
1,6,19,2,0,3,A,G,r,g,10,10,105001,1,1,263.6763,517.603
1,6,19,2,0,3,A,G,r,g,10,10,105001,1,1,299.9764,537.1492
1,6,19,2,0,3,A,G,r,g,10,10,105001,1,1,435.404,463.1527
1,6,19,2,0,3,A,G,r,g,10,10,105001,1,1,531.7391,549.7147
1,6,19,2,0,3,A,G,r,g,10,10,106001,1,1,227.3761,498.0567
1,6,19,2,0,3,A,G,r,g,10,10,106001,1,1,265.0724,484.0951
1,6,19,2,0,3,A,G,r,g,10,10,106001,1,1,255.2993,440.8141
1,6,19,2,0,3,A,G,r,g,10,10,106001,1,3,407.4808,323.5366
1,6,19,2,0,3,A,G,r,g,10,10,106001,1,1,403.2923,576.2417
1,6,19,2,0,3,A,G,r,g,10,10,106001,1,1,453.5541,549.7147
1,6,19,2,0,3,A,G,r,g,10,10,107001,1,1,286.0148,528.7723
1,6,19,2,0,3,A,G,r,g,10,10,107001,1,1,246.9223,514.8106
1,6,19,2,0,3,A,G,r,g,10,10,107001,1,1,284.6187,418.4756
1,6,19,2,0,3,A,G,r,g,10,10,107001,1,3,216.2068,404.514
1,6,19,2,0,3,A,G,r,g,10,10,107001,1,1,565.2469,319.3482
1,6,19,2,0,3,A,G,r,g,10,10,107001,1,1,432.6117,73.6239
