dummy,month,day,period,view,station,fgeno,mgeno,fcol,mcol,nf,nm,frame,something,sex,x,y
1,6,23,3,2,3,A,F,b,y,15,5,1001,1,1,140.3734,211.8924
1,6,23,3,2,3,A,F,b,y,15,5,1001,1,2,189.7405,124.5506
1,6,23,3,2,3,A,F,b,y,15,5,2001,1,1,230.2468,258.7278
1,6,23,3,2,3,A,F,b,y,15,5,2001,1,3,182.1456,130.8797
1,6,23,3,2,3,A,F,b,y,15,5,3001,1,1,291.0063,32.1456
1,6,23,3,2,3,A,F,b,y,15,5,3001,1,3,322.6519,15.6899
1,6,23,3,2,3,A,F,b,y,15,5,4001,1,1,197.3354,205.5633
1,6,23,3,2,3,A,F,b,y,15,5,4001,1,3,417.5886,162.5253
1,6,23,3,2,3,A,F,b,y,15,5,5001,1,1,402.3987,306.8291
1,6,23,3,2,3,A,F,b,y,15,5,5001,1,3,403.6646,368.8544
1,6,23,3,2,3,A,F,b,y,15,5,6001,1,1,403.6646,66.3228
1,6,23,3,2,3,A,F,b,y,15,5,6001,1,3,453.0316,46.0696
1,6,23,3,2,3,A,F,b,y,15,5,6001,1,3,669.4873,277.7152
1,6,23,3,2,3,A,F,b,y,15,5,8001,1,1,416.3228,305.5633
1,6,23,3,2,3,A,F,b,y,15,5,9001,1,1,496.0696,435.943
1,6,23,3,2,3,A,F,b,y,15,5,9001,1,3,493.538,522.019
1,6,23,3,2,3,A,F,b,y,15,5,10001,1,3,144.1709,310.6266
1,6,23,3,2,3,A,F,b,y,15,5,10001,1,3,596.0696,287.8418
1,6,23,3,2,3,A,F,b,y,15,5,10001,1,1,585.943,238.4747
1,6,23,3,2,3,A,F,b,y,15,5,11001,1,1,383.4114,229.6139
1,6,23,3,2,3,A,F,b,y,15,5,11001,1,1,458.0949,161.2595
1,6,23,3,2,3,A,F,b,y,15,5,11001,1,3,408.7278,191.6392
1,6,23,3,2,3,A,F,b,y,15,5,11001,1,1,330.2468,10.6266
1,6,23,3,2,3,A,F,b,y,15,5,12001,1,1,294.8038,213.1582
1,6,23,3,2,3,A,F,b,y,15,5,12001,1,2,209.9937,492.9051
1,6,23,3,2,3,A,F,b,y,15,5,12001,1,3,244.1709,509.3608
1,6,23,3,2,3,A,F,b,y,15,5,13001,1,1,284.6772,249.8671
1,6,23,3,2,3,A,F,b,y,15,5,13001,1,3,332.7785,322.019
1,6,23,3,2,3,A,F,b,y,15,5,14001,1,1,392.2722,19.4873
1,6,23,3,2,3,A,F,b,y,15,5,14001,1,1,391.0063,95.4367
1,6,23,3,2,3,A,F,b,y,15,5,14001,1,3,344.1709,89.1076
1,6,23,3,2,3,A,F,b,y,15,5,15001,1,1,539.1076,472.6519
1,6,23,3,2,3,A,F,b,y,15,5,15001,1,1,607.462,391.6392
1,6,23,3,2,3,A,F,b,y,15,5,15001,1,3,553.0316,430.8797
1,6,23,3,2,3,A,F,b,y,15,5,16001,1,1,591.0063,465.057
1,6,23,3,2,3,A,F,b,y,15,5,16001,1,2,650.5,154.9304
1,6,23,3,2,3,A,F,b,y,15,5,17001,1,1,342.9051,230.8797
1,6,23,3,2,3,A,F,b,y,15,5,17001,1,1,615.057,395.4367
1,6,23,3,2,3,A,F,b,y,15,5,17001,1,3,326.4494,262.5253
1,6,23,3,2,3,A,F,b,y,15,5,18001,1,1,478.3481,280.2468
1,6,23,3,2,3,A,F,b,y,15,5,18001,1,1,406.1962,167.5886
1,6,23,3,2,3,A,F,b,y,15,5,18001,1,3,447.9684,130.8797
1,6,23,3,2,3,A,F,b,y,15,5,18001,1,3,465.6899,148.6013
1,6,23,3,2,3,A,F,b,y,15,5,19001,1,1,464.4241,352.3987
1,6,23,3,2,3,A,F,b,y,15,5,19001,1,1,545.4367,106.8291
1,6,23,3,2,3,A,F,b,y,15,5,19001,1,3,474.5506,318.2215
1,6,23,3,2,3,A,F,b,y,15,5,19001,1,3,497.3354,338.4747
1,6,23,3,2,3,A,F,b,y,15,5,20001,1,1,396.0696,82.7785
1,6,23,3,2,3,A,F,b,y,15,5,20001,1,3,240.3734,177.7152
1,6,23,3,2,3,A,F,b,y,15,5,21001,1,1,221.3861,91.6392
1,6,23,3,2,3,A,F,b,y,15,5,21001,1,1,460.6266,75.1835
1,6,23,3,2,3,A,F,b,y,15,5,21001,1,3,336.5759,353.6646
1,6,23,3,2,3,A,F,b,y,15,5,22001,1,1,208.7278,206.8291
1,6,23,3,2,3,A,F,b,y,15,5,22001,1,1,282.1456,111.8924
1,6,23,3,2,3,A,F,b,y,15,5,22001,1,1,318.8544,200.5
1,6,23,3,2,3,A,F,b,y,15,5,22001,1,3,366.9557,165.057
1,6,23,3,2,3,A,F,b,y,15,5,23001,1,1,179.6139,357.462
1,6,23,3,2,3,A,F,b,y,15,5,23001,1,3,191.0063,395.4367
1,6,23,3,2,3,A,F,b,y,15,5,23001,1,1,222.6519,90.3734
1,6,23,3,2,3,A,F,b,y,15,5,23001,1,1,228.981,130.8797
1,6,23,3,2,3,A,F,b,y,15,5,24001,1,1,379.6139,90.3734
1,6,23,3,2,3,A,F,b,y,15,5,24001,1,1,416.3228,168.8544
1,6,23,3,2,3,A,F,b,y,15,5,24001,1,1,434.0443,352.3987
1,6,23,3,2,3,A,F,b,y,15,5,24001,1,3,341.6392,99.2342
1,6,23,3,2,3,A,F,b,y,15,5,25001,1,3,345.4367,94.1709
1,6,23,3,2,3,A,F,b,y,15,5,25001,1,3,359.3608,144.8038
1,6,23,3,2,3,A,F,b,y,15,5,25001,1,1,389.7405,128.3481
1,6,23,3,2,3,A,F,b,y,15,5,25001,1,1,375.8165,78.981
1,6,23,3,2,3,A,F,b,y,15,5,26001,1,1,349.2342,97.9684
1,6,23,3,2,3,A,F,b,y,15,5,26001,1,3,377.0823,58.7278
1,6,23,3,2,3,A,F,b,y,15,5,27001,1,1,411.2595,90.3734
1,6,23,3,2,3,A,F,b,y,15,5,27001,1,2,609.9937,95.4367
1,6,23,3,2,3,A,F,b,y,15,5,27001,1,1,415.057,356.1962
1,6,23,3,2,3,A,F,b,y,15,5,27001,1,3,491.0063,322.019
1,6,23,3,2,3,A,F,b,y,15,5,27001,1,3,578.3481,477.7152
1,6,23,3,2,3,A,F,b,y,15,5,28001,1,3,344.1709,94.1709
1,6,23,3,2,3,A,F,b,y,15,5,28001,1,3,358.0949,54.9304
1,6,23,3,2,3,A,F,b,y,15,5,28001,1,3,407.462,119.4873
1,6,23,3,2,3,A,F,b,y,15,5,28001,1,1,393.538,96.7025
1,6,23,3,2,3,A,F,b,y,15,5,29001,1,1,383.4114,99.2342
1,6,23,3,2,3,A,F,b,y,15,5,29001,1,3,365.6899,99.2342
1,6,23,3,2,3,A,F,b,y,15,5,29001,1,3,336.5759,122.019
1,6,23,3,2,3,A,F,b,y,15,5,29001,1,3,359.3608,124.5506
1,6,23,3,2,3,A,F,b,y,15,5,30001,1,1,385.943,99.2342
1,6,23,3,2,3,A,F,b,y,15,5,30001,1,3,373.2848,118.2215
1,6,23,3,2,3,A,F,b,y,15,5,30001,1,3,415.057,92.9051
1,6,23,3,2,3,A,F,b,y,15,5,30001,1,3,383.4114,78.981
1,6,23,3,2,3,A,F,b,y,15,5,31001,1,1,401.1329,84.0443
1,6,23,3,2,3,A,F,b,y,15,5,31001,1,3,391.0063,111.8924
1,6,23,3,2,3,A,F,b,y,15,5,31001,1,3,441.6392,90.3734
1,6,23,3,2,3,A,F,b,y,15,5,31001,1,3,482.1456,94.1709
1,6,23,3,2,3,A,F,b,y,15,5,31001,1,3,460.6266,546.0696
1,6,23,3,2,3,A,F,b,y,15,5,32001,1,3,311.2595,53.6646
1,6,23,3,2,3,A,F,b,y,15,5,32001,1,3,185.943,139.7405
1,6,23,3,2,3,A,F,b,y,15,5,33001,1,3,188.4747,242.2722
1,6,23,3,2,3,A,F,b,y,15,5,34001,1,3,327.7152,196.7025
1,6,23,3,2,3,A,F,b,y,15,5,35001,1,3,591.0063,163.7911
1,6,23,3,2,3,A,F,b,y,15,5,36001,1,3,564.4241,277.7152
1,6,23,3,2,3,A,F,b,y,15,5,37001,1,3,291.0063,534.6772
1,6,23,3,2,3,A,F,b,y,15,5,38001,1,3,204.9304,337.2089
1,6,23,3,2,3,A,F,b,y,15,5,39001,1,3,196.0696,237.2089
1,6,23,3,2,3,A,F,b,y,15,5,40001,1,3,263.1582,176.4494
1,6,23,3,2,3,A,F,b,y,15,5,42001,1,3,458.0949,390.3734
1,6,23,3,2,3,A,F,b,y,15,5,43001,1,3,227.7152,422.019
1,6,23,3,2,3,A,F,b,y,15,5,43001,1,1,253.0316,375.1835
1,6,23,3,2,3,A,F,b,y,15,5,44001,1,1,441.6392,141.0063
1,6,23,3,2,3,A,F,b,y,15,5,44001,1,3,445.4367,80.2468
1,6,23,3,2,3,A,F,b,y,15,5,45001,1,1,423.9177,181.5127
1,6,23,3,2,3,A,F,b,y,15,5,45001,1,3,375.8165,154.9304
1,6,23,3,2,3,A,F,b,y,15,5,46001,1,1,431.5127,178.981
1,6,23,3,2,3,A,F,b,y,15,5,46001,1,3,391.0063,185.3101
1,6,23,3,2,3,A,F,b,y,15,5,47001,1,1,420.1203,184.0443
1,6,23,3,2,3,A,F,b,y,15,5,47001,1,3,404.9304,142.2722
1,6,23,3,2,3,A,F,b,y,15,5,48001,1,1,430.2468,177.7152
1,6,23,3,2,3,A,F,b,y,15,5,48001,1,1,413.7911,189.1076
1,6,23,3,2,3,A,F,b,y,15,5,48001,1,1,317.5886,416.9557
1,6,23,3,2,3,A,F,b,y,15,5,48001,1,3,378.3481,167.5886
1,6,23,3,2,3,A,F,b,y,15,5,49001,1,1,411.2595,338.4747
1,6,23,3,2,3,A,F,b,y,15,5,49001,1,1,188.4747,333.4114
1,6,23,3,2,3,A,F,b,y,15,5,49001,1,1,220.1203,480.2468
1,6,23,3,2,3,A,F,b,y,15,5,49001,1,1,423.9177,167.5886
1,6,23,3,2,3,A,F,b,y,15,5,49001,1,3,408.7278,176.4494
1,6,23,3,2,3,A,F,b,y,15,5,50001,1,1,477.0823,320.7532
1,6,23,3,2,3,A,F,b,y,15,5,50001,1,1,456.8291,270.1203
1,6,23,3,2,3,A,F,b,y,15,5,50001,1,1,431.5127,171.3861
1,6,23,3,2,3,A,F,b,y,15,5,50001,1,1,385.943,100.5
1,6,23,3,2,3,A,F,b,y,15,5,50001,1,3,373.2848,177.7152
1,6,23,3,2,3,A,F,b,y,15,5,51001,1,1,423.9177,292.9051
1,6,23,3,2,3,A,F,b,y,15,5,51001,1,1,406.1962,209.3608
1,6,23,3,2,3,A,F,b,y,15,5,51001,1,1,428.981,167.5886
1,6,23,3,2,3,A,F,b,y,15,5,51001,1,3,423.9177,135.943
1,6,23,3,2,3,A,F,b,y,15,5,51001,1,1,351.7658,84.0443
1,6,23,3,2,3,A,F,b,y,15,5,52001,1,1,382.1456,444.8038
1,6,23,3,2,3,A,F,b,y,15,5,52001,1,1,431.5127,186.5759
1,6,23,3,2,3,A,F,b,y,15,5,52001,1,3,449.2342,137.2089
1,6,23,3,2,3,A,F,b,y,15,5,52001,1,1,372.019,92.9051
1,6,23,3,2,3,A,F,b,y,15,5,52001,1,1,545.4367,103.0316
1,6,23,3,2,3,A,F,b,y,15,5,53001,1,1,292.2722,458.7278
1,6,23,3,2,3,A,F,b,y,15,5,53001,1,1,237.8418,166.3228
1,6,23,3,2,3,A,F,b,y,15,5,53001,1,1,336.5759,127.0823
1,6,23,3,2,3,A,F,b,y,15,5,53001,1,1,439.1076,168.8544
1,6,23,3,2,3,A,F,b,y,15,5,53001,1,3,439.1076,128.3481
1,6,23,3,2,3,A,F,b,y,15,5,54001,1,1,421.3861,359.9937
1,6,23,3,2,3,A,F,b,y,15,5,54001,1,1,220.1203,252.3987
1,6,23,3,2,3,A,F,b,y,15,5,54001,1,1,402.3987,176.4494
1,6,23,3,2,3,A,F,b,y,15,5,54001,1,1,431.5127,167.5886
1,6,23,3,2,3,A,F,b,y,15,5,54001,1,3,445.4367,130.8797
1,6,23,3,2,3,A,F,b,y,15,5,55001,1,1,384.6772,266.3228
1,6,23,3,2,3,A,F,b,y,15,5,55001,1,1,309.9937,191.6392
1,6,23,3,2,3,A,F,b,y,15,5,55001,1,1,454.2975,148.6013
1,6,23,3,2,3,A,F,b,y,15,5,55001,1,1,564.4241,282.7785
1,6,23,3,2,3,A,F,b,y,15,5,55001,1,3,355.5633,137.2089
1,6,23,3,2,3,A,F,b,y,15,5,56001,1,1,189.7405,206.8291
1,6,23,3,2,3,A,F,b,y,15,5,56001,1,1,228.981,356.1962
1,6,23,3,2,3,A,F,b,y,15,5,56001,1,1,421.3861,409.3608
1,6,23,3,2,3,A,F,b,y,15,5,56001,1,1,560.6266,267.5886
1,6,23,3,2,3,A,F,b,y,15,5,56001,1,1,488.4747,189.1076
1,6,23,3,2,3,A,F,b,y,15,5,56001,1,3,501.1329,152.3987
1,6,23,3,2,3,A,F,b,y,15,5,57001,1,1,291.0063,280.2468
1,6,23,3,2,3,A,F,b,y,15,5,57001,1,1,325.1835,76.4494
1,6,23,3,2,3,A,F,b,y,15,5,57001,1,3,360.6266,235.943
1,6,23,3,2,3,A,F,b,y,15,5,57001,1,1,578.3481,295.4367
1,6,23,3,2,3,A,F,b,y,15,5,57001,1,1,578.3481,266.3228
1,6,23,3,2,3,A,F,b,y,15,5,57001,1,1,453.0316,541.0063
1,6,23,3,2,3,A,F,b,y,15,5,58001,1,1,454.2975,299.2342
1,6,23,3,2,3,A,F,b,y,15,5,58001,1,1,596.0696,270.1203
1,6,23,3,2,3,A,F,b,y,15,5,58001,1,1,416.3228,167.5886
1,6,23,3,2,3,A,F,b,y,15,5,58001,1,3,411.2595,205.5633
1,6,23,3,2,3,A,F,b,y,15,5,58001,1,1,326.4494,119.4873
1,6,23,3,2,3,A,F,b,y,15,5,58001,1,1,369.4873,91.6392
1,6,23,3,2,3,A,F,b,y,15,5,59001,1,1,382.1456,84.0443
1,6,23,3,2,3,A,F,b,y,15,5,59001,1,1,408.7278,114.4241
1,6,23,3,2,3,A,F,b,y,15,5,59001,1,1,578.3481,278.981
1,6,23,3,2,3,A,F,b,y,15,5,59001,1,3,346.7025,489.1076
1,6,23,3,2,3,A,F,b,y,15,5,60001,1,1,320.1203,191.6392
1,6,23,3,2,3,A,F,b,y,15,5,60001,1,1,384.6772,101.7658
1,6,23,3,2,3,A,F,b,y,15,5,60001,1,3,341.6392,104.2975
1,6,23,3,2,3,A,F,b,y,15,5,60001,1,1,577.0823,281.5127
1,6,23,3,2,3,A,F,b,y,15,5,60001,1,2,177.0823,133.4114
1,6,23,3,2,3,A,F,b,y,15,5,61001,1,1,287.2089,81.5127
1,6,23,3,2,3,A,F,b,y,15,5,61001,1,1,339.1076,157.462
1,6,23,3,2,3,A,F,b,y,15,5,61001,1,1,383.4114,95.4367
1,6,23,3,2,3,A,F,b,y,15,5,61001,1,1,532.7785,301.7658
1,6,23,3,2,3,A,F,b,y,15,5,61001,1,3,461.8924,357.462
1,6,23,3,2,3,A,F,b,y,15,5,62001,1,1,379.6139,104.2975
1,6,23,3,2,3,A,F,b,y,15,5,62001,1,1,558.0949,266.3228
1,6,23,3,2,3,A,F,b,y,15,5,62001,1,1,584.6772,275.1835
1,6,23,3,2,3,A,F,b,y,15,5,62001,1,3,308.7278,271.3861
1,6,23,3,2,3,A,F,b,y,15,5,63001,1,1,377.0823,104.2975
1,6,23,3,2,3,A,F,b,y,15,5,63001,1,1,389.7405,132.1456
1,6,23,3,2,3,A,F,b,y,15,5,63001,1,1,384.6772,376.4494
1,6,23,3,2,3,A,F,b,y,15,5,63001,1,3,351.7658,377.7152
1,6,23,3,2,3,A,F,b,y,15,5,64001,1,1,327.7152,70.1203
1,6,23,3,2,3,A,F,b,y,15,5,64001,1,1,399.8671,123.2848
1,6,23,3,2,3,A,F,b,y,15,5,64001,1,1,458.0949,89.1076
1,6,23,3,2,3,A,F,b,y,15,5,64001,1,3,402.3987,71.3861
1,6,23,3,2,3,A,F,b,y,15,5,65001,1,1,392.2722,91.6392
1,6,23,3,2,3,A,F,b,y,15,5,65001,1,3,394.8038,158.7278
1,6,23,3,2,3,A,F,b,y,15,5,65001,1,1,155.5633,272.6519
1,6,23,3,2,3,A,F,b,y,15,5,65001,1,1,366.9557,442.2722
1,6,23,3,2,3,A,F,b,y,15,5,65001,1,1,475.8165,482.7785
1,6,23,3,2,3,A,F,b,y,15,5,66001,1,1,408.7278,162.5253
1,6,23,3,2,3,A,F,b,y,15,5,66001,1,1,332.7785,281.5127
1,6,23,3,2,3,A,F,b,y,15,5,66001,1,3,383.4114,301.7658
1,6,23,3,2,3,A,F,b,y,15,5,67001,1,1,402.3987,101.7658
1,6,23,3,2,3,A,F,b,y,15,5,67001,1,2,340.3734,420.7532
1,6,23,3,2,3,A,F,b,y,15,5,67001,1,3,437.8418,118.2215
1,6,23,3,2,3,A,F,b,y,15,5,68001,1,1,368.2215,84.0443
1,6,23,3,2,3,A,F,b,y,15,5,68001,1,3,411.2595,118.2215
1,6,23,3,2,3,A,F,b,y,15,5,68001,1,1,428.981,171.3861
1,6,23,3,2,3,A,F,b,y,15,5,69001,1,1,380.8797,106.8291
1,6,23,3,2,3,A,F,b,y,15,5,69001,1,1,394.8038,81.5127
1,6,23,3,2,3,A,F,b,y,15,5,69001,1,1,479.6139,437.2089
1,6,23,3,2,3,A,F,b,y,15,5,69001,1,3,534.0443,400.5
1,6,23,3,2,3,A,F,b,y,15,5,70001,1,1,403.6646,219.4873
1,6,23,3,2,3,A,F,b,y,15,5,70001,1,1,392.2722,90.3734
1,6,23,3,2,3,A,F,b,y,15,5,70001,1,1,435.3101,177.7152
1,6,23,3,2,3,A,F,b,y,15,5,70001,1,3,460.6266,135.943
1,6,23,3,2,3,A,F,b,y,15,5,70001,1,3,409.9937,254.9304
1,6,23,3,2,3,A,F,b,y,15,5,71001,1,1,373.2848,189.1076
1,6,23,3,2,3,A,F,b,y,15,5,71001,1,3,347.9684,65.057
1,6,23,3,2,3,A,F,b,y,15,5,71001,1,3,301.1329,72.6519
1,6,23,3,2,3,A,F,b,y,15,5,72001,1,1,260.6266,492.9051
1,6,23,3,2,3,A,F,b,y,15,5,72001,1,1,342.9051,120.7532
1,6,23,3,2,3,A,F,b,y,15,5,72001,1,3,335.3101,81.5127
1,6,23,3,2,3,A,F,b,y,15,5,73001,1,1,356.8291,106.8291
1,6,23,3,2,3,A,F,b,y,15,5,73001,1,1,501.1329,122.019
1,6,23,3,2,3,A,F,b,y,15,5,73001,1,3,368.2215,44.8038
1,6,23,3,2,3,A,F,b,y,15,5,74001,1,1,294.8038,399.2342
1,6,23,3,2,3,A,F,b,y,15,5,74001,1,3,540.3734,277.7152
1,6,23,3,2,3,A,F,b,y,15,5,75001,1,3,389.7405,114.4241
1,6,23,3,2,3,A,F,b,y,15,5,76001,1,3,222.6519,305.5633
1,6,23,3,2,3,A,F,b,y,15,5,77001,1,3,406.1962,189.1076
1,6,23,3,2,3,A,F,b,y,15,5,78001,1,3,175.8165,125.8165
1,6,23,3,2,3,A,F,b,y,15,5,78001,1,1,218.8544,87.8418
1,6,23,3,2,3,A,F,b,y,15,5,79001,1,3,192.2722,159.9937
1,6,23,3,2,3,A,F,b,y,15,5,80001,1,3,382.1456,304.2975
1,6,23,3,2,3,A,F,b,y,15,5,81001,1,3,213.7911,134.6772
1,6,23,3,2,3,A,F,b,y,15,5,81001,1,2,246.7025,63.7911
1,6,23,3,2,3,A,F,b,y,15,5,82001,1,3,594.8038,313.1582
1,6,23,3,2,3,A,F,b,y,15,5,82001,1,1,583.4114,277.7152
1,6,23,3,2,3,A,F,b,y,15,5,83001,1,1,144.1709,223.2848
1,6,23,3,2,3,A,F,b,y,15,5,83001,1,1,235.3101,130.8797
1,6,23,3,2,3,A,F,b,y,15,5,83001,1,1,575.8165,276.4494
1,6,23,3,2,3,A,F,b,y,15,5,83001,1,3,563.1582,314.4241
1,6,23,3,2,3,A,F,b,y,15,5,84001,1,1,291.0063,257.462
1,6,23,3,2,3,A,F,b,y,15,5,84001,1,1,482.1456,427.0823
1,6,23,3,2,3,A,F,b,y,15,5,84001,1,1,556.8291,275.1835
1,6,23,3,2,3,A,F,b,y,15,5,84001,1,3,528.981,301.7658
1,6,23,3,2,3,A,F,b,y,15,5,84001,1,2,216.3228,76.4494
1,6,23,3,2,3,A,F,b,y,15,5,85001,1,1,413.7911,162.5253
1,6,23,3,2,3,A,F,b,y,15,5,85001,1,1,478.3481,259.9937
1,6,23,3,2,3,A,F,b,y,15,5,85001,1,3,556.8291,372.6519
1,6,23,3,2,3,A,F,b,y,15,5,85001,1,1,349.2342,466.3228
1,6,23,3,2,3,A,F,b,y,15,5,85001,1,3,363.1582,563.7911
1,6,23,3,2,3,A,F,b,y,15,5,85001,1,1,396.0696,576.4494
1,6,23,3,2,3,A,F,b,y,15,5,86001,1,1,565.6899,267.5886
1,6,23,3,2,3,A,F,b,y,15,5,86001,1,1,440.3734,375.1835
1,6,23,3,2,3,A,F,b,y,15,5,86001,1,1,231.5127,384.0443
1,6,23,3,2,3,A,F,b,y,15,5,86001,1,1,341.6392,527.0823
1,6,23,3,2,3,A,F,b,y,15,5,86001,1,3,336.5759,559.9937
1,6,23,3,2,3,A,F,b,y,15,5,86001,1,3,435.3101,332.1456
1,6,23,3,2,3,A,F,b,y,15,5,87001,1,1,415.057,180.2468
1,6,23,3,2,3,A,F,b,y,15,5,87001,1,3,506.1962,215.6899
1,6,23,3,2,3,A,F,b,y,15,5,87001,1,3,589.7405,232.1456
1,6,23,3,2,3,A,F,b,y,15,5,87001,1,3,560.6266,291.6392
1,6,23,3,2,3,A,F,b,y,15,5,87001,1,1,570.7532,262.5253
1,6,23,3,2,3,A,F,b,y,15,5,88001,1,1,406.1962,118.2215
1,6,23,3,2,3,A,F,b,y,15,5,88001,1,2,430.2468,13.1582
1,6,23,3,2,3,A,F,b,y,15,5,88001,1,1,558.0949,268.8544
1,6,23,3,2,3,A,F,b,y,15,5,88001,1,3,594.8038,303.0316
1,6,23,3,2,3,A,F,b,y,15,5,89001,1,1,361.8924,100.5
1,6,23,3,2,3,A,F,b,y,15,5,89001,1,3,394.8038,142.2722
1,6,23,3,2,3,A,F,b,y,15,5,89001,1,1,366.9557,243.538
1,6,23,3,2,3,A,F,b,y,15,5,89001,1,3,402.3987,228.3481
1,6,23,3,2,3,A,F,b,y,15,5,89001,1,1,404.9304,363.7911
1,6,23,3,2,3,A,F,b,y,15,5,89001,1,1,479.6139,476.4494
1,6,23,3,2,3,A,F,b,y,15,5,90001,1,1,389.7405,90.3734
1,6,23,3,2,3,A,F,b,y,15,5,90001,1,3,336.5759,66.3228
1,6,23,3,2,3,A,F,b,y,15,5,90001,1,1,602.3987,138.4747
1,6,23,3,2,3,A,F,b,y,15,5,90001,1,1,380.8797,284.0443
1,6,23,3,2,3,A,F,b,y,15,5,90001,1,1,487.2089,327.0823
1,6,23,3,2,3,A,F,b,y,15,5,90001,1,3,517.5886,287.8418
1,6,23,3,2,3,A,F,b,y,15,5,91001,1,3,288.4747,78.981
1,6,23,3,2,3,A,F,b,y,15,5,91001,1,1,426.4494,156.1962
1,6,23,3,2,3,A,F,b,y,15,5,91001,1,1,415.057,205.5633
1,6,23,3,2,3,A,F,b,y,15,5,91001,1,1,187.2089,258.7278
1,6,23,3,2,3,A,F,b,y,15,5,91001,1,1,385.943,361.2595
1,6,23,3,2,3,A,F,b,y,15,5,91001,1,3,347.9684,335.943
1,6,23,3,2,3,A,F,b,y,15,5,91001,1,1,594.8038,384.0443
1,6,23,3,2,3,A,F,b,y,15,5,92001,1,1,372.019,225.8165
1,6,23,3,2,3,A,F,b,y,15,5,92001,1,1,411.2595,91.6392
1,6,23,3,2,3,A,F,b,y,15,5,92001,1,3,369.4873,99.2342
1,6,23,3,2,3,A,F,b,y,15,5,92001,1,2,683.4114,346.0696
1,6,23,3,2,3,A,F,b,y,15,5,93001,1,1,326.4494,142.2722
1,6,23,3,2,3,A,F,b,y,15,5,93001,1,1,604.9304,137.2089
1,6,23,3,2,3,A,F,b,y,15,5,93001,1,1,627.7152,366.3228
1,6,23,3,2,3,A,F,b,y,15,5,94001,1,1,373.2848,87.8418
1,6,23,3,2,3,A,F,b,y,15,5,94001,1,3,335.3101,61.2595
1,6,23,3,2,3,A,F,b,y,15,5,94001,1,1,316.3228,204.2975
1,6,23,3,2,3,A,F,b,y,15,5,94001,1,1,391.0063,256.1962
1,6,23,3,2,3,A,F,b,y,15,5,94001,1,1,485.943,337.2089
1,6,23,3,2,3,A,F,b,y,15,5,94001,1,3,497.3354,278.981
1,6,23,3,2,3,A,F,b,y,15,5,94001,1,1,468.2215,442.2722
1,6,23,3,2,3,A,F,b,y,15,5,95001,1,1,412.5253,308.0949
1,6,23,3,2,3,A,F,b,y,15,5,95001,1,1,415.057,187.8418
1,6,23,3,2,3,A,F,b,y,15,5,95001,1,1,565.6899,284.0443
1,6,23,3,2,3,A,F,b,y,15,5,95001,1,3,653.0316,341.0063
1,6,23,3,2,3,A,F,b,y,15,5,95001,1,3,313.7911,113.1582
1,6,23,3,2,3,A,F,b,y,15,5,95001,1,1,354.2975,23.2848
1,6,23,3,2,3,A,F,b,y,15,5,96001,1,1,393.538,95.4367
1,6,23,3,2,3,A,F,b,y,15,5,96001,1,1,417.5886,185.3101
1,6,23,3,2,3,A,F,b,y,15,5,96001,1,3,508.7278,248.6013
1,6,23,3,2,3,A,F,b,y,15,5,96001,1,1,534.0443,259.9937
1,6,23,3,2,3,A,F,b,y,15,5,96001,1,1,377.0823,505.5633
1,6,23,3,2,3,A,F,b,y,15,5,97001,1,1,359.3608,166.3228
1,6,23,3,2,3,A,F,b,y,15,5,97001,1,3,383.4114,178.981
1,6,23,3,2,3,A,F,b,y,15,5,97001,1,1,416.3228,182.7785
1,6,23,3,2,3,A,F,b,y,15,5,97001,1,1,563.1582,282.7785
1,6,23,3,2,3,A,F,b,y,15,5,97001,1,1,607.462,258.7278
1,6,23,3,2,3,A,F,b,y,15,5,97001,1,3,532.7785,291.6392
1,6,23,3,2,3,A,F,b,y,15,5,98001,1,1,393.538,110.6266
1,6,23,3,2,3,A,F,b,y,15,5,98001,1,1,431.5127,225.8165
1,6,23,3,2,3,A,F,b,y,15,5,99001,1,1,417.5886,170.1203
1,6,23,3,2,3,A,F,b,y,15,5,99001,1,1,406.1962,282.7785
1,6,23,3,2,3,A,F,b,y,15,5,99001,1,3,455.5633,147.3354
1,6,23,3,2,3,A,F,b,y,15,5,100001,1,1,422.6519,186.5759
1,6,23,3,2,3,A,F,b,y,15,5,100001,1,3,446.7025,148.6013
1,6,23,3,2,3,A,F,b,y,15,5,100001,1,1,393.538,95.4367
1,6,23,3,2,3,A,F,b,y,15,5,100001,1,1,588.4747,267.5886
1,6,23,3,2,3,A,F,b,y,15,5,101001,1,1,179.6139,235.943
1,6,23,3,2,3,A,F,b,y,15,5,101001,1,1,346.7025,94.1709
1,6,23,3,2,3,A,F,b,y,15,5,101001,1,3,394.8038,142.2722
1,6,23,3,2,3,A,F,b,y,15,5,101001,1,1,374.5506,372.6519
1,6,23,3,2,3,A,F,b,y,15,5,101001,1,1,473.2848,370.1203
1,6,23,3,2,3,A,F,b,y,15,5,102001,1,1,177.0823,265.057
1,6,23,3,2,3,A,F,b,y,15,5,102001,1,3,213.7911,287.8418
1,6,23,3,2,3,A,F,b,y,15,5,102001,1,1,423.9177,177.7152
1,6,23,3,2,3,A,F,b,y,15,5,102001,1,1,445.4367,115.6899
1,6,23,3,2,3,A,F,b,y,15,5,102001,1,1,466.9557,287.8418
1,6,23,3,2,3,A,F,b,y,15,5,102001,1,1,540.3734,286.5759
1,6,23,3,2,3,A,F,b,y,15,5,103001,1,1,316.3228,100.5
1,6,23,3,2,3,A,F,b,y,15,5,103001,1,3,261.8924,141.0063
1,6,23,3,2,3,A,F,b,y,15,5,103001,1,1,389.7405,96.7025
1,6,23,3,2,3,A,F,b,y,15,5,103001,1,1,411.2595,167.5886
1,6,23,3,2,3,A,F,b,y,15,5,103001,1,1,551.7658,270.1203
1,6,23,3,2,3,A,F,b,y,15,5,103001,1,1,607.462,434.6772
1,6,23,3,2,3,A,F,b,y,15,5,104001,1,2,170.7532,158.7278
1,6,23,3,2,3,A,F,b,y,15,5,104001,1,1,320.1203,133.4114
1,6,23,3,2,3,A,F,b,y,15,5,104001,1,1,380.8797,111.8924
1,6,23,3,2,3,A,F,b,y,15,5,104001,1,1,420.1203,165.057
1,6,23,3,2,3,A,F,b,y,15,5,104001,1,1,423.9177,305.5633
1,6,23,3,2,3,A,F,b,y,15,5,105001,1,3,199.8671,101.7658
1,6,23,3,2,3,A,F,b,y,15,5,105001,1,2,235.3101,76.4494
1,6,23,3,2,3,A,F,b,y,15,5,105001,1,1,407.462,29.6139
1,6,23,3,2,3,A,F,b,y,15,5,105001,1,1,450.5,149.8671
1,6,23,3,2,3,A,F,b,y,15,5,105001,1,1,409.9937,194.1709
1,6,23,3,2,3,A,F,b,y,15,5,105001,1,1,607.462,280.2468
1,6,23,3,2,3,A,F,b,y,15,5,105001,1,1,177.0823,424.5506
1,6,23,3,2,3,A,F,b,y,15,5,106001,1,1,263.1582,361.2595
1,6,23,3,2,3,A,F,b,y,15,5,106001,1,1,408.7278,158.7278
1,6,23,3,2,3,A,F,b,y,15,5,106001,1,1,435.3101,175.1835
1,6,23,3,2,3,A,F,b,y,15,5,106001,1,1,546.7025,175.1835
1,6,23,3,2,3,A,F,b,y,15,5,106001,1,1,384.6772,85.3101
1,6,23,3,2,3,A,F,b,y,15,5,106001,1,1,335.3101,81.5127
1,6,23,3,2,3,A,F,b,y,15,5,106001,1,3,291.0063,62.5253
1,6,23,3,2,3,A,F,b,y,15,5,107001,1,1,346.7025,100.5
1,6,23,3,2,3,A,F,b,y,15,5,107001,1,1,377.0823,91.6392
1,6,23,3,2,3,A,F,b,y,15,5,107001,1,1,439.1076,187.8418
1,6,23,3,2,3,A,F,b,y,15,5,107001,1,1,522.6519,172.6519
1,6,23,3,2,3,A,F,b,y,15,5,107001,1,1,554.2975,156.1962
1,6,23,3,2,3,A,F,b,y,15,5,107001,1,3,566.9557,116.9557
1,6,23,3,2,3,A,F,b,y,15,5,107001,1,1,421.3861,453.6646
