\relax 
\citation{CabralNuzhdin:2008}
\citation{SaltzFoley:2011}
\citation{R}
\citation{R}
\citation{R}
\citation{R}
\citation{R}
\citation{R}
\@writefile{toc}{\contentsline {section}{\numberline {1}Introduction}{1}}
\@writefile{toc}{\contentsline {section}{\numberline {2}Methods}{1}}
\@writefile{toc}{\contentsline {subsection}{\numberline {2.1}Data analysis and model selection}{1}}
\@writefile{toc}{\contentsline {section}{\numberline {3}Results}{2}}
\@writefile{toc}{\contentsline {subsection}{\numberline {3.1}Genetic effects on overall group structure}{2}}
\@writefile{toc}{\contentsline {subsection}{\numberline {3.2}Social and genetic determinants of leaving}{2}}
\@writefile{toc}{\contentsline {subsection}{\numberline {3.3}Social and genetic determinants of mating}{3}}
\bibdata{FoleyRefsJun2014}
\bibcite{CabralNuzhdin:2008}{{1}{2008}{{Cabral et~al.}}{{}}}
\bibcite{R}{{2}{2006}{{R Development Core Team}}{{}}}
\bibcite{SaltzFoley:2011}{{3}{2011}{{Saltz and Foley}}{{}}}
\bibstyle{apalike}
\@writefile{toc}{\contentsline {section}{\numberline {4}Discussion}{5}}
