dummy,month,day,period,view,station,fgeno,mgeno,fcol,mcol,nf,nm,frame,something,sex,x,y
1,6,23,4,3,2,B,E,b,y,5,15,1,1,3,423.0141,218.6989
1,6,23,4,3,2,B,E,b,y,5,15,1,1,1,408.0047,191.682
1,6,23,4,3,2,B,E,b,y,5,15,1,1,1,379.4869,197.6857
1,6,23,4,3,2,B,E,b,y,5,15,1,1,1,615.1341,434.834
1,6,23,4,3,2,B,E,b,y,5,15,1001,1,1,459.0366,158.6614
1,6,23,4,3,2,B,E,b,y,5,15,1001,1,1,453.0328,149.6557
1,6,23,4,3,2,B,E,b,y,5,15,1001,1,3,427.5169,101.6257
1,6,23,4,3,2,B,E,b,y,5,15,1001,1,1,420.0122,133.1454
1,6,23,4,3,2,B,E,b,y,5,15,2001,1,3,429.0178,73.1079
1,6,23,4,3,2,B,E,b,y,5,15,2001,1,1,432.0197,29.5807
1,6,23,4,3,2,B,E,b,y,5,15,2001,1,1,358.4737,59.5994
1,6,23,4,3,2,B,E,b,y,5,15,3001,1,1,257.9109,224.7026
1,6,23,4,3,2,B,E,b,y,5,15,3001,1,1,588.1173,169.1679
1,6,23,4,3,2,B,E,b,y,5,15,3001,1,1,648.1548,307.2542
1,6,23,4,3,2,B,E,b,y,5,15,4001,1,1,474.046,359.7871
1,6,23,4,3,2,B,E,b,y,5,15,4001,1,1,170.8565,230.7064
1,6,23,4,3,2,B,E,b,y,5,15,4001,1,1,693.1829,334.2711
1,6,23,4,3,2,B,E,b,y,5,15,5001,1,1,460.5375,245.7158
1,6,23,4,3,2,B,E,b,y,5,15,5001,1,1,523.5769,395.8096
1,6,23,4,3,2,B,E,b,y,5,15,5001,1,1,265.4156,482.864
1,6,23,4,3,2,B,E,b,y,5,15,6001,1,1,492.0572,515.8846
1,6,23,4,3,2,B,E,b,y,5,15,6001,1,1,516.0722,481.363
1,6,23,4,3,2,B,E,b,y,5,15,6001,1,1,460.5375,514.3837
1,6,23,4,3,2,B,E,b,y,5,15,7001,1,1,574.6088,293.7458
1,6,23,4,3,2,B,E,b,y,5,15,8001,1,1,457.5356,196.1848
1,6,23,4,3,2,B,E,b,y,5,15,9001,1,1,388.4925,490.3687
1,6,23,4,3,2,B,E,b,y,5,15,9001,1,1,631.6445,373.2955
1,6,23,4,3,2,B,E,b,y,5,15,10001,1,1,435.0216,175.1717
1,6,23,4,3,2,B,E,b,y,5,15,10001,1,1,227.8921,200.6876
1,6,23,4,3,2,B,E,b,y,5,15,10001,1,1,669.1679,299.7495
1,6,23,4,3,2,B,E,b,y,5,15,11001,1,1,534.0835,518.8865
1,6,23,4,3,2,B,E,b,y,5,15,12001,1,1,483.0516,343.2767
1,6,23,4,3,2,B,E,b,y,5,15,12001,1,1,532.5826,211.1942
1,6,23,4,3,2,B,E,b,y,5,15,13001,1,1,463.5394,341.7758
1,6,23,4,3,2,B,E,b,y,5,15,14001,1,1,522.076,304.2523
1,6,23,4,3,2,B,E,b,y,5,15,14001,1,1,388.4925,515.8846
1,6,23,4,3,2,B,E,b,y,5,15,14001,1,1,361.4756,98.6238
1,6,23,4,3,2,B,E,b,y,5,15,15001,1,1,649.6557,304.2523
1,6,23,4,3,2,B,E,b,y,5,15,15001,1,1,564.1023,59.5994
1,6,23,4,3,2,B,E,b,y,5,15,16001,1,1,316.4475,130.1435
1,6,23,4,3,2,B,E,b,y,5,15,17001,1,1,370.4812,305.7533
1,6,23,4,3,2,B,E,b,y,5,15,18001,1,1,227.8921,202.1886
1,6,23,4,3,2,B,E,b,y,5,15,19001,1,1,316.4475,223.2017
1,6,23,4,3,2,B,E,b,y,5,15,20001,1,1,233.8959,182.6764
1,6,23,4,3,2,B,E,b,y,5,15,21001,1,1,432.0197,389.8058
1,6,23,4,3,2,B,E,b,y,5,15,23001,1,1,439.5244,145.1529
1,6,23,4,3,2,B,E,b,y,5,15,25001,1,1,412.5075,179.6745
1,6,23,4,3,2,B,E,b,y,5,15,25001,1,3,457.5356,169.1679
1,6,23,4,3,2,B,E,b,y,5,15,26001,1,1,325.4531,71.6069
1,6,23,4,3,2,B,E,b,y,5,15,27001,1,1,639.1492,251.7195
1,6,23,4,3,2,B,E,b,y,5,15,27001,1,3,655.6595,316.2598
1,6,23,4,3,2,B,E,b,y,5,15,29001,1,1,368.9803,34.0835
1,6,23,4,3,2,B,E,b,y,5,15,30001,1,1,295.4343,139.1492
1,6,23,4,3,2,B,E,b,y,5,15,30001,1,1,199.3743,362.7889
1,6,23,4,3,2,B,E,b,y,5,15,31001,1,3,468.0422,38.5863
1,6,23,4,3,2,B,E,b,y,5,15,32001,1,3,326.954,137.6482
1,6,23,4,3,2,B,E,b,y,5,15,32001,1,1,346.4662,101.6257
1,6,23,4,3,2,B,E,b,y,5,15,32001,1,1,367.4794,134.6463
1,6,23,4,3,2,B,E,b,y,5,15,32001,1,1,395.9972,505.378
1,6,23,4,3,2,B,E,b,y,5,15,33001,1,1,603.1266,455.8471
1,6,23,4,3,2,B,E,b,y,5,15,33001,1,1,622.6388,212.6951
1,6,23,4,3,2,B,E,b,y,5,15,33001,1,1,465.0403,100.1248
1,6,23,4,3,2,B,E,b,y,5,15,33001,1,1,468.0422,73.1079
1,6,23,4,3,2,B,E,b,y,5,15,33001,1,3,489.0553,83.6144
1,6,23,4,3,2,B,E,b,y,5,15,33001,1,1,221.8884,244.2148
1,6,23,4,3,2,B,E,b,y,5,15,34001,1,3,295.4343,338.7739
1,6,23,4,3,2,B,E,b,y,5,15,34001,1,1,241.4006,340.2749
1,6,23,4,3,2,B,E,b,y,5,15,34001,1,1,226.3912,365.7908
1,6,23,4,3,2,B,E,b,y,5,15,34001,1,1,385.4906,451.3443
1,6,23,4,3,2,B,E,b,y,5,15,34001,1,3,408.0047,428.8302
1,6,23,4,3,2,B,E,b,y,5,15,34001,1,1,382.4887,388.3049
1,6,23,4,3,2,B,E,b,y,5,15,35001,1,1,601.6257,365.7908
1,6,23,4,3,2,B,E,b,y,5,15,35001,1,3,643.652,388.3049
1,6,23,4,3,2,B,E,b,y,5,15,35001,1,3,429.0178,137.6482
1,6,23,4,3,2,B,E,b,y,5,15,35001,1,1,214.3837,248.7176
1,6,23,4,3,2,B,E,b,y,5,15,36001,1,1,295.4343,212.6951
1,6,23,4,3,2,B,E,b,y,5,15,36001,1,3,253.4081,205.1904
1,6,23,4,3,2,B,E,b,y,5,15,36001,1,1,269.9184,172.1698
1,6,23,4,3,2,B,E,b,y,5,15,36001,1,1,335.9597,154.1585
1,6,23,4,3,2,B,E,b,y,5,15,36001,1,3,347.9672,106.1285
1,6,23,4,3,2,B,E,b,y,5,15,36001,1,1,568.6051,124.1398
1,6,23,4,3,2,B,E,b,y,5,15,37001,1,1,275.9221,308.7552
1,6,23,4,3,2,B,E,b,y,5,15,37001,1,1,496.56,217.1979
1,6,23,4,3,2,B,E,b,y,5,15,37001,1,1,499.5619,448.3424
1,6,23,4,3,2,B,E,b,y,5,15,37001,1,3,547.5919,424.3274
1,6,23,4,3,2,B,E,b,y,5,15,37001,1,1,559.5994,436.3349
1,6,23,4,3,2,B,E,b,y,5,15,38001,1,1,543.0891,73.1079
1,6,23,4,3,2,B,E,b,y,5,15,38001,1,1,526.5788,35.5844
1,6,23,4,3,2,B,E,b,y,5,15,38001,1,1,260.9128,125.6407
1,6,23,4,3,2,B,E,b,y,5,15,39001,1,1,439.5244,179.6745
1,6,23,4,3,2,B,E,b,y,5,15,39001,1,1,636.1473,406.3161
1,6,23,4,3,2,B,E,b,y,5,15,40001,1,1,385.4906,427.3293
1,6,23,4,3,2,B,E,b,y,5,15,40001,1,1,353.9709,424.3274
1,6,23,4,3,2,B,E,b,y,5,15,41001,1,1,466.5413,308.7552
1,6,23,4,3,2,B,E,b,y,5,15,42001,1,1,439.5244,238.2111
1,6,23,4,3,2,B,E,b,y,5,15,42001,1,1,423.0141,215.697
1,6,23,4,3,2,B,E,b,y,5,15,42001,1,1,460.5375,515.8846
1,6,23,4,3,2,B,E,b,y,5,15,43001,1,1,391.4944,467.8546
1,6,23,4,3,2,B,E,b,y,5,15,43001,1,3,296.9353,508.3799
1,6,23,4,3,2,B,E,b,y,5,15,44001,1,3,380.9878,472.3574
1,6,23,4,3,2,B,E,b,y,5,15,44001,1,1,323.9522,481.363
1,6,23,4,3,2,B,E,b,y,5,15,44001,1,1,343.4644,508.3799
1,6,23,4,3,2,B,E,b,y,5,15,44001,1,3,649.6557,349.2805
1,6,23,4,3,2,B,E,b,y,5,15,45001,1,1,380.9878,65.6032
1,6,23,4,3,2,B,E,b,y,5,15,46001,1,1,406.5038,415.3218
1,6,23,4,3,2,B,E,b,y,5,15,46001,1,1,513.0704,56.5976
1,6,23,4,3,2,B,E,b,y,5,15,47001,1,1,481.5507,430.3311
1,6,23,4,3,2,B,E,b,y,5,15,47001,1,1,242.9015,298.2486
1,6,23,4,3,2,B,E,b,y,5,15,48001,1,1,513.0704,169.1679
1,6,23,4,3,2,B,E,b,y,5,15,49001,1,1,480.0497,344.7777
1,6,23,4,3,2,B,E,b,y,5,15,50001,1,1,292.4325,124.1398
1,6,23,4,3,2,B,E,b,y,5,15,52001,1,1,661.6632,359.7871
1,6,23,4,3,2,B,E,b,y,5,15,53001,1,1,606.1285,173.6707
1,6,23,4,3,2,B,E,b,y,5,15,53001,1,3,673.6707,299.7495
1,6,23,4,3,2,B,E,b,y,5,15,53001,1,1,486.0535,517.3856
1,6,23,4,3,2,B,E,b,y,5,15,54001,1,1,477.0478,514.3837
1,6,23,4,3,2,B,E,b,y,5,15,54001,1,3,519.0741,494.8715
1,6,23,4,3,2,B,E,b,y,5,15,54001,1,1,627.1417,122.6388
1,6,23,4,3,2,B,E,b,y,5,15,55001,1,1,405.0028,82.1135
1,6,23,4,3,2,B,E,b,y,5,15,55001,1,1,397.4981,55.0966
1,6,23,4,3,2,B,E,b,y,5,15,55001,1,3,445.5281,70.106
1,6,23,4,3,2,B,E,b,y,5,15,55001,1,1,610.6313,100.1248
1,6,23,4,3,2,B,E,b,y,5,15,56001,1,1,441.0253,160.1623
1,6,23,4,3,2,B,E,b,y,5,15,56001,1,3,448.53,127.1417
1,6,23,4,3,2,B,E,b,y,5,15,56001,1,1,487.5544,148.1548
1,6,23,4,3,2,B,E,b,y,5,15,56001,1,1,403.5019,131.6445
1,6,23,4,3,2,B,E,b,y,5,15,56001,1,3,420.0122,68.6051
1,6,23,4,3,2,B,E,b,y,5,15,56001,1,1,444.0272,44.5901
1,6,23,4,3,2,B,E,b,y,5,15,57001,1,3,402.0009,107.6295
1,6,23,4,3,2,B,E,b,y,5,15,57001,1,1,405.0028,73.1079
1,6,23,4,3,2,B,E,b,y,5,15,57001,1,1,380.9878,70.106
1,6,23,4,3,2,B,E,b,y,5,15,57001,1,1,397.4981,205.1904
1,6,23,4,3,2,B,E,b,y,5,15,57001,1,3,377.9859,256.2223
1,6,23,4,3,2,B,E,b,y,5,15,58001,1,1,654.1585,296.7477
1,6,23,4,3,2,B,E,b,y,5,15,59001,1,1,227.8921,410.8189
1,6,23,4,3,2,B,E,b,y,5,15,59001,1,1,232.3949,457.348
1,6,23,4,3,2,B,E,b,y,5,15,59001,1,1,564.1023,497.8734
1,6,23,4,3,2,B,E,b,y,5,15,60001,1,1,457.5356,526.3912
1,6,23,4,3,2,B,E,b,y,5,15,60001,1,1,639.1492,385.303
1,6,23,4,3,2,B,E,b,y,5,15,60001,1,1,654.1585,239.712
1,6,23,4,3,2,B,E,b,y,5,15,61001,1,1,466.5413,485.8659
1,6,23,4,3,2,B,E,b,y,5,15,62001,1,1,328.455,281.7383
1,6,23,4,3,2,B,E,b,y,5,15,62001,1,1,313.4456,224.7026
1,6,23,4,3,2,B,E,b,y,5,15,62001,1,3,535.5844,164.6651
1,6,23,4,3,2,B,E,b,y,5,15,63001,1,1,534.0835,344.7777
1,6,23,4,3,2,B,E,b,y,5,15,63001,1,1,358.4737,454.3462
1,6,23,4,3,2,B,E,b,y,5,15,63001,1,1,173.8583,316.2598
1,6,23,4,3,2,B,E,b,y,5,15,63001,1,1,582.1135,83.6144
1,6,23,4,3,2,B,E,b,y,5,15,64001,1,1,481.5507,206.6914
1,6,23,4,3,2,B,E,b,y,5,15,64001,1,1,290.9315,202.1886
1,6,23,4,3,2,B,E,b,y,5,15,64001,1,1,175.3593,256.2223
1,6,23,4,3,2,B,E,b,y,5,15,64001,1,1,477.0478,446.8415
1,6,23,4,3,2,B,E,b,y,5,15,65001,1,1,439.5244,386.8039
1,6,23,4,3,2,B,E,b,y,5,15,65001,1,1,673.6707,289.243
1,6,23,4,3,2,B,E,b,y,5,15,66001,1,1,328.455,319.2617
1,6,23,4,3,2,B,E,b,y,5,15,66001,1,1,313.4456,343.2767
1,6,23,4,3,2,B,E,b,y,5,15,66001,1,1,438.0235,74.6088
1,6,23,4,3,2,B,E,b,y,5,15,67001,1,1,331.4568,478.3612
1,6,23,4,3,2,B,E,b,y,5,15,67001,1,1,595.622,434.834
1,6,23,4,3,2,B,E,b,y,5,15,67001,1,1,571.6069,206.6914
1,6,23,4,3,2,B,E,b,y,5,15,68001,1,1,597.1229,244.2148
1,6,23,4,3,2,B,E,b,y,5,15,68001,1,1,359.9747,356.7852
1,6,23,4,3,2,B,E,b,y,5,15,68001,1,1,191.8696,356.7852
1,6,23,4,3,2,B,E,b,y,5,15,69001,1,1,377.9859,361.288
1,6,23,4,3,2,B,E,b,y,5,15,69001,1,1,586.6163,418.3236
1,6,23,4,3,2,B,E,b,y,5,15,69001,1,1,601.6257,127.1417
1,6,23,4,3,2,B,E,b,y,5,15,70001,1,1,534.0835,220.1998
1,6,23,4,3,2,B,E,b,y,5,15,70001,1,1,256.4099,484.3649
1,6,23,4,3,2,B,E,b,y,5,15,71001,1,1,251.9071,335.772
1,6,23,4,3,2,B,E,b,y,5,15,71001,1,1,307.4418,371.7946
1,6,23,4,3,2,B,E,b,y,5,15,71001,1,1,403.5019,548.9053
1,6,23,4,3,2,B,E,b,y,5,15,72001,1,1,347.9672,247.2167
1,6,23,4,3,2,B,E,b,y,5,15,72001,1,1,492.0572,557.9109
1,6,23,4,3,2,B,E,b,y,5,15,73001,1,1,340.4625,257.7233
1,6,23,4,3,2,B,E,b,y,5,15,73001,1,1,546.091,373.2955
1,6,23,4,3,2,B,E,b,y,5,15,73001,1,1,682.6764,257.7233
1,6,23,4,3,2,B,E,b,y,5,15,74001,1,1,475.5469,134.6463
1,6,23,4,3,2,B,E,b,y,5,15,74001,1,1,550.5938,442.3386
1,6,23,4,3,2,B,E,b,y,5,15,75001,1,1,451.5319,208.1923
1,6,23,4,3,2,B,E,b,y,5,15,75001,1,1,371.9822,190.1811
1,6,23,4,3,2,B,E,b,y,5,15,75001,1,1,574.6088,346.2786
1,6,23,4,3,2,B,E,b,y,5,15,75001,1,1,271.4193,473.8583
1,6,23,4,3,2,B,E,b,y,5,15,75001,1,1,586.6163,67.1041
1,6,23,4,3,2,B,E,b,y,5,15,76001,1,1,408.0047,83.6144
1,6,23,4,3,2,B,E,b,y,5,15,76001,1,1,447.0291,404.8152
1,6,23,4,3,2,B,E,b,y,5,15,77001,1,1,310.4437,317.7608
1,6,23,4,3,2,B,E,b,y,5,15,78001,1,1,299.9371,412.3199
1,6,23,4,3,2,B,E,b,y,5,15,79001,1,1,507.0666,214.1961
1,6,23,4,3,2,B,E,b,y,5,15,80001,1,3,380.9878,229.2054
1,6,23,4,3,2,B,E,b,y,5,15,80001,1,1,385.4906,167.667
1,6,23,4,3,2,B,E,b,y,5,15,81001,1,1,326.954,370.2936
1,6,23,4,3,2,B,E,b,y,5,15,81001,1,1,501.0629,122.6388
1,6,23,4,3,2,B,E,b,y,5,15,81001,1,3,549.0929,100.1248
1,6,23,4,3,2,B,E,b,y,5,15,82001,1,1,570.106,490.3687
1,6,23,4,3,2,B,E,b,y,5,15,83001,1,1,564.1023,386.8039
1,6,23,4,3,2,B,E,b,y,5,15,83001,1,1,642.151,374.7964
1,6,23,4,3,2,B,E,b,y,5,15,83001,1,1,528.0797,38.5863
1,6,23,4,3,2,B,E,b,y,5,15,84001,1,1,367.4794,314.7589
1,6,23,4,3,2,B,E,b,y,5,15,84001,1,1,328.455,260.7251
1,6,23,4,3,2,B,E,b,y,5,15,85001,1,1,499.5619,428.8302
1,6,23,4,3,2,B,E,b,y,5,15,86001,1,1,298.4362,244.2148
1,6,23,4,3,2,B,E,b,y,5,15,87001,1,1,353.9709,311.757
1,6,23,4,3,2,B,E,b,y,5,15,87001,1,1,239.8996,286.2411
1,6,23,4,3,2,B,E,b,y,5,15,87001,1,1,555.0966,91.1191
1,6,23,4,3,2,B,E,b,y,5,15,88001,1,1,356.9728,470.8565
1,6,23,4,3,2,B,E,b,y,5,15,89001,1,1,423.0141,217.1979
1,6,23,4,3,2,B,E,b,y,5,15,90001,1,1,332.9578,278.7364
1,6,23,4,3,2,B,E,b,y,5,15,90001,1,1,607.6295,452.8452
1,6,23,4,3,2,B,E,b,y,5,15,91001,1,1,215.8846,349.2805
1,6,23,4,3,2,B,E,b,y,5,15,92001,1,1,334.4587,233.7083
1,6,23,4,3,2,B,E,b,y,5,15,93001,1,1,334.4587,215.697
1,6,23,4,3,2,B,E,b,y,5,15,93001,1,1,268.4174,119.637
1,6,23,4,3,2,B,E,b,y,5,15,93001,1,1,435.0216,499.3743
1,6,23,4,3,2,B,E,b,y,5,15,93001,1,1,616.6351,391.3068
1,6,23,4,3,2,B,E,b,y,5,15,94001,1,1,531.0816,163.1642
1,6,23,4,3,2,B,E,b,y,5,15,94001,1,1,658.6614,197.6857
1,6,23,4,3,2,B,E,b,y,5,15,95001,1,3,591.1191,127.1417
1,6,23,4,3,2,B,E,b,y,5,15,95001,1,1,601.6257,80.6126
1,6,23,4,3,2,B,E,b,y,5,15,95001,1,1,353.9709,142.151
1,6,23,4,3,2,B,E,b,y,5,15,96001,1,1,442.5263,286.2411
1,6,23,4,3,2,B,E,b,y,5,15,96001,1,1,377.9859,100.1248
1,6,23,4,3,2,B,E,b,y,5,15,96001,1,3,359.9747,151.1567
1,6,23,4,3,2,B,E,b,y,5,15,96001,1,1,334.4587,161.6632
1,6,23,4,3,2,B,E,b,y,5,15,96001,1,1,283.4268,227.7045
1,6,23,4,3,2,B,E,b,y,5,15,96001,1,3,463.5394,511.3818
1,6,23,4,3,2,B,E,b,y,5,15,97001,1,1,523.5769,407.8171
1,6,23,4,3,2,B,E,b,y,5,15,98001,1,1,421.5131,241.2129
1,6,23,4,3,2,B,E,b,y,5,15,98001,1,1,469.5432,269.7308
1,6,23,4,3,2,B,E,b,y,5,15,99001,1,1,421.5131,302.7514
1,6,23,4,3,2,B,E,b,y,5,15,99001,1,1,502.5638,116.6351
1,6,23,4,3,2,B,E,b,y,5,15,100001,1,1,588.1173,314.7589
1,6,23,4,3,2,B,E,b,y,5,15,100001,1,1,661.6632,256.2223
1,6,23,4,3,2,B,E,b,y,5,15,100001,1,1,570.106,74.6088
1,6,23,4,3,2,B,E,b,y,5,15,101001,1,1,477.0478,308.7552
1,6,23,4,3,2,B,E,b,y,5,15,101001,1,1,432.0197,160.1623
1,6,23,4,3,2,B,E,b,y,5,15,103001,1,1,361.4756,154.1585
1,6,23,4,3,2,B,E,b,y,5,15,103001,1,3,358.4737,113.6332
1,6,23,4,3,2,B,E,b,y,5,15,103001,1,1,408.0047,86.6163
1,6,23,4,3,2,B,E,b,y,5,15,103001,1,1,353.9709,35.5844
1,6,23,4,3,2,B,E,b,y,5,15,103001,1,1,502.5638,470.8565
1,6,23,4,3,2,B,E,b,y,5,15,104001,1,1,432.0197,197.6857
1,6,23,4,3,2,B,E,b,y,5,15,104001,1,1,383.9897,547.4043
1,6,23,4,3,2,B,E,b,y,5,15,105001,1,1,408.0047,371.7946
1,6,23,4,3,2,B,E,b,y,5,15,106001,1,1,405.0028,155.6595
1,6,23,4,3,2,B,E,b,y,5,15,107001,1,1,450.031,319.2617
1,6,23,4,3,2,B,E,b,y,5,15,107001,1,1,388.4925,478.3612
