dummy,month,day,period,view,station,fgeno,mgeno,fcol,mcol,nf,nm,frame,something,sex,x,y
1,6,26,4,2,3,C,G,b,y,5,15,1,1,3,340,85
1,6,26,4,2,3,C,G,b,y,5,15,1001,1,3,338,85
1,6,26,4,2,3,C,G,b,y,5,15,2001,1,3,349,87
1,6,26,4,2,3,C,G,b,y,5,15,3001,1,3,344,89
1,6,26,4,2,3,C,G,b,y,5,15,4001,1,3,352,87
1,6,26,4,2,3,C,G,b,y,5,15,6001,1,3,474,180
1,6,26,4,2,3,C,G,b,y,5,15,7001,1,3,479,182
1,6,26,4,2,3,C,G,b,y,5,15,7001,1,3,303,554
1,6,26,4,2,3,C,G,b,y,5,15,8001,1,3,452,202
1,6,26,4,2,3,C,G,b,y,5,15,8001,1,3,348,548
1,6,26,4,2,3,C,G,b,y,5,15,9001,1,3,420,217
1,6,26,4,2,3,C,G,b,y,5,15,9001,1,3,355,555
1,6,26,4,2,3,C,G,b,y,5,15,10001,1,3,332,228
1,6,26,4,2,3,C,G,b,y,5,15,10001,1,3,364,554
1,6,26,4,2,3,C,G,b,y,5,15,11001,1,3,452,134
1,6,26,4,2,3,C,G,b,y,5,15,11001,1,3,390,551
1,6,26,4,2,3,C,G,b,y,5,15,12001,1,3,461,136
1,6,26,4,2,3,C,G,b,y,5,15,12001,1,3,408,546
1,6,26,4,2,3,C,G,b,y,5,15,13001,1,3,448,133
1,6,26,4,2,3,C,G,b,y,5,15,13001,1,3,426,553
1,6,26,4,2,3,C,G,b,y,5,15,14001,1,3,451,140
1,6,26,4,2,3,C,G,b,y,5,15,14001,1,3,466,532
1,6,26,4,2,3,C,G,b,y,5,15,15001,1,3,559,160
1,6,26,4,2,3,C,G,b,y,5,15,15001,1,3,564,198
1,6,26,4,2,3,C,G,b,y,5,15,15001,1,3,476,520
1,6,26,4,2,3,C,G,b,y,5,15,18001,1,3,480,540
1,6,26,4,2,3,C,G,b,y,5,15,19001,1,3,516,279
1,6,26,4,2,3,C,G,b,y,5,15,20001,1,3,542,156
1,6,26,4,2,3,C,G,b,y,5,15,21001,1,3,361,354
1,6,26,4,2,3,C,G,b,y,5,15,22001,1,3,454,482
1,6,26,4,2,3,C,G,b,y,5,15,23001,1,3,146,227
1,6,26,4,2,3,C,G,b,y,5,15,24001,1,3,567,269
1,6,26,4,2,3,C,G,b,y,5,15,24001,1,3,580,236
1,6,26,4,2,3,C,G,b,y,5,15,25001,1,3,191,454
1,6,26,4,2,3,C,G,b,y,5,15,25001,1,3,352,169
1,6,26,4,2,3,C,G,b,y,5,15,26001,1,3,180,466
1,6,26,4,2,3,C,G,b,y,5,15,26001,1,3,373,315
1,6,26,4,2,3,C,G,b,y,5,15,27001,1,3,183,468
1,6,26,4,2,3,C,G,b,y,5,15,27001,1,3,377,320
1,6,26,4,2,3,C,G,b,y,5,15,28001,1,3,193,461
1,6,26,4,2,3,C,G,b,y,5,15,28001,1,3,389,318
1,6,26,4,2,3,C,G,b,y,5,15,29001,1,3,232,424
1,6,26,4,2,3,C,G,b,y,5,15,29001,1,3,386,324
1,6,26,4,2,3,C,G,b,y,5,15,30001,1,3,221,249
1,6,26,4,2,3,C,G,b,y,5,15,30001,1,3,201,209
1,6,26,4,2,3,C,G,b,y,5,15,31001,1,3,458,196
1,6,26,4,2,3,C,G,b,y,5,15,32001,1,3,373,228
1,6,26,4,2,3,C,G,b,y,5,15,33001,1,3,267,152
1,6,26,4,2,3,C,G,b,y,5,15,34001,1,3,336,100
1,6,26,4,2,3,C,G,b,y,5,15,35001,1,3,384,81
1,6,26,4,2,3,C,G,b,y,5,15,36001,1,3,387,58
1,6,26,4,2,3,C,G,b,y,5,15,37001,1,3,487,344
1,6,26,4,2,3,C,G,b,y,5,15,38001,1,3,412,202
1,6,26,4,2,3,C,G,b,y,5,15,39001,1,3,424,213
1,6,26,4,2,3,C,G,b,y,5,15,40001,1,3,415,206
1,6,26,4,2,3,C,G,b,y,5,15,41001,1,3,417,205
1,6,26,4,2,3,C,G,b,y,5,15,42001,1,3,414,208
1,6,26,4,2,3,C,G,b,y,5,15,43001,1,3,420,204
1,6,26,4,2,3,C,G,b,y,5,15,44001,1,3,517,175
1,6,26,4,2,3,C,G,b,y,5,15,45001,1,3,523,175
1,6,26,4,2,3,C,G,b,y,5,15,46001,1,3,524,172
1,6,26,4,2,3,C,G,b,y,5,15,47001,1,3,519,175
1,6,26,4,2,3,C,G,b,y,5,15,48001,1,3,521,171
1,6,26,4,2,3,C,G,b,y,5,15,49001,1,3,512,180
1,6,26,4,2,3,C,G,b,y,5,15,50001,1,3,519,174
1,6,26,4,2,3,C,G,b,y,5,15,51001,1,3,515,177
1,6,26,4,2,3,C,G,b,y,5,15,52001,1,3,514,176
1,6,26,4,2,3,C,G,b,y,5,15,53001,1,3,516,178
1,6,26,4,2,3,C,G,b,y,5,15,54001,1,3,518,173
1,6,26,4,2,3,C,G,b,y,5,15,55001,1,3,577,137
1,6,26,4,2,3,C,G,b,y,5,15,56001,1,3,257,134
1,6,26,4,2,3,C,G,b,y,5,15,57001,1,3,165,244
1,6,26,4,2,3,C,G,b,y,5,15,58001,1,3,389,292
1,6,26,4,2,3,C,G,b,y,5,15,59001,1,3,384,290
1,6,26,4,2,3,C,G,b,y,5,15,60001,1,3,312,111
1,6,26,4,2,3,C,G,b,y,5,15,61001,1,3,255,166
1,6,26,4,2,3,C,G,b,y,5,15,62001,1,3,258,165
1,6,26,4,2,3,C,G,b,y,5,15,63001,1,3,347,247
1,6,26,4,2,3,C,G,b,y,5,15,64001,1,3,358,257
1,6,26,4,2,3,C,G,b,y,5,15,65001,1,3,353,257
1,6,26,4,2,3,C,G,b,y,5,15,66001,1,3,545,228
1,6,26,4,2,3,C,G,b,y,5,15,67001,1,3,402,111
1,6,26,4,2,3,C,G,b,y,5,15,68001,1,3,399,111
1,6,26,4,2,3,C,G,b,y,5,15,69001,1,3,191,274
1,6,26,4,2,3,C,G,b,y,5,15,70001,1,3,188,277
1,6,26,4,2,3,C,G,b,y,5,15,71001,1,3,476,219
1,6,26,4,2,3,C,G,b,y,5,15,72001,1,3,477,222
1,6,26,4,2,3,C,G,b,y,5,15,73001,1,3,476,224
1,6,26,4,2,3,C,G,b,y,5,15,74001,1,3,479,220
1,6,26,4,2,3,C,G,b,y,5,15,75001,1,3,478,218
1,6,26,4,2,3,C,G,b,y,5,15,76001,1,3,476,219
1,6,26,4,2,3,C,G,b,y,5,15,77001,1,3,478,219
1,6,26,4,2,3,C,G,b,y,5,15,78001,1,3,481,221
1,6,26,4,2,3,C,G,b,y,5,15,79001,1,3,474,220
1,6,26,4,2,3,C,G,b,y,5,15,80001,1,3,476,218
1,6,26,4,2,3,C,G,b,y,5,15,81001,1,3,479,226
1,6,26,4,2,3,C,G,b,y,5,15,82001,1,3,477,221
1,6,26,4,2,3,C,G,b,y,5,15,83001,1,3,473,214
1,6,26,4,2,3,C,G,b,y,5,15,84001,1,3,480,218
1,6,26,4,2,3,C,G,b,y,5,15,85001,1,3,479,216
1,6,26,4,2,3,C,G,b,y,5,15,86001,1,3,475,211
1,6,26,4,2,3,C,G,b,y,5,15,87001,1,3,522,226
1,6,26,4,2,3,C,G,b,y,5,15,88001,1,3,176,181
1,6,26,4,2,3,C,G,b,y,5,15,89001,1,3,444,100
1,6,26,4,2,3,C,G,b,y,5,15,90001,1,3,463,306
1,6,26,4,2,3,C,G,b,y,5,15,91001,1,3,413,325
1,6,26,4,2,3,C,G,b,y,5,15,92001,1,3,498,294
1,6,26,4,2,3,C,G,b,y,5,15,93001,1,3,423,407
1,6,26,4,2,3,C,G,b,y,5,15,94001,1,3,415,402
1,6,26,4,2,3,C,G,b,y,5,15,95001,1,3,411,406
1,6,26,4,2,3,C,G,b,y,5,15,96001,1,3,417,400
1,6,26,4,2,3,C,G,b,y,5,15,97001,1,3,415,400
1,6,26,4,2,3,C,G,b,y,5,15,98001,1,3,416,403
1,6,26,4,2,3,C,G,b,y,5,15,99001,1,3,413,405
1,6,26,4,2,3,C,G,b,y,5,15,100001,1,3,416,403
1,6,26,4,2,3,C,G,b,y,5,15,101001,1,3,418,399
1,6,26,4,2,3,C,G,b,y,5,15,102001,1,3,415,400
1,6,26,4,2,3,C,G,b,y,5,15,103001,1,3,418,402
1,6,26,4,2,3,C,G,b,y,5,15,104001,1,3,415,399
1,6,26,4,2,3,C,G,b,y,5,15,105001,1,3,411,400
1,6,26,4,2,3,C,G,b,y,5,15,106001,1,3,416,400
1,6,26,4,2,3,C,G,b,y,5,15,107001,1,3,421,390
