dummy,month,day,period,view,station,fgeno,mgeno,fcol,mcol,nf,nm,frame,something,sex,x,y
1,7,10,1,0,3,C,E,b,y,5,15,1,1,1,125,334
1,7,10,1,0,3,C,E,b,y,5,15,1,1,3,469,372
1,7,10,1,0,3,C,E,b,y,5,15,1,1,3,431,141
1,7,10,1,0,3,C,E,b,y,5,15,1,1,3,429,79
1,7,10,1,0,3,C,E,b,y,5,15,1,1,3,510,48
1,7,10,1,0,3,C,E,b,y,5,15,1001,1,1,130,303
1,7,10,1,0,3,C,E,b,y,5,15,1001,1,3,254,112
1,7,10,1,0,3,C,E,b,y,5,15,1001,1,3,419,267
1,7,10,1,0,3,C,E,b,y,5,15,1001,1,3,507,107
1,7,10,1,0,3,C,E,b,y,5,15,1001,1,3,602,262
1,7,10,1,0,3,C,E,b,y,5,15,2001,1,1,230,245
1,7,10,1,0,3,C,E,b,y,5,15,2001,1,3,257,181
1,7,10,1,0,3,C,E,b,y,5,15,2001,1,3,446,123
1,7,10,1,0,3,C,E,b,y,5,15,2001,1,3,177,378
1,7,10,1,0,3,C,E,b,y,5,15,3001,1,1,188,232
1,7,10,1,0,3,C,E,b,y,5,15,3001,1,1,229,220
1,7,10,1,0,3,C,E,b,y,5,15,3001,1,3,153,285
1,7,10,1,0,3,C,E,b,y,5,15,3001,1,3,394,394
1,7,10,1,0,3,C,E,b,y,5,15,3001,1,3,426,295
1,7,10,1,0,3,C,E,b,y,5,15,3001,1,3,406,101
1,7,10,1,0,3,C,E,b,y,5,15,3001,1,1,442,82
1,7,10,1,0,3,C,E,b,y,5,15,3001,1,3,474,104
1,7,10,1,0,3,C,E,b,y,5,15,3001,1,3,476,145
1,7,10,1,0,3,C,E,b,y,5,15,4001,1,3,195,202
1,7,10,1,0,3,C,E,b,y,5,15,4001,1,3,178,156
1,7,10,1,0,3,C,E,b,y,5,15,4001,1,3,380,54
1,7,10,1,0,3,C,E,b,y,5,15,4001,1,3,285,293
1,7,10,1,0,3,C,E,b,y,5,15,4001,1,3,345,323
1,7,10,1,0,3,C,E,b,y,5,15,4001,1,1,417,346
1,7,10,1,0,3,C,E,b,y,5,15,4001,1,1,454,252
1,7,10,1,0,3,C,E,b,y,5,15,5001,1,3,250,142
1,7,10,1,0,3,C,E,b,y,5,15,5001,1,3,366,72
1,7,10,1,0,3,C,E,b,y,5,15,5001,1,3,441,63
1,7,10,1,0,3,C,E,b,y,5,15,5001,1,1,515,174
1,7,10,1,0,3,C,E,b,y,5,15,5001,1,1,540,151
1,7,10,1,0,3,C,E,b,y,5,15,5001,1,3,489,290
1,7,10,1,0,3,C,E,b,y,5,15,6001,1,3,256,119
1,7,10,1,0,3,C,E,b,y,5,15,6001,1,3,191,409
1,7,10,1,0,3,C,E,b,y,5,15,6001,1,1,480,181
1,7,10,1,0,3,C,E,b,y,5,15,6001,1,1,511,218
1,7,10,1,0,3,C,E,b,y,5,15,6001,1,1,555,140
1,7,10,1,0,3,C,E,b,y,5,15,7001,1,3,190,414
1,7,10,1,0,3,C,E,b,y,5,15,7001,1,3,300,194
1,7,10,1,0,3,C,E,b,y,5,15,7001,1,1,269,227
1,7,10,1,0,3,C,E,b,y,5,15,7001,1,1,413,314
1,7,10,1,0,3,C,E,b,y,5,15,7001,1,3,436,319
1,7,10,1,0,3,C,E,b,y,5,15,7001,1,1,575,209
1,7,10,1,0,3,C,E,b,y,5,15,8001,1,1,187,244
1,7,10,1,0,3,C,E,b,y,5,15,8001,1,1,498,292
1,7,10,1,0,3,C,E,b,y,5,15,8001,1,3,563,182
1,7,10,1,0,3,C,E,b,y,5,15,8001,1,3,306,347
1,7,10,1,0,3,C,E,b,y,5,15,8001,1,3,349,447
1,7,10,1,0,3,C,E,b,y,5,15,8001,1,3,172,448
1,7,10,1,0,3,C,E,b,y,5,15,8001,1,1,370,497
1,7,10,1,0,3,C,E,b,y,5,15,9001,1,1,128,369
1,7,10,1,0,3,C,E,b,y,5,15,9001,1,1,352,327
1,7,10,1,0,3,C,E,b,y,5,15,9001,1,1,514,462
1,7,10,1,0,3,C,E,b,y,5,15,9001,1,3,433,210
1,7,10,1,0,3,C,E,b,y,5,15,9001,1,3,523,242
1,7,10,1,0,3,C,E,b,y,5,15,9001,1,3,634,217
1,7,10,1,0,3,C,E,b,y,5,15,10001,1,1,154,429
1,7,10,1,0,3,C,E,b,y,5,15,10001,1,1,137,351
1,7,10,1,0,3,C,E,b,y,5,15,10001,1,3,163,315
1,7,10,1,0,3,C,E,b,y,5,15,10001,1,3,172,354
1,7,10,1,0,3,C,E,b,y,5,15,10001,1,1,264,275
1,7,10,1,0,3,C,E,b,y,5,15,10001,1,3,275,229
1,7,10,1,0,3,C,E,b,y,5,15,10001,1,3,321,251
1,7,10,1,0,3,C,E,b,y,5,15,10001,1,1,451,292
1,7,10,1,0,3,C,E,b,y,5,15,10001,1,3,499,313
1,7,10,1,0,3,C,E,b,y,5,15,11001,1,3,145,394
1,7,10,1,0,3,C,E,b,y,5,15,11001,1,3,107,253
1,7,10,1,0,3,C,E,b,y,5,15,11001,1,3,133,196
1,7,10,1,0,3,C,E,b,y,5,15,11001,1,3,238,240
1,7,10,1,0,3,C,E,b,y,5,15,11001,1,1,184,257
1,7,10,1,0,3,C,E,b,y,5,15,11001,1,1,245,317
1,7,10,1,0,3,C,E,b,y,5,15,11001,1,1,244,418
1,7,10,1,0,3,C,E,b,y,5,15,11001,1,1,346,99
1,7,10,1,0,3,C,E,b,y,5,15,12001,1,1,310,35
1,7,10,1,0,3,C,E,b,y,5,15,12001,1,3,374,56
1,7,10,1,0,3,C,E,b,y,5,15,12001,1,1,401,243
1,7,10,1,0,3,C,E,b,y,5,15,12001,1,3,428,345
1,7,10,1,0,3,C,E,b,y,5,15,12001,1,3,408,389
1,7,10,1,0,3,C,E,b,y,5,15,12001,1,1,454,384
1,7,10,1,0,3,C,E,b,y,5,15,12001,1,3,600,407
1,7,10,1,0,3,C,E,b,y,5,15,12001,1,1,584,443
1,7,10,1,0,3,C,E,b,y,5,15,12001,1,3,605,455
1,7,10,1,0,3,C,E,b,y,5,15,13001,1,1,200,186
1,7,10,1,0,3,C,E,b,y,5,15,13001,1,1,222,307
1,7,10,1,0,3,C,E,b,y,5,15,13001,1,1,236,344
1,7,10,1,0,3,C,E,b,y,5,15,13001,1,3,263,359
1,7,10,1,0,3,C,E,b,y,5,15,13001,1,3,358,412
1,7,10,1,0,3,C,E,b,y,5,15,13001,1,3,367,447
1,7,10,1,0,3,C,E,b,y,5,15,13001,1,3,518,319
1,7,10,1,0,3,C,E,b,y,5,15,13001,1,3,468,252
1,7,10,1,0,3,C,E,b,y,5,15,13001,1,3,594,219
1,7,10,1,0,3,C,E,b,y,5,15,13001,1,3,596,257
1,7,10,1,0,3,C,E,b,y,5,15,13001,1,1,647,213
1,7,10,1,0,3,C,E,b,y,5,15,14001,1,3,104,247
1,7,10,1,0,3,C,E,b,y,5,15,14001,1,3,227,170
1,7,10,1,0,3,C,E,b,y,5,15,14001,1,1,224,124
1,7,10,1,0,3,C,E,b,y,5,15,14001,1,1,173,322
1,7,10,1,0,3,C,E,b,y,5,15,14001,1,1,363,302
1,7,10,1,0,3,C,E,b,y,5,15,14001,1,3,485,260
1,7,10,1,0,3,C,E,b,y,5,15,14001,1,3,560,230
1,7,10,1,0,3,C,E,b,y,5,15,14001,1,3,567,293
1,7,10,1,0,3,C,E,b,y,5,15,14001,1,3,586,278
1,7,10,1,0,3,C,E,b,y,5,15,14001,1,1,590,227
1,7,10,1,0,3,C,E,b,y,5,15,15001,1,1,373,57
1,7,10,1,0,3,C,E,b,y,5,15,15001,1,1,410,159
1,7,10,1,0,3,C,E,b,y,5,15,15001,1,3,481,110
1,7,10,1,0,3,C,E,b,y,5,15,15001,1,3,657,246
1,7,10,1,0,3,C,E,b,y,5,15,16001,1,1,474,128
1,7,10,1,0,3,C,E,b,y,5,15,16001,1,1,503,73
1,7,10,1,0,3,C,E,b,y,5,15,16001,1,3,281,141
1,7,10,1,0,3,C,E,b,y,5,15,16001,1,3,276,339
1,7,10,1,0,3,C,E,b,y,5,15,16001,1,3,394,438
1,7,10,1,0,3,C,E,b,y,5,15,16001,1,3,654,280
1,7,10,1,0,3,C,E,b,y,5,15,17001,1,3,131,418
1,7,10,1,0,3,C,E,b,y,5,15,17001,1,3,408,431
1,7,10,1,0,3,C,E,b,y,5,15,17001,1,3,462,392
1,7,10,1,0,3,C,E,b,y,5,15,17001,1,3,468,312
1,7,10,1,0,3,C,E,b,y,5,15,17001,1,1,602,164
1,7,10,1,0,3,C,E,b,y,5,15,18001,1,1,361,155
1,7,10,1,0,3,C,E,b,y,5,15,18001,1,3,515,377
1,7,10,1,0,3,C,E,b,y,5,15,18001,1,3,538,209
1,7,10,1,0,3,C,E,b,y,5,15,18001,1,1,633,329
1,7,10,1,0,3,C,E,b,y,5,15,19001,1,1,205,132
1,7,10,1,0,3,C,E,b,y,5,15,19001,1,1,325,199
1,7,10,1,0,3,C,E,b,y,5,15,19001,1,3,187,87
1,7,10,1,0,3,C,E,b,y,5,15,19001,1,3,147,310
1,7,10,1,0,3,C,E,b,y,5,15,19001,1,3,92,340
1,7,10,1,0,3,C,E,b,y,5,15,19001,1,3,330,285
1,7,10,1,0,3,C,E,b,y,5,15,19001,1,3,404,489
1,7,10,1,0,3,C,E,b,y,5,15,19001,1,1,442,527
1,7,10,1,0,3,C,E,b,y,5,15,20001,1,3,261,182
1,7,10,1,0,3,C,E,b,y,5,15,20001,1,1,220,311
1,7,10,1,0,3,C,E,b,y,5,15,20001,1,3,405,419
1,7,10,1,0,3,C,E,b,y,5,15,20001,1,1,527,449
1,7,10,1,0,3,C,E,b,y,5,15,20001,1,3,567,447
1,7,10,1,0,3,C,E,b,y,5,15,20001,1,3,641,315
1,7,10,1,0,3,C,E,b,y,5,15,21001,1,3,374,279
1,7,10,1,0,3,C,E,b,y,5,15,21001,1,3,329,480
1,7,10,1,0,3,C,E,b,y,5,15,21001,1,1,356,511
1,7,10,1,0,3,C,E,b,y,5,15,21001,1,1,532,363
1,7,10,1,0,3,C,E,b,y,5,15,21001,1,1,117,273
1,7,10,1,0,3,C,E,b,y,5,15,22001,1,1,148,195
1,7,10,1,0,3,C,E,b,y,5,15,22001,1,1,560,122
1,7,10,1,0,3,C,E,b,y,5,15,22001,1,3,539,179
1,7,10,1,0,3,C,E,b,y,5,15,22001,1,3,578,180
1,7,10,1,0,3,C,E,b,y,5,15,22001,1,3,199,375
1,7,10,1,0,3,C,E,b,y,5,15,22001,1,3,440,500
1,7,10,1,0,3,C,E,b,y,5,15,23001,1,1,415,73
1,7,10,1,0,3,C,E,b,y,5,15,23001,1,1,429,38
1,7,10,1,0,3,C,E,b,y,5,15,23001,1,3,515,171
1,7,10,1,0,3,C,E,b,y,5,15,23001,1,3,320,154
1,7,10,1,0,3,C,E,b,y,5,15,23001,1,3,286,195
1,7,10,1,0,3,C,E,b,y,5,15,24001,1,1,303,53
1,7,10,1,0,3,C,E,b,y,5,15,24001,1,1,520,226
1,7,10,1,0,3,C,E,b,y,5,15,24001,1,3,222,454
1,7,10,1,0,3,C,E,b,y,5,15,24001,1,3,489,188
1,7,10,1,0,3,C,E,b,y,5,15,24001,1,3,517,123
1,7,10,1,0,3,C,E,b,y,5,15,25001,1,1,220,110
1,7,10,1,0,3,C,E,b,y,5,15,25001,1,1,458,341
1,7,10,1,0,3,C,E,b,y,5,15,25001,1,3,498,394
1,7,10,1,0,3,C,E,b,y,5,15,25001,1,3,222,355
1,7,10,1,0,3,C,E,b,y,5,15,25001,1,3,131,434
1,7,10,1,0,3,C,E,b,y,5,15,26001,1,3,152,400
1,7,10,1,0,3,C,E,b,y,5,15,26001,1,3,479,459
1,7,10,1,0,3,C,E,b,y,5,15,26001,1,3,419,44
1,7,10,1,0,3,C,E,b,y,5,15,26001,1,3,176,89
1,7,10,1,0,3,C,E,b,y,5,15,26001,1,1,180,129
1,7,10,1,0,3,C,E,b,y,5,15,27001,1,1,116,334
1,7,10,1,0,3,C,E,b,y,5,15,27001,1,3,173,312
1,7,10,1,0,3,C,E,b,y,5,15,27001,1,3,341,77
1,7,10,1,0,3,C,E,b,y,5,15,27001,1,3,454,453
1,7,10,1,0,3,C,E,b,y,5,15,28001,1,1,134,360
1,7,10,1,0,3,C,E,b,y,5,15,28001,1,3,470,490
1,7,10,1,0,3,C,E,b,y,5,15,28001,1,3,572,183
1,7,10,1,0,3,C,E,b,y,5,15,29001,1,1,200,363
1,7,10,1,0,3,C,E,b,y,5,15,29001,1,3,433,493
1,7,10,1,0,3,C,E,b,y,5,15,29001,1,3,462,412
1,7,10,1,0,3,C,E,b,y,5,15,29001,1,3,514,504
1,7,10,1,0,3,C,E,b,y,5,15,30001,1,1,328,438
1,7,10,1,0,3,C,E,b,y,5,15,30001,1,3,343,402
1,7,10,1,0,3,C,E,b,y,5,15,30001,1,3,598,246
1,7,10,1,0,3,C,E,b,y,5,15,30001,1,3,396,136
1,7,10,1,0,3,C,E,b,y,5,15,30001,1,3,406,81
1,7,10,1,0,3,C,E,b,y,5,15,30001,1,1,440,115
1,7,10,1,0,3,C,E,b,y,5,15,31001,1,3,351,402
1,7,10,1,0,3,C,E,b,y,5,15,31001,1,3,548,362
1,7,10,1,0,3,C,E,b,y,5,15,31001,1,3,298,312
1,7,10,1,0,3,C,E,b,y,5,15,31001,1,1,259,252
1,7,10,1,0,3,C,E,b,y,5,15,31001,1,3,223,172
1,7,10,1,0,3,C,E,b,y,5,15,31001,1,3,269,144
1,7,10,1,0,3,C,E,b,y,5,15,32001,1,3,440,114
1,7,10,1,0,3,C,E,b,y,5,15,32001,1,3,237,91
1,7,10,1,0,3,C,E,b,y,5,15,32001,1,1,197,110
1,7,10,1,0,3,C,E,b,y,5,15,32001,1,3,308,331
1,7,10,1,0,3,C,E,b,y,5,15,32001,1,3,435,552
1,7,10,1,0,3,C,E,b,y,5,15,33001,1,1,376,69
1,7,10,1,0,3,C,E,b,y,5,15,33001,1,3,298,102
1,7,10,1,0,3,C,E,b,y,5,15,33001,1,3,304,338
1,7,10,1,0,3,C,E,b,y,5,15,34001,1,1,484,199
1,7,10,1,0,3,C,E,b,y,5,15,34001,1,3,431,147
1,7,10,1,0,3,C,E,b,y,5,15,34001,1,3,450,101
1,7,10,1,0,3,C,E,b,y,5,15,34001,1,3,508,132
1,7,10,1,0,3,C,E,b,y,5,15,34001,1,3,533,464
1,7,10,1,0,3,C,E,b,y,5,15,35001,1,1,436,470
1,7,10,1,0,3,C,E,b,y,5,15,35001,1,3,325,456
1,7,10,1,0,3,C,E,b,y,5,15,35001,1,3,135,370
1,7,10,1,0,3,C,E,b,y,5,15,35001,1,3,179,306
1,7,10,1,0,3,C,E,b,y,5,15,36001,1,3,124,200
1,7,10,1,0,3,C,E,b,y,5,15,36001,1,3,190,120
1,7,10,1,0,3,C,E,b,y,5,15,36001,1,1,372,308
1,7,10,1,0,3,C,E,b,y,5,15,36001,1,3,412,291
1,7,10,1,0,3,C,E,b,y,5,15,36001,1,3,431,330
1,7,10,1,0,3,C,E,b,y,5,15,36001,1,1,433,461
1,7,10,1,0,3,C,E,b,y,5,15,36001,1,3,407,506
1,7,10,1,0,3,C,E,b,y,5,15,36001,1,1,528,518
1,7,10,1,0,3,C,E,b,y,5,15,37001,1,1,208,457
1,7,10,1,0,3,C,E,b,y,5,15,37001,1,3,171,412
1,7,10,1,0,3,C,E,b,y,5,15,37001,1,3,182,369
1,7,10,1,0,3,C,E,b,y,5,15,37001,1,3,465,228
1,7,10,1,0,3,C,E,b,y,5,15,37001,1,1,525,372
1,7,10,1,0,3,C,E,b,y,5,15,37001,1,3,529,448
1,7,10,1,0,3,C,E,b,y,5,15,38001,1,1,282,72
1,7,10,1,0,3,C,E,b,y,5,15,38001,1,3,391,379
1,7,10,1,0,3,C,E,b,y,5,15,38001,1,3,256,443
1,7,10,1,0,3,C,E,b,y,5,15,38001,1,3,302,482
1,7,10,1,0,3,C,E,b,y,5,15,39001,1,1,433,60
1,7,10,1,0,3,C,E,b,y,5,15,39001,1,1,420,524
1,7,10,1,0,3,C,E,b,y,5,15,39001,1,3,424,563
1,7,10,1,0,3,C,E,b,y,5,15,40001,1,1,396,347
1,7,10,1,0,3,C,E,b,y,5,15,40001,1,1,406,238
1,7,10,1,0,3,C,E,b,y,5,15,40001,1,3,283,549
1,7,10,1,0,3,C,E,b,y,5,15,40001,1,3,369,260
1,7,10,1,0,3,C,E,b,y,5,15,40001,1,3,379,221
1,7,10,1,0,3,C,E,b,y,5,15,40001,1,3,322,222
1,7,10,1,0,3,C,E,b,y,5,15,40001,1,3,283,202
1,7,10,1,0,3,C,E,b,y,5,15,40001,1,3,414,126
1,7,10,1,0,3,C,E,b,y,5,15,40001,1,3,421,41
1,7,10,1,0,3,C,E,b,y,5,15,41001,1,1,235,187
1,7,10,1,0,3,C,E,b,y,5,15,41001,1,3,343,78
1,7,10,1,0,3,C,E,b,y,5,15,41001,1,3,385,97
1,7,10,1,0,3,C,E,b,y,5,15,41001,1,3,569,216
1,7,10,1,0,3,C,E,b,y,5,15,41001,1,3,403,536
1,7,10,1,0,3,C,E,b,y,5,15,41001,1,3,469,530
1,7,10,1,0,3,C,E,b,y,5,15,42001,1,3,457,541
1,7,10,1,0,3,C,E,b,y,5,15,42001,1,3,185,254
1,7,10,1,0,3,C,E,b,y,5,15,42001,1,3,168,181
1,7,10,1,0,3,C,E,b,y,5,15,42001,1,3,151,148
1,7,10,1,0,3,C,E,b,y,5,15,42001,1,1,133,170
1,7,10,1,0,3,C,E,b,y,5,15,42001,1,1,216,145
1,7,10,1,0,3,C,E,b,y,5,15,43001,1,3,179,438
1,7,10,1,0,3,C,E,b,y,5,15,43001,1,1,237,127
1,7,10,1,0,3,C,E,b,y,5,15,43001,1,3,510,254
1,7,10,1,0,3,C,E,b,y,5,15,44001,1,3,153,409
1,7,10,1,0,3,C,E,b,y,5,15,44001,1,3,212,239
1,7,10,1,0,3,C,E,b,y,5,15,44001,1,3,572,213
1,7,10,1,0,3,C,E,b,y,5,15,44001,1,3,400,494
1,7,10,1,0,3,C,E,b,y,5,15,44001,1,3,361,500
1,7,10,1,0,3,C,E,b,y,5,15,44001,1,3,403,521
1,7,10,1,0,3,C,E,b,y,5,15,44001,1,1,443,526
1,7,10,1,0,3,C,E,b,y,5,15,45001,1,1,565,463
1,7,10,1,0,3,C,E,b,y,5,15,45001,1,3,329,480
1,7,10,1,0,3,C,E,b,y,5,15,45001,1,3,317,534
1,7,10,1,0,3,C,E,b,y,5,15,45001,1,3,217,363
1,7,10,1,0,3,C,E,b,y,5,15,46001,1,1,439,155
1,7,10,1,0,3,C,E,b,y,5,15,46001,1,3,558,103
1,7,10,1,0,3,C,E,b,y,5,15,46001,1,3,576,430
1,7,10,1,0,3,C,E,b,y,5,15,46001,1,3,152,124
1,7,10,1,0,3,C,E,b,y,5,15,47001,1,3,166,445
1,7,10,1,0,3,C,E,b,y,5,15,47001,1,3,276,350
1,7,10,1,0,3,C,E,b,y,5,15,47001,1,3,271,199
1,7,10,1,0,3,C,E,b,y,5,15,47001,1,3,477,162
1,7,10,1,0,3,C,E,b,y,5,15,47001,1,3,532,190
1,7,10,1,0,3,C,E,b,y,5,15,48001,1,3,495,274
1,7,10,1,0,3,C,E,b,y,5,15,48001,1,3,572,165
1,7,10,1,0,3,C,E,b,y,5,15,48001,1,3,604,151
1,7,10,1,0,3,C,E,b,y,5,15,48001,1,3,619,220
1,7,10,1,0,3,C,E,b,y,5,15,48001,1,3,622,261
1,7,10,1,0,3,C,E,b,y,5,15,49001,1,3,206,188
1,7,10,1,0,3,C,E,b,y,5,15,49001,1,3,392,47
1,7,10,1,0,3,C,E,b,y,5,15,49001,1,1,316,185
1,7,10,1,0,3,C,E,b,y,5,15,49001,1,3,588,286
1,7,10,1,0,3,C,E,b,y,5,15,50001,1,1,311,300
1,7,10,1,0,3,C,E,b,y,5,15,50001,1,3,526,183
1,7,10,1,0,3,C,E,b,y,5,15,50001,1,3,541,111
1,7,10,1,0,3,C,E,b,y,5,15,51001,1,1,278,431
1,7,10,1,0,3,C,E,b,y,5,15,51001,1,3,181,182
1,7,10,1,0,3,C,E,b,y,5,15,51001,1,1,541,86
1,7,10,1,0,3,C,E,b,y,5,15,52001,1,1,212,254
1,7,10,1,0,3,C,E,b,y,5,15,52001,1,1,212,315
1,7,10,1,0,3,C,E,b,y,5,15,52001,1,3,464,39
1,7,10,1,0,3,C,E,b,y,5,15,52001,1,1,506,441
1,7,10,1,0,3,C,E,b,y,5,15,52001,1,3,537,471
1,7,10,1,0,3,C,E,b,y,5,15,52001,1,3,541,447
1,7,10,1,0,3,C,E,b,y,5,15,53001,1,1,161,325
1,7,10,1,0,3,C,E,b,y,5,15,53001,1,1,188,261
1,7,10,1,0,3,C,E,b,y,5,15,53001,1,3,412,313
1,7,10,1,0,3,C,E,b,y,5,15,53001,1,3,453,324
1,7,10,1,0,3,C,E,b,y,5,15,53001,1,3,485,558
1,7,10,1,0,3,C,E,b,y,5,15,54001,1,1,299,134
1,7,10,1,0,3,C,E,b,y,5,15,54001,1,3,336,157
1,7,10,1,0,3,C,E,b,y,5,15,54001,1,3,402,248
1,7,10,1,0,3,C,E,b,y,5,15,54001,1,1,282,406
1,7,10,1,0,3,C,E,b,y,5,15,54001,1,3,295,455
1,7,10,1,0,3,C,E,b,y,5,15,55001,1,3,541,87
1,7,10,1,0,3,C,E,b,y,5,15,55001,1,1,519,159
1,7,10,1,0,3,C,E,b,y,5,15,55001,1,1,563,303
1,7,10,1,0,3,C,E,b,y,5,15,55001,1,3,490,473
1,7,10,1,0,3,C,E,b,y,5,15,55001,1,3,303,314
1,7,10,1,0,3,C,E,b,y,5,15,55001,1,3,266,231
1,7,10,1,0,3,C,E,b,y,5,15,55001,1,3,242,312
1,7,10,1,0,3,C,E,b,y,5,15,56001,1,3,227,153
1,7,10,1,0,3,C,E,b,y,5,15,56001,1,1,223,205
1,7,10,1,0,3,C,E,b,y,5,15,56001,1,3,335,360
1,7,10,1,0,3,C,E,b,y,5,15,56001,1,3,331,421
1,7,10,1,0,3,C,E,b,y,5,15,56001,1,1,451,407
1,7,10,1,0,3,C,E,b,y,5,15,57001,1,1,144,158
1,7,10,1,0,3,C,E,b,y,5,15,57001,1,3,159,191
1,7,10,1,0,3,C,E,b,y,5,15,57001,1,3,133,219
1,7,10,1,0,3,C,E,b,y,5,15,57001,1,1,338,453
1,7,10,1,0,3,C,E,b,y,5,15,58001,1,1,227,410
1,7,10,1,0,3,C,E,b,y,5,15,58001,1,3,508,380
1,7,10,1,0,3,C,E,b,y,5,15,58001,1,1,570,200
1,7,10,1,0,3,C,E,b,y,5,15,59001,1,1,195,361
1,7,10,1,0,3,C,E,b,y,5,15,59001,1,3,392,153
1,7,10,1,0,3,C,E,b,y,5,15,59001,1,3,428,103
1,7,10,1,0,3,C,E,b,y,5,15,59001,1,3,431,560
1,7,10,1,0,3,C,E,b,y,5,15,59001,1,3,485,551
1,7,10,1,0,3,C,E,b,y,5,15,60001,1,3,149,363
1,7,10,1,0,3,C,E,b,y,5,15,60001,1,3,197,357
1,7,10,1,0,3,C,E,b,y,5,15,60001,1,1,223,241
1,7,10,1,0,3,C,E,b,y,5,15,60001,1,3,442,82
1,7,10,1,0,3,C,E,b,y,5,15,61001,1,1,227,192
1,7,10,1,0,3,C,E,b,y,5,15,61001,1,3,269,119
1,7,10,1,0,3,C,E,b,y,5,15,61001,1,3,523,307
1,7,10,1,0,3,C,E,b,y,5,15,62001,1,1,396,98
1,7,10,1,0,3,C,E,b,y,5,15,62001,1,3,461,17
1,7,10,1,0,3,C,E,b,y,5,15,62001,1,3,496,274
1,7,10,1,0,3,C,E,b,y,5,15,62001,1,3,501,332
1,7,10,1,0,3,C,E,b,y,5,15,62001,1,3,316,476
1,7,10,1,0,3,C,E,b,y,5,15,63001,1,3,206,245
1,7,10,1,0,3,C,E,b,y,5,15,63001,1,1,547,192
1,7,10,1,0,3,C,E,b,y,5,15,63001,1,3,588,201
1,7,10,1,0,3,C,E,b,y,5,15,64001,1,3,160,403
1,7,10,1,0,3,C,E,b,y,5,15,64001,1,3,236,92
1,7,10,1,0,3,C,E,b,y,5,15,64001,1,3,343,322
1,7,10,1,0,3,C,E,b,y,5,15,64001,1,3,458,202
1,7,10,1,0,3,C,E,b,y,5,15,64001,1,1,576,247
1,7,10,1,0,3,C,E,b,y,5,15,65001,1,1,492,184
1,7,10,1,0,3,C,E,b,y,5,15,65001,1,3,454,248
1,7,10,1,0,3,C,E,b,y,5,15,65001,1,3,454,388
1,7,10,1,0,3,C,E,b,y,5,15,65001,1,3,624,356
1,7,10,1,0,3,C,E,b,y,5,15,66001,1,3,417,135
1,7,10,1,0,3,C,E,b,y,5,15,66001,1,3,422,177
1,7,10,1,0,3,C,E,b,y,5,15,66001,1,1,423,334
1,7,10,1,0,3,C,E,b,y,5,15,66001,1,3,474,356
1,7,10,1,0,3,C,E,b,y,5,15,66001,1,3,642,395
1,7,10,1,0,3,C,E,b,y,5,15,67001,1,3,329,348
1,7,10,1,0,3,C,E,b,y,5,15,67001,1,1,282,360
1,7,10,1,0,3,C,E,b,y,5,15,68001,1,1,410,237
1,7,10,1,0,3,C,E,b,y,5,15,68001,1,3,276,388
1,7,10,1,0,3,C,E,b,y,5,15,69001,1,1,473,159
1,7,10,1,0,3,C,E,b,y,5,15,69001,1,3,495,110
1,7,10,1,0,3,C,E,b,y,5,15,69001,1,3,257,494
1,7,10,1,0,3,C,E,b,y,5,15,70001,1,1,301,220
1,7,10,1,0,3,C,E,b,y,5,15,70001,1,3,577,349
1,7,10,1,0,3,C,E,b,y,5,15,70001,1,3,614,375
1,7,10,1,0,3,C,E,b,y,5,15,71001,1,1,165,295
1,7,10,1,0,3,C,E,b,y,5,15,71001,1,3,442,109
1,7,10,1,0,3,C,E,b,y,5,15,72001,1,1,184,429
1,7,10,1,0,3,C,E,b,y,5,15,72001,1,3,86,335
1,7,10,1,0,3,C,E,b,y,5,15,73001,1,1,341,382
1,7,10,1,0,3,C,E,b,y,5,15,73001,1,3,305,83
1,7,10,1,0,3,C,E,b,y,5,15,74001,1,1,379,578
1,7,10,1,0,3,C,E,b,y,5,15,74001,1,1,448,501
1,7,10,1,0,3,C,E,b,y,5,15,75001,1,1,383,114
1,7,10,1,0,3,C,E,b,y,5,15,75001,1,1,515,140
1,7,10,1,0,3,C,E,b,y,5,15,75001,1,3,507,199
1,7,10,1,0,3,C,E,b,y,5,15,76001,1,1,311,39
1,7,10,1,0,3,C,E,b,y,5,15,76001,1,3,311,76
1,7,10,1,0,3,C,E,b,y,5,15,76001,1,1,384,538
1,7,10,1,0,3,C,E,b,y,5,15,76001,1,3,396,520
1,7,10,1,0,3,C,E,b,y,5,15,77001,1,1,227,85
1,7,10,1,0,3,C,E,b,y,5,15,77001,1,3,415,48
1,7,10,1,0,3,C,E,b,y,5,15,78001,1,1,203,118
1,7,10,1,0,3,C,E,b,y,5,15,78001,1,3,318,564
1,7,10,1,0,3,C,E,b,y,5,15,79001,1,1,193,213
1,7,10,1,0,3,C,E,b,y,5,15,79001,1,1,248,87
1,7,10,1,0,3,C,E,b,y,5,15,79001,1,3,268,41
1,7,10,1,0,3,C,E,b,y,5,15,80001,1,1,374,257
1,7,10,1,0,3,C,E,b,y,5,15,80001,1,1,592,276
1,7,10,1,0,3,C,E,b,y,5,15,80001,1,3,624,259
1,7,10,1,0,3,C,E,b,y,5,15,81001,1,1,372,185
1,7,10,1,0,3,C,E,b,y,5,15,81001,1,3,370,226
1,7,10,1,0,3,C,E,b,y,5,15,82001,1,1,264,120
1,7,10,1,0,3,C,E,b,y,5,15,82001,1,3,92,386
1,7,10,1,0,3,C,E,b,y,5,15,83001,1,1,437,63
1,7,10,1,0,3,C,E,b,y,5,15,83001,1,3,421,525
1,7,10,1,0,3,C,E,b,y,5,15,83001,1,3,479,535
1,7,10,1,0,3,C,E,b,y,5,15,84001,1,1,316,175
1,7,10,1,0,3,C,E,b,y,5,15,84001,1,3,326,104
1,7,10,1,0,3,C,E,b,y,5,15,84001,1,3,289,534
1,7,10,1,0,3,C,E,b,y,5,15,85001,1,1,319,414
1,7,10,1,0,3,C,E,b,y,5,15,85001,1,3,460,27
1,7,10,1,0,3,C,E,b,y,5,15,86001,1,1,243,420
1,7,10,1,0,3,C,E,b,y,5,15,86001,1,3,365,303
1,7,10,1,0,3,C,E,b,y,5,15,86001,1,3,168,118
1,7,10,1,0,3,C,E,b,y,5,15,86001,1,3,134,127
1,7,10,1,0,3,C,E,b,y,5,15,86001,1,1,154,150
1,7,10,1,0,3,C,E,b,y,5,15,87001,1,1,224,185
1,7,10,1,0,3,C,E,b,y,5,15,87001,1,3,579,180
1,7,10,1,0,3,C,E,b,y,5,15,88001,1,1,420,322
1,7,10,1,0,3,C,E,b,y,5,15,88001,1,3,415,275
1,7,10,1,0,3,C,E,b,y,5,15,88001,1,3,383,355
1,7,10,1,0,3,C,E,b,y,5,15,89001,1,1,195,217
1,7,10,1,0,3,C,E,b,y,5,15,89001,1,3,381,22
1,7,10,1,0,3,C,E,b,y,5,15,89001,1,3,532,80
1,7,10,1,0,3,C,E,b,y,5,15,90001,1,1,207,329
1,7,10,1,0,3,C,E,b,y,5,15,90001,1,1,276,78
1,7,10,1,0,3,C,E,b,y,5,15,90001,1,3,276,43
1,7,10,1,0,3,C,E,b,y,5,15,90001,1,3,298,63
1,7,10,1,0,3,C,E,b,y,5,15,91001,1,1,145,285
1,7,10,1,0,3,C,E,b,y,5,15,91001,1,3,121,331
1,7,10,1,0,3,C,E,b,y,5,15,91001,1,3,467,123
1,7,10,1,0,3,C,E,b,y,5,15,91001,1,1,550,109
1,7,10,1,0,3,C,E,b,y,5,15,93001,1,3,358,499
1,7,10,1,0,3,C,E,b,y,5,15,93001,1,3,387,494
1,7,10,1,0,3,C,E,b,y,5,15,93001,1,3,394,469
1,7,10,1,0,3,C,E,b,y,5,15,94001,1,3,277,510
1,7,10,1,0,3,C,E,b,y,5,15,94001,1,1,328,505
1,7,10,1,0,3,C,E,b,y,5,15,95001,1,3,287,503
1,7,10,1,0,3,C,E,b,y,5,15,95001,1,3,561,316
1,7,10,1,0,3,C,E,b,y,5,15,95001,1,1,421,171
1,7,10,1,0,3,C,E,b,y,5,15,95001,1,3,370,107
1,7,10,1,0,3,C,E,b,y,5,15,95001,1,3,308,16
1,7,10,1,0,3,C,E,b,y,5,15,96001,1,3,213,168
1,7,10,1,0,3,C,E,b,y,5,15,97001,1,3,417,264
1,7,10,1,0,3,C,E,b,y,5,15,97001,1,3,223,113
1,7,10,1,0,3,C,E,b,y,5,15,98001,1,3,548,168
1,7,10,1,0,3,C,E,b,y,5,15,98001,1,3,616,355
1,7,10,1,0,3,C,E,b,y,5,15,99001,1,3,261,316
1,7,10,1,0,3,C,E,b,y,5,15,99001,1,3,342,375
1,7,10,1,0,3,C,E,b,y,5,15,100001,1,3,336,226
1,7,10,1,0,3,C,E,b,y,5,15,101001,1,3,481,132
1,7,10,1,0,3,C,E,b,y,5,15,102001,1,3,285,35
1,7,10,1,0,3,C,E,b,y,5,15,103001,1,3,511,229
1,7,10,1,0,3,C,E,b,y,5,15,104001,1,3,460,343
1,7,10,1,0,3,C,E,b,y,5,15,104001,1,3,359,499
1,7,10,1,0,3,C,E,b,y,5,15,104001,1,3,337,521
1,7,10,1,0,3,C,E,b,y,5,15,104001,1,3,125,431
1,7,10,1,0,3,C,E,b,y,5,15,104001,1,1,499,332
1,7,10,1,0,3,C,E,b,y,5,15,105001,1,1,501,315
1,7,10,1,0,3,C,E,b,y,5,15,105001,1,3,467,289
1,7,10,1,0,3,C,E,b,y,5,15,105001,1,3,527,197
1,7,10,1,0,3,C,E,b,y,5,15,105001,1,3,571,188
1,7,10,1,0,3,C,E,b,y,5,15,106001,1,3,291,369
1,7,10,1,0,3,C,E,b,y,5,15,106001,1,3,265,352
1,7,10,1,0,3,C,E,b,y,5,15,106001,1,3,215,322
1,7,10,1,0,3,C,E,b,y,5,15,106001,1,3,518,231
1,7,10,1,0,3,C,E,b,y,5,15,106001,1,1,450,25
1,7,10,1,0,3,C,E,b,y,5,15,107001,1,1,461,196
1,7,10,1,0,3,C,E,b,y,5,15,107001,1,3,362,472
1,7,10,1,0,3,C,E,b,y,5,15,107001,1,3,313,479
1,7,10,1,0,3,C,E,b,y,5,15,107001,1,3,256,462
