dummy,month,day,period,view,station,fgeno,mgeno,fcol,mcol,nf,nm,frame,something,sex,x,y
1,7,10,1,2,3,C,E,b,y,5,15,1,1,3,631,209
1,7,10,1,2,3,C,E,b,y,5,15,1001,1,3,486,447
1,7,10,1,2,3,C,E,b,y,5,15,2001,1,3,137,288
1,7,10,1,2,3,C,E,b,y,5,15,6001,1,3,163,149
1,7,10,1,2,3,C,E,b,y,5,15,7001,1,3,465,102
1,7,10,1,2,3,C,E,b,y,5,15,8001,1,3,195,478
1,7,10,1,2,3,C,E,b,y,5,15,8001,1,3,223,457
1,7,10,1,2,3,C,E,b,y,5,15,10001,1,3,394,540
1,7,10,1,2,3,C,E,b,y,5,15,12001,1,3,340,66
1,7,10,1,2,3,C,E,b,y,5,15,12001,1,3,405,553
1,7,10,1,2,3,C,E,b,y,5,15,13001,1,3,363,72
1,7,10,1,2,3,C,E,b,y,5,15,14001,1,3,326,527
1,7,10,1,2,3,C,E,b,y,5,15,15001,1,3,250,217
1,7,10,1,2,3,C,E,b,y,5,15,15001,1,1,299,245
1,7,10,1,2,3,C,E,b,y,5,15,16001,1,3,147,200
1,7,10,1,2,3,C,E,b,y,5,15,16001,1,1,197,262
1,7,10,1,2,3,C,E,b,y,5,15,17001,1,3,212,273
1,7,10,1,2,3,C,E,b,y,5,15,17001,1,1,220,235
1,7,10,1,2,3,C,E,b,y,5,15,18001,1,3,193,175
1,7,10,1,2,3,C,E,b,y,5,15,19001,1,3,430,221
1,7,10,1,2,3,C,E,b,y,5,15,20001,1,3,522,436
1,7,10,1,2,3,C,E,b,y,5,15,21001,1,3,514,385
1,7,10,1,2,3,C,E,b,y,5,15,22001,1,3,402,58
1,7,10,1,2,3,C,E,b,y,5,15,23001,1,3,483,424
1,7,10,1,2,3,C,E,b,y,5,15,25001,1,3,543,314
1,7,10,1,2,3,C,E,b,y,5,15,25001,1,3,392,583
1,7,10,1,2,3,C,E,b,y,5,15,26001,1,3,619,375
1,7,10,1,2,3,C,E,b,y,5,15,27001,1,3,531,269
1,7,10,1,2,3,C,E,b,y,5,15,27001,1,3,431,166
1,7,10,1,2,3,C,E,b,y,5,15,27001,1,3,487,531
1,7,10,1,2,3,C,E,b,y,5,15,28001,1,3,143,198
1,7,10,1,2,3,C,E,b,y,5,15,30001,1,3,372,493
1,7,10,1,2,3,C,E,b,y,5,15,31001,1,3,507,486
1,7,10,1,2,3,C,E,b,y,5,15,31001,1,1,429,523
1,7,10,1,2,3,C,E,b,y,5,15,32001,1,3,562,404
1,7,10,1,2,3,C,E,b,y,5,15,33001,1,3,242,518
1,7,10,1,2,3,C,E,b,y,5,15,35001,1,3,109,287
1,7,10,1,2,3,C,E,b,y,5,15,36001,1,3,157,326
1,7,10,1,2,3,C,E,b,y,5,15,37001,1,3,109,208
1,7,10,1,2,3,C,E,b,y,5,15,38001,1,3,535,179
1,7,10,1,2,3,C,E,b,y,5,15,39001,1,3,274,51
1,7,10,1,2,3,C,E,b,y,5,15,40001,1,3,130,405
1,7,10,1,2,3,C,E,b,y,5,15,41001,1,3,121,246
1,7,10,1,2,3,C,E,b,y,5,15,42001,1,3,396,408
1,7,10,1,2,3,C,E,b,y,5,15,45001,1,3,330,326
1,7,10,1,2,3,C,E,b,y,5,15,45001,1,1,494,293
1,7,10,1,2,3,C,E,b,y,5,15,45001,1,1,416,140
1,7,10,1,2,3,C,E,b,y,5,15,45001,1,3,286,48
1,7,10,1,2,3,C,E,b,y,5,15,46001,1,1,591,296
1,7,10,1,2,3,C,E,b,y,5,15,47001,1,1,584,296
1,7,10,1,2,3,C,E,b,y,5,15,48001,1,1,556,330
1,7,10,1,2,3,C,E,b,y,5,15,49001,1,1,512,386
1,7,10,1,2,3,C,E,b,y,5,15,49001,1,3,467,299
1,7,10,1,2,3,C,E,b,y,5,15,50001,1,1,396,360
1,7,10,1,2,3,C,E,b,y,5,15,50001,1,3,104,271
1,7,10,1,2,3,C,E,b,y,5,15,51001,1,1,297,447
1,7,10,1,2,3,C,E,b,y,5,15,52001,1,1,334,449
1,7,10,1,2,3,C,E,b,y,5,15,52001,1,3,461,462
1,7,10,1,2,3,C,E,b,y,5,15,53001,1,1,305,510
1,7,10,1,2,3,C,E,b,y,5,15,54001,1,1,342,413
1,7,10,1,2,3,C,E,b,y,5,15,54001,1,3,564,109
1,7,10,1,2,3,C,E,b,y,5,15,55001,1,1,316,435
1,7,10,1,2,3,C,E,b,y,5,15,55001,1,3,271,215
1,7,10,1,2,3,C,E,b,y,5,15,55001,1,3,201,189
1,7,10,1,2,3,C,E,b,y,5,15,55001,1,3,463,46
1,7,10,1,2,3,C,E,b,y,5,15,56001,1,1,245,326
1,7,10,1,2,3,C,E,b,y,5,15,56001,1,3,315,133
1,7,10,1,2,3,C,E,b,y,5,15,56001,1,3,354,152
1,7,10,1,2,3,C,E,b,y,5,15,57001,1,1,443,166
1,7,10,1,2,3,C,E,b,y,5,15,57001,1,3,499,155
1,7,10,1,2,3,C,E,b,y,5,15,58001,1,1,568,255
1,7,10,1,2,3,C,E,b,y,5,15,58001,1,3,622,190
1,7,10,1,2,3,C,E,b,y,5,15,59001,1,1,414,89
1,7,10,1,2,3,C,E,b,y,5,15,60001,1,1,300,81
1,7,10,1,2,3,C,E,b,y,5,15,60001,1,3,442,313
1,7,10,1,2,3,C,E,b,y,5,15,61001,1,1,209,150
1,7,10,1,2,3,C,E,b,y,5,15,61001,1,3,467,333
1,7,10,1,2,3,C,E,b,y,5,15,61001,1,3,625,226
1,7,10,1,2,3,C,E,b,y,5,15,62001,1,1,167,205
1,7,10,1,2,3,C,E,b,y,5,15,62001,1,3,203,195
1,7,10,1,2,3,C,E,b,y,5,15,63001,1,1,125,228
1,7,10,1,2,3,C,E,b,y,5,15,63001,1,3,152,148
1,7,10,1,2,3,C,E,b,y,5,15,64001,1,1,148,200
1,7,10,1,2,3,C,E,b,y,5,15,64001,1,3,516,388
1,7,10,1,2,3,C,E,b,y,5,15,65001,1,1,257,147
1,7,10,1,2,3,C,E,b,y,5,15,65001,1,3,454,77
1,7,10,1,2,3,C,E,b,y,5,15,66001,1,1,143,179
1,7,10,1,2,3,C,E,b,y,5,15,66001,1,3,599,241
1,7,10,1,2,3,C,E,b,y,5,15,67001,1,1,126,267
1,7,10,1,2,3,C,E,b,y,5,15,67001,1,3,567,436
1,7,10,1,2,3,C,E,b,y,5,15,68001,1,1,145,219
1,7,10,1,2,3,C,E,b,y,5,15,68001,1,3,488,539
1,7,10,1,2,3,C,E,b,y,5,15,69001,1,1,277,338
1,7,10,1,2,3,C,E,b,y,5,15,69001,1,3,316,47
1,7,10,1,2,3,C,E,b,y,5,15,70001,1,1,282,548
1,7,10,1,2,3,C,E,b,y,5,15,70001,1,3,186,224
1,7,10,1,2,3,C,E,b,y,5,15,70001,1,1,599,284
1,7,10,1,2,3,C,E,b,y,5,15,70001,1,3,594,246
1,7,10,1,2,3,C,E,b,y,5,15,70001,1,3,626,265
1,7,10,1,2,3,C,E,b,y,5,15,71001,1,1,448,433
1,7,10,1,2,3,C,E,b,y,5,15,71001,1,1,485,359
1,7,10,1,2,3,C,E,b,y,5,15,71001,1,3,510,305
1,7,10,1,2,3,C,E,b,y,5,15,71001,1,3,504,469
1,7,10,1,2,3,C,E,b,y,5,15,71001,1,3,467,487
1,7,10,1,2,3,C,E,b,y,5,15,72001,1,1,221,330
1,7,10,1,2,3,C,E,b,y,5,15,72001,1,3,226,293
1,7,10,1,2,3,C,E,b,y,5,15,72001,1,3,290,386
1,7,10,1,2,3,C,E,b,y,5,15,72001,1,1,365,355
1,7,10,1,2,3,C,E,b,y,5,15,72001,1,3,394,337
1,7,10,1,2,3,C,E,b,y,5,15,73001,1,1,233,252
1,7,10,1,2,3,C,E,b,y,5,15,73001,1,3,260,108
1,7,10,1,2,3,C,E,b,y,5,15,73001,1,3,624,329
1,7,10,1,2,3,C,E,b,y,5,15,74001,1,1,397,79
1,7,10,1,2,3,C,E,b,y,5,15,74001,1,3,560,183
1,7,10,1,2,3,C,E,b,y,5,15,75001,1,1,280,234
1,7,10,1,2,3,C,E,b,y,5,15,75001,1,3,265,205
1,7,10,1,2,3,C,E,b,y,5,15,75001,1,3,436,148
1,7,10,1,2,3,C,E,b,y,5,15,76001,1,1,151,179
1,7,10,1,2,3,C,E,b,y,5,15,76001,1,3,207,119
1,7,10,1,2,3,C,E,b,y,5,15,77001,1,1,273,143
1,7,10,1,2,3,C,E,b,y,5,15,77001,1,3,365,73
1,7,10,1,2,3,C,E,b,y,5,15,77001,1,3,465,41
1,7,10,1,2,3,C,E,b,y,5,15,78001,1,1,418,217
1,7,10,1,2,3,C,E,b,y,5,15,79001,1,1,189,414
1,7,10,1,2,3,C,E,b,y,5,15,79001,1,1,506,244
1,7,10,1,2,3,C,E,b,y,5,15,79001,1,3,449,228
1,7,10,1,2,3,C,E,b,y,5,15,79001,1,3,481,199
1,7,10,1,2,3,C,E,b,y,5,15,80001,1,1,141,231
1,7,10,1,2,3,C,E,b,y,5,15,80001,1,3,313,67
1,7,10,1,2,3,C,E,b,y,5,15,80001,1,3,491,316
1,7,10,1,2,3,C,E,b,y,5,15,80001,1,3,624,332
1,7,10,1,2,3,C,E,b,y,5,15,80001,1,3,510,466
1,7,10,1,2,3,C,E,b,y,5,15,81001,1,1,345,68
1,7,10,1,2,3,C,E,b,y,5,15,81001,1,3,172,129
1,7,10,1,2,3,C,E,b,y,5,15,82001,1,1,538,167
1,7,10,1,2,3,C,E,b,y,5,15,82001,1,1,397,473
1,7,10,1,2,3,C,E,b,y,5,15,82001,1,3,324,524
1,7,10,1,2,3,C,E,b,y,5,15,83001,1,1,277,436
1,7,10,1,2,3,C,E,b,y,5,15,83001,1,1,561,309
1,7,10,1,2,3,C,E,b,y,5,15,83001,1,3,259,404
1,7,10,1,2,3,C,E,b,y,5,15,83001,1,3,133,249
1,7,10,1,2,3,C,E,b,y,5,15,84001,1,1,463,305
1,7,10,1,2,3,C,E,b,y,5,15,84001,1,3,527,286
1,7,10,1,2,3,C,E,b,y,5,15,84001,1,3,497,192
1,7,10,1,2,3,C,E,b,y,5,15,84001,1,3,209,267
1,7,10,1,2,3,C,E,b,y,5,15,85001,1,1,503,103
1,7,10,1,2,3,C,E,b,y,5,15,85001,1,3,249,429
1,7,10,1,2,3,C,E,b,y,5,15,86001,1,1,199,150
1,7,10,1,2,3,C,E,b,y,5,15,86001,1,1,335,77
1,7,10,1,2,3,C,E,b,y,5,15,86001,1,3,296,66
1,7,10,1,2,3,C,E,b,y,5,15,86001,1,3,620,320
1,7,10,1,2,3,C,E,b,y,5,15,86001,1,3,344,531
1,7,10,1,2,3,C,E,b,y,5,15,87001,1,1,233,201
1,7,10,1,2,3,C,E,b,y,5,15,87001,1,1,560,145
1,7,10,1,2,3,C,E,b,y,5,15,87001,1,3,521,132
1,7,10,1,2,3,C,E,b,y,5,15,87001,1,3,578,122
1,7,10,1,2,3,C,E,b,y,5,15,88001,1,1,562,329
1,7,10,1,2,3,C,E,b,y,5,15,88001,1,1,158,162
1,7,10,1,2,3,C,E,b,y,5,15,88001,1,3,370,131
1,7,10,1,2,3,C,E,b,y,5,15,88001,1,3,573,229
1,7,10,1,2,3,C,E,b,y,5,15,88001,1,3,552,297
1,7,10,1,2,3,C,E,b,y,5,15,89001,1,1,153,328
1,7,10,1,2,3,C,E,b,y,5,15,89001,1,1,157,454
1,7,10,1,2,3,C,E,b,y,5,15,89001,1,3,172,501
1,7,10,1,2,3,C,E,b,y,5,15,90001,1,1,252,398
1,7,10,1,2,3,C,E,b,y,5,15,90001,1,1,138,327
1,7,10,1,2,3,C,E,b,y,5,15,90001,1,3,132,247
1,7,10,1,2,3,C,E,b,y,5,15,91001,1,1,391,309
1,7,10,1,2,3,C,E,b,y,5,15,91001,1,1,517,330
1,7,10,1,2,3,C,E,b,y,5,15,91001,1,3,482,296
1,7,10,1,2,3,C,E,b,y,5,15,91001,1,3,333,306
1,7,10,1,2,3,C,E,b,y,5,15,92001,1,1,503,285
1,7,10,1,2,3,C,E,b,y,5,15,92001,1,3,472,271
1,7,10,1,2,3,C,E,b,y,5,15,92001,1,1,219,266
1,7,10,1,2,3,C,E,b,y,5,15,92001,1,3,214,301
1,7,10,1,2,3,C,E,b,y,5,15,92001,1,3,181,291
1,7,10,1,2,3,C,E,b,y,5,15,93001,1,1,425,355
1,7,10,1,2,3,C,E,b,y,5,15,93001,1,3,286,557
1,7,10,1,2,3,C,E,b,y,5,15,93001,1,3,468,175
1,7,10,1,2,3,C,E,b,y,5,15,93001,1,3,368,139
1,7,10,1,2,3,C,E,b,y,5,15,93001,1,1,385,128
1,7,10,1,2,3,C,E,b,y,5,15,94001,1,1,384,219
1,7,10,1,2,3,C,E,b,y,5,15,94001,1,3,363,297
1,7,10,1,2,3,C,E,b,y,5,15,95001,1,1,565,295
1,7,10,1,2,3,C,E,b,y,5,15,95001,1,3,567,381
1,7,10,1,2,3,C,E,b,y,5,15,96001,1,1,487,191
1,7,10,1,2,3,C,E,b,y,5,15,96001,1,3,436,226
1,7,10,1,2,3,C,E,b,y,5,15,96001,1,3,447,129
1,7,10,1,2,3,C,E,b,y,5,15,97001,1,1,317,225
1,7,10,1,2,3,C,E,b,y,5,15,98001,1,1,272,388
1,7,10,1,2,3,C,E,b,y,5,15,98001,1,1,546,160
1,7,10,1,2,3,C,E,b,y,5,15,99001,1,1,150,364
1,7,10,1,2,3,C,E,b,y,5,15,99001,1,3,157,410
1,7,10,1,2,3,C,E,b,y,5,15,99001,1,3,187,372
1,7,10,1,2,3,C,E,b,y,5,15,99001,1,3,273,490
1,7,10,1,2,3,C,E,b,y,5,15,100001,1,1,171,191
1,7,10,1,2,3,C,E,b,y,5,15,100001,1,1,343,83
1,7,10,1,2,3,C,E,b,y,5,15,100001,1,3,380,56
1,7,10,1,2,3,C,E,b,y,5,15,100001,1,3,472,112
1,7,10,1,2,3,C,E,b,y,5,15,101001,1,1,380,166
1,7,10,1,2,3,C,E,b,y,5,15,101001,1,3,216,178
1,7,10,1,2,3,C,E,b,y,5,15,102001,1,1,255,353
1,7,10,1,2,3,C,E,b,y,5,15,102001,1,1,239,208
1,7,10,1,2,3,C,E,b,y,5,15,102001,1,1,218,457
1,7,10,1,2,3,C,E,b,y,5,15,102001,1,3,239,490
1,7,10,1,2,3,C,E,b,y,5,15,102001,1,3,247,443
1,7,10,1,2,3,C,E,b,y,5,15,103001,1,1,179,226
1,7,10,1,2,3,C,E,b,y,5,15,103001,1,1,226,172
1,7,10,1,2,3,C,E,b,y,5,15,103001,1,3,132,323
1,7,10,1,2,3,C,E,b,y,5,15,103001,1,3,517,508
1,7,10,1,2,3,C,E,b,y,5,15,103001,1,3,499,76
1,7,10,1,2,3,C,E,b,y,5,15,104001,1,1,261,300
1,7,10,1,2,3,C,E,b,y,5,15,104001,1,3,202,318
1,7,10,1,2,3,C,E,b,y,5,15,104001,1,3,214,286
1,7,10,1,2,3,C,E,b,y,5,15,104001,1,1,455,111
1,7,10,1,2,3,C,E,b,y,5,15,105001,1,1,385,509
1,7,10,1,2,3,C,E,b,y,5,15,105001,1,3,392,464
1,7,10,1,2,3,C,E,b,y,5,15,105001,1,3,509,276
1,7,10,1,2,3,C,E,b,y,5,15,105001,1,3,552,249
1,7,10,1,2,3,C,E,b,y,5,15,105001,1,1,542,298
1,7,10,1,2,3,C,E,b,y,5,15,106001,1,1,138,400
1,7,10,1,2,3,C,E,b,y,5,15,106001,1,1,563,406
1,7,10,1,2,3,C,E,b,y,5,15,106001,1,3,483,111
1,7,10,1,2,3,C,E,b,y,5,15,107001,1,1,160,198
1,7,10,1,2,3,C,E,b,y,5,15,107001,1,1,500,448
