dummy,month,day,period,view,station,fgeno,mgeno,fcol,mcol,nf,nm,frame,something,sex,x,y
1,6,17,1,2,3,C,F,b,y,5,15,1001,1,3,341.9634,31.0816
1,6,17,1,2,3,C,F,b,y,5,15,1001,1,1,299.9371,35.5844
1,6,17,1,2,3,C,F,b,y,5,15,2001,1,3,508.5675,248.7176
1,6,17,1,2,3,C,F,b,y,5,15,3001,1,3,157.348,157.1604
1,6,17,1,2,3,C,F,b,y,5,15,3001,1,1,130.3311,223.2017
1,6,17,1,2,3,C,F,b,y,5,15,4001,1,3,194.8715,172.1698
1,6,17,1,2,3,C,F,b,y,5,15,5001,1,3,457.5356,392.8077
1,6,17,1,2,3,C,F,b,y,5,15,5001,1,1,496.56,430.3311
1,6,17,1,2,3,C,F,b,y,5,15,6001,1,3,73.2955,275.7345
1,6,17,1,2,3,C,F,b,y,5,15,7001,1,3,274.4212,554.909
1,6,17,1,2,3,C,F,b,y,5,15,8001,1,3,71.7946,250.2186
1,6,17,1,2,3,C,F,b,y,5,15,9001,1,3,495.0591,94.121
1,6,17,1,2,3,C,F,b,y,5,15,9001,1,3,140.8377,113.6332
1,6,17,1,2,3,C,F,b,y,5,15,10001,1,3,565.6032,218.6989
1,6,17,1,2,3,C,F,b,y,5,15,10001,1,1,549.0929,173.6707
1,6,17,1,2,3,C,F,b,y,5,15,11001,1,3,190.3687,212.6951
1,6,17,1,2,3,C,F,b,y,5,15,11001,1,1,194.8715,175.1717
1,6,17,1,2,3,C,F,b,y,5,15,12001,1,3,453.0328,229.2054
1,6,17,1,2,3,C,F,b,y,5,15,12001,1,3,555.0966,329.7683
1,6,17,1,2,3,C,F,b,y,5,15,12001,1,3,568.6051,385.303
1,6,17,1,2,3,C,F,b,y,5,15,12001,1,3,592.6201,409.318
1,6,17,1,2,3,C,F,b,y,5,15,13001,1,3,418.5113,49.0929
1,6,17,1,2,3,C,F,b,y,5,15,13001,1,3,498.061,421.3255
1,6,17,1,2,3,C,F,b,y,5,15,13001,1,3,543.0891,542.9015
1,6,17,1,2,3,C,F,b,y,5,15,14001,1,3,403.5019,365.7908
1,6,17,1,2,3,C,F,b,y,5,15,15001,1,3,429.0178,553.4081
1,6,17,1,2,3,C,F,b,y,5,15,16001,1,3,414.0084,319.2617
1,6,17,1,2,3,C,F,b,y,5,15,16001,1,3,233.8959,103.1266
1,6,17,1,2,3,C,F,b,y,5,15,16001,1,3,245.9034,68.6051
1,6,17,1,2,3,C,F,b,y,5,15,16001,1,1,256.4099,113.6332
1,6,17,1,2,3,C,F,b,y,5,15,16001,1,1,368.9803,319.2617
1,6,17,1,2,3,C,F,b,y,5,15,17001,1,3,514.5713,247.2167
1,6,17,1,2,3,C,F,b,y,5,15,17001,1,1,528.0797,292.2448
1,6,17,1,2,3,C,F,b,y,5,15,17001,1,1,499.5619,314.7589
1,6,17,1,2,3,C,F,b,y,5,15,18001,1,3,130.3311,128.6426
1,6,17,1,2,3,C,F,b,y,5,15,18001,1,3,265.4156,554.909
1,6,17,1,2,3,C,F,b,y,5,15,19001,1,3,480.0497,61.1004
1,6,17,1,2,3,C,F,b,y,5,15,19001,1,1,474.046,16.0722
1,6,17,1,2,3,C,F,b,y,5,15,23001,1,3,94.3086,389.8058
1,6,17,1,2,3,C,F,b,y,5,15,23001,1,2,355.4719,7.0666
1,6,17,1,2,3,C,F,b,y,5,15,24001,1,3,131.8321,284.7402
1,6,17,1,2,3,C,F,b,y,5,15,24001,1,3,151.3443,278.7364
1,6,17,1,2,3,C,F,b,y,5,15,24001,1,1,197.8734,304.2523
1,6,17,1,2,3,C,F,b,y,5,15,27001,1,3,235.3968,533.8959
1,6,17,1,2,3,C,F,b,y,5,15,32001,1,3,436.5225,509.8809
1,6,17,1,2,3,C,F,b,y,5,15,34001,1,3,604.6276,187.1792
1,6,17,1,2,3,C,F,b,y,5,15,37001,1,3,233.8959,46.091
1,6,17,1,2,3,C,F,b,y,5,15,39001,1,3,505.5657,197.6857
1,6,17,1,2,3,C,F,b,y,5,15,39001,1,3,248.9053,346.2786
1,6,17,1,2,3,C,F,b,y,5,15,41001,1,3,556.5976,85.1154
1,6,17,1,2,3,C,F,b,y,5,15,43001,1,3,197.8734,137.6482
1,6,17,1,2,3,C,F,b,y,5,15,44001,1,3,296.9353,226.2036
1,6,17,1,2,3,C,F,b,y,5,15,45001,1,3,408.0047,53.5957
1,6,17,1,2,3,C,F,b,y,5,15,46001,1,3,308.9428,46.091
1,6,17,1,2,3,C,F,b,y,5,15,48001,1,3,202.3762,104.6276
1,6,17,1,2,3,C,F,b,y,5,15,50001,1,3,344.9653,35.5844
1,6,17,1,2,3,C,F,b,y,5,15,50001,1,3,295.4343,16.0722
1,6,17,1,2,3,C,F,b,y,5,15,50001,1,1,310.4437,575.9221
1,6,17,1,2,3,C,F,b,y,5,15,51001,1,3,176.8602,163.1642
1,6,17,1,2,3,C,F,b,y,5,15,51001,1,3,361.4756,34.0835
1,6,17,1,2,3,C,F,b,y,5,15,51001,1,3,442.5263,5.5657
1,6,17,1,2,3,C,F,b,y,5,15,51001,1,1,456.0347,62.6013
1,6,17,1,2,3,C,F,b,y,5,15,52001,1,3,510.0685,481.363
1,6,17,1,2,3,C,F,b,y,5,15,53001,1,1,616.6351,385.303
1,6,17,1,2,3,C,F,b,y,5,15,53001,1,2,308.9428,7.0666
1,6,17,1,2,3,C,F,b,y,5,15,55001,1,3,532.5826,67.1041
1,6,17,1,2,3,C,F,b,y,5,15,55001,1,3,280.425,13.0704
1,6,17,1,2,3,C,F,b,y,5,15,56001,1,3,597.1229,212.6951
1,6,17,1,2,3,C,F,b,y,5,15,57001,1,3,501.0629,124.1398
1,6,17,1,2,3,C,F,b,y,5,15,57001,1,3,349.4681,152.6576
1,6,17,1,2,3,C,F,b,y,5,15,59001,1,3,130.3311,274.2336
1,6,17,1,2,3,C,F,b,y,5,15,59001,1,1,128.8302,203.6895
1,6,17,1,2,3,C,F,b,y,5,15,60001,1,3,462.0385,400.3124
1,6,17,1,2,3,C,F,b,y,5,15,61001,1,3,265.4156,310.2561
1,6,17,1,2,3,C,F,b,y,5,15,61001,1,3,531.0816,482.864
1,6,17,1,2,3,C,F,b,y,5,15,61001,1,1,591.1191,458.849
1,6,17,1,2,3,C,F,b,y,5,15,61001,1,3,386.9916,38.5863
1,6,17,1,2,3,C,F,b,y,5,15,62001,1,3,287.9296,49.0929
1,6,17,1,2,3,C,F,b,y,5,15,62001,1,3,233.8959,235.2092
1,6,17,1,2,3,C,F,b,y,5,15,63001,1,3,80.8002,214.1961
1,6,17,1,2,3,C,F,b,y,5,15,64001,1,3,429.0178,475.3593
1,6,17,1,2,3,C,F,b,y,5,15,66001,1,3,553.5957,166.166
1,6,17,1,2,3,C,F,b,y,5,15,66001,1,3,553.5957,118.136
1,6,17,1,2,3,C,F,b,y,5,15,66001,1,3,586.6163,167.667
1,6,17,1,2,3,C,F,b,y,5,15,66001,1,1,546.091,196.1848
1,6,17,1,2,3,C,F,b,y,5,15,67001,1,3,316.4475,238.2111
1,6,17,1,2,3,C,F,b,y,5,15,67001,1,3,353.9709,299.7495
1,6,17,1,2,3,C,F,b,y,5,15,67001,1,3,395.9972,229.2054
1,6,17,1,2,3,C,F,b,y,5,15,67001,1,1,344.9653,227.7045
1,6,17,1,2,3,C,F,b,y,5,15,68001,1,3,338.9615,461.8508
1,6,17,1,2,3,C,F,b,y,5,15,68001,1,3,335.9597,490.3687
1,6,17,1,2,3,C,F,b,y,5,15,68001,1,1,371.9822,479.8621
1,6,17,1,2,3,C,F,b,y,5,15,68001,1,2,215.8846,31.0816
1,6,17,1,2,3,C,F,b,y,5,15,69001,1,3,555.0966,493.3705
1,6,17,1,2,3,C,F,b,y,5,15,70001,1,1,634.6463,382.3011
1,6,17,1,2,3,C,F,b,y,5,15,70001,1,3,660.1623,422.8265
1,6,17,1,2,3,C,F,b,y,5,15,70001,1,3,553.5957,61.1004
1,6,17,1,2,3,C,F,b,y,5,15,71001,1,3,266.9165,49.0929
1,6,17,1,2,3,C,F,b,y,5,15,71001,1,3,304.44,20.575
1,6,17,1,2,3,C,F,b,y,5,15,71001,1,1,341.9634,29.5807
1,6,17,1,2,3,C,F,b,y,5,15,71001,1,3,588.1173,332.7702
1,6,17,1,2,3,C,F,b,y,5,15,72001,1,3,522.076,527.8921
1,6,17,1,2,3,C,F,b,y,5,15,73001,1,3,615.1341,211.1942
1,6,17,1,2,3,C,F,b,y,5,15,74001,1,3,350.969,37.0854
1,6,17,1,2,3,C,F,b,y,5,15,74001,1,3,265.4156,578.924
1,6,17,1,2,3,C,F,b,y,5,15,75001,1,3,214.3837,305.7533
1,6,17,1,2,3,C,F,b,y,5,15,75001,1,1,238.3987,286.2411
1,6,17,1,2,3,C,F,b,y,5,15,75001,1,3,304.44,188.6801
1,6,17,1,2,3,C,F,b,y,5,15,75001,1,3,448.53,236.7101
1,6,17,1,2,3,C,F,b,y,5,15,76001,1,3,197.8734,422.8265
1,6,17,1,2,3,C,F,b,y,5,15,76001,1,1,463.5394,230.7064
1,6,17,1,2,3,C,F,b,y,5,15,77001,1,3,391.4944,505.378
1,6,17,1,2,3,C,F,b,y,5,15,78001,1,1,571.6069,452.8452
1,6,17,1,2,3,C,F,b,y,5,15,78001,1,3,480.0497,100.1248
1,6,17,1,2,3,C,F,b,y,5,15,78001,1,3,534.0835,83.6144
1,6,17,1,2,3,C,F,b,y,5,15,79001,1,3,615.1341,271.2317
1,6,17,1,2,3,C,F,b,y,5,15,79001,1,3,308.9428,19.0741
1,6,17,1,2,3,C,F,b,y,5,15,79001,1,3,457.5356,437.8358
1,6,17,1,2,3,C,F,b,y,5,15,79001,1,3,442.5263,484.3649
1,6,17,1,2,3,C,F,b,y,5,15,79001,1,1,654.1585,395.8096
1,6,17,1,2,3,C,F,b,y,5,15,80001,1,3,196.3724,49.0929
1,6,17,1,2,3,C,F,b,y,5,15,80001,1,3,169.3555,391.3068
1,6,17,1,2,3,C,F,b,y,5,15,81001,1,3,472.545,86.6163
1,6,17,1,2,3,C,F,b,y,5,15,82001,1,3,205.378,536.8977
1,6,17,1,2,3,C,F,b,y,5,15,83001,1,3,301.4381,14.5713
1,6,17,1,2,3,C,F,b,y,5,15,83001,1,3,474.046,191.682
1,6,17,1,2,3,C,F,b,y,5,15,85001,1,3,221.8884,94.121
1,6,17,1,2,3,C,F,b,y,5,15,85001,1,3,293.9334,95.622
1,6,17,1,2,3,C,F,b,y,5,15,86001,1,3,600.1248,419.8246
1,6,17,1,2,3,C,F,b,y,5,15,87001,1,3,589.6182,136.1473
1,6,17,1,2,3,C,F,b,y,5,15,88001,1,3,468.0422,322.2636
1,6,17,1,2,3,C,F,b,y,5,15,89001,1,3,88.3049,305.7533
1,6,17,1,2,3,C,F,b,y,5,15,90001,1,3,149.8433,134.6463
1,6,17,1,2,3,C,F,b,y,5,15,93001,1,3,241.4006,121.1379
1,6,17,1,2,3,C,F,b,y,5,15,94001,1,3,245.9034,37.0854
1,6,17,1,2,3,C,F,b,y,5,15,95001,1,3,648.1548,317.7608
1,6,17,1,2,3,C,F,b,y,5,15,95001,1,3,664.6651,260.7251
1,6,17,1,2,3,C,F,b,y,5,15,96001,1,3,613.6332,253.2205
1,6,17,1,2,3,C,F,b,y,5,15,96001,1,32,655.6595,319.2617
1,6,17,1,2,3,C,F,b,y,5,15,97001,1,3,657.1604,362.7889
1,6,17,1,2,3,C,F,b,y,5,15,97001,1,3,203.8771,458.849
1,6,17,1,2,3,C,F,b,y,5,15,98001,1,3,272.9203,367.2917
1,6,17,1,2,3,C,F,b,y,5,15,98001,1,3,232.3949,391.3068
1,6,17,1,2,3,C,F,b,y,5,15,98001,1,3,307.4418,265.228
1,6,17,1,2,3,C,F,b,y,5,15,98001,1,1,254.909,341.7758
1,6,17,1,2,3,C,F,b,y,5,15,100001,1,3,382.4887,514.3837
1,6,17,1,2,3,C,F,b,y,5,15,101001,1,3,529.5807,70.106
1,6,17,1,2,3,C,F,b,y,5,15,102001,1,3,289.4306,40.0872
1,6,17,1,2,3,C,F,b,y,5,15,102001,1,3,313.4456,32.5826
1,6,17,1,2,3,C,F,b,y,5,15,102001,1,1,338.9615,53.5957
1,6,17,1,2,3,C,F,b,y,5,15,103001,1,3,472.545,469.3555
1,6,17,1,2,3,C,F,b,y,5,15,103001,1,3,583.6144,407.8171
1,6,17,1,2,3,C,F,b,y,5,15,104001,1,3,98.8114,247.2167
1,6,17,1,2,3,C,F,b,y,5,15,104001,1,3,329.9559,584.9278
1,6,17,1,2,3,C,F,b,y,5,15,105001,1,3,371.9822,406.3161
1,6,17,1,2,3,C,F,b,y,5,15,107001,1,3,555.0966,92.6201
