dummy,month,day,period,view,station,fgeno,mgeno,fcol,mcol,nf,nm,frame,something,sex,x,y
1,7,1,1,1,2,C,F,r,g,5,15,4001,1,1,484.5525,56.5976
1,7,1,1,1,2,C,F,r,g,5,15,5001,1,1,519.2994,106.5032
1,7,1,1,1,2,C,F,r,g,5,15,6001,1,1,504.1335,47.1035
1,7,1,1,1,2,C,F,r,g,5,15,7001,1,1,413.1382,64.797
1,7,1,1,1,2,C,F,r,g,5,15,7001,1,1,370.1682,240.4684
1,7,1,1,1,2,C,F,r,g,5,15,8001,1,3,550.8949,210.1367
1,7,1,1,1,2,C,F,r,g,5,15,8001,1,1,581.2267,234.1493
1,7,1,1,1,2,C,F,r,g,5,15,8001,1,1,597.6564,193.707
1,7,1,1,1,2,C,F,r,g,5,15,9001,1,1,272.8539,55.9502
1,7,1,1,1,2,C,F,r,g,5,15,11001,1,3,237.4668,253.1066
1,7,1,1,1,2,C,F,r,g,5,15,11001,1,1,309.5047,154.5284
1,7,1,1,1,2,C,F,r,g,5,15,11001,1,1,486.44,197.4984
1,7,1,1,1,2,C,F,r,g,5,15,12001,1,1,413.1382,93.8649
1,7,1,1,1,2,C,F,r,g,5,15,12001,1,1,485.1761,127.9882
1,7,1,1,1,2,C,F,r,g,5,15,12001,1,1,458.6359,72.3799
1,7,1,1,1,2,C,F,r,g,5,15,12001,1,3,453.5806,43.312
1,7,1,1,1,2,C,F,r,g,5,15,13001,1,1,409.3468,120.4052
1,7,1,1,1,2,C,F,r,g,5,15,13001,1,3,377.7512,127.9882
1,7,1,1,1,2,C,F,r,g,5,15,13001,1,2,373.9597,35.7291
1,7,1,1,1,2,C,F,r,g,5,15,13001,1,3,648.2093,342.8381
1,7,1,1,1,2,C,F,r,g,5,15,14001,1,3,411.8744,59.7417
1,7,1,1,1,2,C,F,r,g,5,15,14001,1,1,429.5679,74.9076
1,7,1,1,1,2,C,F,r,g,5,15,14001,1,1,178.0671,246.7875
1,7,1,1,1,2,C,F,r,g,5,15,14001,1,3,406.8191,251.8428
1,7,1,1,1,2,C,F,r,g,5,15,15001,1,3,295.6027,81.2267
1,7,1,1,1,2,C,F,r,g,5,15,15001,1,1,295.6027,29.41
1,7,1,1,1,2,C,F,r,g,5,15,15001,1,1,530.6738,280.9107
1,7,1,1,1,2,C,F,r,g,5,15,15001,1,1,323.4068,574.1177
1,7,1,1,1,2,C,F,r,g,5,15,16001,1,3,379.015,102.7117
1,7,1,1,1,2,C,F,r,g,5,15,16001,1,1,351.2109,79.9629
1,7,1,1,1,2,C,F,r,g,5,15,17001,1,1,282.9645,36.9929
1,7,1,1,1,2,C,F,r,g,5,15,17001,1,1,471.2741,83.7543
1,7,1,1,1,2,C,F,r,g,5,15,17001,1,3,466.2188,44.5758
1,7,1,1,1,2,C,F,r,g,5,15,18001,1,3,408.0829,170.9581
1,7,1,1,1,2,C,F,r,g,5,15,18001,1,1,536.9929,390.8633
1,7,1,1,1,2,C,F,r,g,5,15,18001,1,1,533.2014,81.2267
1,7,1,1,1,2,C,F,r,g,5,15,18001,1,3,548.3673,110.2946
1,7,1,1,1,2,C,F,r,g,5,15,19001,1,1,400.5,188.6517
1,7,1,1,1,2,C,F,r,g,5,15,19001,1,3,519.2994,146.9455
1,7,1,1,1,2,C,F,r,g,5,15,19001,1,1,520.5632,110.2946
1,7,1,1,1,2,C,F,r,g,5,15,19001,1,3,629.252,224.0387
1,7,1,1,1,2,C,F,r,g,5,15,19001,1,1,624.1967,201.2899
1,7,1,1,1,2,C,F,r,g,5,15,19001,1,1,473.8017,569.0624
1,7,1,1,1,2,C,F,r,g,5,15,20001,1,3,476.3294,198.7622
1,7,1,1,1,2,C,F,r,g,5,15,20001,1,1,496.5506,146.9455
1,7,1,1,1,2,C,F,r,g,5,15,20001,1,1,605.2393,341.5742
1,7,1,1,1,2,C,F,r,g,5,15,20001,1,3,622.9329,389.5995
1,7,1,1,1,2,C,F,r,g,5,15,21001,1,1,301.9218,237.9408
1,7,1,1,1,2,C,F,r,g,5,15,21001,1,1,332.2536,148.2093
1,7,1,1,1,2,C,F,r,g,5,15,21001,1,1,473.8017,227.8302
1,7,1,1,1,2,C,F,r,g,5,15,21001,1,3,440.9423,231.6216
1,7,1,1,1,2,C,F,r,g,5,15,21001,1,3,521.827,485.6501
1,7,1,1,1,2,C,F,r,g,5,15,22001,1,3,365.113,197.4984
1,7,1,1,1,2,C,F,r,g,5,15,22001,1,1,399.2362,206.3452
1,7,1,1,1,2,C,F,r,g,5,15,22001,1,1,352.4747,293.549
1,7,1,1,1,2,C,F,r,g,5,15,22001,1,3,352.4747,512.1904
1,7,1,1,1,2,C,F,r,g,5,15,23001,1,1,200.816,134.3073
1,7,1,1,1,2,C,F,r,g,5,15,23001,1,1,313.2962,95.1288
1,7,1,1,1,2,C,F,r,g,5,15,23001,1,3,338.5727,52.1588
1,7,1,1,1,2,C,F,r,g,5,15,23001,1,3,229.8839,524.8286
1,7,1,1,1,2,C,F,r,g,5,15,24001,1,3,250.1051,527.3562
1,7,1,1,1,2,C,F,r,g,5,15,24001,1,3,428.3041,90.0735
1,7,1,1,1,2,C,F,r,g,5,15,24001,1,1,392.9171,74.9076
1,7,1,1,1,2,C,F,r,g,5,15,24001,1,1,437.1509,138.0987
1,7,1,1,1,2,C,F,r,g,5,15,25001,1,1,427.0403,134.3073
1,7,1,1,1,2,C,F,r,g,5,15,25001,1,3,411.8744,160.8476
1,7,1,1,1,2,C,F,r,g,5,15,25001,1,1,421.985,258.1619
1,7,1,1,1,2,C,F,r,g,5,15,25001,1,1,500.342,326.4084
1,7,1,1,1,2,C,F,r,g,5,15,25001,1,1,574.9076,328.936
1,7,1,1,1,2,C,F,r,g,5,15,25001,1,3,290.5474,547.5774
1,7,1,1,1,2,C,F,r,g,5,15,26001,1,1,358.7938,194.9708
1,7,1,1,1,2,C,F,r,g,5,15,26001,1,3,310.7686,192.4431
1,7,1,1,1,2,C,F,r,g,5,15,26001,1,1,376.4874,318.8254
1,7,1,1,1,2,C,F,r,g,5,15,26001,1,3,573.6438,438.8886
1,7,1,1,1,2,C,F,r,g,5,15,27001,1,1,429.5679,125.4605
1,7,1,1,1,2,C,F,r,g,5,15,27001,1,1,320.8791,138.0987
1,7,1,1,1,2,C,F,r,g,5,15,27001,1,3,337.3088,110.2946
1,7,1,1,1,2,C,F,r,g,5,15,27001,1,3,609.0308,455.3183
1,7,1,1,1,2,C,F,r,g,5,15,28001,1,3,641.8902,349.1572
1,7,1,1,1,2,C,F,r,g,5,15,28001,1,1,620.4052,302.3957
1,7,1,1,1,2,C,F,r,g,5,15,28001,1,1,420.7212,254.3705
1,7,1,1,1,2,C,F,r,g,5,15,28001,1,1,418.1935,170.9581
1,7,1,1,1,2,C,F,r,g,5,15,28001,1,3,435.887,206.3452
1,7,1,1,1,2,C,F,r,g,5,15,29001,1,1,487.7038,256.8981
1,7,1,1,1,2,C,F,r,g,5,15,29001,1,3,521.827,273.3278
1,7,1,1,1,2,C,F,r,g,5,15,29001,1,3,612.8223,141.8902
1,7,1,1,1,2,C,F,r,g,5,15,29001,1,1,358.7938,54.6864
1,7,1,1,1,2,C,F,r,g,5,15,30001,1,1,416.9297,356.7401
1,7,1,1,1,2,C,F,r,g,5,15,30001,1,3,387.8618,345.3657
1,7,1,1,1,2,C,F,r,g,5,15,30001,1,1,434.6232,283.4384
1,7,1,1,1,2,C,F,r,g,5,15,30001,1,3,516.7717,96.3926
1,7,1,1,1,2,C,F,r,g,5,15,31001,1,1,152.7907,119.1414
1,7,1,1,1,2,C,F,r,g,5,15,31001,1,3,405.5553,167.1667
1,7,1,1,1,2,C,F,r,g,5,15,31001,1,1,524.3547,76.1714
1,7,1,1,1,2,C,F,r,g,5,15,31001,1,1,336.045,311.2425
1,7,1,1,1,2,C,F,r,g,5,15,31001,1,3,325.9344,277.1193
1,7,1,1,1,2,C,F,r,g,5,15,32001,1,1,357.53,245.5237
1,7,1,1,1,2,C,F,r,g,5,15,32001,1,3,397.9724,222.7749
1,7,1,1,1,2,C,F,r,g,5,15,32001,1,3,348.6833,293.549
1,7,1,1,1,2,C,F,r,g,5,15,32001,1,1,314.56,245.5237
1,7,1,1,1,2,C,F,r,g,5,15,32001,1,1,385.3341,337.7828
1,7,1,1,1,2,C,F,r,g,5,15,33001,1,3,288.0197,331.4637
1,7,1,1,1,2,C,F,r,g,5,15,33001,1,3,496.5506,106.5032
1,7,1,1,1,2,C,F,r,g,5,15,33001,1,1,462.4273,145.6817
1,7,1,1,1,2,C,F,r,g,5,15,33001,1,1,232.4115,59.7417
1,7,1,1,1,2,C,F,r,g,5,15,33001,1,1,267.7986,59.7417
1,7,1,1,1,2,C,F,r,g,5,15,34001,1,3,227.3562,327.6722
1,7,1,1,1,2,C,F,r,g,5,15,34001,1,1,425.7765,178.5411
1,7,1,1,1,2,C,F,r,g,5,15,34001,1,1,578.6991,163.3752
1,7,1,1,1,2,C,F,r,g,5,15,34001,1,3,569.8523,202.5537
1,7,1,1,1,2,C,F,r,g,5,15,35001,1,3,466.2188,277.1193
1,7,1,1,1,2,C,F,r,g,5,15,35001,1,1,481.3847,246.7875
1,7,1,1,1,2,C,F,r,g,5,15,35001,1,1,132.5695,150.737
1,7,1,1,1,2,C,F,r,g,5,15,35001,1,3,160.3736,403.5016
1,7,1,1,1,2,C,F,r,g,5,15,35001,1,1,219.7733,479.331
1,7,1,1,1,2,C,F,r,g,5,15,36001,1,3,317.0877,330.1998
1,7,1,1,1,2,C,F,r,g,5,15,36001,1,1,349.9471,297.3404
1,7,1,1,1,2,C,F,r,g,5,15,36001,1,3,332.2536,564.0071
1,7,1,1,1,2,C,F,r,g,5,15,36001,1,1,116.1398,230.3578
1,7,1,1,1,2,C,F,r,g,5,15,37001,1,1,366.3768,134.3073
1,7,1,1,1,2,C,F,r,g,5,15,37001,1,1,329.7259,162.1114
1,7,1,1,1,2,C,F,r,g,5,15,37001,1,1,260.2156,389.5995
1,7,1,1,1,2,C,F,r,g,5,15,37001,1,3,199.5521,389.5995
1,7,1,1,1,2,C,F,r,g,5,15,37001,1,3,247.5774,533.6754
1,7,1,1,1,2,C,F,r,g,5,15,38001,1,1,155.3183,327.6722
1,7,1,1,1,2,C,F,r,g,5,15,38001,1,3,152.7907,282.1746
1,7,1,1,1,2,C,F,r,g,5,15,38001,1,3,180.5948,382.0166
1,7,1,1,1,2,C,F,r,g,5,15,38001,1,1,270.3262,452.7907
1,7,1,1,1,2,C,F,r,g,5,15,38001,1,1,544.5758,397.1825
1,7,1,1,1,2,C,F,r,g,5,15,39001,1,1,434.6232,81.2267
1,7,1,1,1,2,C,F,r,g,5,15,39001,1,3,241.2583,217.7196
1,7,1,1,1,2,C,F,r,g,5,15,39001,1,1,210.9265,103.9755
1,7,1,1,1,2,C,F,r,g,5,15,39001,1,3,222.3009,66.0608
1,7,1,1,1,2,C,F,r,g,5,15,40001,1,1,485.1761,121.669
1,7,1,1,1,2,C,F,r,g,5,15,40001,1,1,437.1509,125.4605
1,7,1,1,1,2,C,F,r,g,5,15,40001,1,3,482.6485,152.0008
1,7,1,1,1,2,C,F,r,g,5,15,40001,1,3,295.6027,157.0561
1,7,1,1,1,2,C,F,r,g,5,15,40001,1,1,245.0498,57.2141
1,7,1,1,1,2,C,F,r,g,5,15,41001,1,3,341.1003,311.2425
1,7,1,1,1,2,C,F,r,g,5,15,41001,1,1,373.9597,304.9234
1,7,1,1,1,2,C,F,r,g,5,15,41001,1,1,355.0024,184.8602
1,7,1,1,1,2,C,F,r,g,5,15,41001,1,1,377.7512,206.3452
1,7,1,1,1,2,C,F,r,g,5,15,41001,1,3,217.2457,218.9834
1,7,1,1,1,2,C,F,r,g,5,15,41001,1,1,210.9265,280.9107
1,7,1,1,1,2,C,F,r,g,5,15,42001,1,3,190.7054,307.451
1,7,1,1,1,2,C,F,r,g,5,15,42001,1,1,147.7354,277.1193
1,7,1,1,1,2,C,F,r,g,5,15,42001,1,3,227.3562,356.7401
1,7,1,1,1,2,C,F,r,g,5,15,42001,1,1,260.2156,340.3104
1,7,1,1,1,2,C,F,r,g,5,15,43001,1,1,212.1904,355.4763
1,7,1,1,1,2,C,F,r,g,5,15,43001,1,1,222.3009,278.3831
1,7,1,1,1,2,C,F,r,g,5,15,43001,1,1,171.748,302.3957
1,7,1,1,1,2,C,F,r,g,5,15,43001,1,3,169.2204,264.481
1,7,1,1,1,2,C,F,r,g,5,15,44001,1,1,304.4494,369.3784
1,7,1,1,1,2,C,F,r,g,5,15,44001,1,1,194.4968,248.0513
1,7,1,1,1,2,C,F,r,g,5,15,44001,1,1,181.8586,165.9028
1,7,1,1,1,2,C,F,r,g,5,15,44001,1,3,237.4668,163.3752
1,7,1,1,1,2,C,F,r,g,5,15,44001,1,2,180.5948,208.8728
1,7,1,1,1,2,C,F,r,g,5,15,45001,1,3,304.4494,172.222
1,7,1,1,1,2,C,F,r,g,5,15,45001,1,1,301.9218,119.1414
1,7,1,1,1,2,C,F,r,g,5,15,45001,1,1,170.4842,196.2346
1,7,1,1,1,2,C,F,r,g,5,15,46001,1,3,472.5379,227.8302
1,7,1,1,1,2,C,F,r,g,5,15,46001,1,1,392.9171,289.7575
1,7,1,1,1,2,C,F,r,g,5,15,47001,1,3,236.203,293.549
1,7,1,1,1,2,C,F,r,g,5,15,48001,1,3,312.0324,155.7923
1,7,1,1,1,2,C,F,r,g,5,15,49001,1,3,229.8839,291.0213
1,7,1,1,1,2,C,F,r,g,5,15,49001,1,3,208.3989,488.1777
1,7,1,1,1,2,C,F,r,g,5,15,50001,1,3,430.8318,413.6122
1,7,1,1,1,2,C,F,r,g,5,15,50001,1,3,514.2441,491.9692
1,7,1,1,1,2,C,F,r,g,5,15,51001,1,3,648.2093,333.9913
1,7,1,1,1,2,C,F,r,g,5,15,51001,1,3,253.8965,379.4889
1,7,1,1,1,2,C,F,r,g,5,15,51001,1,1,334.7812,39.5205
1,7,1,1,1,2,C,F,r,g,5,15,52001,1,1,343.628,205.0814
1,7,1,1,1,2,C,F,r,g,5,15,52001,1,1,403.0276,153.2646
1,7,1,1,1,2,C,F,r,g,5,15,52001,1,1,539.5205,90.0735
1,7,1,1,1,2,C,F,r,g,5,15,52001,1,3,494.0229,91.3373
1,7,1,1,1,2,C,F,r,g,5,15,52001,1,3,602.7117,265.7449
1,7,1,1,1,2,C,F,r,g,5,15,53001,1,1,421.985,153.2646
1,7,1,1,1,2,C,F,r,g,5,15,53001,1,1,448.5253,270.8002
1,7,1,1,1,2,C,F,r,g,5,15,53001,1,3,140.1524,288.4937
1,7,1,1,1,2,C,F,r,g,5,15,53001,1,3,260.2156,503.3436
1,7,1,1,1,2,C,F,r,g,5,15,54001,1,3,375.2235,69.8523
1,7,1,1,1,2,C,F,r,g,5,15,54001,1,1,368.9044,411.0845
1,7,1,1,1,2,C,F,r,g,5,15,54001,1,1,336.045,424.9866
1,7,1,1,1,2,C,F,r,g,5,15,54001,1,1,375.2235,466.6927
1,7,1,1,1,2,C,F,r,g,5,15,54001,1,3,324.6706,457.846
1,7,1,1,1,2,C,F,r,g,5,15,55001,1,1,370.1682,105.2393
1,7,1,1,1,2,C,F,r,g,5,15,55001,1,1,269.0624,188.6517
1,7,1,1,1,2,C,F,r,g,5,15,55001,1,3,261.4795,242.9961
1,7,1,1,1,2,C,F,r,g,5,15,55001,1,3,476.3294,402.2378
1,7,1,1,1,2,C,F,r,g,5,15,55001,1,1,557.2141,331.4637
1,7,1,1,1,2,C,F,r,g,5,15,56001,1,1,552.1588,273.3278
1,7,1,1,1,2,C,F,r,g,5,15,56001,1,3,526.8823,356.7401
1,7,1,1,1,2,C,F,r,g,5,15,57001,1,3,123.7227,207.609
1,7,1,1,1,2,C,F,r,g,5,15,58001,1,3,116.1398,244.2599
1,7,1,1,1,2,C,F,r,g,5,15,58001,1,1,379.015,328.936
1,7,1,1,1,2,C,F,r,g,5,15,58001,1,1,397.9724,366.8507
1,7,1,1,1,2,C,F,r,g,5,15,58001,1,3,444.7338,341.5742
1,7,1,1,1,2,C,F,r,g,5,15,59001,1,3,181.8586,454.0545
1,7,1,1,1,2,C,F,r,g,5,15,59001,1,1,222.3009,507.1351
1,7,1,1,1,2,C,F,r,g,5,15,60001,1,1,270.3262,275.8555
1,7,1,1,1,2,C,F,r,g,5,15,60001,1,1,295.6027,237.9408
1,7,1,1,1,2,C,F,r,g,5,15,60001,1,3,353.7385,355.4763
1,7,1,1,1,2,C,F,r,g,5,15,60001,1,1,646.9455,261.9534
1,7,1,1,1,2,C,F,r,g,5,15,61001,1,1,427.0403,394.6548
1,7,1,1,1,2,C,F,r,g,5,15,61001,1,1,457.372,451.5269
1,7,1,1,1,2,C,F,r,g,5,15,61001,1,3,515.5079,461.6374
1,7,1,1,1,2,C,F,r,g,5,15,62001,1,3,470.0103,424.9866
1,7,1,1,1,2,C,F,r,g,5,15,62001,1,1,491.4953,486.9139
1,7,1,1,1,2,C,F,r,g,5,15,62001,1,1,582.4905,495.7607
1,7,1,1,1,2,C,F,r,g,5,15,63001,1,1,501.6058,102.7117
1,7,1,1,1,2,C,F,r,g,5,15,63001,1,1,617.8776,192.4431
1,7,1,1,1,2,C,F,r,g,5,15,63001,1,1,662.1114,229.094
1,7,1,1,1,2,C,F,r,g,5,15,63001,1,3,414.4021,419.9313
1,7,1,1,1,2,C,F,r,g,5,15,63001,1,1,418.1935,457.846
1,7,1,1,1,2,C,F,r,g,5,15,64001,1,1,550.8949,160.8476
1,7,1,1,1,2,C,F,r,g,5,15,64001,1,1,553.4226,203.8175
1,7,1,1,1,2,C,F,r,g,5,15,64001,1,1,357.53,189.9155
1,7,1,1,1,2,C,F,r,g,5,15,64001,1,1,539.5205,249.3152
1,7,1,1,1,2,C,F,r,g,5,15,64001,1,3,199.5521,474.2757
1,7,1,1,1,2,C,F,r,g,5,15,65001,1,1,480.1209,332.7275
1,7,1,1,1,2,C,F,r,g,5,15,65001,1,1,433.3594,301.1319
1,7,1,1,1,2,C,F,r,g,5,15,65001,1,2,605.2393,258.1619
1,7,1,1,1,2,C,F,r,g,5,15,65001,1,3,203.3436,483.1224
1,7,1,1,1,2,C,F,r,g,5,15,66001,1,1,443.47,119.1414
1,7,1,1,1,2,C,F,r,g,5,15,66001,1,1,470.0103,85.0182
1,7,1,1,1,2,C,F,r,g,5,15,66001,1,3,250.1051,517.2457
1,7,1,1,1,2,C,F,r,g,5,15,67001,1,3,434.6232,452.7907
1,7,1,1,1,2,C,F,r,g,5,15,67001,1,1,315.8239,479.331
1,7,1,1,1,2,C,F,r,g,5,15,67001,1,1,304.4494,424.9866
1,7,1,1,1,2,C,F,r,g,5,15,68001,1,1,514.2441,186.124
1,7,1,1,1,2,C,F,r,g,5,15,68001,1,1,475.0656,176.0134
1,7,1,1,1,2,C,F,r,g,5,15,68001,1,3,191.9692,460.3736
1,7,1,1,1,2,C,F,r,g,5,15,69001,1,3,150.263,307.451
1,7,1,1,1,2,C,F,r,g,5,15,69001,1,1,136.361,427.5142
1,7,1,1,1,2,C,F,r,g,5,15,69001,1,1,432.0956,83.7543
1,7,1,1,1,2,C,F,r,g,5,15,69001,1,1,481.3847,68.5885
1,7,1,1,1,2,C,F,r,g,5,15,70001,1,3,362.5853,268.2725
1,7,1,1,1,2,C,F,r,g,5,15,70001,1,1,245.0498,152.0008
1,7,1,1,1,2,C,F,r,g,5,15,70001,1,1,260.2156,105.2393
1,7,1,1,1,2,C,F,r,g,5,15,71001,1,3,347.4194,52.1588
1,7,1,1,1,2,C,F,r,g,5,15,71001,1,1,443.47,413.6122
1,7,1,1,1,2,C,F,r,g,5,15,71001,1,2,440.9423,448.9992
1,7,1,1,1,2,C,F,r,g,5,15,72001,1,3,247.5774,158.3199
1,7,1,1,1,2,C,F,r,g,5,15,72001,1,1,558.4779,325.1445
1,7,1,1,1,2,C,F,r,g,5,15,72001,1,3,579.9629,277.1193
1,7,1,1,1,2,C,F,r,g,5,15,73001,1,3,258.9518,183.5964
1,7,1,1,1,2,C,F,r,g,5,15,73001,1,1,358.7938,92.6011
1,7,1,1,1,2,C,F,r,g,5,15,73001,1,3,396.7085,44.5758
1,7,1,1,1,2,C,F,r,g,5,15,73001,1,1,587.5458,241.7322
1,7,1,1,1,2,C,F,r,g,5,15,73001,1,1,622.9329,287.2299
1,7,1,1,1,2,C,F,r,g,5,15,74001,1,3,262.7433,165.9028
1,7,1,1,1,2,C,F,r,g,5,15,74001,1,1,495.2867,87.5458
1,7,1,1,1,2,C,F,r,g,5,15,74001,1,1,519.2994,119.1414
1,7,1,1,1,2,C,F,r,g,5,15,75001,1,3,337.3088,239.2046
1,7,1,1,1,2,C,F,r,g,5,15,75001,1,1,561.0055,226.5664
1,7,1,1,1,2,C,F,r,g,5,15,76001,1,2,183.1224,111.5585
1,7,1,1,1,2,C,F,r,g,5,15,76001,1,3,106.0292,178.5411
1,7,1,1,1,2,C,F,r,g,5,15,77001,1,3,346.1556,389.5995
1,7,1,1,1,2,C,F,r,g,5,15,78001,1,3,490.2314,399.7101
1,7,1,1,1,2,C,F,r,g,5,15,78001,1,3,433.3594,451.5269
1,7,1,1,1,2,C,F,r,g,5,15,78001,1,1,629.252,224.0387
1,7,1,1,1,2,C,F,r,g,5,15,78001,1,1,394.1809,546.3136
1,7,1,1,1,2,C,F,r,g,5,15,78001,1,2,415.6659,541.2583
1,7,1,1,1,2,C,F,r,g,5,15,79001,1,3,497.8144,138.0987
1,7,1,1,1,2,C,F,r,g,5,15,79001,1,1,668.4305,248.0513
1,7,1,1,1,2,C,F,r,g,5,15,79001,1,1,496.5506,408.5569
1,7,1,1,1,2,C,F,r,g,5,15,79001,1,3,552.1588,413.6122
1,7,1,1,1,2,C,F,r,g,5,15,80001,1,3,610.2946,294.8128
1,7,1,1,1,2,C,F,r,g,5,15,80001,1,1,614.0861,253.1066
1,7,1,1,1,2,C,F,r,g,5,15,80001,1,1,600.184,234.1493
1,7,1,1,1,2,C,F,r,g,5,15,80001,1,1,521.827,112.8223
1,7,1,1,1,2,C,F,r,g,5,15,80001,1,3,205.8712,138.0987
1,7,1,1,1,2,C,F,r,g,5,15,81001,1,3,424.5126,237.9408
1,7,1,1,1,2,C,F,r,g,5,15,81001,1,3,334.7812,256.8981
1,7,1,1,1,2,C,F,r,g,5,15,81001,1,1,315.8239,221.5111
1,7,1,1,1,2,C,F,r,g,5,15,81001,1,1,276.6453,203.8175
1,7,1,1,1,2,C,F,r,g,5,15,81001,1,1,325.9344,130.5158
1,7,1,1,1,2,C,F,r,g,5,15,81001,1,1,371.4321,114.0861
1,7,1,1,1,2,C,F,r,g,5,15,81001,1,3,362.5853,170.9581
1,7,1,1,1,2,C,F,r,g,5,15,82001,1,1,488.9676,167.1667
1,7,1,1,1,2,C,F,r,g,5,15,82001,1,1,384.0703,181.0687
1,7,1,1,1,2,C,F,r,g,5,15,82001,1,3,464.955,114.0861
1,7,1,1,1,2,C,F,r,g,5,15,82001,1,3,404.2915,253.1066
1,7,1,1,1,2,C,F,r,g,5,15,82001,1,1,342.3641,409.8207
1,7,1,1,1,2,C,F,r,g,5,15,82001,1,3,277.9092,408.5569
1,7,1,1,1,2,C,F,r,g,5,15,82001,1,1,518.0355,442.6801
1,7,1,1,1,2,C,F,r,g,5,15,83001,1,3,430.8318,383.2804
1,7,1,1,1,2,C,F,r,g,5,15,83001,1,3,397.9724,467.9566
1,7,1,1,1,2,C,F,r,g,5,15,83001,1,3,611.5585,268.2725
1,7,1,1,1,2,C,F,r,g,5,15,83001,1,1,545.8397,124.1967
1,7,1,1,1,2,C,F,r,g,5,15,83001,1,1,506.6611,53.4226
1,7,1,1,1,2,C,F,r,g,5,15,84001,1,3,505.3973,369.3784
1,7,1,1,1,2,C,F,r,g,5,15,84001,1,1,415.6659,280.9107
1,7,1,1,1,2,C,F,r,g,5,15,84001,1,3,256.4242,395.9186
1,7,1,1,1,2,C,F,r,g,5,15,84001,1,1,222.3009,402.2378
1,7,1,1,1,2,C,F,r,g,5,15,84001,1,3,137.6248,409.8207
1,7,1,1,1,2,C,F,r,g,5,15,84001,1,3,113.6122,346.6295
1,7,1,1,1,2,C,F,r,g,5,15,85001,1,1,381.5427,283.4384
1,7,1,1,1,2,C,F,r,g,5,15,85001,1,1,411.8744,289.7575
1,7,1,1,1,2,C,F,r,g,5,15,85001,1,3,395.4447,322.6169
1,7,1,1,1,2,C,F,r,g,5,15,85001,1,1,400.5,368.1145
1,7,1,1,1,2,C,F,r,g,5,15,85001,1,1,430.8318,397.1825
1,7,1,1,1,2,C,F,r,g,5,15,85001,1,1,461.1635,335.2551
1,7,1,1,1,2,C,F,r,g,5,15,85001,1,3,481.3847,365.5869
1,7,1,1,1,2,C,F,r,g,5,15,85001,1,3,539.5205,345.3657
1,7,1,1,1,2,C,F,r,g,5,15,86001,1,1,250.1051,144.4179
1,7,1,1,1,2,C,F,r,g,5,15,86001,1,1,174.2757,139.3626
1,7,1,1,1,2,C,F,r,g,5,15,86001,1,1,161.6374,301.1319
1,7,1,1,1,2,C,F,r,g,5,15,86001,1,1,525.6185,74.9076
1,7,1,1,1,2,C,F,r,g,5,15,86001,1,3,222.3009,184.8602
1,7,1,1,1,2,C,F,r,g,5,15,86001,1,3,330.9897,400.9739
1,7,1,1,1,2,C,F,r,g,5,15,86001,1,1,470.0103,363.0592
1,7,1,1,1,2,C,F,r,g,5,15,86001,1,3,492.7591,325.1445
1,7,1,1,1,2,C,F,r,g,5,15,87001,1,1,107.293,206.3452
1,7,1,1,1,2,C,F,r,g,5,15,87001,1,1,609.0308,270.8002
1,7,1,1,1,2,C,F,r,g,5,15,87001,1,1,416.9297,376.9613
1,7,1,1,1,2,C,F,r,g,5,15,87001,1,3,454.8444,354.2125
1,7,1,1,1,2,C,F,r,g,5,15,87001,1,1,415.6659,479.331
1,7,1,1,1,2,C,F,r,g,5,15,87001,1,1,559.7417,542.5221
1,7,1,1,1,2,C,F,r,g,5,15,87001,1,1,255.1603,447.7354
1,7,1,1,1,2,C,F,r,g,5,15,87001,1,1,224.8286,393.391
1,7,1,1,1,2,C,F,r,g,5,15,87001,1,3,194.4968,358.0039
1,7,1,1,1,2,C,F,r,g,5,15,88001,1,1,428.3041,321.3531
1,7,1,1,1,2,C,F,r,g,5,15,88001,1,1,424.5126,393.391
1,7,1,1,1,2,C,F,r,g,5,15,88001,1,1,639.3626,382.0166
1,7,1,1,1,2,C,F,r,g,5,15,89001,1,3,421.985,395.9186
1,7,1,1,1,2,C,F,r,g,5,15,89001,1,3,330.9897,457.846
1,7,1,1,1,2,C,F,r,g,5,15,89001,1,1,410.6106,336.519
1,7,1,1,1,2,C,F,r,g,5,15,90001,1,3,348.6833,308.7148
1,7,1,1,1,2,C,F,r,g,5,15,90001,1,3,447.2615,279.6469
1,7,1,1,1,2,C,F,r,g,5,15,90001,1,1,435.887,321.3531
1,7,1,1,1,2,C,F,r,g,5,15,90001,1,1,506.6611,355.4763
1,7,1,1,1,2,C,F,r,g,5,15,91001,1,3,473.8017,216.4558
1,7,1,1,1,2,C,F,r,g,5,15,91001,1,1,477.5932,330.1998
1,7,1,1,1,2,C,F,r,g,5,15,91001,1,1,521.827,317.5616
1,7,1,1,1,2,C,F,r,g,5,15,91001,1,3,512.9803,364.3231
1,7,1,1,1,2,C,F,r,g,5,15,91001,1,1,410.6106,440.1524
1,7,1,1,1,2,C,F,r,g,5,15,92001,1,3,366.3768,165.9028
1,7,1,1,1,2,C,F,r,g,5,15,92001,1,3,442.2062,208.8728
1,7,1,1,1,2,C,F,r,g,5,15,92001,1,1,533.2014,164.639
1,7,1,1,1,2,C,F,r,g,5,15,92001,1,3,396.7085,379.4889
1,7,1,1,1,2,C,F,r,g,5,15,92001,1,1,427.0403,394.6548
1,7,1,1,1,2,C,F,r,g,5,15,92001,1,1,456.1082,421.1951
1,7,1,1,1,2,C,F,r,g,5,15,93001,1,1,323.4068,52.1588
1,7,1,1,1,2,C,F,r,g,5,15,93001,1,3,266.5348,59.7417
1,7,1,1,1,2,C,F,r,g,5,15,93001,1,1,280.4368,162.1114
1,7,1,1,1,2,C,F,r,g,5,15,93001,1,3,284.2283,201.2899
1,7,1,1,1,2,C,F,r,g,5,15,93001,1,3,456.1082,184.8602
1,7,1,1,1,2,C,F,r,g,5,15,93001,1,1,475.0656,152.0008
1,7,1,1,1,2,C,F,r,g,5,15,93001,1,1,554.6864,196.2346
1,7,1,1,1,2,C,F,r,g,5,15,93001,1,1,564.797,261.9534
1,7,1,1,1,2,C,F,r,g,5,15,93001,1,1,587.5458,309.9787
1,7,1,1,1,2,C,F,r,g,5,15,94001,1,1,616.6137,229.094
1,7,1,1,1,2,C,F,r,g,5,15,94001,1,1,516.7717,88.8096
1,7,1,1,1,2,C,F,r,g,5,15,94001,1,1,342.3641,79.9629
1,7,1,1,1,2,C,F,r,g,5,15,94001,1,1,319.6153,76.1714
1,7,1,1,1,2,C,F,r,g,5,15,94001,1,1,334.7812,131.7796
1,7,1,1,1,2,C,F,r,g,5,15,94001,1,3,306.9771,138.0987
1,7,1,1,1,2,C,F,r,g,5,15,94001,1,1,274.1177,103.9755
1,7,1,1,1,2,C,F,r,g,5,15,94001,1,1,285.4921,163.3752
1,7,1,1,1,2,C,F,r,g,5,15,94001,1,3,174.2757,497.0245
1,7,1,1,1,2,C,F,r,g,5,15,94001,1,1,370.1682,548.8412
1,7,1,1,1,2,C,F,r,g,5,15,95001,1,1,299.3942,499.5521
1,7,1,1,1,2,C,F,r,g,5,15,95001,1,1,309.5047,466.6927
1,7,1,1,1,2,C,F,r,g,5,15,95001,1,3,280.4368,469.2204
1,7,1,1,1,2,C,F,r,g,5,15,95001,1,3,435.887,577.9092
1,7,1,1,1,2,C,F,r,g,5,15,95001,1,1,621.669,297.3404
1,7,1,1,1,2,C,F,r,g,5,15,95001,1,1,644.4179,256.8981
1,7,1,1,1,2,C,F,r,g,5,15,95001,1,1,667.1667,308.7148
1,7,1,1,1,2,C,F,r,g,5,15,95001,1,1,641.8902,327.6722
1,7,1,1,1,2,C,F,r,g,5,15,96001,1,1,266.5348,460.3736
1,7,1,1,1,2,C,F,r,g,5,15,96001,1,1,296.8665,220.2472
1,7,1,1,1,2,C,F,r,g,5,15,96001,1,1,492.7591,140.6264
1,7,1,1,1,2,C,F,r,g,5,15,96001,1,3,548.3673,149.4731
1,7,1,1,1,2,C,F,r,g,5,15,96001,1,3,295.6027,505.8712
1,7,1,1,1,2,C,F,r,g,5,15,96001,1,1,562.2694,441.4163
1,7,1,1,1,2,C,F,r,g,5,15,96001,1,1,590.0735,432.5695
1,7,1,1,1,2,C,F,r,g,5,15,97001,1,1,549.6311,77.4352
1,7,1,1,1,2,C,F,r,g,5,15,97001,1,1,420.7212,384.5442
1,7,1,1,1,2,C,F,r,g,5,15,97001,1,1,310.7686,369.3784
1,7,1,1,1,2,C,F,r,g,5,15,97001,1,3,458.6359,491.9692
1,7,1,1,1,2,C,F,r,g,5,15,97001,1,1,221.0371,435.0972
1,7,1,1,1,2,C,F,r,g,5,15,97001,1,1,198.2883,465.4289
1,7,1,1,1,2,C,F,r,g,5,15,97001,1,3,193.233,398.4463
1,7,1,1,1,2,C,F,r,g,5,15,98001,1,1,466.2188,293.549
1,7,1,1,1,2,C,F,r,g,5,15,98001,1,1,433.3594,307.451
1,7,1,1,1,2,C,F,r,g,5,15,98001,1,1,415.6659,335.2551
1,7,1,1,1,2,C,F,r,g,5,15,98001,1,1,411.8744,285.966
1,7,1,1,1,2,C,F,r,g,5,15,98001,1,3,382.8065,297.3404
1,7,1,1,1,2,C,F,r,g,5,15,98001,1,1,348.6833,437.6248
1,7,1,1,1,2,C,F,r,g,5,15,98001,1,3,624.1967,340.3104
1,7,1,1,1,2,C,F,r,g,5,15,98001,1,1,557.2141,465.4289
1,7,1,1,1,2,C,F,r,g,5,15,98001,1,3,529.41,507.1351
1,7,1,1,1,2,C,F,r,g,5,15,99001,1,2,207.1351,168.4305
1,7,1,1,1,2,C,F,r,g,5,15,99001,1,3,547.1035,178.5411
1,7,1,1,1,2,C,F,r,g,5,15,99001,1,1,320.8791,365.5869
1,7,1,1,1,2,C,F,r,g,5,15,99001,1,3,221.0371,349.1572
1,7,1,1,1,2,C,F,r,g,5,15,100001,1,3,401.7638,344.1019
1,7,1,1,1,2,C,F,r,g,5,15,100001,1,3,639.3626,268.2725
1,7,1,1,1,2,C,F,r,g,5,15,100001,1,1,662.1114,240.4684
1,7,1,1,1,2,C,F,r,g,5,15,100001,1,1,676.0134,258.1619
1,7,1,1,1,2,C,F,r,g,5,15,100001,1,1,330.9897,488.1777
1,7,1,1,1,2,C,F,r,g,5,15,100001,1,1,381.5427,566.5348
1,7,1,1,1,2,C,F,r,g,5,15,100001,1,1,116.1398,280.9107
1,7,1,1,1,2,C,F,r,g,5,15,100001,1,2,119.9313,212.6643
1,7,1,1,1,2,C,F,r,g,5,15,101001,1,2,107.293,250.579
1,7,1,1,1,2,C,F,r,g,5,15,101001,1,1,540.7844,361.7954
1,7,1,1,1,2,C,F,r,g,5,15,101001,1,3,419.4573,441.4163
1,7,1,1,1,2,C,F,r,g,5,15,101001,1,1,510.4526,522.3009
1,7,1,1,1,2,C,F,r,g,5,15,101001,1,1,562.2694,495.7607
1,7,1,1,1,2,C,F,r,g,5,15,102001,1,3,410.6106,430.0419
1,7,1,1,1,2,C,F,r,g,5,15,103001,1,3,391.6532,421.1951
1,7,1,1,1,2,C,F,r,g,5,15,103001,1,1,356.2662,260.6896
1,7,1,1,1,2,C,F,r,g,5,15,103001,1,1,245.0498,402.2378
1,7,1,1,1,2,C,F,r,g,5,15,103001,1,1,567.3246,452.7907
1,7,1,1,1,2,C,F,r,g,5,15,103001,1,1,593.8649,448.9992
1,7,1,1,1,2,C,F,r,g,5,15,103001,1,1,614.0861,404.7654
1,7,1,1,1,2,C,F,r,g,5,15,103001,1,1,593.8649,364.3231
1,7,1,1,1,2,C,F,r,g,5,15,103001,1,3,629.252,344.1019
1,7,1,1,1,2,C,F,r,g,5,15,104001,1,1,156.5821,130.5158
1,7,1,1,1,2,C,F,r,g,5,15,104001,1,1,633.0434,227.8302
1,7,1,1,1,2,C,F,r,g,5,15,104001,1,1,381.5427,344.1019
1,7,1,1,1,2,C,F,r,g,5,15,104001,1,1,425.7765,387.0719
1,7,1,1,1,2,C,F,r,g,5,15,104001,1,1,443.47,443.9439
1,7,1,1,1,2,C,F,r,g,5,15,104001,1,3,390.3894,408.5569
1,7,1,1,1,2,C,F,r,g,5,15,105001,1,1,294.3389,62.2694
1,7,1,1,1,2,C,F,r,g,5,15,105001,1,1,279.173,111.5585
1,7,1,1,1,2,C,F,r,g,5,15,105001,1,1,106.0292,360.5316
1,7,1,1,1,2,C,F,r,g,5,15,105001,1,1,266.5348,385.8081
1,7,1,1,1,2,C,F,r,g,5,15,105001,1,1,290.5474,356.7401
1,7,1,1,1,2,C,F,r,g,5,15,105001,1,1,390.3894,374.4336
1,7,1,1,1,2,C,F,r,g,5,15,105001,1,3,451.0529,409.8207
1,7,1,1,1,2,C,F,r,g,5,15,106001,1,1,161.6374,181.0687
1,7,1,1,1,2,C,F,r,g,5,15,106001,1,1,140.1524,133.0434
1,7,1,1,1,2,C,F,r,g,5,15,106001,1,3,377.7512,421.1951
1,7,1,1,1,2,C,F,r,g,5,15,107001,1,3,390.3894,422.4589
1,7,1,1,1,2,C,F,r,g,5,15,107001,1,1,356.2662,473.0118
1,7,1,1,1,2,C,F,r,g,5,15,107001,1,1,322.143,442.6801
