dummy,month,day,period,view,station,fgeno,mgeno,fcol,mcol,nf,nm,frame,something,sex,x,y
1,3,21,4,1,2,A,G,b,y,5,15,1,1,1,250,146
1,3,21,4,1,2,A,G,b,y,5,15,1001,1,1,251,146
1,3,21,4,1,2,A,G,b,y,5,15,2001,1,1,252,145
1,3,21,4,1,2,A,G,b,y,5,15,3001,1,1,256,144
1,3,21,4,1,2,A,G,b,y,5,15,4001,1,1,251,145
1,3,21,4,1,2,A,G,b,y,5,15,5001,1,1,253,144
1,3,21,4,1,2,A,G,b,y,5,15,6001,1,1,231,152
1,3,21,4,1,2,A,G,b,y,5,15,6001,1,1,180,147
1,3,21,4,1,2,A,G,b,y,5,15,7001,1,1,302,34
1,3,21,4,1,2,A,G,b,y,5,15,8001,1,1,302,168
1,3,21,4,1,2,A,G,b,y,5,15,8001,1,1,293,119
1,3,21,4,1,2,A,G,b,y,5,15,9001,1,1,232,230
1,3,21,4,1,2,A,G,b,y,5,15,10001,1,1,213,385
1,3,21,4,1,2,A,G,b,y,5,15,11001,1,1,217,401
1,3,21,4,1,2,A,G,b,y,5,15,12001,1,1,219,399
1,3,21,4,1,2,A,G,b,y,5,15,13001,1,1,226,398
1,3,21,4,1,2,A,G,b,y,5,15,14001,1,1,230,411
1,3,21,4,1,2,A,G,b,y,5,15,15001,1,1,239,421
1,3,21,4,1,2,A,G,b,y,5,15,16001,1,1,234,417
1,3,21,4,1,2,A,G,b,y,5,15,17001,1,1,238,415
1,3,21,4,1,2,A,G,b,y,5,15,18001,1,1,234,415
1,3,21,4,1,2,A,G,b,y,5,15,19001,1,1,238,417
1,3,21,4,1,2,A,G,b,y,5,15,19001,1,1,527,89
1,3,21,4,1,2,A,G,b,y,5,15,20001,1,1,237,382
1,3,21,4,1,2,A,G,b,y,5,15,20001,1,1,203,355
1,3,21,4,1,2,A,G,b,y,5,15,20001,1,1,551,104
1,3,21,4,1,2,A,G,b,y,5,15,21001,1,1,215,336
1,3,21,4,1,2,A,G,b,y,5,15,21001,1,1,212,308
1,3,21,4,1,2,A,G,b,y,5,15,21001,1,1,540,100
1,3,21,4,1,2,A,G,b,y,5,15,22001,1,1,352,186
1,3,21,4,1,2,A,G,b,y,5,15,22001,1,1,539,130
1,3,21,4,1,2,A,G,b,y,5,15,23001,1,1,530,138
1,3,21,4,1,2,A,G,b,y,5,15,23001,1,1,355,186
1,3,21,4,1,2,A,G,b,y,5,15,24001,1,1,522,145
1,3,21,4,1,2,A,G,b,y,5,15,24001,1,1,359,188
1,3,21,4,1,2,A,G,b,y,5,15,25001,1,1,505,148
1,3,21,4,1,2,A,G,b,y,5,15,25001,1,1,355,187
1,3,21,4,1,2,A,G,b,y,5,15,26001,1,1,494,149
1,3,21,4,1,2,A,G,b,y,5,15,26001,1,1,350,191
1,3,21,4,1,2,A,G,b,y,5,15,27001,1,1,529,164
1,3,21,4,1,2,A,G,b,y,5,15,28001,1,1,522,169
1,3,21,4,1,2,A,G,b,y,5,15,29001,1,1,495,260
1,3,21,4,1,2,A,G,b,y,5,15,30001,1,1,501,264
1,3,21,4,1,2,A,G,b,y,5,15,31001,1,1,498,264
1,3,21,4,1,2,A,G,b,y,5,15,32001,1,1,494,259
1,3,21,4,1,2,A,G,b,y,5,15,33001,1,1,495,269
1,3,21,4,1,2,A,G,b,y,5,15,34001,1,1,495,259
1,3,21,4,1,2,A,G,b,y,5,15,35001,1,1,418,381
1,3,21,4,1,2,A,G,b,y,5,15,35001,1,1,444,50
1,3,21,4,1,2,A,G,b,y,5,15,36001,1,1,439,74
1,3,21,4,1,2,A,G,b,y,5,15,36001,1,1,418,376
1,3,21,4,1,2,A,G,b,y,5,15,37001,1,1,440,99
1,3,21,4,1,2,A,G,b,y,5,15,37001,1,1,416,384
1,3,21,4,1,2,A,G,b,y,5,15,38001,1,1,443,119
1,3,21,4,1,2,A,G,b,y,5,15,38001,1,1,406,385
1,3,21,4,1,2,A,G,b,y,5,15,39001,1,1,445,128
1,3,21,4,1,2,A,G,b,y,5,15,39001,1,1,412,382
1,3,21,4,1,2,A,G,b,y,5,15,40001,1,1,443,126
1,3,21,4,1,2,A,G,b,y,5,15,40001,1,1,407,377
1,3,21,4,1,2,A,G,b,y,5,15,40001,1,1,497,12
1,3,21,4,1,2,A,G,b,y,5,15,41001,1,1,407,389
1,3,21,4,1,2,A,G,b,y,5,15,41001,1,1,444,126
1,3,21,4,1,2,A,G,b,y,5,15,41001,1,1,492,24
1,3,21,4,1,2,A,G,b,y,5,15,42001,1,1,446,117
1,3,21,4,1,2,A,G,b,y,5,15,42001,1,1,406,395
1,3,21,4,1,2,A,G,b,y,5,15,43001,1,1,439,122
1,3,21,4,1,2,A,G,b,y,5,15,43001,1,1,400,384
1,3,21,4,1,2,A,G,b,y,5,15,43001,1,1,487,14
1,3,21,4,1,2,A,G,b,y,5,15,44001,1,1,391,391
1,3,21,4,1,2,A,G,b,y,5,15,44001,1,1,447,125
1,3,21,4,1,2,A,G,b,y,5,15,45001,1,1,447,126
1,3,21,4,1,2,A,G,b,y,5,15,45001,1,1,399,390
1,3,21,4,1,2,A,G,b,y,5,15,46001,1,1,445,111
1,3,21,4,1,2,A,G,b,y,5,15,46001,1,1,498,21
1,3,21,4,1,2,A,G,b,y,5,15,46001,1,1,391,385
1,3,21,4,1,2,A,G,b,y,5,15,47001,1,1,448,126
1,3,21,4,1,2,A,G,b,y,5,15,47001,1,1,399,388
1,3,21,4,1,2,A,G,b,y,5,15,48001,1,1,497,17
1,3,21,4,1,2,A,G,b,y,5,15,48001,1,1,442,123
1,3,21,4,1,2,A,G,b,y,5,15,48001,1,1,391,386
1,3,21,4,1,2,A,G,b,y,5,15,49001,1,1,537,158
1,3,21,4,1,2,A,G,b,y,5,15,49001,1,1,640,263
1,3,21,4,1,2,A,G,b,y,5,15,50001,1,1,343,295
1,3,21,4,1,2,A,G,b,y,5,15,51001,1,1,494,15
1,3,21,4,1,2,A,G,b,y,5,15,51001,1,1,337,293
1,3,21,4,1,2,A,G,b,y,5,15,52001,1,1,342,291
1,3,21,4,1,2,A,G,b,y,5,15,53001,1,1,341,298
1,3,21,4,1,2,A,G,b,y,5,15,53001,1,3,440,535
1,3,21,4,1,2,A,G,b,y,5,15,53001,1,1,523,545
1,3,21,4,1,2,A,G,b,y,5,15,54001,1,1,339,298
1,3,21,4,1,2,A,G,b,y,5,15,54001,1,3,433,532
1,3,21,4,1,2,A,G,b,y,5,15,54001,1,1,505,531
1,3,21,4,1,2,A,G,b,y,5,15,55001,1,1,343,298
1,3,21,4,1,2,A,G,b,y,5,15,55001,1,1,481,529
1,3,21,4,1,2,A,G,b,y,5,15,55001,1,3,267,432
1,3,21,4,1,2,A,G,b,y,5,15,56001,1,1,344,292
1,3,21,4,1,2,A,G,b,y,5,15,56001,1,1,487,525
1,3,21,4,1,2,A,G,b,y,5,15,56001,1,3,149,270
1,3,21,4,1,2,A,G,b,y,5,15,57001,1,1,196,248
1,3,21,4,1,2,A,G,b,y,5,15,57001,1,1,337,556
1,3,21,4,1,2,A,G,b,y,5,15,57001,1,3,380,557
1,3,21,4,1,2,A,G,b,y,5,15,58001,1,3,615,372
1,3,21,4,1,2,A,G,b,y,5,15,58001,1,1,198,255
1,3,21,4,1,2,A,G,b,y,5,15,58001,1,1,273,336
1,3,21,4,1,2,A,G,b,y,5,15,59001,1,3,139,252
1,3,21,4,1,2,A,G,b,y,5,15,59001,1,1,334,391
1,3,21,4,1,2,A,G,b,y,5,15,60001,1,1,335,391
1,3,21,4,1,2,A,G,b,y,5,15,60001,1,1,602,412
1,3,21,4,1,2,A,G,b,y,5,15,61001,1,1,660,286
1,3,21,4,1,2,A,G,b,y,5,15,61001,1,1,597,286
1,3,21,4,1,2,A,G,b,y,5,15,62001,1,1,459,504
1,3,21,4,1,2,A,G,b,y,5,15,63001,1,1,450,495
1,3,21,4,1,2,A,G,b,y,5,15,64001,1,1,454,501
1,3,21,4,1,2,A,G,b,y,5,15,64001,1,1,140,444
1,3,21,4,1,2,A,G,b,y,5,15,65001,1,1,151,386
1,3,21,4,1,2,A,G,b,y,5,15,65001,1,1,125,384
1,3,21,4,1,2,A,G,b,y,5,15,65001,1,3,130,349
1,3,21,4,1,2,A,G,b,y,5,15,66001,1,3,352,290
1,3,21,4,1,2,A,G,b,y,5,15,66001,1,1,182,311
1,3,21,4,1,2,A,G,b,y,5,15,66001,1,1,191,490
1,3,21,4,1,2,A,G,b,y,5,15,67001,1,1,357,523
1,3,21,4,1,2,A,G,b,y,5,15,67001,1,3,323,580
1,3,21,4,1,2,A,G,b,y,5,15,67001,1,3,297,557
1,3,21,4,1,2,A,G,b,y,5,15,68001,1,1,348,508
1,3,21,4,1,2,A,G,b,y,5,15,68001,1,1,291,508
1,3,21,4,1,2,A,G,b,y,5,15,68001,1,3,293,405
1,3,21,4,1,2,A,G,b,y,5,15,68001,1,3,263,482
1,3,21,4,1,2,A,G,b,y,5,15,69001,1,1,216,391
1,3,21,4,1,2,A,G,b,y,5,15,69001,1,1,436,50
1,3,21,4,1,2,A,G,b,y,5,15,69001,1,3,399,49
1,3,21,4,1,2,A,G,b,y,5,15,69001,1,3,153,376
1,3,21,4,1,2,A,G,b,y,5,15,69001,1,1,160,426
1,3,21,4,1,2,A,G,b,y,5,15,70001,1,1,425,59
1,3,21,4,1,2,A,G,b,y,5,15,70001,1,1,333,453
1,3,21,4,1,2,A,G,b,y,5,15,70001,1,1,645,324
1,3,21,4,1,2,A,G,b,y,5,15,70001,1,3,599,287
1,3,21,4,1,2,A,G,b,y,5,15,71001,1,1,421,67
1,3,21,4,1,2,A,G,b,y,5,15,71001,1,1,184,175
1,3,21,4,1,2,A,G,b,y,5,15,72001,1,1,420,66
1,3,21,4,1,2,A,G,b,y,5,15,72001,1,1,174,165
1,3,21,4,1,2,A,G,b,y,5,15,73001,1,1,418,55
1,3,21,4,1,2,A,G,b,y,5,15,73001,1,1,183,175
1,3,21,4,1,2,A,G,b,y,5,15,74001,1,1,426,61
1,3,21,4,1,2,A,G,b,y,5,15,74001,1,1,185,172
1,3,21,4,1,2,A,G,b,y,5,15,75001,1,1,432,46
1,3,21,4,1,2,A,G,b,y,5,15,75001,1,1,157,166
1,3,21,4,1,2,A,G,b,y,5,15,75001,1,3,163,228
1,3,21,4,1,2,A,G,b,y,5,15,76001,1,3,368,204
1,3,21,4,1,2,A,G,b,y,5,15,76001,1,1,263,211
1,3,21,4,1,2,A,G,b,y,5,15,76001,1,1,363,66
1,3,21,4,1,2,A,G,b,y,5,15,77001,1,1,375,53
1,3,21,4,1,2,A,G,b,y,5,15,77001,1,1,224,284
1,3,21,4,1,2,A,G,b,y,5,15,77001,1,3,161,261
1,3,21,4,1,2,A,G,b,y,5,15,78001,1,1,427,51
1,3,21,4,1,2,A,G,b,y,5,15,78001,1,1,381,61
1,3,21,4,1,2,A,G,b,y,5,15,78001,1,3,438,171
1,3,21,4,1,2,A,G,b,y,5,15,79001,1,1,404,231
1,3,21,4,1,2,A,G,b,y,5,15,80001,1,1,374,214
1,3,21,4,1,2,A,G,b,y,5,15,81001,1,1,376,222
1,3,21,4,1,2,A,G,b,y,5,15,82001,1,1,378,225
1,3,21,4,1,2,A,G,b,y,5,15,83001,1,3,349,367
1,3,21,4,1,2,A,G,b,y,5,15,83001,1,1,240,348
1,3,21,4,1,2,A,G,b,y,5,15,84001,1,1,429,440
1,3,21,4,1,2,A,G,b,y,5,15,85001,1,1,420,437
1,3,21,4,1,2,A,G,b,y,5,15,86001,1,1,428,429
1,3,21,4,1,2,A,G,b,y,5,15,87001,1,1,432,434
1,3,21,4,1,2,A,G,b,y,5,15,88001,1,1,429,433
1,3,21,4,1,2,A,G,b,y,5,15,89001,1,1,425,437
1,3,21,4,1,2,A,G,b,y,5,15,90001,1,1,427,437
1,3,21,4,1,2,A,G,b,y,5,15,91001,1,1,426,434
1,3,21,4,1,2,A,G,b,y,5,15,92001,1,1,423,441
1,3,21,4,1,2,A,G,b,y,5,15,93001,1,1,426,435
1,3,21,4,1,2,A,G,b,y,5,15,94001,1,1,424,421
1,3,21,4,1,2,A,G,b,y,5,15,95001,1,1,428,437
1,3,21,4,1,2,A,G,b,y,5,15,96001,1,1,427,430
1,3,21,4,1,2,A,G,b,y,5,15,97001,1,1,366,392
1,3,21,4,1,2,A,G,b,y,5,15,97001,1,3,402,576
1,3,21,4,1,2,A,G,b,y,5,15,98001,1,1,348,387
1,3,21,4,1,2,A,G,b,y,5,15,98001,1,3,362,574
1,3,21,4,1,2,A,G,b,y,5,15,99001,1,1,358,388
1,3,21,4,1,2,A,G,b,y,5,15,99001,1,3,359,571
1,3,21,4,1,2,A,G,b,y,5,15,100001,1,1,353,382
1,3,21,4,1,2,A,G,b,y,5,15,100001,1,3,364,566
1,3,21,4,1,2,A,G,b,y,5,15,101001,1,3,352,529
