dummy,month,day,period,view,station,fgeno,mgeno,fcol,mcol,nf,nm,frame,something,sex,x,y
1,7,16,3,1,1,A,G,g,r,15,5,1,1,1,420,46
1,7,16,3,1,1,A,G,g,r,15,5,1001,1,1,438,64
1,7,16,3,1,1,A,G,g,r,15,5,2001,1,1,485,139
1,7,16,3,1,1,A,G,g,r,15,5,3001,1,1,475,160
1,7,16,3,1,1,A,G,g,r,15,5,4001,1,1,458,191
1,7,16,3,1,1,A,G,g,r,15,5,5001,1,1,453,191
1,7,16,3,1,1,A,G,g,r,15,5,6001,1,1,450,194
1,7,16,3,1,1,A,G,g,r,15,5,7001,1,1,417,265
1,7,16,3,1,1,A,G,g,r,15,5,8001,1,1,507,252
1,7,16,3,1,1,A,G,g,r,15,5,9001,1,1,508,399
1,7,16,3,1,1,A,G,g,r,15,5,10001,1,1,228,209
1,7,16,3,1,1,A,G,g,r,15,5,11001,1,1,235,212
1,7,16,3,1,1,A,G,g,r,15,5,12001,1,1,374,188
1,7,16,3,1,1,A,G,g,r,15,5,13001,1,1,497,337
1,7,16,3,1,1,A,G,g,r,15,5,14001,1,1,514,350
1,7,16,3,1,1,A,G,g,r,15,5,15001,1,1,508,343
1,7,16,3,1,1,A,G,g,r,15,5,16001,1,1,510,348
1,7,16,3,1,1,A,G,g,r,15,5,17001,1,1,528,424
1,7,16,3,1,1,A,G,g,r,15,5,18001,1,1,665,132
1,7,16,3,1,1,A,G,g,r,15,5,19001,1,1,649,127
1,7,16,3,1,1,A,G,g,r,15,5,20001,1,1,653,127
1,7,16,3,1,1,A,G,g,r,15,5,21001,1,1,549,27
1,7,16,3,1,1,A,G,g,r,15,5,22001,1,1,567,38
1,7,16,3,1,1,A,G,g,r,15,5,23001,1,1,566,36
1,7,16,3,1,1,A,G,g,r,15,5,24001,1,1,552,32
1,7,16,3,1,1,A,G,g,r,15,5,25001,1,1,560,42
1,7,16,3,1,1,A,G,g,r,15,5,26001,1,1,558,38
1,7,16,3,1,1,A,G,g,r,15,5,27001,1,1,466,170
1,7,16,3,1,1,A,G,g,r,15,5,28001,1,1,471,174
1,7,16,3,1,1,A,G,g,r,15,5,29001,1,1,453,194
1,7,16,3,1,1,A,G,g,r,15,5,30001,1,1,347,205
1,7,16,3,1,1,A,G,g,r,15,5,31001,1,1,364,193
1,7,16,3,1,1,A,G,g,r,15,5,32001,1,1,359,194
1,7,16,3,1,1,A,G,g,r,15,5,33001,1,1,363,190
1,7,16,3,1,1,A,G,g,r,15,5,35001,1,1,361,195
1,7,16,3,1,1,A,G,g,r,15,5,36001,1,1,353,196
1,7,16,3,1,1,A,G,g,r,15,5,37001,1,1,368,203
1,7,16,3,1,1,A,G,g,r,15,5,38001,1,1,361,187
1,7,16,3,1,1,A,G,g,r,15,5,39001,1,1,363,196
1,7,16,3,1,1,A,G,g,r,15,5,40001,1,1,368,186
1,7,16,3,1,1,A,G,g,r,15,5,41001,1,1,372,173
1,7,16,3,1,1,A,G,g,r,15,5,42001,1,1,373,175
1,7,16,3,1,1,A,G,g,r,15,5,43001,1,1,367,168
1,7,16,3,1,1,A,G,g,r,15,5,44001,1,1,358,150
1,7,16,3,1,1,A,G,g,r,15,5,44001,1,1,574,421
1,7,16,3,1,1,A,G,g,r,15,5,45001,1,1,355,148
1,7,16,3,1,1,A,G,g,r,15,5,45001,1,1,335,455
1,7,16,3,1,1,A,G,g,r,15,5,46001,1,1,343,152
1,7,16,3,1,1,A,G,g,r,15,5,46001,1,1,363,413
1,7,16,3,1,1,A,G,g,r,15,5,47001,1,1,354,132
1,7,16,3,1,1,A,G,g,r,15,5,47001,1,1,470,360
1,7,16,3,1,1,A,G,g,r,15,5,48001,1,1,336,142
1,7,16,3,1,1,A,G,g,r,15,5,48001,1,1,686,313
1,7,16,3,1,1,A,G,g,r,15,5,49001,1,1,349,139
1,7,16,3,1,1,A,G,g,r,15,5,49001,1,1,352,83
1,7,16,3,1,1,A,G,g,r,15,5,50001,1,1,320,122
1,7,16,3,1,1,A,G,g,r,15,5,50001,1,1,368,173
1,7,16,3,1,1,A,G,g,r,15,5,51001,1,1,309,133
1,7,16,3,1,1,A,G,g,r,15,5,51001,1,1,379,195
1,7,16,3,1,1,A,G,g,r,15,5,52001,1,1,329,139
1,7,16,3,1,1,A,G,g,r,15,5,52001,1,1,380,196
1,7,16,3,1,1,A,G,g,r,15,5,53001,1,1,325,133
1,7,16,3,1,1,A,G,g,r,15,5,53001,1,1,393,202
1,7,16,3,1,1,A,G,g,r,15,5,54001,1,1,362,155
1,7,16,3,1,1,A,G,g,r,15,5,54001,1,1,378,199
1,7,16,3,1,1,A,G,g,r,15,5,55001,1,1,383,149
1,7,16,3,1,1,A,G,g,r,15,5,55001,1,1,385,201
1,7,16,3,1,1,A,G,g,r,15,5,56001,1,1,368,137
1,7,16,3,1,1,A,G,g,r,15,5,56001,1,1,382,229
1,7,16,3,1,1,A,G,g,r,15,5,57001,1,1,362,139
1,7,16,3,1,1,A,G,g,r,15,5,57001,1,1,390,233
1,7,16,3,1,1,A,G,g,r,15,5,58001,1,1,361,133
1,7,16,3,1,1,A,G,g,r,15,5,58001,1,1,388,234
1,7,16,3,1,1,A,G,g,r,15,5,59001,1,1,355,142
1,7,16,3,1,1,A,G,g,r,15,5,59001,1,1,392,245
1,7,16,3,1,1,A,G,g,r,15,5,60001,1,1,355,147
1,7,16,3,1,1,A,G,g,r,15,5,60001,1,1,388,185
1,7,16,3,1,1,A,G,g,r,15,5,61001,1,1,379,126
1,7,16,3,1,1,A,G,g,r,15,5,61001,1,1,411,167
1,7,16,3,1,1,A,G,g,r,15,5,62001,1,1,384,121
1,7,16,3,1,1,A,G,g,r,15,5,62001,1,1,430,146
1,7,16,3,1,1,A,G,g,r,15,5,63001,1,1,376,96
1,7,16,3,1,1,A,G,g,r,15,5,63001,1,1,459,145
1,7,16,3,1,1,A,G,g,r,15,5,64001,1,1,419,37
1,7,16,3,1,1,A,G,g,r,15,5,64001,1,1,477,143
1,7,16,3,1,1,A,G,g,r,15,5,65001,1,1,391,31
1,7,16,3,1,1,A,G,g,r,15,5,65001,1,1,501,193
1,7,16,3,1,1,A,G,g,r,15,5,66001,1,1,333,57
1,7,16,3,1,1,A,G,g,r,15,5,66001,1,1,487,209
1,7,16,3,1,1,A,G,g,r,15,5,67001,1,1,344,114
1,7,16,3,1,1,A,G,g,r,15,5,67001,1,1,437,189
1,7,16,3,1,1,A,G,g,r,15,5,68001,1,1,327,115
1,7,16,3,1,1,A,G,g,r,15,5,68001,1,1,411,228
1,7,16,3,1,1,A,G,g,r,15,5,69001,1,1,334,117
1,7,16,3,1,1,A,G,g,r,15,5,69001,1,1,418,217
1,7,16,3,1,1,A,G,g,r,15,5,70001,1,1,353,195
1,7,16,3,1,1,A,G,g,r,15,5,70001,1,1,402,218
1,7,16,3,1,1,A,G,g,r,15,5,71001,1,1,257,250
1,7,16,3,1,1,A,G,g,r,15,5,72001,1,1,253,254
1,7,16,3,1,1,A,G,g,r,15,5,73001,1,1,254,389
1,7,16,3,1,1,A,G,g,r,15,5,74001,1,1,253,392
1,7,16,3,1,1,A,G,g,r,15,5,75001,1,1,257,396
1,7,16,3,1,1,A,G,g,r,15,5,76001,1,1,268,395
1,7,16,3,1,1,A,G,g,r,15,5,77001,1,1,290,404
1,7,16,3,1,1,A,G,g,r,15,5,78001,1,1,297,403
1,7,16,3,1,1,A,G,g,r,15,5,79001,1,1,274,395
1,7,16,3,1,1,A,G,g,r,15,5,80001,1,1,278,404
1,7,16,3,1,1,A,G,g,r,15,5,81001,1,1,277,354
1,7,16,3,1,1,A,G,g,r,15,5,82001,1,1,279,417
1,7,16,3,1,1,A,G,g,r,15,5,83001,1,1,297,404
1,7,16,3,1,1,A,G,g,r,15,5,84001,1,1,307,401
1,7,16,3,1,1,A,G,g,r,15,5,85001,1,1,289,402
1,7,16,3,1,1,A,G,g,r,15,5,86001,1,1,292,404
1,7,16,3,1,1,A,G,g,r,15,5,87001,1,1,300,364
1,7,16,3,1,1,A,G,g,r,15,5,88001,1,1,296,364
1,7,16,3,1,1,A,G,g,r,15,5,89001,1,1,296,368
1,7,16,3,1,1,A,G,g,r,15,5,90001,1,1,310,350
1,7,16,3,1,1,A,G,g,r,15,5,91001,1,1,225,298
1,7,16,3,1,1,A,G,g,r,15,5,92001,1,1,277,418
1,7,16,3,1,1,A,G,g,r,15,5,93001,1,1,513,458
1,7,16,3,1,1,A,G,g,r,15,5,93001,1,1,567,86
1,7,16,3,1,1,A,G,g,r,15,5,94001,1,1,487,362
1,7,16,3,1,1,A,G,g,r,15,5,94001,1,1,498,87
1,7,16,3,1,1,A,G,g,r,15,5,95001,1,1,480,107
1,7,16,3,1,1,A,G,g,r,15,5,96001,1,1,484,114
1,7,16,3,1,1,A,G,g,r,15,5,97001,1,1,475,135
1,7,16,3,1,1,A,G,g,r,15,5,98001,1,1,482,145
1,7,16,3,1,1,A,G,g,r,15,5,99001,1,1,482,146
1,7,16,3,1,1,A,G,g,r,15,5,100001,1,1,469,158
1,7,16,3,1,1,A,G,g,r,15,5,101001,1,1,503,190
1,7,16,3,1,1,A,G,g,r,15,5,101001,1,1,524,204
1,7,16,3,1,1,A,G,g,r,15,5,102001,1,1,505,177
1,7,16,3,1,1,A,G,g,r,15,5,103001,1,1,484,214
1,7,16,3,1,1,A,G,g,r,15,5,104001,1,1,458,308
1,7,16,3,1,1,A,G,g,r,15,5,105001,1,1,458,319
1,7,16,3,1,1,A,G,g,r,15,5,106001,1,1,460,314
1,7,16,3,1,1,A,G,g,r,15,5,107001,1,1,456,309
