dummy,month,day,period,view,station,fgeno,mgeno,fcol,mcol,nf,nm,frame,something,sex,x,y
1,7,16,3,3,1,A,G,g,r,15,5,1,1,3,460,502
1,7,16,3,3,1,A,G,g,r,15,5,1,1,3,457,385
1,7,16,3,3,1,A,G,g,r,15,5,1,1,3,470,351
1,7,16,3,3,1,A,G,g,r,15,5,1,1,3,315,394
1,7,16,3,3,1,A,G,g,r,15,5,1,1,1,197,393
1,7,16,3,3,1,A,G,g,r,15,5,1,1,3,360,261
1,7,16,3,3,1,A,G,g,r,15,5,1,1,3,470,206
1,7,16,3,3,1,A,G,g,r,15,5,1,1,3,540,267
1,7,16,3,3,1,A,G,g,r,15,5,1,1,1,646,329
1,7,16,3,3,1,A,G,g,r,15,5,1001,1,1,640,330
1,7,16,3,3,1,A,G,g,r,15,5,1001,1,3,459,494
1,7,16,3,3,1,A,G,g,r,15,5,1001,1,3,455,390
1,7,16,3,3,1,A,G,g,r,15,5,1001,1,3,487,350
1,7,16,3,3,1,A,G,g,r,15,5,1001,1,3,506,315
1,7,16,3,3,1,A,G,g,r,15,5,1001,1,3,309,380
1,7,16,3,3,1,A,G,g,r,15,5,1001,1,1,205,387
1,7,16,3,3,1,A,G,g,r,15,5,1001,1,3,368,254
1,7,16,3,3,1,A,G,g,r,15,5,1001,1,3,478,199
1,7,16,3,3,1,A,G,g,r,15,5,2001,1,1,650,323
1,7,16,3,3,1,A,G,g,r,15,5,2001,1,3,496,193
1,7,16,3,3,1,A,G,g,r,15,5,2001,1,3,504,273
1,7,16,3,3,1,A,G,g,r,15,5,2001,1,3,564,368
1,7,16,3,3,1,A,G,g,r,15,5,2001,1,3,442,373
1,7,16,3,3,1,A,G,g,r,15,5,2001,1,3,447,497
1,7,16,3,3,1,A,G,g,r,15,5,2001,1,3,310,369
1,7,16,3,3,1,A,G,g,r,15,5,2001,1,3,352,258
1,7,16,3,3,1,A,G,g,r,15,5,2001,1,1,216,383
1,7,16,3,3,1,A,G,g,r,15,5,3001,1,1,648,334
1,7,16,3,3,1,A,G,g,r,15,5,3001,1,3,565,196
1,7,16,3,3,1,A,G,g,r,15,5,3001,1,3,520,275
1,7,16,3,3,1,A,G,g,r,15,5,3001,1,3,600,386
1,7,16,3,3,1,A,G,g,r,15,5,3001,1,3,446,387
1,7,16,3,3,1,A,G,g,r,15,5,3001,1,1,437,431
1,7,16,3,3,1,A,G,g,r,15,5,3001,1,3,305,395
1,7,16,3,3,1,A,G,g,r,15,5,3001,1,3,352,264
1,7,16,3,3,1,A,G,g,r,15,5,4001,1,3,616,386
1,7,16,3,3,1,A,G,g,r,15,5,4001,1,1,513,374
1,7,16,3,3,1,A,G,g,r,15,5,4001,1,3,568,290
1,7,16,3,3,1,A,G,g,r,15,5,4001,1,3,503,233
1,7,16,3,3,1,A,G,g,r,15,5,4001,1,3,472,405
1,7,16,3,3,1,A,G,g,r,15,5,4001,1,3,453,500
1,7,16,3,3,1,A,G,g,r,15,5,4001,1,3,299,394
1,7,16,3,3,1,A,G,g,r,15,5,4001,1,3,298,278
1,7,16,3,3,1,A,G,g,r,15,5,5001,1,3,608,360
1,7,16,3,3,1,A,G,g,r,15,5,5001,1,1,596,396
1,7,16,3,3,1,A,G,g,r,15,5,5001,1,3,445,405
1,7,16,3,3,1,A,G,g,r,15,5,5001,1,3,431,516
1,7,16,3,3,1,A,G,g,r,15,5,5001,1,3,390,397
1,7,16,3,3,1,A,G,g,r,15,5,5001,1,3,305,404
1,7,16,3,3,1,A,G,g,r,15,5,5001,1,3,317,317
1,7,16,3,3,1,A,G,g,r,15,5,5001,1,3,448,220
1,7,16,3,3,1,A,G,g,r,15,5,6001,1,3,639,269
1,7,16,3,3,1,A,G,g,r,15,5,6001,1,3,447,233
1,7,16,3,3,1,A,G,g,r,15,5,6001,1,3,426,380
1,7,16,3,3,1,A,G,g,r,15,5,6001,1,3,451,515
1,7,16,3,3,1,A,G,g,r,15,5,6001,1,3,351,404
1,7,16,3,3,1,A,G,g,r,15,5,6001,1,3,347,363
1,7,16,3,3,1,A,G,g,r,15,5,6001,1,3,306,399
1,7,16,3,3,1,A,G,g,r,15,5,6001,1,1,643,428
1,7,16,3,3,1,A,G,g,r,15,5,7001,1,1,686,391
1,7,16,3,3,1,A,G,g,r,15,5,7001,1,3,649,289
1,7,16,3,3,1,A,G,g,r,15,5,7001,1,3,465,520
1,7,16,3,3,1,A,G,g,r,15,5,7001,1,3,422,354
1,7,16,3,3,1,A,G,g,r,15,5,7001,1,3,371,402
1,7,16,3,3,1,A,G,g,r,15,5,7001,1,3,352,349
1,7,16,3,3,1,A,G,g,r,15,5,7001,1,3,339,414
1,7,16,3,3,1,A,G,g,r,15,5,7001,1,3,415,250
1,7,16,3,3,1,A,G,g,r,15,5,7001,1,1,408,178
1,7,16,3,3,1,A,G,g,r,15,5,8001,1,1,611,215
1,7,16,3,3,1,A,G,g,r,15,5,8001,1,1,406,155
1,7,16,3,3,1,A,G,g,r,15,5,8001,1,3,415,237
1,7,16,3,3,1,A,G,g,r,15,5,8001,1,3,629,327
1,7,16,3,3,1,A,G,g,r,15,5,8001,1,3,366,309
1,7,16,3,3,1,A,G,g,r,15,5,8001,1,3,455,359
1,7,16,3,3,1,A,G,g,r,15,5,8001,1,3,354,364
1,7,16,3,3,1,A,G,g,r,15,5,8001,1,3,420,394
1,7,16,3,3,1,A,G,g,r,15,5,8001,1,3,456,496
1,7,16,3,3,1,A,G,g,r,15,5,9001,1,3,553,267
1,7,16,3,3,1,A,G,g,r,15,5,9001,1,3,419,232
1,7,16,3,3,1,A,G,g,r,15,5,9001,1,1,483,269
1,7,16,3,3,1,A,G,g,r,15,5,9001,1,3,414,370
1,7,16,3,3,1,A,G,g,r,15,5,9001,1,3,493,349
1,7,16,3,3,1,A,G,g,r,15,5,9001,1,3,287,380
1,7,16,3,3,1,A,G,g,r,15,5,9001,1,1,519,387
1,7,16,3,3,1,A,G,g,r,15,5,9001,1,3,515,430
1,7,16,3,3,1,A,G,g,r,15,5,9001,1,3,458,511
1,7,16,3,3,1,A,G,g,r,15,5,10001,1,3,543,195
1,7,16,3,3,1,A,G,g,r,15,5,10001,1,3,398,201
1,7,16,3,3,1,A,G,g,r,15,5,10001,1,1,374,240
1,7,16,3,3,1,A,G,g,r,15,5,10001,1,3,417,318
1,7,16,3,3,1,A,G,g,r,15,5,10001,1,3,559,317
1,7,16,3,3,1,A,G,g,r,15,5,10001,1,3,341,414
1,7,16,3,3,1,A,G,g,r,15,5,10001,1,1,474,421
1,7,16,3,3,1,A,G,g,r,15,5,10001,1,3,454,481
1,7,16,3,3,1,A,G,g,r,15,5,10001,1,3,594,442
1,7,16,3,3,1,A,G,g,r,15,5,11001,1,3,598,107
1,7,16,3,3,1,A,G,g,r,15,5,11001,1,3,449,121
1,7,16,3,3,1,A,G,g,r,15,5,11001,1,1,408,142
1,7,16,3,3,1,A,G,g,r,15,5,11001,1,1,400,288
1,7,16,3,3,1,A,G,g,r,15,5,11001,1,3,397,371
1,7,16,3,3,1,A,G,g,r,15,5,11001,1,3,329,416
1,7,16,3,3,1,A,G,g,r,15,5,11001,1,3,486,464
1,7,16,3,3,1,A,G,g,r,15,5,11001,1,3,615,421
1,7,16,3,3,1,A,G,g,r,15,5,11001,1,3,617,302
1,7,16,3,3,1,A,G,g,r,15,5,12001,1,1,386,191
1,7,16,3,3,1,A,G,g,r,15,5,12001,1,3,407,233
1,7,16,3,3,1,A,G,g,r,15,5,12001,1,3,459,309
1,7,16,3,3,1,A,G,g,r,15,5,12001,1,3,523,352
1,7,16,3,3,1,A,G,g,r,15,5,12001,1,3,575,469
1,7,16,3,3,1,A,G,g,r,15,5,12001,1,1,616,440
1,7,16,3,3,1,A,G,g,r,15,5,12001,1,3,497,466
1,7,16,3,3,1,A,G,g,r,15,5,12001,1,3,404,417
1,7,16,3,3,1,A,G,g,r,15,5,12001,1,3,362,438
1,7,16,3,3,1,A,G,g,r,15,5,13001,1,3,470,467
1,7,16,3,3,1,A,G,g,r,15,5,13001,1,3,447,402
1,7,16,3,3,1,A,G,g,r,15,5,13001,1,3,493,353
1,7,16,3,3,1,A,G,g,r,15,5,13001,1,3,408,351
1,7,16,3,3,1,A,G,g,r,15,5,13001,1,3,391,442
1,7,16,3,3,1,A,G,g,r,15,5,13001,1,3,413,245
1,7,16,3,3,1,A,G,g,r,15,5,13001,1,3,310,264
1,7,16,3,3,1,A,G,g,r,15,5,13001,1,1,468,311
1,7,16,3,3,1,A,G,g,r,15,5,13001,1,1,318,114
1,7,16,3,3,1,A,G,g,r,15,5,14001,1,3,687,276
1,7,16,3,3,1,A,G,g,r,15,5,14001,1,3,517,276
1,7,16,3,3,1,A,G,g,r,15,5,14001,1,3,416,232
1,7,16,3,3,1,A,G,g,r,15,5,14001,1,3,413,340
1,7,16,3,3,1,A,G,g,r,15,5,14001,1,3,486,341
1,7,16,3,3,1,A,G,g,r,15,5,14001,1,1,443,212
1,7,16,3,3,1,A,G,g,r,15,5,14001,1,1,444,468
1,7,16,3,3,1,A,G,g,r,15,5,14001,1,3,490,485
1,7,16,3,3,1,A,G,g,r,15,5,14001,1,3,438,520
1,7,16,3,3,1,A,G,g,r,15,5,15001,1,3,666,276
1,7,16,3,3,1,A,G,g,r,15,5,15001,1,3,557,294
1,7,16,3,3,1,A,G,g,r,15,5,15001,1,3,566,376
1,7,16,3,3,1,A,G,g,r,15,5,15001,1,3,526,446
1,7,16,3,3,1,A,G,g,r,15,5,15001,1,3,435,350
1,7,16,3,3,1,A,G,g,r,15,5,15001,1,3,359,422
1,7,16,3,3,1,A,G,g,r,15,5,15001,1,3,325,278
1,7,16,3,3,1,A,G,g,r,15,5,15001,1,1,349,182
1,7,16,3,3,1,A,G,g,r,15,5,15001,1,1,603,331
1,7,16,3,3,1,A,G,g,r,15,5,16001,1,3,629,273
1,7,16,3,3,1,A,G,g,r,15,5,16001,1,3,621,296
1,7,16,3,3,1,A,G,g,r,15,5,16001,1,3,623,401
1,7,16,3,3,1,A,G,g,r,15,5,16001,1,1,604,345
1,7,16,3,3,1,A,G,g,r,15,5,16001,1,3,479,418
1,7,16,3,3,1,A,G,g,r,15,5,16001,1,3,416,343
1,7,16,3,3,1,A,G,g,r,15,5,16001,1,3,372,257
1,7,16,3,3,1,A,G,g,r,15,5,16001,1,1,354,178
1,7,16,3,3,1,A,G,g,r,15,5,16001,1,3,352,428
1,7,16,3,3,1,A,G,g,r,15,5,17001,1,3,643,257
1,7,16,3,3,1,A,G,g,r,15,5,17001,1,3,597,316
1,7,16,3,3,1,A,G,g,r,15,5,17001,1,3,590,352
1,7,16,3,3,1,A,G,g,r,15,5,17001,1,3,414,348
1,7,16,3,3,1,A,G,g,r,15,5,17001,1,3,374,261
1,7,16,3,3,1,A,G,g,r,15,5,17001,1,3,337,402
1,7,16,3,3,1,A,G,g,r,15,5,17001,1,3,455,492
1,7,16,3,3,1,A,G,g,r,15,5,17001,1,1,353,171
1,7,16,3,3,1,A,G,g,r,15,5,18001,1,3,622,428
1,7,16,3,3,1,A,G,g,r,15,5,18001,1,3,594,319
1,7,16,3,3,1,A,G,g,r,15,5,18001,1,3,550,218
1,7,16,3,3,1,A,G,g,r,15,5,18001,1,1,532,159
1,7,16,3,3,1,A,G,g,r,15,5,18001,1,1,333,212
1,7,16,3,3,1,A,G,g,r,15,5,18001,1,3,386,250
1,7,16,3,3,1,A,G,g,r,15,5,18001,1,3,332,341
1,7,16,3,3,1,A,G,g,r,15,5,18001,1,3,387,373
1,7,16,3,3,1,A,G,g,r,15,5,18001,1,3,435,512
1,7,16,3,3,1,A,G,g,r,15,5,19001,1,3,400,235
1,7,16,3,3,1,A,G,g,r,15,5,19001,1,3,427,274
1,7,16,3,3,1,A,G,g,r,15,5,19001,1,3,349,374
1,7,16,3,3,1,A,G,g,r,15,5,19001,1,3,423,372
1,7,16,3,3,1,A,G,g,r,15,5,19001,1,3,479,469
1,7,16,3,3,1,A,G,g,r,15,5,19001,1,3,530,503
1,7,16,3,3,1,A,G,g,r,15,5,19001,1,3,570,307
1,7,16,3,3,1,A,G,g,r,15,5,19001,1,1,522,452
1,7,16,3,3,1,A,G,g,r,15,5,19001,1,1,557,227
1,7,16,3,3,1,A,G,g,r,15,5,20001,1,3,445,218
1,7,16,3,3,1,A,G,g,r,15,5,20001,1,3,435,275
1,7,16,3,3,1,A,G,g,r,15,5,20001,1,3,362,396
1,7,16,3,3,1,A,G,g,r,15,5,20001,1,3,443,386
1,7,16,3,3,1,A,G,g,r,15,5,20001,1,3,482,368
1,7,16,3,3,1,A,G,g,r,15,5,20001,1,3,558,310
1,7,16,3,3,1,A,G,g,r,15,5,20001,1,3,498,461
1,7,16,3,3,1,A,G,g,r,15,5,20001,1,1,513,423
1,7,16,3,3,1,A,G,g,r,15,5,20001,1,1,495,242
1,7,16,3,3,1,A,G,g,r,15,5,21001,1,1,616,320
1,7,16,3,3,1,A,G,g,r,15,5,21001,1,3,566,321
1,7,16,3,3,1,A,G,g,r,15,5,21001,1,1,554,269
1,7,16,3,3,1,A,G,g,r,15,5,21001,1,3,467,246
1,7,16,3,3,1,A,G,g,r,15,5,21001,1,3,505,336
1,7,16,3,3,1,A,G,g,r,15,5,21001,1,3,528,389
1,7,16,3,3,1,A,G,g,r,15,5,21001,1,3,413,335
1,7,16,3,3,1,A,G,g,r,15,5,21001,1,3,441,382
1,7,16,3,3,1,A,G,g,r,15,5,21001,1,3,376,386
1,7,16,3,3,1,A,G,g,r,15,5,21001,1,3,502,470
1,7,16,3,3,1,A,G,g,r,15,5,22001,1,3,631,385
1,7,16,3,3,1,A,G,g,r,15,5,22001,1,3,535,337
1,7,16,3,3,1,A,G,g,r,15,5,22001,1,1,592,306
1,7,16,3,3,1,A,G,g,r,15,5,22001,1,1,487,240
1,7,16,3,3,1,A,G,g,r,15,5,22001,1,3,420,244
1,7,16,3,3,1,A,G,g,r,15,5,22001,1,3,445,391
1,7,16,3,3,1,A,G,g,r,15,5,22001,1,3,445,431
1,7,16,3,3,1,A,G,g,r,15,5,22001,1,3,489,466
1,7,16,3,3,1,A,G,g,r,15,5,22001,1,3,317,431
1,7,16,3,3,1,A,G,g,r,15,5,23001,1,1,659,407
1,7,16,3,3,1,A,G,g,r,15,5,23001,1,3,599,326
1,7,16,3,3,1,A,G,g,r,15,5,23001,1,3,529,335
1,7,16,3,3,1,A,G,g,r,15,5,23001,1,1,564,312
1,7,16,3,3,1,A,G,g,r,15,5,23001,1,3,419,224
1,7,16,3,3,1,A,G,g,r,15,5,23001,1,3,438,380
1,7,16,3,3,1,A,G,g,r,15,5,23001,1,3,537,443
1,7,16,3,3,1,A,G,g,r,15,5,23001,1,3,297,419
1,7,16,3,3,1,A,G,g,r,15,5,24001,1,3,514,198
1,7,16,3,3,1,A,G,g,r,15,5,24001,1,3,568,319
1,7,16,3,3,1,A,G,g,r,15,5,24001,1,3,544,452
1,7,16,3,3,1,A,G,g,r,15,5,24001,1,1,687,411
1,7,16,3,3,1,A,G,g,r,15,5,24001,1,3,449,393
1,7,16,3,3,1,A,G,g,r,15,5,24001,1,3,361,381
1,7,16,3,3,1,A,G,g,r,15,5,24001,1,3,307,420
1,7,16,3,3,1,A,G,g,r,15,5,24001,1,1,431,420
1,7,16,3,3,1,A,G,g,r,15,5,25001,1,1,672,412
1,7,16,3,3,1,A,G,g,r,15,5,25001,1,3,546,458
1,7,16,3,3,1,A,G,g,r,15,5,25001,1,3,581,325
1,7,16,3,3,1,A,G,g,r,15,5,25001,1,3,576,183
1,7,16,3,3,1,A,G,g,r,15,5,25001,1,1,540,78
1,7,16,3,3,1,A,G,g,r,15,5,25001,1,3,454,397
1,7,16,3,3,1,A,G,g,r,15,5,25001,1,3,370,432
1,7,16,3,3,1,A,G,g,r,15,5,25001,1,3,321,427
1,7,16,3,3,1,A,G,g,r,15,5,26001,1,1,645,337
1,7,16,3,3,1,A,G,g,r,15,5,26001,1,3,622,313
1,7,16,3,3,1,A,G,g,r,15,5,26001,1,3,516,207
1,7,16,3,3,1,A,G,g,r,15,5,26001,1,3,557,439
1,7,16,3,3,1,A,G,g,r,15,5,26001,1,3,451,384
1,7,16,3,3,1,A,G,g,r,15,5,26001,1,3,375,431
1,7,16,3,3,1,A,G,g,r,15,5,26001,1,3,313,429
1,7,16,3,3,1,A,G,g,r,15,5,26001,1,1,400,365
1,7,16,3,3,1,A,G,g,r,15,5,27001,1,1,679,182
1,7,16,3,3,1,A,G,g,r,15,5,27001,1,3,636,297
1,7,16,3,3,1,A,G,g,r,15,5,27001,1,3,552,273
1,7,16,3,3,1,A,G,g,r,15,5,27001,1,3,564,465
1,7,16,3,3,1,A,G,g,r,15,5,27001,1,3,440,367
1,7,16,3,3,1,A,G,g,r,15,5,27001,1,3,352,406
1,7,16,3,3,1,A,G,g,r,15,5,27001,1,3,312,420
1,7,16,3,3,1,A,G,g,r,15,5,28001,1,1,649,139
1,7,16,3,3,1,A,G,g,r,15,5,28001,1,3,615,331
1,7,16,3,3,1,A,G,g,r,15,5,28001,1,3,564,329
1,7,16,3,3,1,A,G,g,r,15,5,28001,1,3,566,274
1,7,16,3,3,1,A,G,g,r,15,5,28001,1,3,448,383
1,7,16,3,3,1,A,G,g,r,15,5,28001,1,3,309,406
1,7,16,3,3,1,A,G,g,r,15,5,28001,1,3,269,231
1,7,16,3,3,1,A,G,g,r,15,5,29001,1,1,630,130
1,7,16,3,3,1,A,G,g,r,15,5,29001,1,3,478,25
1,7,16,3,3,1,A,G,g,r,15,5,29001,1,3,554,186
1,7,16,3,3,1,A,G,g,r,15,5,29001,1,3,531,290
1,7,16,3,3,1,A,G,g,r,15,5,29001,1,3,593,313
1,7,16,3,3,1,A,G,g,r,15,5,29001,1,3,452,396
1,7,16,3,3,1,A,G,g,r,15,5,29001,1,3,319,404
1,7,16,3,3,1,A,G,g,r,15,5,30001,1,1,617,119
1,7,16,3,3,1,A,G,g,r,15,5,30001,1,3,536,198
1,7,16,3,3,1,A,G,g,r,15,5,30001,1,3,497,214
1,7,16,3,3,1,A,G,g,r,15,5,30001,1,3,495,278
1,7,16,3,3,1,A,G,g,r,15,5,30001,1,3,623,307
1,7,16,3,3,1,A,G,g,r,15,5,30001,1,3,449,396
1,7,16,3,3,1,A,G,g,r,15,5,30001,1,3,319,409
1,7,16,3,3,1,A,G,g,r,15,5,31001,1,3,604,117
1,7,16,3,3,1,A,G,g,r,15,5,31001,1,3,615,300
1,7,16,3,3,1,A,G,g,r,15,5,31001,1,1,565,120
1,7,16,3,3,1,A,G,g,r,15,5,31001,1,3,494,271
1,7,16,3,3,1,A,G,g,r,15,5,31001,1,3,413,284
1,7,16,3,3,1,A,G,g,r,15,5,31001,1,3,449,397
1,7,16,3,3,1,A,G,g,r,15,5,31001,1,3,316,416
1,7,16,3,3,1,A,G,g,r,15,5,32001,1,3,638,265
1,7,16,3,3,1,A,G,g,r,15,5,32001,1,3,582,307
1,7,16,3,3,1,A,G,g,r,15,5,32001,1,3,466,258
1,7,16,3,3,1,A,G,g,r,15,5,32001,1,1,555,118
1,7,16,3,3,1,A,G,g,r,15,5,32001,1,3,456,407
1,7,16,3,3,1,A,G,g,r,15,5,32001,1,3,399,345
1,7,16,3,3,1,A,G,g,r,15,5,32001,1,3,344,426
1,7,16,3,3,1,A,G,g,r,15,5,33001,1,3,636,284
1,7,16,3,3,1,A,G,g,r,15,5,33001,1,3,458,234
1,7,16,3,3,1,A,G,g,r,15,5,33001,1,1,497,121
1,7,16,3,3,1,A,G,g,r,15,5,33001,1,3,512,337
1,7,16,3,3,1,A,G,g,r,15,5,33001,1,3,437,385
1,7,16,3,3,1,A,G,g,r,15,5,33001,1,3,401,376
1,7,16,3,3,1,A,G,g,r,15,5,34001,1,3,625,288
1,7,16,3,3,1,A,G,g,r,15,5,34001,1,3,568,336
1,7,16,3,3,1,A,G,g,r,15,5,34001,1,3,474,236
1,7,16,3,3,1,A,G,g,r,15,5,34001,1,1,462,143
1,7,16,3,3,1,A,G,g,r,15,5,34001,1,3,447,369
1,7,16,3,3,1,A,G,g,r,15,5,34001,1,3,371,368
1,7,16,3,3,1,A,G,g,r,15,5,34001,1,3,319,417
1,7,16,3,3,1,A,G,g,r,15,5,35001,1,3,624,290
1,7,16,3,3,1,A,G,g,r,15,5,35001,1,3,598,340
1,7,16,3,3,1,A,G,g,r,15,5,35001,1,3,462,231
1,7,16,3,3,1,A,G,g,r,15,5,35001,1,1,407,135
1,7,16,3,3,1,A,G,g,r,15,5,35001,1,3,437,369
1,7,16,3,3,1,A,G,g,r,15,5,35001,1,3,370,370
1,7,16,3,3,1,A,G,g,r,15,5,35001,1,3,312,406
1,7,16,3,3,1,A,G,g,r,15,5,36001,1,1,362,85
1,7,16,3,3,1,A,G,g,r,15,5,36001,1,3,615,287
1,7,16,3,3,1,A,G,g,r,15,5,36001,1,3,604,338
1,7,16,3,3,1,A,G,g,r,15,5,36001,1,3,515,354
1,7,16,3,3,1,A,G,g,r,15,5,36001,1,3,439,318
1,7,16,3,3,1,A,G,g,r,15,5,36001,1,3,341,399
1,7,16,3,3,1,A,G,g,r,15,5,36001,1,3,280,416
1,7,16,3,3,1,A,G,g,r,15,5,37001,1,3,611,292
1,7,16,3,3,1,A,G,g,r,15,5,37001,1,3,599,342
1,7,16,3,3,1,A,G,g,r,15,5,37001,1,3,513,345
1,7,16,3,3,1,A,G,g,r,15,5,37001,1,3,460,220
1,7,16,3,3,1,A,G,g,r,15,5,37001,1,3,351,389
1,7,16,3,3,1,A,G,g,r,15,5,37001,1,3,273,423
1,7,16,3,3,1,A,G,g,r,15,5,37001,1,1,350,80
1,7,16,3,3,1,A,G,g,r,15,5,38001,1,3,611,359
1,7,16,3,3,1,A,G,g,r,15,5,38001,1,3,574,314
1,7,16,3,3,1,A,G,g,r,15,5,38001,1,3,542,315
1,7,16,3,3,1,A,G,g,r,15,5,38001,1,3,436,225
1,7,16,3,3,1,A,G,g,r,15,5,38001,1,3,359,393
1,7,16,3,3,1,A,G,g,r,15,5,38001,1,3,278,411
1,7,16,3,3,1,A,G,g,r,15,5,38001,1,1,357,78
1,7,16,3,3,1,A,G,g,r,15,5,39001,1,3,617,354
1,7,16,3,3,1,A,G,g,r,15,5,39001,1,3,617,295
1,7,16,3,3,1,A,G,g,r,15,5,39001,1,3,516,344
1,7,16,3,3,1,A,G,g,r,15,5,39001,1,3,451,212
1,7,16,3,3,1,A,G,g,r,15,5,39001,1,3,366,385
1,7,16,3,3,1,A,G,g,r,15,5,39001,1,3,261,396
1,7,16,3,3,1,A,G,g,r,15,5,39001,1,1,370,76
1,7,16,3,3,1,A,G,g,r,15,5,40001,1,3,629,370
1,7,16,3,3,1,A,G,g,r,15,5,40001,1,3,630,283
1,7,16,3,3,1,A,G,g,r,15,5,40001,1,3,484,332
1,7,16,3,3,1,A,G,g,r,15,5,40001,1,3,408,262
1,7,16,3,3,1,A,G,g,r,15,5,40001,1,3,378,376
1,7,16,3,3,1,A,G,g,r,15,5,40001,1,3,268,421
1,7,16,3,3,1,A,G,g,r,15,5,40001,1,1,406,60
1,7,16,3,3,1,A,G,g,r,15,5,41001,1,3,613,359
1,7,16,3,3,1,A,G,g,r,15,5,41001,1,3,618,283
1,7,16,3,3,1,A,G,g,r,15,5,41001,1,3,488,333
1,7,16,3,3,1,A,G,g,r,15,5,41001,1,3,430,264
1,7,16,3,3,1,A,G,g,r,15,5,41001,1,3,398,357
1,7,16,3,3,1,A,G,g,r,15,5,41001,1,3,246,402
1,7,16,3,3,1,A,G,g,r,15,5,41001,1,1,420,52
1,7,16,3,3,1,A,G,g,r,15,5,42001,1,3,632,362
1,7,16,3,3,1,A,G,g,r,15,5,42001,1,3,642,256
1,7,16,3,3,1,A,G,g,r,15,5,42001,1,3,464,344
1,7,16,3,3,1,A,G,g,r,15,5,42001,1,3,426,261
1,7,16,3,3,1,A,G,g,r,15,5,42001,1,3,396,351
1,7,16,3,3,1,A,G,g,r,15,5,42001,1,3,272,315
1,7,16,3,3,1,A,G,g,r,15,5,42001,1,1,428,48
1,7,16,3,3,1,A,G,g,r,15,5,43001,1,3,629,365
1,7,16,3,3,1,A,G,g,r,15,5,43001,1,3,637,272
1,7,16,3,3,1,A,G,g,r,15,5,43001,1,3,442,311
1,7,16,3,3,1,A,G,g,r,15,5,43001,1,3,416,275
1,7,16,3,3,1,A,G,g,r,15,5,43001,1,3,388,354
1,7,16,3,3,1,A,G,g,r,15,5,43001,1,3,310,256
1,7,16,3,3,1,A,G,g,r,15,5,43001,1,1,433,46
1,7,16,3,3,1,A,G,g,r,15,5,44001,1,3,609,340
1,7,16,3,3,1,A,G,g,r,15,5,44001,1,3,645,291
1,7,16,3,3,1,A,G,g,r,15,5,44001,1,3,465,372
1,7,16,3,3,1,A,G,g,r,15,5,44001,1,3,397,289
1,7,16,3,3,1,A,G,g,r,15,5,44001,1,3,384,379
1,7,16,3,3,1,A,G,g,r,15,5,44001,1,3,292,297
1,7,16,3,3,1,A,G,g,r,15,5,44001,1,1,435,52
1,7,16,3,3,1,A,G,g,r,15,5,45001,1,1,439,57
1,7,16,3,3,1,A,G,g,r,15,5,45001,1,3,254,313
1,7,16,3,3,1,A,G,g,r,15,5,45001,1,3,381,302
1,7,16,3,3,1,A,G,g,r,15,5,45001,1,3,535,264
1,7,16,3,3,1,A,G,g,r,15,5,45001,1,3,539,336
1,7,16,3,3,1,A,G,g,r,15,5,45001,1,3,408,364
1,7,16,3,3,1,A,G,g,r,15,5,45001,1,3,344,405
1,7,16,3,3,1,A,G,g,r,15,5,46001,1,3,506,339
1,7,16,3,3,1,A,G,g,r,15,5,46001,1,3,512,237
1,7,16,3,3,1,A,G,g,r,15,5,46001,1,3,432,297
1,7,16,3,3,1,A,G,g,r,15,5,46001,1,3,425,350
1,7,16,3,3,1,A,G,g,r,15,5,46001,1,3,368,401
1,7,16,3,3,1,A,G,g,r,15,5,46001,1,3,265,272
1,7,16,3,3,1,A,G,g,r,15,5,46001,1,1,447,60
1,7,16,3,3,1,A,G,g,r,15,5,47001,1,3,517,286
1,7,16,3,3,1,A,G,g,r,15,5,47001,1,3,451,220
1,7,16,3,3,1,A,G,g,r,15,5,47001,1,1,501,187
1,7,16,3,3,1,A,G,g,r,15,5,47001,1,3,415,299
1,7,16,3,3,1,A,G,g,r,15,5,47001,1,3,384,357
1,7,16,3,3,1,A,G,g,r,15,5,47001,1,3,334,413
1,7,16,3,3,1,A,G,g,r,15,5,47001,1,3,283,270
1,7,16,3,3,1,A,G,g,r,15,5,48001,1,3,535,260
1,7,16,3,3,1,A,G,g,r,15,5,48001,1,1,508,225
1,7,16,3,3,1,A,G,g,r,15,5,48001,1,3,421,158
1,7,16,3,3,1,A,G,g,r,15,5,48001,1,3,462,303
1,7,16,3,3,1,A,G,g,r,15,5,48001,1,3,410,395
1,7,16,3,3,1,A,G,g,r,15,5,48001,1,3,327,351
1,7,16,3,3,1,A,G,g,r,15,5,48001,1,3,261,280
1,7,16,3,3,1,A,G,g,r,15,5,49001,1,1,550,170
1,7,16,3,3,1,A,G,g,r,15,5,49001,1,3,478,112
1,7,16,3,3,1,A,G,g,r,15,5,49001,1,3,424,229
1,7,16,3,3,1,A,G,g,r,15,5,49001,1,3,532,274
1,7,16,3,3,1,A,G,g,r,15,5,49001,1,3,420,339
1,7,16,3,3,1,A,G,g,r,15,5,49001,1,3,440,386
1,7,16,3,3,1,A,G,g,r,15,5,49001,1,3,332,367
1,7,16,3,3,1,A,G,g,r,15,5,49001,1,3,284,289
1,7,16,3,3,1,A,G,g,r,15,5,50001,1,3,523,280
1,7,16,3,3,1,A,G,g,r,15,5,50001,1,3,510,428
1,7,16,3,3,1,A,G,g,r,15,5,50001,1,3,424,335
1,7,16,3,3,1,A,G,g,r,15,5,50001,1,3,324,298
1,7,16,3,3,1,A,G,g,r,15,5,50001,1,3,276,186
1,7,16,3,3,1,A,G,g,r,15,5,50001,1,3,497,121
1,7,16,3,3,1,A,G,g,r,15,5,50001,1,1,590,104
1,7,16,3,3,1,A,G,g,r,15,5,51001,1,1,676,181
1,7,16,3,3,1,A,G,g,r,15,5,51001,1,3,564,150
1,7,16,3,3,1,A,G,g,r,15,5,51001,1,3,546,281
1,7,16,3,3,1,A,G,g,r,15,5,51001,1,3,523,442
1,7,16,3,3,1,A,G,g,r,15,5,51001,1,3,359,363
1,7,16,3,3,1,A,G,g,r,15,5,51001,1,3,287,291
1,7,16,3,3,1,A,G,g,r,15,5,51001,1,3,340,393
1,7,16,3,3,1,A,G,g,r,15,5,51001,1,3,332,476
1,7,16,3,3,1,A,G,g,r,15,5,52001,1,1,675,254
1,7,16,3,3,1,A,G,g,r,15,5,52001,1,3,527,199
1,7,16,3,3,1,A,G,g,r,15,5,52001,1,3,529,288
1,7,16,3,3,1,A,G,g,r,15,5,52001,1,3,504,398
1,7,16,3,3,1,A,G,g,r,15,5,52001,1,3,440,126
1,7,16,3,3,1,A,G,g,r,15,5,52001,1,3,352,214
1,7,16,3,3,1,A,G,g,r,15,5,52001,1,3,374,377
1,7,16,3,3,1,A,G,g,r,15,5,52001,1,3,321,407
1,7,16,3,3,1,A,G,g,r,15,5,53001,1,1,667,254
1,7,16,3,3,1,A,G,g,r,15,5,53001,1,3,635,400
1,7,16,3,3,1,A,G,g,r,15,5,53001,1,3,575,274
1,7,16,3,3,1,A,G,g,r,15,5,53001,1,3,517,248
1,7,16,3,3,1,A,G,g,r,15,5,53001,1,3,519,427
1,7,16,3,3,1,A,G,g,r,15,5,53001,1,3,384,369
1,7,16,3,3,1,A,G,g,r,15,5,53001,1,3,321,411
1,7,16,3,3,1,A,G,g,r,15,5,53001,1,3,306,372
1,7,16,3,3,1,A,G,g,r,15,5,54001,1,3,638,394
1,7,16,3,3,1,A,G,g,r,15,5,54001,1,1,642,303
1,7,16,3,3,1,A,G,g,r,15,5,54001,1,3,572,283
1,7,16,3,3,1,A,G,g,r,15,5,54001,1,3,508,291
1,7,16,3,3,1,A,G,g,r,15,5,54001,1,3,515,432
1,7,16,3,3,1,A,G,g,r,15,5,54001,1,3,395,389
1,7,16,3,3,1,A,G,g,r,15,5,54001,1,3,284,381
1,7,16,3,3,1,A,G,g,r,15,5,54001,1,3,297,420
1,7,16,3,3,1,A,G,g,r,15,5,55001,1,3,632,386
1,7,16,3,3,1,A,G,g,r,15,5,55001,1,3,575,271
1,7,16,3,3,1,A,G,g,r,15,5,55001,1,3,493,304
1,7,16,3,3,1,A,G,g,r,15,5,55001,1,3,519,427
1,7,16,3,3,1,A,G,g,r,15,5,55001,1,3,349,372
1,7,16,3,3,1,A,G,g,r,15,5,55001,1,3,321,396
1,7,16,3,3,1,A,G,g,r,15,5,55001,1,3,263,417
1,7,16,3,3,1,A,G,g,r,15,5,55001,1,1,638,325
1,7,16,3,3,1,A,G,g,r,15,5,56001,1,3,640,389
1,7,16,3,3,1,A,G,g,r,15,5,56001,1,3,594,429
1,7,16,3,3,1,A,G,g,r,15,5,56001,1,1,677,358
1,7,16,3,3,1,A,G,g,r,15,5,56001,1,3,580,277
1,7,16,3,3,1,A,G,g,r,15,5,56001,1,3,467,355
1,7,16,3,3,1,A,G,g,r,15,5,56001,1,3,398,306
1,7,16,3,3,1,A,G,g,r,15,5,56001,1,3,325,399
1,7,16,3,3,1,A,G,g,r,15,5,56001,1,3,268,422
1,7,16,3,3,1,A,G,g,r,15,5,57001,1,1,663,408
1,7,16,3,3,1,A,G,g,r,15,5,57001,1,3,637,390
1,7,16,3,3,1,A,G,g,r,15,5,57001,1,3,597,430
1,7,16,3,3,1,A,G,g,r,15,5,57001,1,3,585,264
1,7,16,3,3,1,A,G,g,r,15,5,57001,1,3,472,358
1,7,16,3,3,1,A,G,g,r,15,5,57001,1,3,399,311
1,7,16,3,3,1,A,G,g,r,15,5,57001,1,3,371,381
1,7,16,3,3,1,A,G,g,r,15,5,57001,1,3,267,420
1,7,16,3,3,1,A,G,g,r,15,5,58001,1,1,669,402
1,7,16,3,3,1,A,G,g,r,15,5,58001,1,3,636,389
1,7,16,3,3,1,A,G,g,r,15,5,58001,1,3,593,428
1,7,16,3,3,1,A,G,g,r,15,5,58001,1,3,480,464
1,7,16,3,3,1,A,G,g,r,15,5,58001,1,3,572,278
1,7,16,3,3,1,A,G,g,r,15,5,58001,1,3,446,287
1,7,16,3,3,1,A,G,g,r,15,5,58001,1,3,399,348
1,7,16,3,3,1,A,G,g,r,15,5,58001,1,3,265,424
1,7,16,3,3,1,A,G,g,r,15,5,59001,1,1,652,410
1,7,16,3,3,1,A,G,g,r,15,5,59001,1,3,629,377
1,7,16,3,3,1,A,G,g,r,15,5,59001,1,3,597,426
1,7,16,3,3,1,A,G,g,r,15,5,59001,1,3,600,302
1,7,16,3,3,1,A,G,g,r,15,5,59001,1,3,457,292
1,7,16,3,3,1,A,G,g,r,15,5,59001,1,3,400,353
1,7,16,3,3,1,A,G,g,r,15,5,59001,1,3,475,466
1,7,16,3,3,1,A,G,g,r,15,5,59001,1,3,265,344
1,7,16,3,3,1,A,G,g,r,15,5,60001,1,1,651,438
1,7,16,3,3,1,A,G,g,r,15,5,60001,1,3,611,435
1,7,16,3,3,1,A,G,g,r,15,5,60001,1,3,596,364
1,7,16,3,3,1,A,G,g,r,15,5,60001,1,3,615,283
1,7,16,3,3,1,A,G,g,r,15,5,60001,1,3,441,343
1,7,16,3,3,1,A,G,g,r,15,5,60001,1,3,471,226
1,7,16,3,3,1,A,G,g,r,15,5,60001,1,3,266,396
1,7,16,3,3,1,A,G,g,r,15,5,60001,1,3,476,474
1,7,16,3,3,1,A,G,g,r,15,5,61001,1,1,606,457
1,7,16,3,3,1,A,G,g,r,15,5,61001,1,3,593,427
1,7,16,3,3,1,A,G,g,r,15,5,61001,1,3,610,390
1,7,16,3,3,1,A,G,g,r,15,5,61001,1,3,508,477
1,7,16,3,3,1,A,G,g,r,15,5,61001,1,3,277,388
1,7,16,3,3,1,A,G,g,r,15,5,61001,1,3,494,171
1,7,16,3,3,1,A,G,g,r,15,5,61001,1,3,583,261
1,7,16,3,3,1,A,G,g,r,15,5,62001,1,3,593,185
1,7,16,3,3,1,A,G,g,r,15,5,62001,1,3,579,250
1,7,16,3,3,1,A,G,g,r,15,5,62001,1,3,463,358
1,7,16,3,3,1,A,G,g,r,15,5,62001,1,3,256,391
1,7,16,3,3,1,A,G,g,r,15,5,62001,1,3,613,383
1,7,16,3,3,1,A,G,g,r,15,5,62001,1,3,586,416
1,7,16,3,3,1,A,G,g,r,15,5,62001,1,1,615,468
1,7,16,3,3,1,A,G,g,r,15,5,63001,1,3,635,282
1,7,16,3,3,1,A,G,g,r,15,5,63001,1,3,629,316
1,7,16,3,3,1,A,G,g,r,15,5,63001,1,3,571,313
1,7,16,3,3,1,A,G,g,r,15,5,63001,1,3,591,423
1,7,16,3,3,1,A,G,g,r,15,5,63001,1,3,500,450
1,7,16,3,3,1,A,G,g,r,15,5,63001,1,3,462,357
1,7,16,3,3,1,A,G,g,r,15,5,63001,1,3,307,411
1,7,16,3,3,1,A,G,g,r,15,5,63001,1,1,588,479
1,7,16,3,3,1,A,G,g,r,15,5,64001,1,3,620,294
1,7,16,3,3,1,A,G,g,r,15,5,64001,1,3,596,303
1,7,16,3,3,1,A,G,g,r,15,5,64001,1,3,543,339
1,7,16,3,3,1,A,G,g,r,15,5,64001,1,3,486,356
1,7,16,3,3,1,A,G,g,r,15,5,64001,1,3,590,432
1,7,16,3,3,1,A,G,g,r,15,5,64001,1,3,537,515
1,7,16,3,3,1,A,G,g,r,15,5,64001,1,3,436,553
1,7,16,3,3,1,A,G,g,r,15,5,64001,1,1,642,477
1,7,16,3,3,1,A,G,g,r,15,5,65001,1,3,632,300
1,7,16,3,3,1,A,G,g,r,15,5,65001,1,3,562,178
1,7,16,3,3,1,A,G,g,r,15,5,65001,1,3,548,352
1,7,16,3,3,1,A,G,g,r,15,5,65001,1,3,583,420
1,7,16,3,3,1,A,G,g,r,15,5,65001,1,3,493,504
1,7,16,3,3,1,A,G,g,r,15,5,65001,1,3,555,518
1,7,16,3,3,1,A,G,g,r,15,5,65001,1,1,627,457
1,7,16,3,3,1,A,G,g,r,15,5,66001,1,3,567,171
1,7,16,3,3,1,A,G,g,r,15,5,66001,1,3,541,202
1,7,16,3,3,1,A,G,g,r,15,5,66001,1,3,532,347
1,7,16,3,3,1,A,G,g,r,15,5,66001,1,3,494,378
1,7,16,3,3,1,A,G,g,r,15,5,66001,1,3,583,374
1,7,16,3,3,1,A,G,g,r,15,5,66001,1,3,550,443
1,7,16,3,3,1,A,G,g,r,15,5,66001,1,3,494,489
1,7,16,3,3,1,A,G,g,r,15,5,66001,1,1,621,453
1,7,16,3,3,1,A,G,g,r,15,5,67001,1,3,633,189
1,7,16,3,3,1,A,G,g,r,15,5,67001,1,3,540,212
1,7,16,3,3,1,A,G,g,r,15,5,67001,1,3,467,375
1,7,16,3,3,1,A,G,g,r,15,5,67001,1,3,519,404
1,7,16,3,3,1,A,G,g,r,15,5,67001,1,3,600,377
1,7,16,3,3,1,A,G,g,r,15,5,67001,1,3,645,406
1,7,16,3,3,1,A,G,g,r,15,5,67001,1,3,482,483
1,7,16,3,3,1,A,G,g,r,15,5,67001,1,1,632,457
1,7,16,3,3,1,A,G,g,r,15,5,68001,1,3,669,447
1,7,16,3,3,1,A,G,g,r,15,5,68001,1,3,592,371
1,7,16,3,3,1,A,G,g,r,15,5,68001,1,1,605,428
1,7,16,3,3,1,A,G,g,r,15,5,68001,1,3,498,399
1,7,16,3,3,1,A,G,g,r,15,5,68001,1,3,488,492
1,7,16,3,3,1,A,G,g,r,15,5,68001,1,3,437,374
1,7,16,3,3,1,A,G,g,r,15,5,68001,1,3,521,216
1,7,16,3,3,1,A,G,g,r,15,5,68001,1,3,547,167
1,7,16,3,3,1,A,G,g,r,15,5,69001,1,3,663,463
1,7,16,3,3,1,A,G,g,r,15,5,69001,1,3,614,374
1,7,16,3,3,1,A,G,g,r,15,5,69001,1,1,596,424
1,7,16,3,3,1,A,G,g,r,15,5,69001,1,3,453,497
1,7,16,3,3,1,A,G,g,r,15,5,69001,1,3,523,394
1,7,16,3,3,1,A,G,g,r,15,5,69001,1,3,468,368
1,7,16,3,3,1,A,G,g,r,15,5,69001,1,3,512,207
1,7,16,3,3,1,A,G,g,r,15,5,69001,1,3,556,119
1,7,16,3,3,1,A,G,g,r,15,5,70001,1,3,523,219
1,7,16,3,3,1,A,G,g,r,15,5,70001,1,3,522,337
1,7,16,3,3,1,A,G,g,r,15,5,70001,1,3,589,389
1,7,16,3,3,1,A,G,g,r,15,5,70001,1,3,542,390
1,7,16,3,3,1,A,G,g,r,15,5,70001,1,3,609,415
1,7,16,3,3,1,A,G,g,r,15,5,70001,1,3,653,469
1,7,16,3,3,1,A,G,g,r,15,5,70001,1,3,436,503
1,7,16,3,3,1,A,G,g,r,15,5,70001,1,1,585,460
1,7,16,3,3,1,A,G,g,r,15,5,71001,1,3,624,281
1,7,16,3,3,1,A,G,g,r,15,5,71001,1,3,527,211
1,7,16,3,3,1,A,G,g,r,15,5,71001,1,3,524,384
1,7,16,3,3,1,A,G,g,r,15,5,71001,1,3,592,393
1,7,16,3,3,1,A,G,g,r,15,5,71001,1,3,610,427
1,7,16,3,3,1,A,G,g,r,15,5,71001,1,3,619,488
1,7,16,3,3,1,A,G,g,r,15,5,71001,1,3,439,505
1,7,16,3,3,1,A,G,g,r,15,5,71001,1,1,569,501
1,7,16,3,3,1,A,G,g,r,15,5,72001,1,3,599,302
1,7,16,3,3,1,A,G,g,r,15,5,72001,1,3,519,224
1,7,16,3,3,1,A,G,g,r,15,5,72001,1,3,383,381
1,7,16,3,3,1,A,G,g,r,15,5,72001,1,3,429,398
1,7,16,3,3,1,A,G,g,r,15,5,72001,1,3,505,414
1,7,16,3,3,1,A,G,g,r,15,5,72001,1,3,497,466
1,7,16,3,3,1,A,G,g,r,15,5,72001,1,3,508,524
1,7,16,3,3,1,A,G,g,r,15,5,72001,1,1,542,504
1,7,16,3,3,1,A,G,g,r,15,5,73001,1,3,605,315
1,7,16,3,3,1,A,G,g,r,15,5,73001,1,3,512,211
1,7,16,3,3,1,A,G,g,r,15,5,73001,1,3,342,418
1,7,16,3,3,1,A,G,g,r,15,5,73001,1,3,452,396
1,7,16,3,3,1,A,G,g,r,15,5,73001,1,3,519,398
1,7,16,3,3,1,A,G,g,r,15,5,73001,1,3,554,438
1,7,16,3,3,1,A,G,g,r,15,5,73001,1,3,502,508
1,7,16,3,3,1,A,G,g,r,15,5,73001,1,1,554,509
1,7,16,3,3,1,A,G,g,r,15,5,74001,1,3,499,217
1,7,16,3,3,1,A,G,g,r,15,5,74001,1,3,612,304
1,7,16,3,3,1,A,G,g,r,15,5,74001,1,3,607,401
1,7,16,3,3,1,A,G,g,r,15,5,74001,1,3,544,403
1,7,16,3,3,1,A,G,g,r,15,5,74001,1,3,369,379
1,7,16,3,3,1,A,G,g,r,15,5,74001,1,3,290,431
1,7,16,3,3,1,A,G,g,r,15,5,74001,1,3,460,495
1,7,16,3,3,1,A,G,g,r,15,5,74001,1,1,550,500
1,7,16,3,3,1,A,G,g,r,15,5,75001,1,3,637,303
1,7,16,3,3,1,A,G,g,r,15,5,75001,1,3,611,366
1,7,16,3,3,1,A,G,g,r,15,5,75001,1,3,539,383
1,7,16,3,3,1,A,G,g,r,15,5,75001,1,3,439,242
1,7,16,3,3,1,A,G,g,r,15,5,75001,1,3,343,376
1,7,16,3,3,1,A,G,g,r,15,5,75001,1,3,291,441
1,7,16,3,3,1,A,G,g,r,15,5,75001,1,3,468,497
1,7,16,3,3,1,A,G,g,r,15,5,75001,1,1,601,498
1,7,16,3,3,1,A,G,g,r,15,5,76001,1,1,633,464
1,7,16,3,3,1,A,G,g,r,15,5,76001,1,3,604,380
1,7,16,3,3,1,A,G,g,r,15,5,76001,1,3,560,383
1,7,16,3,3,1,A,G,g,r,15,5,76001,1,3,584,306
1,7,16,3,3,1,A,G,g,r,15,5,76001,1,3,505,265
1,7,16,3,3,1,A,G,g,r,15,5,76001,1,3,344,392
1,7,16,3,3,1,A,G,g,r,15,5,76001,1,3,298,404
1,7,16,3,3,1,A,G,g,r,15,5,76001,1,3,445,498
1,7,16,3,3,1,A,G,g,r,15,5,77001,1,1,643,460
1,7,16,3,3,1,A,G,g,r,15,5,77001,1,3,586,399
1,7,16,3,3,1,A,G,g,r,15,5,77001,1,3,573,348
1,7,16,3,3,1,A,G,g,r,15,5,77001,1,3,565,255
1,7,16,3,3,1,A,G,g,r,15,5,77001,1,3,332,377
1,7,16,3,3,1,A,G,g,r,15,5,77001,1,3,362,428
1,7,16,3,3,1,A,G,g,r,15,5,77001,1,3,444,444
1,7,16,3,3,1,A,G,g,r,15,5,77001,1,3,433,497
1,7,16,3,3,1,A,G,g,r,15,5,78001,1,1,634,459
1,7,16,3,3,1,A,G,g,r,15,5,78001,1,3,585,391
1,7,16,3,3,1,A,G,g,r,15,5,78001,1,3,557,333
1,7,16,3,3,1,A,G,g,r,15,5,78001,1,3,538,294
1,7,16,3,3,1,A,G,g,r,15,5,78001,1,3,452,517
1,7,16,3,3,1,A,G,g,r,15,5,78001,1,3,431,458
1,7,16,3,3,1,A,G,g,r,15,5,78001,1,3,386,390
1,7,16,3,3,1,A,G,g,r,15,5,78001,1,3,341,390
1,7,16,3,3,1,A,G,g,r,15,5,79001,1,1,632,472
1,7,16,3,3,1,A,G,g,r,15,5,79001,1,3,597,406
1,7,16,3,3,1,A,G,g,r,15,5,79001,1,3,507,255
1,7,16,3,3,1,A,G,g,r,15,5,79001,1,3,524,435
1,7,16,3,3,1,A,G,g,r,15,5,79001,1,3,403,378
1,7,16,3,3,1,A,G,g,r,15,5,79001,1,3,448,469
1,7,16,3,3,1,A,G,g,r,15,5,79001,1,3,439,524
1,7,16,3,3,1,A,G,g,r,15,5,80001,1,1,635,464
1,7,16,3,3,1,A,G,g,r,15,5,80001,1,3,628,276
1,7,16,3,3,1,A,G,g,r,15,5,80001,1,3,517,257
1,7,16,3,3,1,A,G,g,r,15,5,80001,1,3,588,394
1,7,16,3,3,1,A,G,g,r,15,5,80001,1,3,514,429
1,7,16,3,3,1,A,G,g,r,15,5,80001,1,3,518,486
1,7,16,3,3,1,A,G,g,r,15,5,80001,1,3,482,510
1,7,16,3,3,1,A,G,g,r,15,5,80001,1,3,439,337
1,7,16,3,3,1,A,G,g,r,15,5,81001,1,1,637,463
1,7,16,3,3,1,A,G,g,r,15,5,81001,1,3,585,404
1,7,16,3,3,1,A,G,g,r,15,5,81001,1,3,618,313
1,7,16,3,3,1,A,G,g,r,15,5,81001,1,3,512,198
1,7,16,3,3,1,A,G,g,r,15,5,81001,1,3,473,343
1,7,16,3,3,1,A,G,g,r,15,5,81001,1,3,484,452
1,7,16,3,3,1,A,G,g,r,15,5,81001,1,3,525,482
1,7,16,3,3,1,A,G,g,r,15,5,81001,1,3,467,527
1,7,16,3,3,1,A,G,g,r,15,5,82001,1,3,628,284
1,7,16,3,3,1,A,G,g,r,15,5,82001,1,3,567,248
1,7,16,3,3,1,A,G,g,r,15,5,82001,1,3,534,331
1,7,16,3,3,1,A,G,g,r,15,5,82001,1,3,605,387
1,7,16,3,3,1,A,G,g,r,15,5,82001,1,3,574,451
1,7,16,3,3,1,A,G,g,r,15,5,82001,1,3,491,458
1,7,16,3,3,1,A,G,g,r,15,5,82001,1,3,441,500
1,7,16,3,3,1,A,G,g,r,15,5,82001,1,1,644,455
1,7,16,3,3,1,A,G,g,r,15,5,83001,1,3,636,289
1,7,16,3,3,1,A,G,g,r,15,5,83001,1,3,542,306
1,7,16,3,3,1,A,G,g,r,15,5,83001,1,3,642,345
1,7,16,3,3,1,A,G,g,r,15,5,83001,1,3,593,391
1,7,16,3,3,1,A,G,g,r,15,5,83001,1,3,507,432
1,7,16,3,3,1,A,G,g,r,15,5,83001,1,3,479,507
1,7,16,3,3,1,A,G,g,r,15,5,83001,1,3,395,507
1,7,16,3,3,1,A,G,g,r,15,5,83001,1,1,655,452
1,7,16,3,3,1,A,G,g,r,15,5,84001,1,3,655,325
1,7,16,3,3,1,A,G,g,r,15,5,84001,1,3,521,344
1,7,16,3,3,1,A,G,g,r,15,5,84001,1,3,470,391
1,7,16,3,3,1,A,G,g,r,15,5,84001,1,3,495,420
1,7,16,3,3,1,A,G,g,r,15,5,84001,1,3,598,402
1,7,16,3,3,1,A,G,g,r,15,5,84001,1,3,533,472
1,7,16,3,3,1,A,G,g,r,15,5,84001,1,3,470,522
1,7,16,3,3,1,A,G,g,r,15,5,84001,1,1,674,439
1,7,16,3,3,1,A,G,g,r,15,5,85001,1,1,668,446
1,7,16,3,3,1,A,G,g,r,15,5,85001,1,3,621,353
1,7,16,3,3,1,A,G,g,r,15,5,85001,1,3,583,393
1,7,16,3,3,1,A,G,g,r,15,5,85001,1,3,516,336
1,7,16,3,3,1,A,G,g,r,15,5,85001,1,3,408,398
1,7,16,3,3,1,A,G,g,r,15,5,85001,1,3,327,403
1,7,16,3,3,1,A,G,g,r,15,5,85001,1,3,482,527
1,7,16,3,3,1,A,G,g,r,15,5,85001,1,3,560,483
1,7,16,3,3,1,A,G,g,r,15,5,86001,1,1,690,421
1,7,16,3,3,1,A,G,g,r,15,5,86001,1,3,634,351
1,7,16,3,3,1,A,G,g,r,15,5,86001,1,3,589,374
1,7,16,3,3,1,A,G,g,r,15,5,86001,1,3,589,472
1,7,16,3,3,1,A,G,g,r,15,5,86001,1,3,495,519
1,7,16,3,3,1,A,G,g,r,15,5,86001,1,3,471,349
1,7,16,3,3,1,A,G,g,r,15,5,86001,1,3,410,367
1,7,16,3,3,1,A,G,g,r,15,5,86001,1,3,355,346
1,7,16,3,3,1,A,G,g,r,15,5,87001,1,1,693,413
1,7,16,3,3,1,A,G,g,r,15,5,87001,1,3,626,363
1,7,16,3,3,1,A,G,g,r,15,5,87001,1,3,592,371
1,7,16,3,3,1,A,G,g,r,15,5,87001,1,3,451,353
1,7,16,3,3,1,A,G,g,r,15,5,87001,1,3,409,360
1,7,16,3,3,1,A,G,g,r,15,5,87001,1,3,347,348
1,7,16,3,3,1,A,G,g,r,15,5,87001,1,3,564,484
1,7,16,3,3,1,A,G,g,r,15,5,87001,1,3,525,508
1,7,16,3,3,1,A,G,g,r,15,5,88001,1,1,649,387
1,7,16,3,3,1,A,G,g,r,15,5,88001,1,3,622,366
1,7,16,3,3,1,A,G,g,r,15,5,88001,1,3,555,425
1,7,16,3,3,1,A,G,g,r,15,5,88001,1,3,583,473
1,7,16,3,3,1,A,G,g,r,15,5,88001,1,3,415,548
1,7,16,3,3,1,A,G,g,r,15,5,88001,1,3,448,382
1,7,16,3,3,1,A,G,g,r,15,5,88001,1,3,414,365
1,7,16,3,3,1,A,G,g,r,15,5,88001,1,3,420,287
1,7,16,3,3,1,A,G,g,r,15,5,89001,1,1,655,404
1,7,16,3,3,1,A,G,g,r,15,5,89001,1,3,595,308
1,7,16,3,3,1,A,G,g,r,15,5,89001,1,3,595,403
1,7,16,3,3,1,A,G,g,r,15,5,89001,1,3,633,463
1,7,16,3,3,1,A,G,g,r,15,5,89001,1,3,479,386
1,7,16,3,3,1,A,G,g,r,15,5,89001,1,3,528,453
1,7,16,3,3,1,A,G,g,r,15,5,89001,1,3,402,366
1,7,16,3,3,1,A,G,g,r,15,5,89001,1,3,404,534
1,7,16,3,3,1,A,G,g,r,15,5,90001,1,1,658,405
1,7,16,3,3,1,A,G,g,r,15,5,90001,1,3,661,347
1,7,16,3,3,1,A,G,g,r,15,5,90001,1,3,612,377
1,7,16,3,3,1,A,G,g,r,15,5,90001,1,3,667,459
1,7,16,3,3,1,A,G,g,r,15,5,90001,1,3,525,428
1,7,16,3,3,1,A,G,g,r,15,5,90001,1,3,499,388
1,7,16,3,3,1,A,G,g,r,15,5,90001,1,3,414,356
1,7,16,3,3,1,A,G,g,r,15,5,90001,1,3,425,549
1,7,16,3,3,1,A,G,g,r,15,5,91001,1,1,658,423
1,7,16,3,3,1,A,G,g,r,15,5,91001,1,3,622,484
1,7,16,3,3,1,A,G,g,r,15,5,91001,1,3,591,342
1,7,16,3,3,1,A,G,g,r,15,5,91001,1,3,505,214
1,7,16,3,3,1,A,G,g,r,15,5,91001,1,3,520,342
1,7,16,3,3,1,A,G,g,r,15,5,91001,1,3,518,410
1,7,16,3,3,1,A,G,g,r,15,5,91001,1,3,408,346
1,7,16,3,3,1,A,G,g,r,15,5,91001,1,3,443,518
1,7,16,3,3,1,A,G,g,r,15,5,92001,1,3,663,453
1,7,16,3,3,1,A,G,g,r,15,5,92001,1,1,689,388
1,7,16,3,3,1,A,G,g,r,15,5,92001,1,3,540,397
1,7,16,3,3,1,A,G,g,r,15,5,92001,1,3,603,287
1,7,16,3,3,1,A,G,g,r,15,5,92001,1,3,591,136
1,7,16,3,3,1,A,G,g,r,15,5,92001,1,3,505,235
1,7,16,3,3,1,A,G,g,r,15,5,92001,1,3,411,328
1,7,16,3,3,1,A,G,g,r,15,5,92001,1,3,340,381
1,7,16,3,3,1,A,G,g,r,15,5,93001,1,1,689,376
1,7,16,3,3,1,A,G,g,r,15,5,93001,1,3,682,315
1,7,16,3,3,1,A,G,g,r,15,5,93001,1,3,619,298
1,7,16,3,3,1,A,G,g,r,15,5,93001,1,3,538,395
1,7,16,3,3,1,A,G,g,r,15,5,93001,1,3,602,452
1,7,16,3,3,1,A,G,g,r,15,5,93001,1,3,517,227
1,7,16,3,3,1,A,G,g,r,15,5,93001,1,3,413,334
1,7,16,3,3,1,A,G,g,r,15,5,93001,1,3,321,401
1,7,16,3,3,1,A,G,g,r,15,5,94001,1,1,701,282
1,7,16,3,3,1,A,G,g,r,15,5,94001,1,3,611,296
1,7,16,3,3,1,A,G,g,r,15,5,94001,1,3,654,407
1,7,16,3,3,1,A,G,g,r,15,5,94001,1,3,557,409
1,7,16,3,3,1,A,G,g,r,15,5,94001,1,3,582,472
1,7,16,3,3,1,A,G,g,r,15,5,94001,1,3,524,212
1,7,16,3,3,1,A,G,g,r,15,5,94001,1,3,369,245
1,7,16,3,3,1,A,G,g,r,15,5,94001,1,3,298,406
1,7,16,3,3,1,A,G,g,r,15,5,95001,1,1,712,240
1,7,16,3,3,1,A,G,g,r,15,5,95001,1,3,624,303
1,7,16,3,3,1,A,G,g,r,15,5,95001,1,3,598,353
1,7,16,3,3,1,A,G,g,r,15,5,95001,1,3,618,427
1,7,16,3,3,1,A,G,g,r,15,5,95001,1,3,564,468
1,7,16,3,3,1,A,G,g,r,15,5,95001,1,3,508,210
1,7,16,3,3,1,A,G,g,r,15,5,95001,1,3,373,372
1,7,16,3,3,1,A,G,g,r,15,5,95001,1,3,311,404
1,7,16,3,3,1,A,G,g,r,15,5,96001,1,1,693,409
1,7,16,3,3,1,A,G,g,r,15,5,96001,1,3,647,323
1,7,16,3,3,1,A,G,g,r,15,5,96001,1,3,603,298
1,7,16,3,3,1,A,G,g,r,15,5,96001,1,3,511,201
1,7,16,3,3,1,A,G,g,r,15,5,96001,1,3,539,337
1,7,16,3,3,1,A,G,g,r,15,5,96001,1,3,569,463
1,7,16,3,3,1,A,G,g,r,15,5,96001,1,3,334,357
1,7,16,3,3,1,A,G,g,r,15,5,96001,1,3,313,419
1,7,16,3,3,1,A,G,g,r,15,5,97001,1,1,673,407
1,7,16,3,3,1,A,G,g,r,15,5,97001,1,3,664,304
1,7,16,3,3,1,A,G,g,r,15,5,97001,1,3,613,346
1,7,16,3,3,1,A,G,g,r,15,5,97001,1,3,496,202
1,7,16,3,3,1,A,G,g,r,15,5,97001,1,3,343,405
1,7,16,3,3,1,A,G,g,r,15,5,97001,1,3,298,437
1,7,16,3,3,1,A,G,g,r,15,5,97001,1,3,486,434
1,7,16,3,3,1,A,G,g,r,15,5,97001,1,3,509,466
1,7,16,3,3,1,A,G,g,r,15,5,98001,1,1,638,432
1,7,16,3,3,1,A,G,g,r,15,5,98001,1,3,727,228
1,7,16,3,3,1,A,G,g,r,15,5,98001,1,3,620,229
1,7,16,3,3,1,A,G,g,r,15,5,98001,1,3,472,220
1,7,16,3,3,1,A,G,g,r,15,5,98001,1,3,595,351
1,7,16,3,3,1,A,G,g,r,15,5,98001,1,3,507,426
1,7,16,3,3,1,A,G,g,r,15,5,98001,1,3,451,426
1,7,16,3,3,1,A,G,g,r,15,5,98001,1,3,277,438
1,7,16,3,3,1,A,G,g,r,15,5,99001,1,3,741,234
1,7,16,3,3,1,A,G,g,r,15,5,99001,1,3,637,384
1,7,16,3,3,1,A,G,g,r,15,5,99001,1,3,576,365
1,7,16,3,3,1,A,G,g,r,15,5,99001,1,3,455,215
1,7,16,3,3,1,A,G,g,r,15,5,99001,1,3,502,424
1,7,16,3,3,1,A,G,g,r,15,5,99001,1,1,566,396
1,7,16,3,3,1,A,G,g,r,15,5,99001,1,3,449,426
1,7,16,3,3,1,A,G,g,r,15,5,99001,1,3,283,423
1,7,16,3,3,1,A,G,g,r,15,5,100001,1,3,629,121
1,7,16,3,3,1,A,G,g,r,15,5,100001,1,3,481,215
1,7,16,3,3,1,A,G,g,r,15,5,100001,1,3,612,422
1,7,16,3,3,1,A,G,g,r,15,5,100001,1,3,471,352
1,7,16,3,3,1,A,G,g,r,15,5,100001,1,3,510,433
1,7,16,3,3,1,A,G,g,r,15,5,100001,1,3,442,417
1,7,16,3,3,1,A,G,g,r,15,5,100001,1,3,306,385
1,7,16,3,3,1,A,G,g,r,15,5,100001,1,1,588,343
1,7,16,3,3,1,A,G,g,r,15,5,101001,1,3,531,188
1,7,16,3,3,1,A,G,g,r,15,5,101001,1,3,462,226
1,7,16,3,3,1,A,G,g,r,15,5,101001,1,3,243,263
1,7,16,3,3,1,A,G,g,r,15,5,101001,1,3,418,367
1,7,16,3,3,1,A,G,g,r,15,5,101001,1,3,427,412
1,7,16,3,3,1,A,G,g,r,15,5,101001,1,3,495,437
1,7,16,3,3,1,A,G,g,r,15,5,101001,1,3,611,424
1,7,16,3,3,1,A,G,g,r,15,5,101001,1,1,579,352
1,7,16,3,3,1,A,G,g,r,15,5,102001,1,3,530,191
1,7,16,3,3,1,A,G,g,r,15,5,102001,1,3,446,213
1,7,16,3,3,1,A,G,g,r,15,5,102001,1,3,429,361
1,7,16,3,3,1,A,G,g,r,15,5,102001,1,3,225,388
1,7,16,3,3,1,A,G,g,r,15,5,102001,1,3,469,452
1,7,16,3,3,1,A,G,g,r,15,5,102001,1,3,478,509
1,7,16,3,3,1,A,G,g,r,15,5,102001,1,3,618,436
1,7,16,3,3,1,A,G,g,r,15,5,102001,1,1,585,356
1,7,16,3,3,1,A,G,g,r,15,5,103001,1,3,591,447
1,7,16,3,3,1,A,G,g,r,15,5,103001,1,3,519,449
1,7,16,3,3,1,A,G,g,r,15,5,103001,1,3,411,373
1,7,16,3,3,1,A,G,g,r,15,5,103001,1,3,284,419
1,7,16,3,3,1,A,G,g,r,15,5,103001,1,1,590,338
1,7,16,3,3,1,A,G,g,r,15,5,103001,1,3,526,185
1,7,16,3,3,1,A,G,g,r,15,5,103001,1,3,495,223
1,7,16,3,3,1,A,G,g,r,15,5,104001,1,3,550,524
1,7,16,3,3,1,A,G,g,r,15,5,104001,1,3,496,468
1,7,16,3,3,1,A,G,g,r,15,5,104001,1,3,498,417
1,7,16,3,3,1,A,G,g,r,15,5,104001,1,3,334,402
1,7,16,3,3,1,A,G,g,r,15,5,104001,1,1,571,299
1,7,16,3,3,1,A,G,g,r,15,5,104001,1,3,579,202
1,7,16,3,3,1,A,G,g,r,15,5,104001,1,3,484,206
1,7,16,3,3,1,A,G,g,r,15,5,104001,1,3,422,151
1,7,16,3,3,1,A,G,g,r,15,5,105001,1,3,489,105
1,7,16,3,3,1,A,G,g,r,15,5,105001,1,3,464,162
1,7,16,3,3,1,A,G,g,r,15,5,105001,1,3,507,166
1,7,16,3,3,1,A,G,g,r,15,5,105001,1,3,425,250
1,7,16,3,3,1,A,G,g,r,15,5,105001,1,1,514,221
1,7,16,3,3,1,A,G,g,r,15,5,105001,1,3,518,474
1,7,16,3,3,1,A,G,g,r,15,5,105001,1,3,442,430
1,7,16,3,3,1,A,G,g,r,15,5,105001,1,3,400,382
1,7,16,3,3,1,A,G,g,r,15,5,106001,1,1,560,215
1,7,16,3,3,1,A,G,g,r,15,5,106001,1,3,497,221
1,7,16,3,3,1,A,G,g,r,15,5,106001,1,3,484,251
1,7,16,3,3,1,A,G,g,r,15,5,106001,1,3,445,227
1,7,16,3,3,1,A,G,g,r,15,5,106001,1,3,401,252
1,7,16,3,3,1,A,G,g,r,15,5,106001,1,3,474,362
1,7,16,3,3,1,A,G,g,r,15,5,106001,1,3,436,420
1,7,16,3,3,1,A,G,g,r,15,5,106001,1,3,501,468
1,7,16,3,3,1,A,G,g,r,15,5,107001,1,3,635,185
1,7,16,3,3,1,A,G,g,r,15,5,107001,1,3,456,225
1,7,16,3,3,1,A,G,g,r,15,5,107001,1,1,558,218
1,7,16,3,3,1,A,G,g,r,15,5,107001,1,3,542,481
1,7,16,3,3,1,A,G,g,r,15,5,107001,1,3,537,350
1,7,16,3,3,1,A,G,g,r,15,5,107001,1,3,446,357
1,7,16,3,3,1,A,G,g,r,15,5,107001,1,3,391,360
1,7,16,3,3,1,A,G,g,r,15,5,107001,1,3,357,435
