dummy,month,day,period,view,station,fgeno,mgeno,fcol,mcol,nf,nm,frame,something,sex,x,y
1,7,17,2,1,1,A,F,b,y,5,15,1,1,3,283,324
1,7,17,2,1,1,A,F,b,y,5,15,1001,1,3,491,254
1,7,17,2,1,1,A,F,b,y,5,15,2001,1,1,313,305
1,7,17,2,1,1,A,F,b,y,5,15,2001,1,3,624,398
1,7,17,2,1,1,A,F,b,y,5,15,3001,1,3,230,316
1,7,17,2,1,1,A,F,b,y,5,15,4001,1,3,425,429
1,7,17,2,1,1,A,F,b,y,5,15,5001,1,1,646,289
1,7,17,2,1,1,A,F,b,y,5,15,5001,1,3,617,363
1,7,17,2,1,1,A,F,b,y,5,15,6001,1,3,177,306
1,7,17,2,1,1,A,F,b,y,5,15,6001,1,1,186,224
1,7,17,2,1,1,A,F,b,y,5,15,8001,1,3,481,527
1,7,17,2,1,1,A,F,b,y,5,15,9001,1,3,437,437
1,7,17,2,1,1,A,F,b,y,5,15,10001,1,3,398,399
1,7,17,2,1,1,A,F,b,y,5,15,10001,1,1,371,435
1,7,17,2,1,1,A,F,b,y,5,15,11001,1,3,442,322
1,7,17,2,1,1,A,F,b,y,5,15,12001,1,3,601,320
1,7,17,2,1,1,A,F,b,y,5,15,13001,1,3,498,387
1,7,17,2,1,1,A,F,b,y,5,15,14001,1,3,489,355
1,7,17,2,1,1,A,F,b,y,5,15,14001,1,1,414,236
1,7,17,2,1,1,A,F,b,y,5,15,15001,1,3,456,318
1,7,17,2,1,1,A,F,b,y,5,15,16001,1,3,279,322
1,7,17,2,1,1,A,F,b,y,5,15,17001,1,3,340,250
1,7,17,2,1,1,A,F,b,y,5,15,18001,1,3,607,384
1,7,17,2,1,1,A,F,b,y,5,15,18001,1,1,592,269
1,7,17,2,1,1,A,F,b,y,5,15,19001,1,3,618,339
1,7,17,2,1,1,A,F,b,y,5,15,20001,1,3,492,184
1,7,17,2,1,1,A,F,b,y,5,15,21001,1,3,324,32
1,7,17,2,1,1,A,F,b,y,5,15,22001,1,3,706,261
1,7,17,2,1,1,A,F,b,y,5,15,23001,1,1,479,60
1,7,17,2,1,1,A,F,b,y,5,15,23001,1,3,410,490
1,7,17,2,1,1,A,F,b,y,5,15,27001,1,1,512,552
1,7,17,2,1,1,A,F,b,y,5,15,28001,1,1,581,284
1,7,17,2,1,1,A,F,b,y,5,15,28001,1,3,603,330
1,7,17,2,1,1,A,F,b,y,5,15,29001,1,3,507,463
1,7,17,2,1,1,A,F,b,y,5,15,29001,1,1,460,465
1,7,17,2,1,1,A,F,b,y,5,15,30001,1,1,476,12
1,7,17,2,1,1,A,F,b,y,5,15,30001,1,1,385,9
1,7,17,2,1,1,A,F,b,y,5,15,30001,1,2,448,7
1,7,17,2,1,1,A,F,b,y,5,15,31001,1,1,546,512
1,7,17,2,1,1,A,F,b,y,5,15,32001,1,1,587,514
1,7,17,2,1,1,A,F,b,y,5,15,33001,1,1,456,505
1,7,17,2,1,1,A,F,b,y,5,15,33001,1,1,285,547
1,7,17,2,1,1,A,F,b,y,5,15,34001,1,1,566,254
1,7,17,2,1,1,A,F,b,y,5,15,34001,1,1,559,481
1,7,17,2,1,1,A,F,b,y,5,15,35001,1,1,571,438
1,7,17,2,1,1,A,F,b,y,5,15,36001,1,1,503,567
1,7,17,2,1,1,A,F,b,y,5,15,37001,1,1,674,153
1,7,17,2,1,1,A,F,b,y,5,15,37001,1,1,284,472
1,7,17,2,1,1,A,F,b,y,5,15,38001,1,1,241,132
1,7,17,2,1,1,A,F,b,y,5,15,38001,1,3,271,102
1,7,17,2,1,1,A,F,b,y,5,15,39001,1,1,573,122
1,7,17,2,1,1,A,F,b,y,5,15,39001,1,1,585,159
1,7,17,2,1,1,A,F,b,y,5,15,39001,1,3,693,163
1,7,17,2,1,1,A,F,b,y,5,15,40001,1,3,629,183
1,7,17,2,1,1,A,F,b,y,5,15,40001,1,1,525,83
1,7,17,2,1,1,A,F,b,y,5,15,40001,1,1,472,10
1,7,17,2,1,1,A,F,b,y,5,15,41001,1,1,702,273
1,7,17,2,1,1,A,F,b,y,5,15,42001,1,1,160,346
1,7,17,2,1,1,A,F,b,y,5,15,43001,1,1,386,581
1,7,17,2,1,1,A,F,b,y,5,15,43001,1,1,347,538
1,7,17,2,1,1,A,F,b,y,5,15,44001,1,1,530,152
1,7,17,2,1,1,A,F,b,y,5,15,45001,1,1,656,423
1,7,17,2,1,1,A,F,b,y,5,15,46001,1,1,704,222
1,7,17,2,1,1,A,F,b,y,5,15,47001,1,1,620,194
1,7,17,2,1,1,A,F,b,y,5,15,47001,1,1,609,445
1,7,17,2,1,1,A,F,b,y,5,15,48001,1,1,692,356
1,7,17,2,1,1,A,F,b,y,5,15,49001,1,1,686,311
1,7,17,2,1,1,A,F,b,y,5,15,50001,1,1,475,475
1,7,17,2,1,1,A,F,b,y,5,15,51001,1,1,407,148
1,7,17,2,1,1,A,F,b,y,5,15,51001,1,1,337,107
1,7,17,2,1,1,A,F,b,y,5,15,51001,1,1,397,484
1,7,17,2,1,1,A,F,b,y,5,15,52001,1,1,461,6
1,7,17,2,1,1,A,F,b,y,5,15,53001,1,1,567,35
1,7,17,2,1,1,A,F,b,y,5,15,54001,1,1,155,337
1,7,17,2,1,1,A,F,b,y,5,15,55001,1,1,277,41
1,7,17,2,1,1,A,F,b,y,5,15,56001,1,1,503,562
1,7,17,2,1,1,A,F,b,y,5,15,57001,1,1,426,39
1,7,17,2,1,1,A,F,b,y,5,15,60001,1,1,347,35
1,7,17,2,1,1,A,F,b,y,5,15,61001,1,1,245,86
1,7,17,2,1,1,A,F,b,y,5,15,62001,1,1,444,463
1,7,17,2,1,1,A,F,b,y,5,15,63001,1,1,457,495
1,7,17,2,1,1,A,F,b,y,5,15,64001,1,1,191,196
1,7,17,2,1,1,A,F,b,y,5,15,65001,1,1,347,22
1,7,17,2,1,1,A,F,b,y,5,15,66001,1,1,486,573
1,7,17,2,1,1,A,F,b,y,5,15,68001,1,3,290,213
1,7,17,2,1,1,A,F,b,y,5,15,68001,1,1,611,498
1,7,17,2,1,1,A,F,b,y,5,15,68001,1,1,675,477
1,7,17,2,1,1,A,F,b,y,5,15,69001,1,1,288,118
1,7,17,2,1,1,A,F,b,y,5,15,69001,1,3,236,130
1,7,17,2,1,1,A,F,b,y,5,15,70001,1,1,666,464
1,7,17,2,1,1,A,F,b,y,5,15,71001,1,1,529,16
1,7,17,2,1,1,A,F,b,y,5,15,73001,1,1,372,132
1,7,17,2,1,1,A,F,b,y,5,15,74001,1,1,294,335
1,7,17,2,1,1,A,F,b,y,5,15,75001,1,1,598,524
1,7,17,2,1,1,A,F,b,y,5,15,77001,1,1,352,535
1,7,17,2,1,1,A,F,b,y,5,15,78001,1,1,596,528
1,7,17,2,1,1,A,F,b,y,5,15,79001,1,1,510,389
1,7,17,2,1,1,A,F,b,y,5,15,80001,1,1,611,332
1,7,17,2,1,1,A,F,b,y,5,15,80001,1,1,471,10
1,7,17,2,1,1,A,F,b,y,5,15,81001,1,1,477,573
1,7,17,2,1,1,A,F,b,y,5,15,81001,1,3,493,530
1,7,17,2,1,1,A,F,b,y,5,15,81001,1,1,365,9
1,7,17,2,1,1,A,F,b,y,5,15,82001,1,1,293,243
1,7,17,2,1,1,A,F,b,y,5,15,82001,1,1,370,6
1,7,17,2,1,1,A,F,b,y,5,15,82001,1,1,406,10
1,7,17,2,1,1,A,F,b,y,5,15,83001,1,1,451,81
1,7,17,2,1,1,A,F,b,y,5,15,83001,1,1,371,50
1,7,17,2,1,1,A,F,b,y,5,15,83001,1,1,357,115
1,7,17,2,1,1,A,F,b,y,5,15,87001,1,3,601,111
1,7,17,2,1,1,A,F,b,y,5,15,88001,1,1,318,64
1,7,17,2,1,1,A,F,b,y,5,15,88001,1,1,450,284
1,7,17,2,1,1,A,F,b,y,5,15,89001,1,1,527,35
1,7,17,2,1,1,A,F,b,y,5,15,89001,1,3,601,63
1,7,17,2,1,1,A,F,b,y,5,15,90001,1,3,578,104
1,7,17,2,1,1,A,F,b,y,5,15,90001,1,1,605,58
1,7,17,2,1,1,A,F,b,y,5,15,91001,1,1,648,316
1,7,17,2,1,1,A,F,b,y,5,15,91001,1,1,634,259
1,7,17,2,1,1,A,F,b,y,5,15,91001,1,3,642,347
1,7,17,2,1,1,A,F,b,y,5,15,92001,1,1,250,179
1,7,17,2,1,1,A,F,b,y,5,15,92001,1,1,242,247
1,7,17,2,1,1,A,F,b,y,5,15,94001,1,1,673,130
1,7,17,2,1,1,A,F,b,y,5,15,95001,1,1,639,313
1,7,17,2,1,1,A,F,b,y,5,15,97001,1,1,211,238
1,7,17,2,1,1,A,F,b,y,5,15,103001,1,1,642,148
1,7,17,2,1,1,A,F,b,y,5,15,104001,1,1,705,208
1,7,17,2,1,1,A,F,b,y,5,15,105001,1,1,159,215
1,7,17,2,1,1,A,F,b,y,5,15,105001,1,1,194,129
1,7,17,2,1,1,A,F,b,y,5,15,106001,1,3,695,259
1,7,17,2,1,1,A,F,b,y,5,15,107001,1,1,523,460
