dummy,month,day,period,view,station,fgeno,mgeno,fcol,mcol,nf,nm,frame,something,sex,x,y
1,6,29,1,1,1,A,E,r,g,10,10,1,1,1,261,485
1,6,29,1,1,1,A,E,r,g,10,10,1001,1,3,258,383
1,6,29,1,1,1,A,E,r,g,10,10,1001,1,1,214,364
1,6,29,1,1,1,A,E,r,g,10,10,2001,1,1,378,128
1,6,29,1,1,1,A,E,r,g,10,10,2001,1,3,313,116
1,6,29,1,1,1,A,E,r,g,10,10,3001,1,1,652,255
1,6,29,1,1,1,A,E,r,g,10,10,3001,1,1,657,208
1,6,29,1,1,1,A,E,r,g,10,10,4001,1,1,314,438
1,6,29,1,1,1,A,E,r,g,10,10,5001,1,3,577,293
1,6,29,1,1,1,A,E,r,g,10,10,5001,1,1,603,244
1,6,29,1,1,1,A,E,r,g,10,10,6001,1,1,429,298
1,6,29,1,1,1,A,E,r,g,10,10,7001,1,3,311,221
1,6,29,1,1,1,A,E,r,g,10,10,7001,1,1,266,195
1,6,29,1,1,1,A,E,r,g,10,10,7001,1,1,430,11
1,6,29,1,1,1,A,E,r,g,10,10,8001,1,3,456,203
1,6,29,1,1,1,A,E,r,g,10,10,8001,1,1,368,210
1,6,29,1,1,1,A,E,r,g,10,10,9001,1,3,477,70
1,6,29,1,1,1,A,E,r,g,10,10,9001,1,3,472,523
1,6,29,1,1,1,A,E,r,g,10,10,9001,1,1,298,354
1,6,29,1,1,1,A,E,r,g,10,10,10001,1,3,545,426
1,6,29,1,1,1,A,E,r,g,10,10,10001,1,1,591,421
1,6,29,1,1,1,A,E,r,g,10,10,11001,1,1,616,162
1,6,29,1,1,1,A,E,r,g,10,10,12001,1,3,624,204
1,6,29,1,1,1,A,E,r,g,10,10,12001,1,1,369,101
1,6,29,1,1,1,A,E,r,g,10,10,13001,1,1,377,254
1,6,29,1,1,1,A,E,r,g,10,10,13001,1,1,535,354
1,6,29,1,1,1,A,E,r,g,10,10,14001,1,1,528,298
1,6,29,1,1,1,A,E,r,g,10,10,14001,1,1,684,200
1,6,29,1,1,1,A,E,r,g,10,10,15001,1,1,222,231
1,6,29,1,1,1,A,E,r,g,10,10,16001,1,1,521,130
1,6,29,1,1,1,A,E,r,g,10,10,16001,1,3,529,90
1,6,29,1,1,1,A,E,r,g,10,10,17001,1,1,594,203
1,6,29,1,1,1,A,E,r,g,10,10,17001,1,1,641,226
1,6,29,1,1,1,A,E,r,g,10,10,17001,1,3,613,237
1,6,29,1,1,1,A,E,r,g,10,10,18001,1,1,611,182
1,6,29,1,1,1,A,E,r,g,10,10,19001,1,3,296,101
1,6,29,1,1,1,A,E,r,g,10,10,19001,1,1,298,44
1,6,29,1,1,1,A,E,r,g,10,10,20001,1,1,671,198
1,6,29,1,1,1,A,E,r,g,10,10,21001,1,1,226,432
1,6,29,1,1,1,A,E,r,g,10,10,21001,1,1,241,461
1,6,29,1,1,1,A,E,r,g,10,10,21001,1,3,199,396
1,6,29,1,1,1,A,E,r,g,10,10,22001,1,1,536,35
1,6,29,1,1,1,A,E,r,g,10,10,23001,1,1,611,155
1,6,29,1,1,1,A,E,r,g,10,10,24001,1,1,520,309
1,6,29,1,1,1,A,E,r,g,10,10,25001,1,1,551,187
1,6,29,1,1,1,A,E,r,g,10,10,25001,1,3,571,192
1,6,29,1,1,1,A,E,r,g,10,10,26001,1,1,185,392
1,6,29,1,1,1,A,E,r,g,10,10,27001,1,1,509,341
1,6,29,1,1,1,A,E,r,g,10,10,28001,1,1,317,487
1,6,29,1,1,1,A,E,r,g,10,10,28001,1,1,276,531
1,6,29,1,1,1,A,E,r,g,10,10,29001,1,1,494,213
1,6,29,1,1,1,A,E,r,g,10,10,30001,1,1,514,194
1,6,29,1,1,1,A,E,r,g,10,10,31001,1,1,474,150
1,6,29,1,1,1,A,E,r,g,10,10,32001,1,1,530,210
1,6,29,1,1,1,A,E,r,g,10,10,32001,1,1,560,223
1,6,29,1,1,1,A,E,r,g,10,10,33001,1,1,586,301
1,6,29,1,1,1,A,E,r,g,10,10,33001,1,1,670,332
1,6,29,1,1,1,A,E,r,g,10,10,34001,1,1,416,182
1,6,29,1,1,1,A,E,r,g,10,10,35001,1,1,486,307
1,6,29,1,1,1,A,E,r,g,10,10,36001,1,1,262,406
1,6,29,1,1,1,A,E,r,g,10,10,37001,1,1,554,475
1,6,29,1,1,1,A,E,r,g,10,10,37001,1,1,606,434
1,6,29,1,1,1,A,E,r,g,10,10,38001,1,1,524,252
1,6,29,1,1,1,A,E,r,g,10,10,39001,1,1,394,192
1,6,29,1,1,1,A,E,r,g,10,10,40001,1,1,496,316
1,6,29,1,1,1,A,E,r,g,10,10,41001,1,1,370,409
1,6,29,1,1,1,A,E,r,g,10,10,42001,1,1,682,316
1,6,29,1,1,1,A,E,r,g,10,10,43001,1,1,377,334
1,6,29,1,1,1,A,E,r,g,10,10,43001,1,1,372,394
1,6,29,1,1,1,A,E,r,g,10,10,44001,1,1,357,148
1,6,29,1,1,1,A,E,r,g,10,10,45001,1,1,262,308
1,6,29,1,1,1,A,E,r,g,10,10,45001,1,3,227,267
1,6,29,1,1,1,A,E,r,g,10,10,46001,1,1,520,531
1,6,29,1,1,1,A,E,r,g,10,10,46001,1,1,228,83
1,6,29,1,1,1,A,E,r,g,10,10,47001,1,1,293,142
1,6,29,1,1,1,A,E,r,g,10,10,47001,1,1,305,116
1,6,29,1,1,1,A,E,r,g,10,10,47001,1,3,359,117
1,6,29,1,1,1,A,E,r,g,10,10,47001,1,1,317,24
1,6,29,1,1,1,A,E,r,g,10,10,48001,1,3,487,405
1,6,29,1,1,1,A,E,r,g,10,10,49001,1,1,321,389
1,6,29,1,1,1,A,E,r,g,10,10,49001,1,3,335,430
1,6,29,1,1,1,A,E,r,g,10,10,50001,1,3,572,189
1,6,29,1,1,1,A,E,r,g,10,10,50001,1,1,396,198
1,6,29,1,1,1,A,E,r,g,10,10,51001,1,3,372,308
1,6,29,1,1,1,A,E,r,g,10,10,51001,1,1,340,290
1,6,29,1,1,1,A,E,r,g,10,10,51001,1,1,326,319
1,6,29,1,1,1,A,E,r,g,10,10,52001,1,1,531,297
1,6,29,1,1,1,A,E,r,g,10,10,52001,1,1,375,107
1,6,29,1,1,1,A,E,r,g,10,10,52001,1,1,347,80
1,6,29,1,1,1,A,E,r,g,10,10,52001,1,3,363,57
1,6,29,1,1,1,A,E,r,g,10,10,53001,1,1,477,249
1,6,29,1,1,1,A,E,r,g,10,10,53001,1,3,390,182
1,6,29,1,1,1,A,E,r,g,10,10,53001,1,3,323,270
1,6,29,1,1,1,A,E,r,g,10,10,53001,1,1,316,225
1,6,29,1,1,1,A,E,r,g,10,10,53001,1,1,296,194
1,6,29,1,1,1,A,E,r,g,10,10,53001,1,1,303,251
1,6,29,1,1,1,A,E,r,g,10,10,54001,1,1,516,23
1,6,29,1,1,1,A,E,r,g,10,10,54001,1,1,402,63
1,6,29,1,1,1,A,E,r,g,10,10,54001,1,3,301,244
1,6,29,1,1,1,A,E,r,g,10,10,55001,1,1,494,121
1,6,29,1,1,1,A,E,r,g,10,10,55001,1,3,348,160
1,6,29,1,1,1,A,E,r,g,10,10,55001,1,1,568,510
1,6,29,1,1,1,A,E,r,g,10,10,56001,1,3,506,373
1,6,29,1,1,1,A,E,r,g,10,10,56001,1,1,707,375
1,6,29,1,1,1,A,E,r,g,10,10,57001,1,1,413,447
1,6,29,1,1,1,A,E,r,g,10,10,57001,1,1,324,376
1,6,29,1,1,1,A,E,r,g,10,10,57001,1,1,315,487
1,6,29,1,1,1,A,E,r,g,10,10,58001,1,1,686,319
1,6,29,1,1,1,A,E,r,g,10,10,59001,1,1,374,38
1,6,29,1,1,1,A,E,r,g,10,10,59001,1,1,332,21
1,6,29,1,1,1,A,E,r,g,10,10,60001,1,1,481,105
1,6,29,1,1,1,A,E,r,g,10,10,61001,1,1,580,225
1,6,29,1,1,1,A,E,r,g,10,10,62001,1,1,327,421
1,6,29,1,1,1,A,E,r,g,10,10,63001,1,1,309,184
1,6,29,1,1,1,A,E,r,g,10,10,63001,1,1,245,222
1,6,29,1,1,1,A,E,r,g,10,10,63001,1,1,141,240
1,6,29,1,1,1,A,E,r,g,10,10,63001,1,3,193,269
1,6,29,1,1,1,A,E,r,g,10,10,64001,1,1,584,231
1,6,29,1,1,1,A,E,r,g,10,10,65001,1,3,476,274
1,6,29,1,1,1,A,E,r,g,10,10,65001,1,1,444,294
1,6,29,1,1,1,A,E,r,g,10,10,65001,1,1,145,382
1,6,29,1,1,1,A,E,r,g,10,10,65001,1,3,144,243
1,6,29,1,1,1,A,E,r,g,10,10,66001,1,3,691,428
1,6,29,1,1,1,A,E,r,g,10,10,66001,1,3,338,486
1,6,29,1,1,1,A,E,r,g,10,10,67001,1,3,646,231
1,6,29,1,1,1,A,E,r,g,10,10,67001,1,1,706,332
1,6,29,1,1,1,A,E,r,g,10,10,67001,1,3,660,434
1,6,29,1,1,1,A,E,r,g,10,10,67001,1,3,426,60
1,6,29,1,1,1,A,E,r,g,10,10,67001,1,1,138,303
1,6,29,1,1,1,A,E,r,g,10,10,68001,1,3,568,429
1,6,29,1,1,1,A,E,r,g,10,10,68001,1,3,396,41
1,6,29,1,1,1,A,E,r,g,10,10,68001,1,1,366,72
1,6,29,1,1,1,A,E,r,g,10,10,68001,1,1,331,32
1,6,29,1,1,1,A,E,r,g,10,10,69001,1,3,496,275
1,6,29,1,1,1,A,E,r,g,10,10,69001,1,3,241,283
1,6,29,1,1,1,A,E,r,g,10,10,69001,1,1,305,244
1,6,29,1,1,1,A,E,r,g,10,10,69001,1,3,416,113
1,6,29,1,1,1,A,E,r,g,10,10,69001,1,1,447,68
1,6,29,1,1,1,A,E,r,g,10,10,70001,1,3,399,463
1,6,29,1,1,1,A,E,r,g,10,10,70001,1,1,294,400
1,6,29,1,1,1,A,E,r,g,10,10,70001,1,3,269,273
1,6,29,1,1,1,A,E,r,g,10,10,70001,1,3,255,158
1,6,29,1,1,1,A,E,r,g,10,10,71001,1,3,506,45
1,6,29,1,1,1,A,E,r,g,10,10,71001,1,3,356,99
1,6,29,1,1,1,A,E,r,g,10,10,71001,1,3,203,343
1,6,29,1,1,1,A,E,r,g,10,10,72001,1,3,544,454
1,6,29,1,1,1,A,E,r,g,10,10,72001,1,3,353,423
1,6,29,1,1,1,A,E,r,g,10,10,72001,1,3,373,352
1,6,29,1,1,1,A,E,r,g,10,10,73001,1,3,478,592
1,6,29,1,1,1,A,E,r,g,10,10,73001,1,1,506,574
1,6,29,1,1,1,A,E,r,g,10,10,73001,1,3,528,65
1,6,29,1,1,1,A,E,r,g,10,10,73001,1,3,479,74
1,6,29,1,1,1,A,E,r,g,10,10,74001,1,3,620,427
1,6,29,1,1,1,A,E,r,g,10,10,74001,1,3,438,437
1,6,29,1,1,1,A,E,r,g,10,10,74001,1,3,414,475
1,6,29,1,1,1,A,E,r,g,10,10,74001,1,1,497,427
1,6,29,1,1,1,A,E,r,g,10,10,75001,1,3,430,46
1,6,29,1,1,1,A,E,r,g,10,10,75001,1,3,360,119
1,6,29,1,1,1,A,E,r,g,10,10,75001,1,3,341,207
1,6,29,1,1,1,A,E,r,g,10,10,76001,1,3,606,204
1,6,29,1,1,1,A,E,r,g,10,10,76001,1,3,380,154
1,6,29,1,1,1,A,E,r,g,10,10,76001,1,1,260,52
1,6,29,1,1,1,A,E,r,g,10,10,76001,1,1,338,329
1,6,29,1,1,1,A,E,r,g,10,10,76001,1,3,551,422
1,6,29,1,1,1,A,E,r,g,10,10,77001,1,3,355,111
1,6,29,1,1,1,A,E,r,g,10,10,77001,1,3,558,511
1,6,29,1,1,1,A,E,r,g,10,10,77001,1,1,288,100
1,6,29,1,1,1,A,E,r,g,10,10,78001,1,3,429,84
1,6,29,1,1,1,A,E,r,g,10,10,78001,1,1,644,241
1,6,29,1,1,1,A,E,r,g,10,10,78001,1,1,332,316
1,6,29,1,1,1,A,E,r,g,10,10,78001,1,1,447,520
1,6,29,1,1,1,A,E,r,g,10,10,79001,1,3,624,419
1,6,29,1,1,1,A,E,r,g,10,10,80001,1,3,510,414
1,6,29,1,1,1,A,E,r,g,10,10,80001,1,1,538,449
1,6,29,1,1,1,A,E,r,g,10,10,81001,1,3,265,257
1,6,29,1,1,1,A,E,r,g,10,10,81001,1,1,250,293
1,6,29,1,1,1,A,E,r,g,10,10,81001,1,1,189,252
1,6,29,1,1,1,A,E,r,g,10,10,82001,1,3,562,311
1,6,29,1,1,1,A,E,r,g,10,10,82001,1,1,699,213
1,6,29,1,1,1,A,E,r,g,10,10,85001,1,3,581,239
1,6,29,1,1,1,A,E,r,g,10,10,85001,1,3,559,337
1,6,29,1,1,1,A,E,r,g,10,10,86001,1,3,629,125
1,6,29,1,1,1,A,E,r,g,10,10,86001,1,1,597,165
1,6,29,1,1,1,A,E,r,g,10,10,86001,1,1,182,397
1,6,29,1,1,1,A,E,r,g,10,10,86001,1,1,160,408
1,6,29,1,1,1,A,E,r,g,10,10,86001,1,3,208,411
1,6,29,1,1,1,A,E,r,g,10,10,87001,1,3,304,333
1,6,29,1,1,1,A,E,r,g,10,10,87001,1,1,357,584
1,6,29,1,1,1,A,E,r,g,10,10,87001,1,1,661,273
1,6,29,1,1,1,A,E,r,g,10,10,87001,1,1,586,272
1,6,29,1,1,1,A,E,r,g,10,10,87001,1,3,725,322
1,6,29,1,1,1,A,E,r,g,10,10,88001,1,3,477,430
1,6,29,1,1,1,A,E,r,g,10,10,88001,1,3,419,95
1,6,29,1,1,1,A,E,r,g,10,10,88001,1,3,586,45
1,6,29,1,1,1,A,E,r,g,10,10,89001,1,3,570,162
1,6,29,1,1,1,A,E,r,g,10,10,89001,1,1,469,132
1,6,29,1,1,1,A,E,r,g,10,10,89001,1,1,440,149
1,6,29,1,1,1,A,E,r,g,10,10,89001,1,3,425,109
1,6,29,1,1,1,A,E,r,g,10,10,89001,1,1,175,250
1,6,29,1,1,1,A,E,r,g,10,10,90001,1,3,627,119
1,6,29,1,1,1,A,E,r,g,10,10,90001,1,3,484,359
1,6,29,1,1,1,A,E,r,g,10,10,90001,1,1,427,376
1,6,29,1,1,1,A,E,r,g,10,10,90001,1,1,333,422
1,6,29,1,1,1,A,E,r,g,10,10,90001,1,1,540,512
1,6,29,1,1,1,A,E,r,g,10,10,91001,1,1,557,55
1,6,29,1,1,1,A,E,r,g,10,10,91001,1,1,212,206
1,6,29,1,1,1,A,E,r,g,10,10,91001,1,3,198,332
1,6,29,1,1,1,A,E,r,g,10,10,91001,1,3,587,316
1,6,29,1,1,1,A,E,r,g,10,10,91001,1,1,526,527
1,6,29,1,1,1,A,E,r,g,10,10,92001,1,3,690,216
1,6,29,1,1,1,A,E,r,g,10,10,92001,1,3,638,219
1,6,29,1,1,1,A,E,r,g,10,10,92001,1,1,708,191
1,6,29,1,1,1,A,E,r,g,10,10,92001,1,1,557,190
1,6,29,1,1,1,A,E,r,g,10,10,92001,1,3,517,82
1,6,29,1,1,1,A,E,r,g,10,10,92001,1,1,425,361
1,6,29,1,1,1,A,E,r,g,10,10,93001,1,1,444,56
1,6,29,1,1,1,A,E,r,g,10,10,93001,1,1,313,108
1,6,29,1,1,1,A,E,r,g,10,10,93001,1,1,308,153
1,6,29,1,1,1,A,E,r,g,10,10,93001,1,3,214,219
1,6,29,1,1,1,A,E,r,g,10,10,93001,1,3,360,503
1,6,29,1,1,1,A,E,r,g,10,10,94001,1,1,648,247
1,6,29,1,1,1,A,E,r,g,10,10,94001,1,3,600,362
1,6,29,1,1,1,A,E,r,g,10,10,94001,1,3,416,368
1,6,29,1,1,1,A,E,r,g,10,10,94001,1,1,405,423
1,6,29,1,1,1,A,E,r,g,10,10,94001,1,1,295,43
1,6,29,1,1,1,A,E,r,g,10,10,95001,1,3,601,260
1,6,29,1,1,1,A,E,r,g,10,10,95001,1,3,436,332
1,6,29,1,1,1,A,E,r,g,10,10,95001,1,1,386,314
1,6,29,1,1,1,A,E,r,g,10,10,96001,1,3,570,180
1,6,29,1,1,1,A,E,r,g,10,10,96001,1,3,627,473
1,6,29,1,1,1,A,E,r,g,10,10,96001,1,3,445,457
1,6,29,1,1,1,A,E,r,g,10,10,96001,1,1,453,413
1,6,29,1,1,1,A,E,r,g,10,10,96001,1,1,560,431
1,6,29,1,1,1,A,E,r,g,10,10,97001,1,3,409,388
1,6,29,1,1,1,A,E,r,g,10,10,97001,1,3,290,426
1,6,29,1,1,1,A,E,r,g,10,10,97001,1,1,208,491
1,6,29,1,1,1,A,E,r,g,10,10,97001,1,1,155,406
1,6,29,1,1,1,A,E,r,g,10,10,98001,1,1,570,314
1,6,29,1,1,1,A,E,r,g,10,10,98001,1,1,476,316
1,6,29,1,1,1,A,E,r,g,10,10,98001,1,3,535,293
1,6,29,1,1,1,A,E,r,g,10,10,98001,1,3,242,75
1,6,29,1,1,1,A,E,r,g,10,10,99001,1,1,605,101
1,6,29,1,1,1,A,E,r,g,10,10,99001,1,3,330,322
1,6,29,1,1,1,A,E,r,g,10,10,99001,1,3,274,425
1,6,29,1,1,1,A,E,r,g,10,10,99001,1,1,246,379
1,6,29,1,1,1,A,E,r,g,10,10,100001,1,3,671,288
1,6,29,1,1,1,A,E,r,g,10,10,100001,1,3,642,341
1,6,29,1,1,1,A,E,r,g,10,10,100001,1,1,615,360
1,6,29,1,1,1,A,E,r,g,10,10,100001,1,1,585,391
1,6,29,1,1,1,A,E,r,g,10,10,101001,1,1,655,332
1,6,29,1,1,1,A,E,r,g,10,10,101001,1,1,280,231
1,6,29,1,1,1,A,E,r,g,10,10,101001,1,3,700,424
1,6,29,1,1,1,A,E,r,g,10,10,102001,1,1,443,393
1,6,29,1,1,1,A,E,r,g,10,10,102001,1,3,191,251
1,6,29,1,1,1,A,E,r,g,10,10,103001,1,1,555,262
1,6,29,1,1,1,A,E,r,g,10,10,103001,1,1,188,208
1,6,29,1,1,1,A,E,r,g,10,10,103001,1,3,210,254
1,6,29,1,1,1,A,E,r,g,10,10,103001,1,3,374,504
1,6,29,1,1,1,A,E,r,g,10,10,104001,1,1,481,185
1,6,29,1,1,1,A,E,r,g,10,10,104001,1,3,244,452
1,6,29,1,1,1,A,E,r,g,10,10,104001,1,1,276,495
1,6,29,1,1,1,A,E,r,g,10,10,104001,1,3,442,576
1,6,29,1,1,1,A,E,r,g,10,10,105001,1,1,696,232
1,6,29,1,1,1,A,E,r,g,10,10,105001,1,1,396,470
1,6,29,1,1,1,A,E,r,g,10,10,106001,1,1,379,106
1,6,29,1,1,1,A,E,r,g,10,10,106001,1,1,389,6
1,6,29,1,1,1,A,E,r,g,10,10,106001,1,3,345,116
1,6,29,1,1,1,A,E,r,g,10,10,106001,1,3,157,264
1,6,29,1,1,1,A,E,r,g,10,10,107001,1,1,404,156
1,6,29,1,1,1,A,E,r,g,10,10,107001,1,3,354,203
