dummy,month,day,period,view,station,fgeno,mgeno,fcol,mcol,nf,nm,frame,something,sex,x,y
1,6,29,1,2,1,A,E,r,g,10,10,1001,1,1,207,141
1,6,29,1,2,1,A,E,r,g,10,10,1001,1,1,327,446
1,6,29,1,2,1,A,E,r,g,10,10,5001,1,1,296,96
1,6,29,1,2,1,A,E,r,g,10,10,6001,1,1,727,227
1,6,29,1,2,1,A,E,r,g,10,10,7001,1,1,282,232
1,6,29,1,2,1,A,E,r,g,10,10,7001,1,1,199,164
1,6,29,1,2,1,A,E,r,g,10,10,9001,1,1,558,60
1,6,29,1,2,1,A,E,r,g,10,10,10001,1,3,426,566
1,6,29,1,2,1,A,E,r,g,10,10,12001,1,1,601,489
1,6,29,1,2,1,A,E,r,g,10,10,15001,1,1,288,271
1,6,29,1,2,1,A,E,r,g,10,10,16001,1,3,420,364
1,6,29,1,2,1,A,E,r,g,10,10,16001,1,3,233,507
1,6,29,1,2,1,A,E,r,g,10,10,17001,1,1,436,415
1,6,29,1,2,1,A,E,r,g,10,10,17001,1,1,638,79
1,6,29,1,2,1,A,E,r,g,10,10,21001,1,1,308,534
1,6,29,1,2,1,A,E,r,g,10,10,21001,1,1,200,333
1,6,29,1,2,1,A,E,r,g,10,10,23001,1,1,668,396
1,6,29,1,2,1,A,E,r,g,10,10,24001,1,1,270,353
1,6,29,1,2,1,A,E,r,g,10,10,25001,1,1,503,474
1,6,29,1,2,1,A,E,r,g,10,10,26001,1,1,504,471
1,6,29,1,2,1,A,E,r,g,10,10,28001,1,3,367,444
1,6,29,1,2,1,A,E,r,g,10,10,28001,1,1,451,594
1,6,29,1,2,1,A,E,r,g,10,10,29001,1,1,370,152
1,6,29,1,2,1,A,E,r,g,10,10,29001,1,1,379,319
1,6,29,1,2,1,A,E,r,g,10,10,31001,1,1,238,219
1,6,29,1,2,1,A,E,r,g,10,10,36001,1,1,186,217
1,6,29,1,2,1,A,E,r,g,10,10,37001,1,3,536,403
1,6,29,1,2,1,A,E,r,g,10,10,37001,1,1,552,433
1,6,29,1,2,1,A,E,r,g,10,10,40001,1,1,633,294
1,6,29,1,2,1,A,E,r,g,10,10,40001,1,3,486,420
1,6,29,1,2,1,A,E,r,g,10,10,41001,1,1,411,346
1,6,29,1,2,1,A,E,r,g,10,10,41001,1,1,395,315
1,6,29,1,2,1,A,E,r,g,10,10,42001,1,1,579,384
1,6,29,1,2,1,A,E,r,g,10,10,45001,1,1,690,163
1,6,29,1,2,1,A,E,r,g,10,10,45001,1,1,595,496
1,6,29,1,2,1,A,E,r,g,10,10,46001,1,1,234,171
1,6,29,1,2,1,A,E,r,g,10,10,47001,1,1,450,467
1,6,29,1,2,1,A,E,r,g,10,10,48001,1,1,561,253
1,6,29,1,2,1,A,E,r,g,10,10,48001,1,1,574,155
1,6,29,1,2,1,A,E,r,g,10,10,48001,1,1,339,458
1,6,29,1,2,1,A,E,r,g,10,10,49001,1,1,704,157
1,6,29,1,2,1,A,E,r,g,10,10,51001,1,1,573,62
1,6,29,1,2,1,A,E,r,g,10,10,51001,1,1,195,163
1,6,29,1,2,1,A,E,r,g,10,10,53001,1,1,306,163
1,6,29,1,2,1,A,E,r,g,10,10,58001,1,1,173,329
1,6,29,1,2,1,A,E,r,g,10,10,59001,1,1,225,442
1,6,29,1,2,1,A,E,r,g,10,10,60001,1,3,174,365
1,6,29,1,2,1,A,E,r,g,10,10,61001,1,3,569,172
1,6,29,1,2,1,A,E,r,g,10,10,61001,1,3,584,505
1,6,29,1,2,1,A,E,r,g,10,10,62001,1,1,489,80
1,6,29,1,2,1,A,E,r,g,10,10,62001,1,3,478,14
1,6,29,1,2,1,A,E,r,g,10,10,62001,1,3,318,91
1,6,29,1,2,1,A,E,r,g,10,10,63001,1,1,692,250
1,6,29,1,2,1,A,E,r,g,10,10,63001,1,1,273,485
1,6,29,1,2,1,A,E,r,g,10,10,64001,1,1,748,254
1,6,29,1,2,1,A,E,r,g,10,10,65001,1,1,498,87
1,6,29,1,2,1,A,E,r,g,10,10,66001,1,1,176,270
1,6,29,1,2,1,A,E,r,g,10,10,67001,1,1,491,380
1,6,29,1,2,1,A,E,r,g,10,10,70001,1,1,277,444
1,6,29,1,2,1,A,E,r,g,10,10,72001,1,1,167,227
1,6,29,1,2,1,A,E,r,g,10,10,73001,1,1,277,418
1,6,29,1,2,1,A,E,r,g,10,10,73001,1,1,624,492
1,6,29,1,2,1,A,E,r,g,10,10,75001,1,1,688,214
1,6,29,1,2,1,A,E,r,g,10,10,75001,1,1,426,553
1,6,29,1,2,1,A,E,r,g,10,10,75001,1,1,274,510
1,6,29,1,2,1,A,E,r,g,10,10,77001,1,3,713,307
1,6,29,1,2,1,A,E,r,g,10,10,78001,1,3,636,275
1,6,29,1,2,1,A,E,r,g,10,10,78001,1,1,543,110
1,6,29,1,2,1,A,E,r,g,10,10,78001,1,1,454,204
1,6,29,1,2,1,A,E,r,g,10,10,79001,1,3,229,493
1,6,29,1,2,1,A,E,r,g,10,10,80001,1,1,608,176
1,6,29,1,2,1,A,E,r,g,10,10,81001,1,3,519,266
1,6,29,1,2,1,A,E,r,g,10,10,81001,1,1,202,469
1,6,29,1,2,1,A,E,r,g,10,10,82001,1,3,476,383
1,6,29,1,2,1,A,E,r,g,10,10,83001,1,3,393,345
1,6,29,1,2,1,A,E,r,g,10,10,83001,1,1,391,384
1,6,29,1,2,1,A,E,r,g,10,10,86001,1,1,364,313
1,6,29,1,2,1,A,E,r,g,10,10,86001,1,3,457,547
1,6,29,1,2,1,A,E,r,g,10,10,87001,1,3,410,554
1,6,29,1,2,1,A,E,r,g,10,10,89001,1,3,521,137
1,6,29,1,2,1,A,E,r,g,10,10,90001,1,3,217,442
1,6,29,1,2,1,A,E,r,g,10,10,96001,1,1,372,443
1,6,29,1,2,1,A,E,r,g,10,10,97001,1,1,511,278
1,6,29,1,2,1,A,E,r,g,10,10,98001,1,3,397,154
1,6,29,1,2,1,A,E,r,g,10,10,99001,1,3,422,504
1,6,29,1,2,1,A,E,r,g,10,10,100001,1,1,427,244
1,6,29,1,2,1,A,E,r,g,10,10,100001,1,3,225,211
1,6,29,1,2,1,A,E,r,g,10,10,102001,1,1,184,355
1,6,29,1,2,1,A,E,r,g,10,10,104001,1,1,303,531
1,6,29,1,2,1,A,E,r,g,10,10,106001,1,3,469,132
1,6,29,1,2,1,A,E,r,g,10,10,107001,1,3,559,387
