dummy,month,day,period,view,station,fgeno,mgeno,fcol,mcol,nf,nm,frame,something,sex,x,y
1,6,24,1,1,3,C,F,b,y,10,10,1,1,3,610.6313,115.1341
1,6,24,1,1,3,C,F,b,y,10,10,1,1,1,383.9897,439.3368
1,6,24,1,1,3,C,F,b,y,10,10,1,1,1,311.9447,425.8283
1,6,24,1,1,3,C,F,b,y,10,10,1001,1,1,260.9128,391.3068
1,6,24,1,1,3,C,F,b,y,10,10,1001,1,1,347.9672,383.8021
1,6,24,1,1,3,C,F,b,y,10,10,1001,1,3,362.9765,272.7326
1,6,24,1,1,3,C,F,b,y,10,10,1001,1,1,502.5638,299.7495
1,6,24,1,1,3,C,F,b,y,10,10,1001,1,3,552.0947,230.7064
1,6,24,1,1,3,C,F,b,y,10,10,2001,1,1,498.061,70.106
1,6,24,1,1,3,C,F,b,y,10,10,3001,1,1,362.9765,397.3105
1,6,24,1,1,3,C,F,b,y,10,10,3001,1,3,540.0872,31.0816
1,6,24,1,1,3,C,F,b,y,10,10,4001,1,3,543.0891,71.6069
1,6,24,1,1,3,C,F,b,y,10,10,5001,1,3,670.6689,155.6595
1,6,24,1,1,3,C,F,b,y,10,10,9001,1,3,499.5619,538.3987
1,6,24,1,1,3,C,F,b,y,10,10,12001,1,3,600.1248,493.3705
1,6,24,1,1,3,C,F,b,y,10,10,15001,1,3,495.0591,311.757
1,6,24,1,1,3,C,F,b,y,10,10,18001,1,3,337.4606,385.303
1,6,24,1,1,3,C,F,b,y,10,10,18001,1,3,568.6051,128.6426
1,6,24,1,1,3,C,F,b,y,10,10,18001,1,1,552.0947,172.1698
1,6,24,1,1,3,C,F,b,y,10,10,19001,1,3,505.5657,310.2561
1,6,24,1,1,3,C,F,b,y,10,10,19001,1,3,471.0441,280.2373
1,6,24,1,1,3,C,F,b,y,10,10,19001,1,1,423.0141,280.2373
1,6,24,1,1,3,C,F,b,y,10,10,20001,1,3,319.4493,400.3124
1,6,24,1,1,3,C,F,b,y,10,10,22001,1,3,402.0009,107.6295
1,6,24,1,1,3,C,F,b,y,10,10,22001,1,3,457.5356,109.1304
1,6,24,1,1,3,C,F,b,y,10,10,23001,1,3,256.4099,148.1548
1,6,24,1,1,3,C,F,b,y,10,10,23001,1,3,475.5469,211.1942
1,6,24,1,1,3,C,F,b,y,10,10,24001,1,3,597.1229,134.6463
1,6,24,1,1,3,C,F,b,y,10,10,24001,1,2,606.1285,62.6013
1,6,24,1,1,3,C,F,b,y,10,10,25001,1,3,352.47,19.0741
1,6,24,1,1,3,C,F,b,y,10,10,25001,1,3,607.6295,188.6801
1,6,24,1,1,3,C,F,b,y,10,10,26001,1,1,164.8527,284.7402
1,6,24,1,1,3,C,F,b,y,10,10,26001,1,3,579.1116,185.6782
1,6,24,1,1,3,C,F,b,y,10,10,26001,1,3,619.637,185.6782
1,6,24,1,1,3,C,F,b,y,10,10,27001,1,3,573.1079,88.1173
1,6,24,1,1,3,C,F,b,y,10,10,28001,1,1,361.4756,439.3368
1,6,24,1,1,3,C,F,b,y,10,10,28001,1,3,415.5094,314.7589
1,6,24,1,1,3,C,F,b,y,10,10,29001,1,1,392.9953,377.7983
1,6,24,1,1,3,C,F,b,y,10,10,29001,1,3,445.5281,56.5976
1,6,24,1,1,3,C,F,b,y,10,10,30001,1,1,435.0216,296.7477
1,6,24,1,1,3,C,F,b,y,10,10,30001,1,2,423.0141,1.0629
1,6,24,1,1,3,C,F,b,y,10,10,31001,1,1,427.5169,478.3612
1,6,24,1,1,3,C,F,b,y,10,10,31001,1,3,278.924,407.8171
1,6,24,1,1,3,C,F,b,y,10,10,32001,1,1,559.5994,391.3068
1,6,24,1,1,3,C,F,b,y,10,10,32001,1,3,534.0835,421.3255
1,6,24,1,1,3,C,F,b,y,10,10,33001,1,3,661.6632,241.2129
1,6,24,1,1,3,C,F,b,y,10,10,34001,1,3,625.6407,281.7383
1,6,24,1,1,3,C,F,b,y,10,10,35001,1,3,262.4137,127.1417
1,6,24,1,1,3,C,F,b,y,10,10,36001,1,3,268.4174,133.1454
1,6,24,1,1,3,C,F,b,y,10,10,36001,1,1,227.8921,160.1623
1,6,24,1,1,3,C,F,b,y,10,10,37001,1,1,319.4493,283.2392
1,6,24,1,1,3,C,F,b,y,10,10,37001,1,3,277.4231,256.2223
1,6,24,1,1,3,C,F,b,y,10,10,37001,1,3,454.5338,16.0722
1,6,24,1,1,3,C,F,b,y,10,10,38001,1,2,403.5019,74.6088
1,6,24,1,1,3,C,F,b,y,10,10,39001,1,1,284.9278,136.1473
1,6,24,1,1,3,C,F,b,y,10,10,39001,1,1,499.5619,101.6257
1,6,24,1,1,3,C,F,b,y,10,10,39001,1,3,484.5525,245.7158
1,6,24,1,1,3,C,F,b,y,10,10,39001,1,3,459.0366,253.2205
1,6,24,1,1,3,C,F,b,y,10,10,40001,1,1,537.0854,239.712
1,6,24,1,1,3,C,F,b,y,10,10,40001,1,3,553.5957,277.2355
1,6,24,1,1,3,C,F,b,y,10,10,40001,1,3,523.5769,397.3105
1,6,24,1,1,3,C,F,b,y,10,10,41001,1,3,397.4981,167.667
1,6,24,1,1,3,C,F,b,y,10,10,41001,1,3,414.0084,128.6426
1,6,24,1,1,3,C,F,b,y,10,10,41001,1,3,362.9765,98.6238
1,6,24,1,1,3,C,F,b,y,10,10,42001,1,3,565.6032,305.7533
1,6,24,1,1,3,C,F,b,y,10,10,43001,1,3,592.6201,442.3386
1,6,24,1,1,3,C,F,b,y,10,10,43001,1,3,615.1341,392.8077
1,6,24,1,1,3,C,F,b,y,10,10,45001,1,3,625.6407,190.1811
1,6,24,1,1,3,C,F,b,y,10,10,46001,1,3,565.6032,85.1154
1,6,24,1,1,3,C,F,b,y,10,10,47001,1,3,382.4887,62.6013
1,6,24,1,1,3,C,F,b,y,10,10,47001,1,3,332.9578,38.5863
1,6,24,1,1,3,C,F,b,y,10,10,47001,1,1,293.9334,428.8302
1,6,24,1,1,3,C,F,b,y,10,10,48001,1,1,385.4906,487.3668
1,6,24,1,1,3,C,F,b,y,10,10,48001,1,3,513.0704,169.1679
1,6,24,1,1,3,C,F,b,y,10,10,49001,1,1,232.3949,295.2467
1,6,24,1,1,3,C,F,b,y,10,10,49001,1,3,245.9034,328.2674
1,6,24,1,1,3,C,F,b,y,10,10,49001,1,3,236.8977,362.7889
1,6,24,1,1,3,C,F,b,y,10,10,51001,1,3,347.9672,311.757
1,6,24,1,1,3,C,F,b,y,10,10,51001,1,3,417.0103,181.1754
1,6,24,1,1,3,C,F,b,y,10,10,51001,1,3,496.56,256.2223
1,6,24,1,1,3,C,F,b,y,10,10,52001,1,1,568.6051,170.6689
1,6,24,1,1,3,C,F,b,y,10,10,52001,1,1,597.1229,235.2092
1,6,24,1,1,3,C,F,b,y,10,10,52001,1,3,582.1135,278.7364
1,6,24,1,1,3,C,F,b,y,10,10,52001,1,3,637.6482,260.7251
1,6,24,1,1,3,C,F,b,y,10,10,58001,1,1,549.0929,245.7158
1,6,24,1,1,3,C,F,b,y,10,10,59001,1,2,325.4531,65.6032
1,6,24,1,1,3,C,F,b,y,10,10,59001,1,1,627.1417,283.2392
1,6,24,1,1,3,C,F,b,y,10,10,59001,1,3,609.1304,293.7458
1,6,24,1,1,3,C,F,b,y,10,10,59001,1,3,606.1285,251.7195
1,6,24,1,1,3,C,F,b,y,10,10,60001,1,1,559.5994,280.2373
1,6,24,1,1,3,C,F,b,y,10,10,60001,1,3,562.6013,257.7233
1,6,24,1,1,3,C,F,b,y,10,10,60001,1,3,522.076,247.2167
1,6,24,1,1,3,C,F,b,y,10,10,60001,1,2,532.5826,284.7402
1,6,24,1,1,3,C,F,b,y,10,10,61001,1,3,188.8677,308.7552
1,6,24,1,1,3,C,F,b,y,10,10,66001,1,2,269.9184,382.3011
1,6,24,1,1,3,C,F,b,y,10,10,67001,1,2,262.4137,277.2355
1,6,24,1,1,3,C,F,b,y,10,10,67001,1,3,652.6576,265.228
1,6,24,1,1,3,C,F,b,y,10,10,68001,1,2,382.4887,239.712
1,6,24,1,1,3,C,F,b,y,10,10,68001,1,3,353.9709,206.6914
1,6,24,1,1,3,C,F,b,y,10,10,69001,1,1,368.9803,416.8227
1,6,24,1,1,3,C,F,b,y,10,10,69001,1,2,526.5788,269.7308
1,6,24,1,1,3,C,F,b,y,10,10,69001,1,3,567.1041,415.3218
1,6,24,1,1,3,C,F,b,y,10,10,70001,1,1,502.5638,455.8471
1,6,24,1,1,3,C,F,b,y,10,10,70001,1,2,532.5826,266.7289
1,6,24,1,1,3,C,F,b,y,10,10,70001,1,3,648.1548,311.757
1,6,24,1,1,3,C,F,b,y,10,10,71001,1,1,403.5019,500.8752
1,6,24,1,1,3,C,F,b,y,10,10,71001,1,2,529.5807,281.7383
1,6,24,1,1,3,C,F,b,y,10,10,71001,1,1,573.1079,259.2242
1,6,24,1,1,3,C,F,b,y,10,10,72001,1,1,227.8921,413.8208
1,6,24,1,1,3,C,F,b,y,10,10,72001,1,3,269.9184,395.8096
1,6,24,1,1,3,C,F,b,y,10,10,72001,1,1,477.0478,259.2242
1,6,24,1,1,3,C,F,b,y,10,10,72001,1,3,546.091,302.7514
1,6,24,1,1,3,C,F,b,y,10,10,72001,1,3,586.6163,265.228
1,6,24,1,1,3,C,F,b,y,10,10,72001,1,2,541.5882,263.727
1,6,24,1,1,3,C,F,b,y,10,10,73001,1,1,259.4118,307.2542
1,6,24,1,1,3,C,F,b,y,10,10,73001,1,1,286.4287,439.3368
1,6,24,1,1,3,C,F,b,y,10,10,73001,1,3,206.879,323.7645
1,6,24,1,1,3,C,F,b,y,10,10,73001,1,1,504.0647,301.2505
1,6,24,1,1,3,C,F,b,y,10,10,73001,1,1,528.0797,152.6576
1,6,24,1,1,3,C,F,b,y,10,10,73001,1,3,493.5582,340.2749
1,6,24,1,1,3,C,F,b,y,10,10,73001,1,3,462.0385,325.2655
1,6,24,1,1,3,C,F,b,y,10,10,74001,1,1,395.9972,289.243
1,6,24,1,1,3,C,F,b,y,10,10,74001,1,1,598.6238,166.166
1,6,24,1,1,3,C,F,b,y,10,10,74001,1,1,435.0216,434.834
1,6,24,1,1,3,C,F,b,y,10,10,74001,1,3,444.0272,388.3049
1,6,24,1,1,3,C,F,b,y,10,10,75001,1,1,547.5919,187.1792
1,6,24,1,1,3,C,F,b,y,10,10,75001,1,1,601.6257,371.7946
1,6,24,1,1,3,C,F,b,y,10,10,75001,1,1,597.1229,322.2636
1,6,24,1,1,3,C,F,b,y,10,10,75001,1,3,655.6595,322.2636
1,6,24,1,1,3,C,F,b,y,10,10,76001,1,1,471.0441,322.2636
1,6,24,1,1,3,C,F,b,y,10,10,76001,1,1,432.0197,464.8527
1,6,24,1,1,3,C,F,b,y,10,10,76001,1,1,640.6501,329.7683
1,6,24,1,1,3,C,F,b,y,10,10,77001,1,1,230.894,317.7608
1,6,24,1,1,3,C,F,b,y,10,10,77001,1,1,655.6595,278.7364
1,6,24,1,1,3,C,F,b,y,10,10,77001,1,3,621.1379,283.2392
1,6,24,1,1,3,C,F,b,y,10,10,77001,1,3,652.6576,323.7645
1,6,24,1,1,3,C,F,b,y,10,10,78001,1,1,478.5488,46.091
1,6,24,1,1,3,C,F,b,y,10,10,78001,1,1,657.1604,199.1867
1,6,24,1,1,3,C,F,b,y,10,10,79001,1,1,588.1173,191.682
1,6,24,1,1,3,C,F,b,y,10,10,79001,1,1,625.6407,163.1642
1,6,24,1,1,3,C,F,b,y,10,10,80001,1,1,469.5432,232.2073
1,6,24,1,1,3,C,F,b,y,10,10,80001,1,1,619.637,304.2523
1,6,24,1,1,3,C,F,b,y,10,10,81001,1,1,511.5694,272.7326
1,6,24,1,1,3,C,F,b,y,10,10,81001,1,1,565.6032,272.7326
1,6,24,1,1,3,C,F,b,y,10,10,82001,1,1,526.5788,293.7458
1,6,24,1,1,3,C,F,b,y,10,10,82001,1,1,559.5994,265.228
1,6,24,1,1,3,C,F,b,y,10,10,82001,1,3,525.0779,239.712
1,6,24,1,1,3,C,F,b,y,10,10,83001,1,1,553.5957,214.1961
1,6,24,1,1,3,C,F,b,y,10,10,83001,1,1,583.6144,248.7176
1,6,24,1,1,3,C,F,b,y,10,10,84001,1,1,568.6051,260.7251
1,6,24,1,1,3,C,F,b,y,10,10,84001,1,1,275.9221,311.757
1,6,24,1,1,3,C,F,b,y,10,10,84001,1,3,540.0872,275.7345
1,6,24,1,1,3,C,F,b,y,10,10,84001,1,3,549.0929,245.7158
1,6,24,1,1,3,C,F,b,y,10,10,85001,1,1,541.5882,265.228
1,6,24,1,1,3,C,F,b,y,10,10,85001,1,1,627.1417,182.6764
1,6,24,1,1,3,C,F,b,y,10,10,85001,1,3,649.6557,376.2974
1,6,24,1,1,3,C,F,b,y,10,10,86001,1,1,424.515,293.7458
1,6,24,1,1,3,C,F,b,y,10,10,86001,1,1,525.0779,290.7439
1,6,24,1,1,3,C,F,b,y,10,10,86001,1,3,421.5131,247.2167
1,6,24,1,1,3,C,F,b,y,10,10,86001,1,1,607.6295,104.6276
1,6,24,1,1,3,C,F,b,y,10,10,87001,1,1,580.6126,98.6238
1,6,24,1,1,3,C,F,b,y,10,10,87001,1,1,538.5863,233.7083
1,6,24,1,1,3,C,F,b,y,10,10,87001,1,1,594.121,307.2542
1,6,24,1,1,3,C,F,b,y,10,10,87001,1,3,553.5957,349.2805
1,6,24,1,1,3,C,F,b,y,10,10,88001,1,1,600.1248,181.1754
1,6,24,1,1,3,C,F,b,y,10,10,88001,1,1,625.6407,164.6651
1,6,24,1,1,3,C,F,b,y,10,10,88001,1,1,562.6013,67.1041
1,6,24,1,1,3,C,F,b,y,10,10,88001,1,3,591.1191,248.7176
1,6,24,1,1,3,C,F,b,y,10,10,88001,1,3,681.1754,376.2974
1,6,24,1,1,3,C,F,b,y,10,10,89001,1,1,414.0084,179.6745
1,6,24,1,1,3,C,F,b,y,10,10,89001,1,3,522.076,215.697
1,6,24,1,1,3,C,F,b,y,10,10,89001,1,1,559.5994,178.1735
1,6,24,1,1,3,C,F,b,y,10,10,89001,1,3,341.9634,541.4006
1,6,24,1,1,3,C,F,b,y,10,10,90001,1,1,424.515,73.1079
1,6,24,1,1,3,C,F,b,y,10,10,90001,1,3,166.3537,191.682
1,6,24,1,1,3,C,F,b,y,10,10,91001,1,1,335.9597,62.6013
1,6,24,1,1,3,C,F,b,y,10,10,92001,1,1,287.9296,95.622
1,6,24,1,1,3,C,F,b,y,10,10,92001,1,3,206.879,188.6801
1,6,24,1,1,3,C,F,b,y,10,10,93001,1,1,328.455,65.6032
1,6,24,1,1,3,C,F,b,y,10,10,93001,1,3,152.8452,322.2636
1,6,24,1,1,3,C,F,b,y,10,10,94001,1,1,344.9653,41.5882
1,6,24,1,1,3,C,F,b,y,10,10,94001,1,3,432.0197,98.6238
1,6,24,1,1,3,C,F,b,y,10,10,95001,1,1,402.0009,61.1004
1,6,24,1,1,3,C,F,b,y,10,10,95001,1,3,187.3668,163.1642
1,6,24,1,1,3,C,F,b,y,10,10,95001,1,3,658.6614,271.2317
1,6,24,1,1,3,C,F,b,y,10,10,96001,1,1,392.9953,152.6576
1,6,24,1,1,3,C,F,b,y,10,10,96001,1,3,257.9109,62.6013
1,6,24,1,1,3,C,F,b,y,10,10,97001,1,1,495.0591,277.2355
1,6,24,1,1,3,C,F,b,y,10,10,97001,1,2,510.0685,155.6595
1,6,24,1,1,3,C,F,b,y,10,10,98001,1,1,453.0328,256.2223
1,6,24,1,1,3,C,F,b,y,10,10,98001,1,2,595.622,232.2073
1,6,24,1,1,3,C,F,b,y,10,10,99001,1,1,411.0066,241.2129
1,6,24,1,1,3,C,F,b,y,10,10,99001,1,2,637.6482,313.258
1,6,24,1,1,3,C,F,b,y,10,10,100001,1,1,386.9916,247.2167
1,6,24,1,1,3,C,F,b,y,10,10,100001,1,2,622.6388,355.2842
1,6,24,1,1,3,C,F,b,y,10,10,101001,1,1,274.4212,281.7383
1,6,24,1,1,3,C,F,b,y,10,10,101001,1,2,580.6126,403.3143
1,6,24,1,1,3,C,F,b,y,10,10,101001,1,3,586.6163,137.6482
1,6,24,1,1,3,C,F,b,y,10,10,102001,1,1,412.5075,283.2392
1,6,24,1,1,3,C,F,b,y,10,10,102001,1,2,546.091,299.7495
1,6,24,1,1,3,C,F,b,y,10,10,103001,1,1,520.575,143.652
1,6,24,1,1,3,C,F,b,y,10,10,103001,1,2,535.5844,274.2336
1,6,24,1,1,3,C,F,b,y,10,10,104001,1,1,514.5713,137.6482
1,6,24,1,1,3,C,F,b,y,10,10,104001,1,2,513.0704,266.7289
1,6,24,1,1,3,C,F,b,y,10,10,104001,1,3,559.5994,301.2505
1,6,24,1,1,3,C,F,b,y,10,10,105001,1,1,564.1023,172.1698
1,6,24,1,1,3,C,F,b,y,10,10,105001,1,3,235.3968,83.6144
1,6,24,1,1,3,C,F,b,y,10,10,106001,1,1,305.9409,83.6144
1,6,24,1,1,3,C,F,b,y,10,10,106001,1,3,597.1229,215.697
1,6,24,1,1,3,C,F,b,y,10,10,107001,1,1,182.864,236.7101
