dummy,month,day,period,view,station,fgeno,mgeno,fcol,mcol,nf,nm,frame,something,sex,x,y
1,7,3,2,1,1,A,G,y,b,15,5,3001,1,3,240,136
1,7,3,2,1,1,A,G,y,b,15,5,4001,1,3,248,113
1,7,3,2,1,1,A,G,y,b,15,5,5001,1,3,294,446
1,7,3,2,1,1,A,G,y,b,15,5,6001,1,3,535,494
1,7,3,2,1,1,A,G,y,b,15,5,7001,1,3,429,246
1,7,3,2,1,1,A,G,y,b,15,5,8001,1,3,531,479
1,7,3,2,1,1,A,G,y,b,15,5,9001,1,3,276,367
1,7,3,2,1,1,A,G,y,b,15,5,10001,1,3,337,128
1,7,3,2,1,1,A,G,y,b,15,5,11001,1,3,377,123
1,7,3,2,1,1,A,G,y,b,15,5,12001,1,3,371,110
1,7,3,2,1,1,A,G,y,b,15,5,13001,1,3,394,101
1,7,3,2,1,1,A,G,y,b,15,5,14001,1,3,176,429
1,7,3,2,1,1,A,G,y,b,15,5,15001,1,3,252,229
1,7,3,2,1,1,A,G,y,b,15,5,16001,1,3,394,118
1,7,3,2,1,1,A,G,y,b,15,5,17001,1,3,428,275
1,7,3,2,1,1,A,G,y,b,15,5,18001,1,3,650,357
1,7,3,2,1,1,A,G,y,b,15,5,28001,1,1,192,301
1,7,3,2,1,1,A,G,y,b,15,5,29001,1,1,527,143
1,7,3,2,1,1,A,G,y,b,15,5,30001,1,1,222,450
1,7,3,2,1,1,A,G,y,b,15,5,31001,1,1,113,341
1,7,3,2,1,1,A,G,y,b,15,5,32001,1,1,114,343
1,7,3,2,1,1,A,G,y,b,15,5,33001,1,1,107,347
1,7,3,2,1,1,A,G,y,b,15,5,34001,1,1,332,50
1,7,3,2,1,1,A,G,y,b,15,5,35001,1,1,493,71
1,7,3,2,1,1,A,G,y,b,15,5,37001,1,1,266,30
1,7,3,2,1,1,A,G,y,b,15,5,38001,1,1,182,409
1,7,3,2,1,1,A,G,y,b,15,5,39001,1,1,558,449
1,7,3,2,1,1,A,G,y,b,15,5,40001,1,1,498,518
1,7,3,2,1,1,A,G,y,b,15,5,41001,1,1,403,211
1,7,3,2,1,1,A,G,y,b,15,5,42001,1,1,386,188
1,7,3,2,1,1,A,G,y,b,15,5,43001,1,1,159,88
1,7,3,2,1,1,A,G,y,b,15,5,44001,1,1,269,336
1,7,3,2,1,1,A,G,y,b,15,5,44001,1,1,237,293
1,7,3,2,1,1,A,G,y,b,15,5,45001,1,1,615,320
1,7,3,2,1,1,A,G,y,b,15,5,45001,1,1,173,302
1,7,3,2,1,1,A,G,y,b,15,5,46001,1,1,207,366
1,7,3,2,1,1,A,G,y,b,15,5,46001,1,1,538,220
1,7,3,2,1,1,A,G,y,b,15,5,47001,1,1,218,230
1,7,3,2,1,1,A,G,y,b,15,5,47001,1,1,170,265
1,7,3,2,1,1,A,G,y,b,15,5,48001,1,1,148,150
1,7,3,2,1,1,A,G,y,b,15,5,48001,1,1,394,459
1,7,3,2,1,1,A,G,y,b,15,5,49001,1,1,642,290
1,7,3,2,1,1,A,G,y,b,15,5,49001,1,1,185,412
1,7,3,2,1,1,A,G,y,b,15,5,50001,1,1,161,223
1,7,3,2,1,1,A,G,y,b,15,5,50001,1,1,94,290
1,7,3,2,1,1,A,G,y,b,15,5,51001,1,1,281,366
1,7,3,2,1,1,A,G,y,b,15,5,51001,1,1,86,283
1,7,3,2,1,1,A,G,y,b,15,5,52001,1,1,137,235
1,7,3,2,1,1,A,G,y,b,15,5,52001,1,1,84,233
1,7,3,2,1,1,A,G,y,b,15,5,53001,1,1,150,132
1,7,3,2,1,1,A,G,y,b,15,5,54001,1,1,282,31
1,7,3,2,1,1,A,G,y,b,15,5,55001,1,1,540,220
1,7,3,2,1,1,A,G,y,b,15,5,56001,1,1,648,326
1,7,3,2,1,1,A,G,y,b,15,5,57001,1,1,580,454
1,7,3,2,1,1,A,G,y,b,15,5,58001,1,1,440,81
1,7,3,2,1,1,A,G,y,b,15,5,59001,1,1,448,78
1,7,3,2,1,1,A,G,y,b,15,5,60001,1,1,389,115
1,7,3,2,1,1,A,G,y,b,15,5,61001,1,1,162,214
1,7,3,2,1,1,A,G,y,b,15,5,62001,1,1,453,322
1,7,3,2,1,1,A,G,y,b,15,5,63001,1,3,167,82
1,7,3,2,1,1,A,G,y,b,15,5,64001,1,3,177,436
1,7,3,2,1,1,A,G,y,b,15,5,65001,1,1,514,432
1,7,3,2,1,1,A,G,y,b,15,5,66001,1,1,627,239
1,7,3,2,1,1,A,G,y,b,15,5,66001,1,3,92,220
1,7,3,2,1,1,A,G,y,b,15,5,67001,1,1,271,273
1,7,3,2,1,1,A,G,y,b,15,5,67001,1,3,228,353
1,7,3,2,1,1,A,G,y,b,15,5,68001,1,1,350,24
1,7,3,2,1,1,A,G,y,b,15,5,69001,1,1,359,25
1,7,3,2,1,1,A,G,y,b,15,5,70001,1,1,525,505
1,7,3,2,1,1,A,G,y,b,15,5,72001,1,1,370,37
1,7,3,2,1,1,A,G,y,b,15,5,73001,1,1,549,131
1,7,3,2,1,1,A,G,y,b,15,5,74001,1,1,508,38
1,7,3,2,1,1,A,G,y,b,15,5,75001,1,1,521,70
1,7,3,2,1,1,A,G,y,b,15,5,76001,1,1,458,20
1,7,3,2,1,1,A,G,y,b,15,5,77001,1,1,350,377
1,7,3,2,1,1,A,G,y,b,15,5,78001,1,1,362,384
1,7,3,2,1,1,A,G,y,b,15,5,79001,1,1,461,30
1,7,3,2,1,1,A,G,y,b,15,5,80001,1,1,95,356
1,7,3,2,1,1,A,G,y,b,15,5,82001,1,1,355,22
1,7,3,2,1,1,A,G,y,b,15,5,83001,1,1,356,22
1,7,3,2,1,1,A,G,y,b,15,5,84001,1,1,349,18
1,7,3,2,1,1,A,G,y,b,15,5,85001,1,1,600,188
1,7,3,2,1,1,A,G,y,b,15,5,86001,1,1,598,191
1,7,3,2,1,1,A,G,y,b,15,5,87001,1,1,599,200
1,7,3,2,1,1,A,G,y,b,15,5,89001,1,1,104,188
1,7,3,2,1,1,A,G,y,b,15,5,91001,1,1,217,89
1,7,3,2,1,1,A,G,y,b,15,5,92001,1,1,389,20
1,7,3,2,1,1,A,G,y,b,15,5,93001,1,1,152,165
1,7,3,2,1,1,A,G,y,b,15,5,94001,1,1,508,368
1,7,3,2,1,1,A,G,y,b,15,5,95001,1,1,184,460
1,7,3,2,1,1,A,G,y,b,15,5,96001,1,1,194,275
1,7,3,2,1,1,A,G,y,b,15,5,97001,1,1,194,152
1,7,3,2,1,1,A,G,y,b,15,5,98001,1,1,203,151
1,7,3,2,1,1,A,G,y,b,15,5,100001,1,1,192,236
1,7,3,2,1,1,A,G,y,b,15,5,101001,1,1,293,238
1,7,3,2,1,1,A,G,y,b,15,5,102001,1,1,537,68
1,7,3,2,1,1,A,G,y,b,15,5,103001,1,1,541,70
1,7,3,2,1,1,A,G,y,b,15,5,104001,1,1,540,71
1,7,3,2,1,1,A,G,y,b,15,5,105001,1,1,605,241
1,7,3,2,1,1,A,G,y,b,15,5,106001,1,1,511,492
1,7,3,2,1,1,A,G,y,b,15,5,107001,1,1,154,379
