dummy,month,day,period,view,station,fgeno,mgeno,fcol,mcol,nf,nm,frame,something,sex,x,y
1,7,15,3,0,3,A,F,g,r,10,10,1,1,1,499,355
1,7,15,3,0,3,A,F,g,r,10,10,1,1,3,588,474
1,7,15,3,0,3,A,F,g,r,10,10,1001,1,1,515,305
1,7,15,3,0,3,A,F,g,r,10,10,1001,1,3,528,355
1,7,15,3,0,3,A,F,g,r,10,10,1001,1,3,230,286
1,7,15,3,0,3,A,F,g,r,10,10,2001,1,1,423,220
1,7,15,3,0,3,A,F,g,r,10,10,2001,1,3,740,409
1,7,15,3,0,3,A,F,g,r,10,10,2001,1,3,291,493
1,7,15,3,0,3,A,F,g,r,10,10,3001,1,1,390,127
1,7,15,3,0,3,A,F,g,r,10,10,3001,1,3,313,83
1,7,15,3,0,3,A,F,g,r,10,10,3001,1,3,554,341
1,7,15,3,0,3,A,F,g,r,10,10,4001,1,1,423,113
1,7,15,3,0,3,A,F,g,r,10,10,5001,1,1,406,216
1,7,15,3,0,3,A,F,g,r,10,10,5001,1,3,502,198
1,7,15,3,0,3,A,F,g,r,10,10,5001,1,3,475,407
1,7,15,3,0,3,A,F,g,r,10,10,5001,1,1,421,403
1,7,15,3,0,3,A,F,g,r,10,10,5001,1,3,376,421
1,7,15,3,0,3,A,F,g,r,10,10,6001,1,1,426,244
1,7,15,3,0,3,A,F,g,r,10,10,6001,1,1,528,360
1,7,15,3,0,3,A,F,g,r,10,10,6001,1,3,583,310
1,7,15,3,0,3,A,F,g,r,10,10,6001,1,3,271,161
1,7,15,3,0,3,A,F,g,r,10,10,7001,1,1,437,249
1,7,15,3,0,3,A,F,g,r,10,10,7001,1,3,469,259
1,7,15,3,0,3,A,F,g,r,10,10,7001,1,1,533,321
1,7,15,3,0,3,A,F,g,r,10,10,7001,1,3,727,319
1,7,15,3,0,3,A,F,g,r,10,10,8001,1,1,457,245
1,7,15,3,0,3,A,F,g,r,10,10,8001,1,3,501,233
1,7,15,3,0,3,A,F,g,r,10,10,8001,1,1,539,342
1,7,15,3,0,3,A,F,g,r,10,10,8001,1,3,658,343
1,7,15,3,0,3,A,F,g,r,10,10,9001,1,1,455,246
1,7,15,3,0,3,A,F,g,r,10,10,9001,1,1,498,344
1,7,15,3,0,3,A,F,g,r,10,10,9001,1,3,550,339
1,7,15,3,0,3,A,F,g,r,10,10,9001,1,3,672,290
1,7,15,3,0,3,A,F,g,r,10,10,9001,1,3,266,363
1,7,15,3,0,3,A,F,g,r,10,10,10001,1,1,500,293
1,7,15,3,0,3,A,F,g,r,10,10,10001,1,1,465,361
1,7,15,3,0,3,A,F,g,r,10,10,10001,1,3,484,332
1,7,15,3,0,3,A,F,g,r,10,10,10001,1,3,533,364
1,7,15,3,0,3,A,F,g,r,10,10,10001,1,3,484,550
1,7,15,3,0,3,A,F,g,r,10,10,11001,1,1,490,384
1,7,15,3,0,3,A,F,g,r,10,10,11001,1,1,504,278
1,7,15,3,0,3,A,F,g,r,10,10,11001,1,3,448,299
1,7,15,3,0,3,A,F,g,r,10,10,11001,1,3,668,307
1,7,15,3,0,3,A,F,g,r,10,10,12001,1,1,478,299
1,7,15,3,0,3,A,F,g,r,10,10,12001,1,3,543,265
1,7,15,3,0,3,A,F,g,r,10,10,12001,1,3,575,304
1,7,15,3,0,3,A,F,g,r,10,10,12001,1,3,497,363
1,7,15,3,0,3,A,F,g,r,10,10,12001,1,1,531,368
1,7,15,3,0,3,A,F,g,r,10,10,12001,1,3,517,461
1,7,15,3,0,3,A,F,g,r,10,10,13001,1,1,438,209
1,7,15,3,0,3,A,F,g,r,10,10,13001,1,3,409,177
1,7,15,3,0,3,A,F,g,r,10,10,13001,1,3,447,239
1,7,15,3,0,3,A,F,g,r,10,10,13001,1,3,524,42
1,7,15,3,0,3,A,F,g,r,10,10,13001,1,1,472,394
1,7,15,3,0,3,A,F,g,r,10,10,13001,1,3,500,415
1,7,15,3,0,3,A,F,g,r,10,10,14001,1,1,504,262
1,7,15,3,0,3,A,F,g,r,10,10,14001,1,3,524,224
1,7,15,3,0,3,A,F,g,r,10,10,14001,1,3,542,274
1,7,15,3,0,3,A,F,g,r,10,10,14001,1,3,539,319
1,7,15,3,0,3,A,F,g,r,10,10,14001,1,1,553,351
1,7,15,3,0,3,A,F,g,r,10,10,15001,1,1,588,271
1,7,15,3,0,3,A,F,g,r,10,10,15001,1,3,552,268
1,7,15,3,0,3,A,F,g,r,10,10,15001,1,1,598,215
1,7,15,3,0,3,A,F,g,r,10,10,15001,1,3,637,227
1,7,15,3,0,3,A,F,g,r,10,10,15001,1,3,707,162
1,7,15,3,0,3,A,F,g,r,10,10,16001,1,1,479,212
1,7,15,3,0,3,A,F,g,r,10,10,16001,1,3,517,213
1,7,15,3,0,3,A,F,g,r,10,10,16001,1,3,456,147
1,7,15,3,0,3,A,F,g,r,10,10,16001,1,1,655,303
1,7,15,3,0,3,A,F,g,r,10,10,16001,1,2,705,128
1,7,15,3,0,3,A,F,g,r,10,10,17001,1,2,209,288
1,7,15,3,0,3,A,F,g,r,10,10,17001,1,3,356,378
1,7,15,3,0,3,A,F,g,r,10,10,17001,1,3,416,366
1,7,15,3,0,3,A,F,g,r,10,10,17001,1,1,434,324
1,7,15,3,0,3,A,F,g,r,10,10,17001,1,1,639,350
1,7,15,3,0,3,A,F,g,r,10,10,18001,1,1,653,283
1,7,15,3,0,3,A,F,g,r,10,10,18001,1,3,651,322
1,7,15,3,0,3,A,F,g,r,10,10,18001,1,3,656,212
1,7,15,3,0,3,A,F,g,r,10,10,18001,1,1,665,164
1,7,15,3,0,3,A,F,g,r,10,10,19001,1,1,555,129
1,7,15,3,0,3,A,F,g,r,10,10,19001,1,1,579,54
1,7,15,3,0,3,A,F,g,r,10,10,19001,1,2,549,17
1,7,15,3,0,3,A,F,g,r,10,10,19001,1,3,645,225
1,7,15,3,0,3,A,F,g,r,10,10,19001,1,1,649,264
1,7,15,3,0,3,A,F,g,r,10,10,19001,1,3,655,307
1,7,15,3,0,3,A,F,g,r,10,10,20001,1,1,640,222
1,7,15,3,0,3,A,F,g,r,10,10,20001,1,1,557,187
1,7,15,3,0,3,A,F,g,r,10,10,20001,1,3,389,471
1,7,15,3,0,3,A,F,g,r,10,10,21001,1,1,483,310
1,7,15,3,0,3,A,F,g,r,10,10,21001,1,3,636,262
1,7,15,3,0,3,A,F,g,r,10,10,21001,1,1,669,254
1,7,15,3,0,3,A,F,g,r,10,10,22001,1,1,611,282
1,7,15,3,0,3,A,F,g,r,10,10,22001,1,3,605,325
1,7,15,3,0,3,A,F,g,r,10,10,22001,1,3,645,266
1,7,15,3,0,3,A,F,g,r,10,10,22001,1,3,561,318
1,7,15,3,0,3,A,F,g,r,10,10,22001,1,1,474,370
1,7,15,3,0,3,A,F,g,r,10,10,23001,1,1,498,348
1,7,15,3,0,3,A,F,g,r,10,10,23001,1,3,480,382
1,7,15,3,0,3,A,F,g,r,10,10,23001,1,2,619,267
1,7,15,3,0,3,A,F,g,r,10,10,23001,1,3,623,231
1,7,15,3,0,3,A,F,g,r,10,10,23001,1,1,586,249
1,7,15,3,0,3,A,F,g,r,10,10,24001,1,1,513,379
1,7,15,3,0,3,A,F,g,r,10,10,24001,1,3,482,53
1,7,15,3,0,3,A,F,g,r,10,10,25001,1,1,498,330
1,7,15,3,0,3,A,F,g,r,10,10,25001,1,3,457,397
1,7,15,3,0,3,A,F,g,r,10,10,25001,1,3,466,432
1,7,15,3,0,3,A,F,g,r,10,10,26001,1,1,488,322
1,7,15,3,0,3,A,F,g,r,10,10,27001,1,1,484,368
1,7,15,3,0,3,A,F,g,r,10,10,27001,1,3,502,347
1,7,15,3,0,3,A,F,g,r,10,10,27001,1,1,466,61
1,7,15,3,0,3,A,F,g,r,10,10,27001,1,2,351,86
1,7,15,3,0,3,A,F,g,r,10,10,28001,1,1,494,331
1,7,15,3,0,3,A,F,g,r,10,10,28001,1,1,560,220
1,7,15,3,0,3,A,F,g,r,10,10,28001,1,3,486,93
1,7,15,3,0,3,A,F,g,r,10,10,28001,1,3,471,366
1,7,15,3,0,3,A,F,g,r,10,10,29001,1,1,514,267
1,7,15,3,0,3,A,F,g,r,10,10,29001,1,1,495,405
1,7,15,3,0,3,A,F,g,r,10,10,29001,1,3,378,500
1,7,15,3,0,3,A,F,g,r,10,10,30001,1,1,516,371
1,7,15,3,0,3,A,F,g,r,10,10,30001,1,3,737,251
1,7,15,3,0,3,A,F,g,r,10,10,30001,1,3,328,371
1,7,15,3,0,3,A,F,g,r,10,10,30001,1,3,484,559
1,7,15,3,0,3,A,F,g,r,10,10,31001,1,1,473,366
1,7,15,3,0,3,A,F,g,r,10,10,31001,1,3,394,554
1,7,15,3,0,3,A,F,g,r,10,10,32001,1,1,517,372
1,7,15,3,0,3,A,F,g,r,10,10,33001,1,1,557,372
1,7,15,3,0,3,A,F,g,r,10,10,33001,1,3,521,356
1,7,15,3,0,3,A,F,g,r,10,10,34001,1,1,532,377
1,7,15,3,0,3,A,F,g,r,10,10,34001,1,3,573,368
1,7,15,3,0,3,A,F,g,r,10,10,34001,1,3,473,359
1,7,15,3,0,3,A,F,g,r,10,10,34001,1,3,417,371
1,7,15,3,0,3,A,F,g,r,10,10,35001,1,1,521,329
1,7,15,3,0,3,A,F,g,r,10,10,35001,1,3,545,367
1,7,15,3,0,3,A,F,g,r,10,10,35001,1,3,588,279
1,7,15,3,0,3,A,F,g,r,10,10,35001,1,3,493,195
1,7,15,3,0,3,A,F,g,r,10,10,36001,1,1,472,402
1,7,15,3,0,3,A,F,g,r,10,10,36001,1,3,503,365
1,7,15,3,0,3,A,F,g,r,10,10,36001,1,3,455,381
1,7,15,3,0,3,A,F,g,r,10,10,36001,1,3,377,392
1,7,15,3,0,3,A,F,g,r,10,10,37001,1,1,451,403
1,7,15,3,0,3,A,F,g,r,10,10,37001,1,3,540,343
1,7,15,3,0,3,A,F,g,r,10,10,38001,1,1,446,397
1,7,15,3,0,3,A,F,g,r,10,10,38001,1,3,487,418
1,7,15,3,0,3,A,F,g,r,10,10,39001,1,1,492,407
1,7,15,3,0,3,A,F,g,r,10,10,39001,1,3,606,317
1,7,15,3,0,3,A,F,g,r,10,10,39001,1,3,644,329
1,7,15,3,0,3,A,F,g,r,10,10,40001,1,1,423,397
1,7,15,3,0,3,A,F,g,r,10,10,40001,1,3,469,411
1,7,15,3,0,3,A,F,g,r,10,10,40001,1,3,471,372
1,7,15,3,0,3,A,F,g,r,10,10,40001,1,3,708,330
1,7,15,3,0,3,A,F,g,r,10,10,41001,1,1,463,311
1,7,15,3,0,3,A,F,g,r,10,10,41001,1,3,395,221
1,7,15,3,0,3,A,F,g,r,10,10,41001,1,3,404,160
1,7,15,3,0,3,A,F,g,r,10,10,41001,1,3,694,213
1,7,15,3,0,3,A,F,g,r,10,10,42001,1,3,564,285
1,7,15,3,0,3,A,F,g,r,10,10,43001,1,3,300,156
1,7,15,3,0,3,A,F,g,r,10,10,43001,1,1,334,66
1,7,15,3,0,3,A,F,g,r,10,10,44001,1,1,420,95
1,7,15,3,0,3,A,F,g,r,10,10,44001,1,3,304,170
1,7,15,3,0,3,A,F,g,r,10,10,44001,1,3,374,66
1,7,15,3,0,3,A,F,g,r,10,10,44001,1,3,697,263
1,7,15,3,0,3,A,F,g,r,10,10,45001,1,1,505,323
1,7,15,3,0,3,A,F,g,r,10,10,45001,1,3,592,81
1,7,15,3,0,3,A,F,g,r,10,10,46001,1,1,616,420
1,7,15,3,0,3,A,F,g,r,10,10,46001,1,3,272,142
1,7,15,3,0,3,A,F,g,r,10,10,47001,1,1,611,417
1,7,15,3,0,3,A,F,g,r,10,10,47001,1,3,574,437
1,7,15,3,0,3,A,F,g,r,10,10,47001,1,3,524,386
1,7,15,3,0,3,A,F,g,r,10,10,48001,1,1,650,353
1,7,15,3,0,3,A,F,g,r,10,10,48001,1,3,355,368
1,7,15,3,0,3,A,F,g,r,10,10,49001,1,1,645,357
1,7,15,3,0,3,A,F,g,r,10,10,49001,1,3,464,117
1,7,15,3,0,3,A,F,g,r,10,10,50001,1,1,647,326
1,7,15,3,0,3,A,F,g,r,10,10,50001,1,3,719,346
1,7,15,3,0,3,A,F,g,r,10,10,51001,1,1,632,377
1,7,15,3,0,3,A,F,g,r,10,10,51001,1,3,380,475
1,7,15,3,0,3,A,F,g,r,10,10,52001,1,1,515,457
1,7,15,3,0,3,A,F,g,r,10,10,52001,1,3,522,426
1,7,15,3,0,3,A,F,g,r,10,10,52001,1,3,246,321
1,7,15,3,0,3,A,F,g,r,10,10,53001,1,1,620,439
1,7,15,3,0,3,A,F,g,r,10,10,53001,1,3,670,435
1,7,15,3,0,3,A,F,g,r,10,10,53001,1,3,457,173
1,7,15,3,0,3,A,F,g,r,10,10,54001,1,1,543,375
1,7,15,3,0,3,A,F,g,r,10,10,54001,1,3,472,100
1,7,15,3,0,3,A,F,g,r,10,10,55001,1,1,526,370
1,7,15,3,0,3,A,F,g,r,10,10,55001,1,3,676,303
1,7,15,3,0,3,A,F,g,r,10,10,55001,1,3,724,298
1,7,15,3,0,3,A,F,g,r,10,10,56001,1,1,608,276
1,7,15,3,0,3,A,F,g,r,10,10,56001,1,3,330,476
1,7,15,3,0,3,A,F,g,r,10,10,56001,1,3,293,209
1,7,15,3,0,3,A,F,g,r,10,10,56001,1,2,312,78
1,7,15,3,0,3,A,F,g,r,10,10,57001,1,3,378,122
1,7,15,3,0,3,A,F,g,r,10,10,57001,1,3,714,139
1,7,15,3,0,3,A,F,g,r,10,10,57001,1,1,657,304
1,7,15,3,0,3,A,F,g,r,10,10,57001,1,3,603,412
1,7,15,3,0,3,A,F,g,r,10,10,58001,1,1,599,229
1,7,15,3,0,3,A,F,g,r,10,10,58001,1,3,309,338
1,7,15,3,0,3,A,F,g,r,10,10,58001,1,3,310,390
1,7,15,3,0,3,A,F,g,r,10,10,59001,1,3,535,62
1,7,15,3,0,3,A,F,g,r,10,10,59001,1,1,478,371
1,7,15,3,0,3,A,F,g,r,10,10,59001,1,3,275,158
1,7,15,3,0,3,A,F,g,r,10,10,60001,1,3,477,414
1,7,15,3,0,3,A,F,g,r,10,10,60001,1,1,527,405
1,7,15,3,0,3,A,F,g,r,10,10,60001,1,3,689,187
1,7,15,3,0,3,A,F,g,r,10,10,61001,1,1,516,391
1,7,15,3,0,3,A,F,g,r,10,10,61001,1,3,385,393
1,7,15,3,0,3,A,F,g,r,10,10,62001,1,1,505,349
1,7,15,3,0,3,A,F,g,r,10,10,62001,1,3,365,273
1,7,15,3,0,3,A,F,g,r,10,10,63001,1,1,471,345
1,7,15,3,0,3,A,F,g,r,10,10,63001,1,3,509,303
1,7,15,3,0,3,A,F,g,r,10,10,63001,1,3,522,339
1,7,15,3,0,3,A,F,g,r,10,10,64001,1,1,479,362
1,7,15,3,0,3,A,F,g,r,10,10,64001,1,3,607,110
1,7,15,3,0,3,A,F,g,r,10,10,65001,1,1,485,377
1,7,15,3,0,3,A,F,g,r,10,10,65001,1,3,366,389
1,7,15,3,0,3,A,F,g,r,10,10,66001,1,3,560,241
1,7,15,3,0,3,A,F,g,r,10,10,66001,1,1,481,368
1,7,15,3,0,3,A,F,g,r,10,10,67001,1,3,531,368
1,7,15,3,0,3,A,F,g,r,10,10,67001,1,3,508,337
1,7,15,3,0,3,A,F,g,r,10,10,67001,1,1,469,357
1,7,15,3,0,3,A,F,g,r,10,10,68001,1,1,523,376
1,7,15,3,0,3,A,F,g,r,10,10,68001,1,3,397,500
1,7,15,3,0,3,A,F,g,r,10,10,69001,1,1,483,347
1,7,15,3,0,3,A,F,g,r,10,10,69001,1,3,295,115
1,7,15,3,0,3,A,F,g,r,10,10,70001,1,1,519,362
1,7,15,3,0,3,A,F,g,r,10,10,70001,1,3,553,44
1,7,15,3,0,3,A,F,g,r,10,10,71001,1,1,463,344
1,7,15,3,0,3,A,F,g,r,10,10,71001,1,3,529,31
1,7,15,3,0,3,A,F,g,r,10,10,72001,1,1,471,351
1,7,15,3,0,3,A,F,g,r,10,10,72001,1,3,532,333
1,7,15,3,0,3,A,F,g,r,10,10,72001,1,3,482,63
1,7,15,3,0,3,A,F,g,r,10,10,72001,1,3,303,337
1,7,15,3,0,3,A,F,g,r,10,10,72001,1,1,326,349
1,7,15,3,0,3,A,F,g,r,10,10,73001,1,1,492,356
1,7,15,3,0,3,A,F,g,r,10,10,73001,1,3,506,326
1,7,15,3,0,3,A,F,g,r,10,10,73001,1,1,539,398
1,7,15,3,0,3,A,F,g,r,10,10,73001,1,3,569,431
1,7,15,3,0,3,A,F,g,r,10,10,73001,1,3,568,385
1,7,15,3,0,3,A,F,g,r,10,10,74001,1,1,490,64
1,7,15,3,0,3,A,F,g,r,10,10,74001,1,1,508,403
1,7,15,3,0,3,A,F,g,r,10,10,74001,1,3,478,434
1,7,15,3,0,3,A,F,g,r,10,10,74001,1,3,483,389
1,7,15,3,0,3,A,F,g,r,10,10,74001,1,2,521,461
1,7,15,3,0,3,A,F,g,r,10,10,75001,1,1,446,81
1,7,15,3,0,3,A,F,g,r,10,10,75001,1,3,467,43
1,7,15,3,0,3,A,F,g,r,10,10,75001,1,3,611,344
1,7,15,3,0,3,A,F,g,r,10,10,75001,1,3,580,379
1,7,15,3,0,3,A,F,g,r,10,10,75001,1,3,517,446
1,7,15,3,0,3,A,F,g,r,10,10,75001,1,1,468,404
1,7,15,3,0,3,A,F,g,r,10,10,75001,1,3,429,391
1,7,15,3,0,3,A,F,g,r,10,10,76001,1,1,430,135
1,7,15,3,0,3,A,F,g,r,10,10,76001,1,1,508,385
1,7,15,3,0,3,A,F,g,r,10,10,76001,1,3,645,327
1,7,15,3,0,3,A,F,g,r,10,10,76001,1,3,464,332
1,7,15,3,0,3,A,F,g,r,10,10,77001,1,1,477,346
1,7,15,3,0,3,A,F,g,r,10,10,77001,1,1,494,85
1,7,15,3,0,3,A,F,g,r,10,10,77001,1,3,536,76
1,7,15,3,0,3,A,F,g,r,10,10,77001,1,3,401,430
1,7,15,3,0,3,A,F,g,r,10,10,78001,1,1,473,344
1,7,15,3,0,3,A,F,g,r,10,10,78001,1,1,489,381
1,7,15,3,0,3,A,F,g,r,10,10,78001,1,3,654,461
1,7,15,3,0,3,A,F,g,r,10,10,78001,1,3,449,394
1,7,15,3,0,3,A,F,g,r,10,10,79001,1,1,342,148
1,7,15,3,0,3,A,F,g,r,10,10,79001,1,3,342,186
1,7,15,3,0,3,A,F,g,r,10,10,79001,1,1,501,348
1,7,15,3,0,3,A,F,g,r,10,10,79001,1,3,682,339
1,7,15,3,0,3,A,F,g,r,10,10,80001,1,1,471,350
1,7,15,3,0,3,A,F,g,r,10,10,80001,1,1,329,246
1,7,15,3,0,3,A,F,g,r,10,10,80001,1,3,323,203
1,7,15,3,0,3,A,F,g,r,10,10,80001,1,3,263,282
1,7,15,3,0,3,A,F,g,r,10,10,81001,1,1,516,383
1,7,15,3,0,3,A,F,g,r,10,10,81001,1,1,611,398
1,7,15,3,0,3,A,F,g,r,10,10,82001,1,1,381,131
1,7,15,3,0,3,A,F,g,r,10,10,82001,1,3,340,127
1,7,15,3,0,3,A,F,g,r,10,10,82001,1,1,500,345
1,7,15,3,0,3,A,F,g,r,10,10,83001,1,1,450,125
1,7,15,3,0,3,A,F,g,r,10,10,84001,1,1,336,276
1,7,15,3,0,3,A,F,g,r,10,10,85001,1,1,328,342
1,7,15,3,0,3,A,F,g,r,10,10,85001,1,3,532,24
1,7,15,3,0,3,A,F,g,r,10,10,86001,1,1,439,409
1,7,15,3,0,3,A,F,g,r,10,10,86001,1,3,512,381
1,7,15,3,0,3,A,F,g,r,10,10,86001,1,3,428,458
1,7,15,3,0,3,A,F,g,r,10,10,87001,1,1,461,367
1,7,15,3,0,3,A,F,g,r,10,10,87001,1,3,367,468
1,7,15,3,0,3,A,F,g,r,10,10,88001,1,1,462,352
1,7,15,3,0,3,A,F,g,r,10,10,88001,1,3,562,303
1,7,15,3,0,3,A,F,g,r,10,10,89001,1,1,469,347
1,7,15,3,0,3,A,F,g,r,10,10,89001,1,3,489,376
1,7,15,3,0,3,A,F,g,r,10,10,89001,1,3,493,328
1,7,15,3,0,3,A,F,g,r,10,10,89001,1,3,529,322
1,7,15,3,0,3,A,F,g,r,10,10,90001,1,1,527,387
1,7,15,3,0,3,A,F,g,r,10,10,90001,1,3,566,388
1,7,15,3,0,3,A,F,g,r,10,10,90001,1,3,554,477
1,7,15,3,0,3,A,F,g,r,10,10,91001,1,1,579,271
1,7,15,3,0,3,A,F,g,r,10,10,91001,1,3,411,275
1,7,15,3,0,3,A,F,g,r,10,10,91001,1,2,688,495
1,7,15,3,0,3,A,F,g,r,10,10,92001,1,1,518,343
1,7,15,3,0,3,A,F,g,r,10,10,92001,1,3,433,330
1,7,15,3,0,3,A,F,g,r,10,10,92001,1,3,553,32
1,7,15,3,0,3,A,F,g,r,10,10,93001,1,1,488,391
1,7,15,3,0,3,A,F,g,r,10,10,93001,1,3,438,423
1,7,15,3,0,3,A,F,g,r,10,10,93001,1,3,466,496
1,7,15,3,0,3,A,F,g,r,10,10,93001,1,3,374,476
1,7,15,3,0,3,A,F,g,r,10,10,94001,1,3,374,63
1,7,15,3,0,3,A,F,g,r,10,10,94001,1,3,323,498
1,7,15,3,0,3,A,F,g,r,10,10,95001,1,3,609,334
1,7,15,3,0,3,A,F,g,r,10,10,95001,1,3,637,303
1,7,15,3,0,3,A,F,g,r,10,10,95001,1,3,226,269
1,7,15,3,0,3,A,F,g,r,10,10,96001,1,3,280,424
1,7,15,3,0,3,A,F,g,r,10,10,96001,1,3,544,58
1,7,15,3,0,3,A,F,g,r,10,10,97001,1,3,422,87
1,7,15,3,0,3,A,F,g,r,10,10,97001,1,3,432,172
1,7,15,3,0,3,A,F,g,r,10,10,97001,1,3,252,413
1,7,15,3,0,3,A,F,g,r,10,10,98001,1,3,612,196
1,7,15,3,0,3,A,F,g,r,10,10,98001,1,3,433,410
1,7,15,3,0,3,A,F,g,r,10,10,99001,1,3,462,323
1,7,15,3,0,3,A,F,g,r,10,10,99001,1,1,561,518
1,7,15,3,0,3,A,F,g,r,10,10,100001,1,1,542,477
1,7,15,3,0,3,A,F,g,r,10,10,100001,1,3,235,343
1,7,15,3,0,3,A,F,g,r,10,10,100001,1,3,384,48
1,7,15,3,0,3,A,F,g,r,10,10,101001,1,1,542,128
1,7,15,3,0,3,A,F,g,r,10,10,102001,1,1,579,281
1,7,15,3,0,3,A,F,g,r,10,10,102001,1,3,521,485
1,7,15,3,0,3,A,F,g,r,10,10,102001,1,3,387,493
1,7,15,3,0,3,A,F,g,r,10,10,103001,1,1,535,278
1,7,15,3,0,3,A,F,g,r,10,10,103001,1,3,485,291
1,7,15,3,0,3,A,F,g,r,10,10,104001,1,3,520,472
1,7,15,3,0,3,A,F,g,r,10,10,104001,1,1,642,206
1,7,15,3,0,3,A,F,g,r,10,10,104001,1,3,704,343
1,7,15,3,0,3,A,F,g,r,10,10,105001,1,1,596,208
1,7,15,3,0,3,A,F,g,r,10,10,105001,1,3,387,533
1,7,15,3,0,3,A,F,g,r,10,10,106001,1,1,586,222
1,7,15,3,0,3,A,F,g,r,10,10,107001,1,1,588,223
1,7,15,3,0,3,A,F,g,r,10,10,107001,1,1,455,312
