dummy,month,day,period,view,station,fgeno,mgeno,fcol,mcol,nf,nm,frame,something,sex,x,y
1,9,26,2,0,2,B,G,b,y,10,10,1,1,1,584.9021,211.7652
1,9,26,2,0,2,B,G,b,y,10,10,1,1,3,625.1101,240.8813
1,9,26,2,0,2,B,G,b,y,10,10,1,1,3,519.7374,256.1326
1,9,26,2,0,2,B,G,b,y,10,10,1,1,3,518.351,336.5485
1,9,26,2,0,2,B,G,b,y,10,10,1001,1,1,530.8293,354.5728
1,9,26,2,0,2,B,G,b,y,10,10,1001,1,3,487.8484,362.8917
1,9,26,2,0,2,B,G,b,y,10,10,1001,1,3,475.37,333.7756
1,9,26,2,0,2,B,G,b,y,10,10,1001,1,3,349.2002,457.1724
1,9,26,2,0,2,B,G,b,y,10,10,2001,1,3,482.3024,286.6352
1,9,26,2,0,2,B,G,b,y,10,10,2001,1,3,472.5971,304.6594
1,9,26,2,0,2,B,G,b,y,10,10,2001,1,3,421.2972,350.4133
1,9,26,2,0,2,B,G,b,y,10,10,2001,1,1,489.2348,346.2539
1,9,26,2,0,2,B,G,b,y,10,10,2001,1,3,523.8969,342.0945
1,9,26,2,0,2,B,G,b,y,10,10,3001,1,1,647.2938,351.7998
1,9,26,2,0,2,B,G,b,y,10,10,3001,1,1,515.578,335.162
1,9,26,2,0,2,B,G,b,y,10,10,3001,1,1,390.7946,268.6109
1,9,26,2,0,2,B,G,b,y,10,10,3001,1,3,469.8241,342.0945
1,9,26,2,0,2,B,G,b,y,10,10,3001,1,1,492.0078,364.2782
1,9,26,2,0,2,B,G,b,y,10,10,3001,1,3,325.63,321.2972
1,9,26,2,0,2,B,G,b,y,10,10,3001,1,3,379.7028,434.9887
1,9,26,2,0,2,B,G,b,y,10,10,3001,1,3,482.3024,468.2643
1,9,26,2,0,2,B,G,b,y,10,10,4001,1,3,521.1239,197.9003
1,9,26,2,0,2,B,G,b,y,10,10,4001,1,1,374.1568,163.2383
1,9,26,2,0,2,B,G,b,y,10,10,4001,1,3,349.2002,184.0355
1,9,26,2,0,2,B,G,b,y,10,10,4001,1,3,358.9055,279.7028
1,9,26,2,0,2,B,G,b,y,10,10,4001,1,1,302.0598,268.6109
1,9,26,2,0,2,B,G,b,y,10,10,4001,1,1,260.4653,333.7756
1,9,26,2,0,2,B,G,b,y,10,10,4001,1,3,268.7842,246.4272
1,9,26,2,0,2,B,G,b,y,10,10,5001,1,3,440.708,156.3059
1,9,26,2,0,2,B,G,b,y,10,10,5001,1,3,278.4896,138.2816
1,9,26,2,0,2,B,G,b,y,10,10,5001,1,1,303.4463,214.5381
1,9,26,2,0,2,B,G,b,y,10,10,5001,1,1,340.8813,308.8189
1,9,26,2,0,2,B,G,b,y,10,10,5001,1,1,501.7132,360.1187
1,9,26,2,0,2,B,G,b,y,10,10,5001,1,3,530.8293,311.5919
1,9,26,2,0,2,B,G,b,y,10,10,5001,1,3,562.7184,350.4133
1,9,26,2,0,2,B,G,b,y,10,10,5001,1,3,492.0078,480.7426
1,9,26,2,0,2,B,G,b,y,10,10,6001,1,3,335.3354,182.649
1,9,26,2,0,2,B,G,b,y,10,10,6001,1,3,293.7409,224.2435
1,9,26,2,0,2,B,G,b,y,10,10,6001,1,3,440.708,300.5
1,9,26,2,0,2,B,G,b,y,10,10,6001,1,1,460.1187,339.3215
1,9,26,2,0,2,B,G,b,y,10,10,6001,1,1,485.0754,353.1863
1,9,26,2,0,2,B,G,b,y,10,10,6001,1,1,498.9402,301.8865
1,9,26,2,0,2,B,G,b,y,10,10,6001,1,3,532.2158,314.3648
1,9,26,2,0,2,B,G,b,y,10,10,7001,1,3,203.6196,307.4324
1,9,26,2,0,2,B,G,b,y,10,10,7001,1,3,328.4029,318.5243
1,9,26,2,0,2,B,G,b,y,10,10,7001,1,1,371.3839,342.0945
1,9,26,2,0,2,B,G,b,y,10,10,7001,1,3,404.6594,344.8674
1,9,26,2,0,2,B,G,b,y,10,10,7001,1,3,460.1187,339.3215
1,9,26,2,0,2,B,G,b,y,10,10,7001,1,3,526.6698,314.3648
1,9,26,2,0,2,B,G,b,y,10,10,7001,1,1,580.7426,457.1724
1,9,26,2,0,2,B,G,b,y,10,10,8001,1,3,451.7998,346.2539
1,9,26,2,0,2,B,G,b,y,10,10,8001,1,3,510.0321,310.2054
1,9,26,2,0,2,B,G,b,y,10,10,8001,1,3,536.3752,331.0026
1,9,26,2,0,2,B,G,b,y,10,10,8001,1,3,274.3302,446.0806
1,9,26,2,0,2,B,G,b,y,10,10,8001,1,1,199.4601,407.2591
1,9,26,2,0,2,B,G,b,y,10,10,9001,1,3,300.6733,361.5052
1,9,26,2,0,2,B,G,b,y,10,10,9001,1,3,410.2054,398.9402
1,9,26,2,0,2,B,G,b,y,10,10,9001,1,3,455.9593,344.8674
1,9,26,2,0,2,B,G,b,y,10,10,9001,1,3,595.9939,350.4133
1,9,26,2,0,2,B,G,b,y,10,10,9001,1,1,659.7721,332.3891
1,9,26,2,0,2,B,G,b,y,10,10,10001,1,3,175.8899,367.0511
1,9,26,2,0,2,B,G,b,y,10,10,10001,1,3,288.195,486.2886
1,9,26,2,0,2,B,G,b,y,10,10,10001,1,3,440.708,335.162
1,9,26,2,0,2,B,G,b,y,10,10,10001,1,3,541.9211,304.6594
1,9,26,2,0,2,B,G,b,y,10,10,10001,1,1,243.8276,179.8761
1,9,26,2,0,2,B,G,b,y,10,10,11001,1,3,253.5329,211.7652
1,9,26,2,0,2,B,G,b,y,10,10,11001,1,1,299.2868,331.0026
1,9,26,2,0,2,B,G,b,y,10,10,11001,1,3,462.8917,349.0269
1,9,26,2,0,2,B,G,b,y,10,10,11001,1,3,514.1915,286.6352
1,9,26,2,0,2,B,G,b,y,10,10,11001,1,1,551.6265,294.9541
1,9,26,2,0,2,B,G,b,y,10,10,11001,1,3,676.4099,329.6161
1,9,26,2,0,2,B,G,b,y,10,10,12001,1,3,426.8432,132.7357
1,9,26,2,0,2,B,G,b,y,10,10,12001,1,3,396.3406,193.7409
1,9,26,2,0,2,B,G,b,y,10,10,12001,1,1,166.1846,317.1378
1,9,26,2,0,2,B,G,b,y,10,10,12001,1,3,440.708,337.935
1,9,26,2,0,2,B,G,b,y,10,10,12001,1,1,494.7808,331.0026
1,9,26,2,0,2,B,G,b,y,10,10,12001,1,3,515.578,303.273
1,9,26,2,0,2,B,G,b,y,10,10,13001,1,3,345.0407,143.8276
1,9,26,2,0,2,B,G,b,y,10,10,13001,1,1,199.4601,346.2539
1,9,26,2,0,2,B,G,b,y,10,10,13001,1,1,304.8328,383.6889
1,9,26,2,0,2,B,G,b,y,10,10,13001,1,3,295.1274,422.5104
1,9,26,2,0,2,B,G,b,y,10,10,13001,1,3,444.8674,337.935
1,9,26,2,0,2,B,G,b,y,10,10,13001,1,3,487.8484,319.9107
1,9,26,2,0,2,B,G,b,y,10,10,13001,1,1,518.351,310.2054
1,9,26,2,0,2,B,G,b,y,10,10,14001,1,1,252.1464,489.0615
1,9,26,2,0,2,B,G,b,y,10,10,14001,1,3,282.649,238.1083
1,9,26,2,0,2,B,G,b,y,10,10,14001,1,1,489.2348,276.9298
1,9,26,2,0,2,B,G,b,y,10,10,14001,1,3,465.6646,333.7756
1,9,26,2,0,2,B,G,b,y,10,10,14001,1,3,496.1672,332.3891
1,9,26,2,0,2,B,G,b,y,10,10,15001,1,1,464.2782,459.9454
1,9,26,2,0,2,B,G,b,y,10,10,15001,1,3,343.6542,332.3891
1,9,26,2,0,2,B,G,b,y,10,10,15001,1,3,492.0078,342.0945
1,9,26,2,0,2,B,G,b,y,10,10,15001,1,3,521.1239,333.7756
1,9,26,2,0,2,B,G,b,y,10,10,15001,1,1,518.351,279.7028
1,9,26,2,0,2,B,G,b,y,10,10,16001,1,3,223.0303,331.0026
1,9,26,2,0,2,B,G,b,y,10,10,16001,1,1,263.2383,268.6109
1,9,26,2,0,2,B,G,b,y,10,10,16001,1,3,472.5971,346.2539
1,9,26,2,0,2,B,G,b,y,10,10,16001,1,3,532.2158,353.1863
1,9,26,2,0,2,B,G,b,y,10,10,17001,1,3,376.9298,116.0979
1,9,26,2,0,2,B,G,b,y,10,10,17001,1,3,510.0321,192.3544
1,9,26,2,0,2,B,G,b,y,10,10,17001,1,1,401.8865,306.0459
1,9,26,2,0,2,B,G,b,y,10,10,17001,1,3,467.0511,347.6404
1,9,26,2,0,2,B,G,b,y,10,10,17001,1,1,440.708,423.8969
1,9,26,2,0,2,B,G,b,y,10,10,18001,1,3,476.7565,215.9246
1,9,26,2,0,2,B,G,b,y,10,10,18001,1,3,471.2106,329.6161
1,9,26,2,0,2,B,G,b,y,10,10,18001,1,1,526.6698,346.2539
1,9,26,2,0,2,B,G,b,y,10,10,18001,1,1,216.0979,247.8137
1,9,26,2,0,2,B,G,b,y,10,10,18001,1,1,328.4029,354.5728
1,9,26,2,0,2,B,G,b,y,10,10,18001,1,3,365.838,362.8917
1,9,26,2,0,2,B,G,b,y,10,10,19001,1,3,418.5243,135.5087
1,9,26,2,0,2,B,G,b,y,10,10,19001,1,3,498.9402,283.8622
1,9,26,2,0,2,B,G,b,y,10,10,19001,1,3,343.6542,325.4567
1,9,26,2,0,2,B,G,b,y,10,10,19001,1,1,684.7288,288.0217
1,9,26,2,0,2,B,G,b,y,10,10,19001,1,1,443.4809,469.6508
1,9,26,2,0,2,B,G,b,y,10,10,19001,1,1,389.4081,497.3804
1,9,26,2,0,2,B,G,b,y,10,10,19001,1,3,363.065,523.7236
1,9,26,2,0,2,B,G,b,y,10,10,20001,1,1,540.5347,136.8951
1,9,26,2,0,2,B,G,b,y,10,10,20001,1,3,514.1915,177.1031
1,9,26,2,0,2,B,G,b,y,10,10,20001,1,3,436.5485,355.9593
1,9,26,2,0,2,B,G,b,y,10,10,20001,1,3,354.7461,468.2643
1,9,26,2,0,2,B,G,b,y,10,10,20001,1,1,487.8484,411.4185
1,9,26,2,0,2,B,G,b,y,10,10,20001,1,1,548.8536,404.4861
1,9,26,2,0,2,B,G,b,y,10,10,20001,1,3,602.9263,466.8778
1,9,26,2,0,2,B,G,b,y,10,10,21001,1,3,346.4272,146.6005
1,9,26,2,0,2,B,G,b,y,10,10,21001,1,3,559.9454,325.4567
1,9,26,2,0,2,B,G,b,y,10,10,21001,1,3,490.6213,347.6404
1,9,26,2,0,2,B,G,b,y,10,10,21001,1,3,350.5867,407.2591
1,9,26,2,0,2,B,G,b,y,10,10,21001,1,1,338.1083,459.9454
1,9,26,2,0,2,B,G,b,y,10,10,21001,1,1,279.8761,426.6698
1,9,26,2,0,2,B,G,b,y,10,10,22001,1,3,339.4948,288.0217
1,9,26,2,0,2,B,G,b,y,10,10,22001,1,3,401.8865,308.8189
1,9,26,2,0,2,B,G,b,y,10,10,22001,1,3,467.0511,328.2296
1,9,26,2,0,2,B,G,b,y,10,10,22001,1,3,367.2244,373.9835
1,9,26,2,0,2,B,G,b,y,10,10,22001,1,1,374.1568,398.9402
1,9,26,2,0,2,B,G,b,y,10,10,23001,1,3,516.9645,333.7756
1,9,26,2,0,2,B,G,b,y,10,10,23001,1,3,417.1378,332.3891
1,9,26,2,0,2,B,G,b,y,10,10,23001,1,1,442.0945,360.1187
1,9,26,2,0,2,B,G,b,y,10,10,23001,1,3,382.4757,389.2348
1,9,26,2,0,2,B,G,b,y,10,10,23001,1,1,394.9541,439.1482
1,9,26,2,0,2,B,G,b,y,10,10,23001,1,3,250.76,484.9021
1,9,26,2,0,2,B,G,b,y,10,10,24001,1,1,345.0407,95.3007
1,9,26,2,0,2,B,G,b,y,10,10,24001,1,3,371.3839,138.2816
1,9,26,2,0,2,B,G,b,y,10,10,24001,1,3,458.7322,150.76
1,9,26,2,0,2,B,G,b,y,10,10,24001,1,1,332.5624,184.0355
1,9,26,2,0,2,B,G,b,y,10,10,24001,1,3,307.6057,342.0945
1,9,26,2,0,2,B,G,b,y,10,10,24001,1,1,367.2244,322.6837
1,9,26,2,0,2,B,G,b,y,10,10,24001,1,3,453.1863,350.4133
1,9,26,2,0,2,B,G,b,y,10,10,25001,1,3,353.3596,125.8033
1,9,26,2,0,2,B,G,b,y,10,10,25001,1,3,328.4029,275.5433
1,9,26,2,0,2,B,G,b,y,10,10,25001,1,1,462.8917,240.8813
1,9,26,2,0,2,B,G,b,y,10,10,25001,1,1,548.8536,150.76
1,9,26,2,0,2,B,G,b,y,10,10,25001,1,1,582.1291,164.6248
1,9,26,2,0,2,B,G,b,y,10,10,25001,1,3,518.351,304.6594
1,9,26,2,0,2,B,G,b,y,10,10,25001,1,3,609.8588,437.7617
1,9,26,2,0,2,B,G,b,y,10,10,26001,1,3,206.3925,263.065
1,9,26,2,0,2,B,G,b,y,10,10,26001,1,3,313.1516,364.2782
1,9,26,2,0,2,B,G,b,y,10,10,26001,1,1,388.0217,335.162
1,9,26,2,0,2,B,G,b,y,10,10,26001,1,3,411.5919,367.0511
1,9,26,2,0,2,B,G,b,y,10,10,26001,1,3,584.9021,264.4515
1,9,26,2,0,2,B,G,b,y,10,10,26001,1,1,601.5399,261.6785
1,9,26,2,0,2,B,G,b,y,10,10,27001,1,3,277.1031,355.9593
1,9,26,2,0,2,B,G,b,y,10,10,27001,1,3,308.9922,389.2348
1,9,26,2,0,2,B,G,b,y,10,10,27001,1,3,325.63,455.786
1,9,26,2,0,2,B,G,b,y,10,10,27001,1,3,501.7132,358.7322
1,9,26,2,0,2,B,G,b,y,10,10,27001,1,3,514.1915,322.6837
1,9,26,2,0,2,B,G,b,y,10,10,27001,1,1,548.8536,184.0355
1,9,26,2,0,2,B,G,b,y,10,10,28001,1,3,335.3354,310.2054
1,9,26,2,0,2,B,G,b,y,10,10,28001,1,3,476.7565,314.3648
1,9,26,2,0,2,B,G,b,y,10,10,28001,1,3,486.4619,346.2539
1,9,26,2,0,2,B,G,b,y,10,10,28001,1,1,521.1239,290.7946
1,9,26,2,0,2,B,G,b,y,10,10,28001,1,1,547.4671,289.4081
1,9,26,2,0,2,B,G,b,y,10,10,28001,1,1,584.9021,106.3925
1,9,26,2,0,2,B,G,b,y,10,10,28001,1,3,561.3319,487.675
1,9,26,2,0,2,B,G,b,y,10,10,28001,1,3,627.883,440.5347
1,9,26,2,0,2,B,G,b,y,10,10,29001,1,1,468.4376,95.3007
1,9,26,2,0,2,B,G,b,y,10,10,29001,1,3,424.0702,163.2383
1,9,26,2,0,2,B,G,b,y,10,10,29001,1,1,322.857,268.6109
1,9,26,2,0,2,B,G,b,y,10,10,29001,1,1,328.4029,337.935
1,9,26,2,0,2,B,G,b,y,10,10,29001,1,3,443.4809,346.2539
1,9,26,2,0,2,B,G,b,y,10,10,29001,1,3,482.3024,310.2054
1,9,26,2,0,2,B,G,b,y,10,10,29001,1,3,511.4185,339.3215
1,9,26,2,0,2,B,G,b,y,10,10,29001,1,3,619.5641,383.6889
1,9,26,2,0,2,B,G,b,y,10,10,30001,1,3,376.9298,131.3492
1,9,26,2,0,2,B,G,b,y,10,10,30001,1,1,180.0494,249.2002
1,9,26,2,0,2,B,G,b,y,10,10,30001,1,1,511.4185,213.1516
1,9,26,2,0,2,B,G,b,y,10,10,30001,1,3,497.5537,299.1135
1,9,26,2,0,2,B,G,b,y,10,10,30001,1,3,511.4185,365.6646
1,9,26,2,0,2,B,G,b,y,10,10,30001,1,3,583.5156,306.0459
1,9,26,2,0,2,B,G,b,y,10,10,30001,1,3,519.7374,508.4723
1,9,26,2,0,2,B,G,b,y,10,10,31001,1,1,412.9783,147.987
1,9,26,2,0,2,B,G,b,y,10,10,31001,1,3,600.1534,141.0546
1,9,26,2,0,2,B,G,b,y,10,10,31001,1,3,464.2782,168.7842
1,9,26,2,0,2,B,G,b,y,10,10,31001,1,3,467.0511,207.6057
1,9,26,2,0,2,B,G,b,y,10,10,31001,1,3,526.6698,261.6785
1,9,26,2,0,2,B,G,b,y,10,10,31001,1,3,447.6404,371.2106
1,9,26,2,0,2,B,G,b,y,10,10,32001,1,3,299.2868,371.2106
1,9,26,2,0,2,B,G,b,y,10,10,32001,1,3,342.2678,336.5485
1,9,26,2,0,2,B,G,b,y,10,10,32001,1,3,417.1378,367.0511
1,9,26,2,0,2,B,G,b,y,10,10,32001,1,1,449.0269,346.2539
1,9,26,2,0,2,B,G,b,y,10,10,32001,1,1,647.2938,349.0269
1,9,26,2,0,2,B,G,b,y,10,10,32001,1,3,651.4532,379.5295
1,9,26,2,0,2,B,G,b,y,10,10,32001,1,3,478.143,170.1707
1,9,26,2,0,2,B,G,b,y,10,10,33001,1,3,521.1239,229.7894
1,9,26,2,0,2,B,G,b,y,10,10,33001,1,3,526.6698,301.8865
1,9,26,2,0,2,B,G,b,y,10,10,33001,1,3,510.0321,333.7756
1,9,26,2,0,2,B,G,b,y,10,10,33001,1,3,583.5156,387.8484
1,9,26,2,0,2,B,G,b,y,10,10,33001,1,1,600.1534,353.1863
1,9,26,2,0,2,B,G,b,y,10,10,33001,1,3,655.6127,380.9159
1,9,26,2,0,2,B,G,b,y,10,10,34001,1,3,583.5156,229.7894
1,9,26,2,0,2,B,G,b,y,10,10,34001,1,1,555.786,292.1811
1,9,26,2,0,2,B,G,b,y,10,10,34001,1,3,504.4861,308.8189
1,9,26,2,0,2,B,G,b,y,10,10,34001,1,3,167.5711,340.708
1,9,26,2,0,2,B,G,b,y,10,10,34001,1,3,367.2244,532.0425
1,9,26,2,0,2,B,G,b,y,10,10,34001,1,3,494.7808,476.5832
1,9,26,2,0,2,B,G,b,y,10,10,35001,1,3,351.9731,153.5329
1,9,26,2,0,2,B,G,b,y,10,10,35001,1,3,479.5295,332.3891
1,9,26,2,0,2,B,G,b,y,10,10,35001,1,1,598.7669,332.3891
1,9,26,2,0,2,B,G,b,y,10,10,35001,1,3,648.6802,319.9107
1,9,26,2,0,2,B,G,b,y,10,10,35001,1,3,465.6646,414.1915
1,9,26,2,0,2,B,G,b,y,10,10,35001,1,1,327.0165,415.578
1,9,26,2,0,2,B,G,b,y,10,10,35001,1,3,313.1516,530.656
1,9,26,2,0,2,B,G,b,y,10,10,36001,1,1,243.8276,490.448
1,9,26,2,0,2,B,G,b,y,10,10,36001,1,3,234.1222,461.3319
1,9,26,2,0,2,B,G,b,y,10,10,36001,1,1,429.6161,447.4671
1,9,26,2,0,2,B,G,b,y,10,10,36001,1,3,424.0702,394.7808
1,9,26,2,0,2,B,G,b,y,10,10,36001,1,3,437.935,365.6646
1,9,26,2,0,2,B,G,b,y,10,10,36001,1,3,600.1534,394.7808
1,9,26,2,0,2,B,G,b,y,10,10,37001,1,3,243.8276,414.1915
1,9,26,2,0,2,B,G,b,y,10,10,37001,1,1,381.0893,361.5052
1,9,26,2,0,2,B,G,b,y,10,10,37001,1,3,437.935,355.9593
1,9,26,2,0,2,B,G,b,y,10,10,37001,1,3,507.2591,319.9107
1,9,26,2,0,2,B,G,b,y,10,10,37001,1,3,564.1049,466.8778
1,9,26,2,0,2,B,G,b,y,10,10,37001,1,3,437.935,170.1707
1,9,26,2,0,2,B,G,b,y,10,10,37001,1,1,579.3562,105.0061
1,9,26,2,0,2,B,G,b,y,10,10,38001,1,3,435.162,118.8709
1,9,26,2,0,2,B,G,b,y,10,10,38001,1,3,443.4809,346.2539
1,9,26,2,0,2,B,G,b,y,10,10,38001,1,3,501.7132,308.8189
1,9,26,2,0,2,B,G,b,y,10,10,38001,1,1,537.7617,289.4081
1,9,26,2,0,2,B,G,b,y,10,10,38001,1,3,607.0858,350.4133
1,9,26,2,0,2,B,G,b,y,10,10,38001,1,3,666.7045,308.8189
1,9,26,2,0,2,B,G,b,y,10,10,39001,1,3,453.1863,355.9593
1,9,26,2,0,2,B,G,b,y,10,10,39001,1,3,548.8536,233.9489
1,9,26,2,0,2,B,G,b,y,10,10,39001,1,3,590.448,353.1863
1,9,26,2,0,2,B,G,b,y,10,10,39001,1,3,629.2695,235.3354
1,9,26,2,0,2,B,G,b,y,10,10,39001,1,3,482.3024,522.3371
1,9,26,2,0,2,B,G,b,y,10,10,39001,1,1,504.4861,494.6075
1,9,26,2,0,2,B,G,b,y,10,10,40001,1,3,205.0061,324.0702
1,9,26,2,0,2,B,G,b,y,10,10,40001,1,1,424.0702,325.4567
1,9,26,2,0,2,B,G,b,y,10,10,40001,1,3,472.5971,344.8674
1,9,26,2,0,2,B,G,b,y,10,10,40001,1,3,465.6646,450.24
1,9,26,2,0,2,B,G,b,y,10,10,40001,1,3,518.351,297.727
1,9,26,2,0,2,B,G,b,y,10,10,41001,1,3,300.6733,385.0754
1,9,26,2,0,2,B,G,b,y,10,10,41001,1,3,516.9645,362.8917
1,9,26,2,0,2,B,G,b,y,10,10,41001,1,3,507.2591,300.5
1,9,26,2,0,2,B,G,b,y,10,10,41001,1,1,465.6646,276.9298
1,9,26,2,0,2,B,G,b,y,10,10,42001,1,1,322.857,260.292
1,9,26,2,0,2,B,G,b,y,10,10,42001,1,3,390.7946,269.9974
1,9,26,2,0,2,B,G,b,y,10,10,42001,1,3,439.3215,346.2539
1,9,26,2,0,2,B,G,b,y,10,10,42001,1,3,496.1672,353.1863
1,9,26,2,0,2,B,G,b,y,10,10,42001,1,1,414.3648,113.325
1,9,26,2,0,2,B,G,b,y,10,10,42001,1,3,490.6213,153.5329
1,9,26,2,0,2,B,G,b,y,10,10,43001,1,1,191.1412,349.0269
1,9,26,2,0,2,B,G,b,y,10,10,43001,1,1,426.8432,312.9783
1,9,26,2,0,2,B,G,b,y,10,10,43001,1,3,424.0702,361.5052
1,9,26,2,0,2,B,G,b,y,10,10,43001,1,3,497.5537,290.7946
1,9,26,2,0,2,B,G,b,y,10,10,43001,1,3,605.6993,361.5052
1,9,26,2,0,2,B,G,b,y,10,10,43001,1,1,576.5832,136.8951
1,9,26,2,0,2,B,G,b,y,10,10,43001,1,3,640.3614,179.8761
1,9,26,2,0,2,B,G,b,y,10,10,44001,1,3,357.5191,253.3596
1,9,26,2,0,2,B,G,b,y,10,10,44001,1,1,385.2487,276.9298
1,9,26,2,0,2,B,G,b,y,10,10,44001,1,3,480.9159,364.2782
1,9,26,2,0,2,B,G,b,y,10,10,44001,1,3,536.3752,346.2539
1,9,26,2,0,2,B,G,b,y,10,10,44001,1,3,492.0078,498.7669
1,9,26,2,0,2,B,G,b,y,10,10,45001,1,3,329.7894,167.3977
1,9,26,2,0,2,B,G,b,y,10,10,45001,1,3,164.7981,240.8813
1,9,26,2,0,2,B,G,b,y,10,10,45001,1,3,475.37,355.9593
1,9,26,2,0,2,B,G,b,y,10,10,45001,1,3,533.6023,343.4809
1,9,26,2,0,2,B,G,b,y,10,10,45001,1,1,576.5832,354.5728
1,9,26,2,0,2,B,G,b,y,10,10,46001,1,1,224.4168,272.7704
1,9,26,2,0,2,B,G,b,y,10,10,46001,1,3,489.2348,312.9783
1,9,26,2,0,2,B,G,b,y,10,10,46001,1,3,537.7617,349.0269
1,9,26,2,0,2,B,G,b,y,10,10,46001,1,3,553.013,174.3302
1,9,26,2,0,2,B,G,b,y,10,10,47001,1,1,450.4133,125.8033
1,9,26,2,0,2,B,G,b,y,10,10,47001,1,3,476.7565,106.3925
1,9,26,2,0,2,B,G,b,y,10,10,47001,1,3,485.0754,310.2054
1,9,26,2,0,2,B,G,b,y,10,10,47001,1,3,515.578,329.6161
1,9,26,2,0,2,B,G,b,y,10,10,48001,1,3,543.3076,342.0945
1,9,26,2,0,2,B,G,b,y,10,10,48001,1,3,444.8674,400.3267
1,9,26,2,0,2,B,G,b,y,10,10,48001,1,1,440.708,344.8674
1,9,26,2,0,2,B,G,b,y,10,10,48001,1,3,246.6005,238.1083
1,9,26,2,0,2,B,G,b,y,10,10,49001,1,1,514.1915,393.3943
1,9,26,2,0,2,B,G,b,y,10,10,49001,1,3,523.8969,344.8674
1,9,26,2,0,2,B,G,b,y,10,10,49001,1,1,528.0563,182.649
1,9,26,2,0,2,B,G,b,y,10,10,49001,1,3,464.2782,335.162
1,9,26,2,0,2,B,G,b,y,10,10,49001,1,3,350.5867,494.6075
1,9,26,2,0,2,B,G,b,y,10,10,50001,1,1,554.3995,211.7652
1,9,26,2,0,2,B,G,b,y,10,10,50001,1,1,505.8726,261.6785
1,9,26,2,0,2,B,G,b,y,10,10,50001,1,3,522.5104,292.1811
1,9,26,2,0,2,B,G,b,y,10,10,50001,1,3,540.5347,328.2296
1,9,26,2,0,2,B,G,b,y,10,10,50001,1,3,464.2782,336.5485
1,9,26,2,0,2,B,G,b,y,10,10,51001,1,1,422.6837,238.1083
1,9,26,2,0,2,B,G,b,y,10,10,51001,1,3,435.162,317.1378
1,9,26,2,0,2,B,G,b,y,10,10,51001,1,3,447.6404,357.3458
1,9,26,2,0,2,B,G,b,y,10,10,51001,1,3,417.1378,361.5052
1,9,26,2,0,2,B,G,b,y,10,10,52001,1,3,422.6837,376.7565
1,9,26,2,0,2,B,G,b,y,10,10,52001,1,3,492.0078,344.8674
1,9,26,2,0,2,B,G,b,y,10,10,52001,1,3,487.8484,311.5919
1,9,26,2,0,2,B,G,b,y,10,10,53001,1,3,318.6976,312.9783
1,9,26,2,0,2,B,G,b,y,10,10,53001,1,3,486.4619,325.4567
1,9,26,2,0,2,B,G,b,y,10,10,53001,1,3,568.2643,455.786
1,9,26,2,0,2,B,G,b,y,10,10,53001,1,1,561.3319,422.5104
1,9,26,2,0,2,B,G,b,y,10,10,54001,1,3,594.6075,195.1274
1,9,26,2,0,2,B,G,b,y,10,10,54001,1,1,593.221,231.1759
1,9,26,2,0,2,B,G,b,y,10,10,54001,1,3,526.6698,292.1811
1,9,26,2,0,2,B,G,b,y,10,10,54001,1,3,648.6802,344.8674
1,9,26,2,0,2,B,G,b,y,10,10,55001,1,3,518.351,179.8761
1,9,26,2,0,2,B,G,b,y,10,10,55001,1,1,598.7669,196.5139
1,9,26,2,0,2,B,G,b,y,10,10,55001,1,3,487.8484,324.0702
1,9,26,2,0,2,B,G,b,y,10,10,55001,1,3,501.7132,458.5589
1,9,26,2,0,2,B,G,b,y,10,10,56001,1,1,510.0321,293.5676
1,9,26,2,0,2,B,G,b,y,10,10,56001,1,3,476.7565,333.7756
1,9,26,2,0,2,B,G,b,y,10,10,56001,1,3,394.9541,483.5156
1,9,26,2,0,2,B,G,b,y,10,10,57001,1,1,314.5381,57.8657
1,9,26,2,0,2,B,G,b,y,10,10,57001,1,3,469.8241,349.0269
1,9,26,2,0,2,B,G,b,y,10,10,58001,1,1,476.7565,175.7166
1,9,26,2,0,2,B,G,b,y,10,10,58001,1,3,494.7808,289.4081
1,9,26,2,0,2,B,G,b,y,10,10,58001,1,3,451.7998,346.2539
1,9,26,2,0,2,B,G,b,y,10,10,59001,1,3,475.37,272.7704
1,9,26,2,0,2,B,G,b,y,10,10,59001,1,3,612.6317,358.7322
1,9,26,2,0,2,B,G,b,y,10,10,59001,1,1,647.2938,387.8484
1,9,26,2,0,2,B,G,b,y,10,10,60001,1,3,496.1672,319.9107
1,9,26,2,0,2,B,G,b,y,10,10,60001,1,3,440.708,349.0269
1,9,26,2,0,2,B,G,b,y,10,10,60001,1,1,396.3406,365.6646
1,9,26,2,0,2,B,G,b,y,10,10,61001,1,1,432.3891,353.1863
1,9,26,2,0,2,B,G,b,y,10,10,61001,1,3,431.0026,367.0511
1,9,26,2,0,2,B,G,b,y,10,10,61001,1,3,507.2591,337.935
1,9,26,2,0,2,B,G,b,y,10,10,62001,1,1,332.5624,85.5953
1,9,26,2,0,2,B,G,b,y,10,10,62001,1,3,467.0511,336.5485
1,9,26,2,0,2,B,G,b,y,10,10,62001,1,3,510.0321,440.5347
1,9,26,2,0,2,B,G,b,y,10,10,63001,1,3,493.3943,304.6594
1,9,26,2,0,2,B,G,b,y,10,10,63001,1,3,494.7808,337.935
1,9,26,2,0,2,B,G,b,y,10,10,64001,1,1,480.9159,297.727
1,9,26,2,0,2,B,G,b,y,10,10,64001,1,3,500.3267,312.9783
1,9,26,2,0,2,B,G,b,y,10,10,64001,1,3,328.4029,500.1534
1,9,26,2,0,2,B,G,b,y,10,10,65001,1,3,533.6023,325.4567
1,9,26,2,0,2,B,G,b,y,10,10,65001,1,3,489.2348,371.2106
1,9,26,2,0,2,B,G,b,y,10,10,66001,1,3,306.2192,297.727
1,9,26,2,0,2,B,G,b,y,10,10,66001,1,3,306.2192,448.8536
1,9,26,2,0,2,B,G,b,y,10,10,66001,1,1,351.9731,318.5243
1,9,26,2,0,2,B,G,b,y,10,10,67001,1,1,336.7218,129.9627
1,9,26,2,0,2,B,G,b,y,10,10,67001,1,1,447.6404,166.0113
1,9,26,2,0,2,B,G,b,y,10,10,67001,1,3,315.9246,440.5347
1,9,26,2,0,2,B,G,b,y,10,10,68001,1,1,548.8536,367.0511
1,9,26,2,0,2,B,G,b,y,10,10,68001,1,1,632.0425,172.9437
1,9,26,2,0,2,B,G,b,y,10,10,69001,1,1,404.6594,400.3267
1,9,26,2,0,2,B,G,b,y,10,10,70001,1,1,582.1291,247.8137
1,9,26,2,0,2,B,G,b,y,10,10,71001,1,1,472.5971,123.0303
1,9,26,2,0,2,B,G,b,y,10,10,71001,1,1,494.7808,100.8466
1,9,26,2,0,2,B,G,b,y,10,10,71001,1,3,497.5537,179.8761
1,9,26,2,0,2,B,G,b,y,10,10,71001,1,1,449.0269,468.2643
1,9,26,2,0,2,B,G,b,y,10,10,72001,1,3,274.3302,281.0893
1,9,26,2,0,2,B,G,b,y,10,10,72001,1,1,569.6508,128.5763
1,9,26,2,0,2,B,G,b,y,10,10,73001,1,1,249.3735,131.3492
1,9,26,2,0,2,B,G,b,y,10,10,73001,1,3,440.708,56.4792
1,9,26,2,0,2,B,G,b,y,10,10,74001,1,1,553.013,264.4515
1,9,26,2,0,2,B,G,b,y,10,10,74001,1,3,332.5624,365.6646
1,9,26,2,0,2,B,G,b,y,10,10,75001,1,1,465.6646,362.8917
1,9,26,2,0,2,B,G,b,y,10,10,75001,1,3,511.4185,315.7513
1,9,26,2,0,2,B,G,b,y,10,10,76001,1,1,234.1222,426.6698
1,9,26,2,0,2,B,G,b,y,10,10,76001,1,3,203.6196,440.5347
1,9,26,2,0,2,B,G,b,y,10,10,77001,1,1,498.9402,157.6924
1,9,26,2,0,2,B,G,b,y,10,10,77001,1,3,439.3215,157.6924
1,9,26,2,0,2,B,G,b,y,10,10,78001,1,1,349.2002,109.1655
1,9,26,2,0,2,B,G,b,y,10,10,78001,1,3,382.4757,105.0061
1,9,26,2,0,2,B,G,b,y,10,10,79001,1,1,498.9402,306.0459
1,9,26,2,0,2,B,G,b,y,10,10,79001,1,3,539.1482,306.0459
1,9,26,2,0,2,B,G,b,y,10,10,80001,1,1,228.5763,274.1568
1,9,26,2,0,2,B,G,b,y,10,10,81001,1,1,436.5485,412.805
1,9,26,2,0,2,B,G,b,y,10,10,81001,1,3,464.2782,430.8293
1,9,26,2,0,2,B,G,b,y,10,10,81001,1,1,221.6438,261.6785
1,9,26,2,0,2,B,G,b,y,10,10,82001,1,1,532.2158,387.8484
1,9,26,2,0,2,B,G,b,y,10,10,82001,1,1,541.9211,419.7374
1,9,26,2,0,2,B,G,b,y,10,10,82001,1,3,532.2158,344.8674
1,9,26,2,0,2,B,G,b,y,10,10,83001,1,1,501.7132,304.6594
1,9,26,2,0,2,B,G,b,y,10,10,83001,1,3,508.6456,357.3458
1,9,26,2,0,2,B,G,b,y,10,10,84001,1,1,390.7946,307.4324
1,9,26,2,0,2,B,G,b,y,10,10,84001,1,1,332.5624,296.3406
1,9,26,2,0,2,B,G,b,y,10,10,84001,1,1,460.1187,351.7998
1,9,26,2,0,2,B,G,b,y,10,10,84001,1,3,367.2244,340.708
1,9,26,2,0,2,B,G,b,y,10,10,85001,1,1,182.8224,310.2054
1,9,26,2,0,2,B,G,b,y,10,10,85001,1,1,442.0945,389.2348
1,9,26,2,0,2,B,G,b,y,10,10,85001,1,1,471.2106,364.2782
1,9,26,2,0,2,B,G,b,y,10,10,85001,1,3,446.2539,364.2782
1,9,26,2,0,2,B,G,b,y,10,10,86001,1,1,406.0459,414.1915
1,9,26,2,0,2,B,G,b,y,10,10,86001,1,1,216.0979,386.4619
1,9,26,2,0,2,B,G,b,y,10,10,86001,1,3,406.0459,364.2782
1,9,26,2,0,2,B,G,b,y,10,10,87001,1,1,586.2886,202.0598
1,9,26,2,0,2,B,G,b,y,10,10,87001,1,2,675.0234,376.7565
1,9,26,2,0,2,B,G,b,y,10,10,88001,1,1,577.9697,196.5139
1,9,26,2,0,2,B,G,b,y,10,10,88001,1,1,644.5208,357.3458
1,9,26,2,0,2,B,G,b,y,10,10,88001,1,1,424.0702,340.708
1,9,26,2,0,2,B,G,b,y,10,10,88001,1,3,437.935,383.6889
1,9,26,2,0,2,B,G,b,y,10,10,88001,1,1,421.2972,434.9887
1,9,26,2,0,2,B,G,b,y,10,10,89001,1,1,597.3804,304.6594
1,9,26,2,0,2,B,G,b,y,10,10,89001,1,1,579.3562,400.3267
1,9,26,2,0,2,B,G,b,y,10,10,89001,1,3,620.9506,350.4133
1,9,26,2,0,2,B,G,b,y,10,10,90001,1,1,189.7548,339.3215
1,9,26,2,0,2,B,G,b,y,10,10,90001,1,3,550.24,336.5485
1,9,26,2,0,2,B,G,b,y,10,10,90001,1,1,684.7288,261.6785
1,9,26,2,0,2,B,G,b,y,10,10,91001,1,1,449.0269,450.24
1,9,26,2,0,2,B,G,b,y,10,10,91001,1,1,482.3024,136.8951
1,9,26,2,0,2,B,G,b,y,10,10,91001,1,3,497.5537,434.9887
1,9,26,2,0,2,B,G,b,y,10,10,92001,1,1,451.7998,107.779
1,9,26,2,0,2,B,G,b,y,10,10,92001,1,3,347.8137,451.6265
1,9,26,2,0,2,B,G,b,y,10,10,92001,1,1,601.5399,285.2487
1,9,26,2,0,2,B,G,b,y,10,10,92001,1,3,594.6075,322.6837
1,9,26,2,0,2,B,G,b,y,10,10,93001,1,1,360.292,373.9835
1,9,26,2,0,2,B,G,b,y,10,10,93001,1,3,378.3163,360.1187
1,9,26,2,0,2,B,G,b,y,10,10,93001,1,3,518.351,315.7513
1,9,26,2,0,2,B,G,b,y,10,10,94001,1,1,431.0026,350.4133
1,9,26,2,0,2,B,G,b,y,10,10,94001,1,1,442.0945,362.8917
1,9,26,2,0,2,B,G,b,y,10,10,94001,1,3,411.5919,376.7565
1,9,26,2,0,2,B,G,b,y,10,10,94001,1,3,324.2435,468.2643
1,9,26,2,0,2,B,G,b,y,10,10,94001,1,1,137.0685,397.5537
1,9,26,2,0,2,B,G,b,y,10,10,95001,1,1,369.9974,355.9593
1,9,26,2,0,2,B,G,b,y,10,10,95001,1,3,432.3891,365.6646
1,9,26,2,0,2,B,G,b,y,10,10,95001,1,3,519.7374,342.0945
1,9,26,2,0,2,B,G,b,y,10,10,96001,1,1,612.6317,329.6161
1,9,26,2,0,2,B,G,b,y,10,10,96001,1,1,568.2643,455.786
1,9,26,2,0,2,B,G,b,y,10,10,96001,1,1,435.162,455.786
1,9,26,2,0,2,B,G,b,y,10,10,96001,1,3,471.2106,351.7998
1,9,26,2,0,2,B,G,b,y,10,10,96001,1,1,216.0979,414.1915
1,9,26,2,0,2,B,G,b,y,10,10,97001,1,1,236.8951,251.9731
1,9,26,2,0,2,B,G,b,y,10,10,97001,1,3,525.2834,325.4567
1,9,26,2,0,2,B,G,b,y,10,10,97001,1,2,505.8726,364.2782
1,9,26,2,0,2,B,G,b,y,10,10,97001,1,1,562.7184,379.5295
1,9,26,2,0,2,B,G,b,y,10,10,98001,1,1,516.9645,319.9107
1,9,26,2,0,2,B,G,b,y,10,10,98001,1,3,476.7565,346.2539
1,9,26,2,0,2,B,G,b,y,10,10,98001,1,2,648.6802,238.1083
1,9,26,2,0,2,B,G,b,y,10,10,99001,1,1,433.7756,263.065
1,9,26,2,0,2,B,G,b,y,10,10,99001,1,1,415.7513,319.9107
1,9,26,2,0,2,B,G,b,y,10,10,99001,1,1,436.5485,357.3458
1,9,26,2,0,2,B,G,b,y,10,10,99001,1,3,415.7513,375.37
1,9,26,2,0,2,B,G,b,y,10,10,99001,1,1,211.9385,265.838
1,9,26,2,0,2,B,G,b,y,10,10,100001,1,1,232.7357,373.9835
1,9,26,2,0,2,B,G,b,y,10,10,100001,1,1,433.7756,267.2244
1,9,26,2,0,2,B,G,b,y,10,10,100001,1,1,486.4619,245.0407
1,9,26,2,0,2,B,G,b,y,10,10,100001,1,3,443.4809,293.5676
1,9,26,2,0,2,B,G,b,y,10,10,101001,1,1,342.2678,468.2643
1,9,26,2,0,2,B,G,b,y,10,10,101001,1,1,389.4081,171.5572
1,9,26,2,0,2,B,G,b,y,10,10,101001,1,1,444.8674,301.8865
1,9,26,2,0,2,B,G,b,y,10,10,101001,1,3,457.3458,339.3215
1,9,26,2,0,2,B,G,b,y,10,10,101001,1,1,479.5295,390.6213
1,9,26,2,0,2,B,G,b,y,10,10,102001,1,1,303.4463,290.7946
1,9,26,2,0,2,B,G,b,y,10,10,102001,1,1,410.2054,326.8432
1,9,26,2,0,2,B,G,b,y,10,10,102001,1,1,455.9593,307.4324
1,9,26,2,0,2,B,G,b,y,10,10,102001,1,1,472.5971,264.4515
1,9,26,2,0,2,B,G,b,y,10,10,102001,1,3,455.9593,349.0269
1,9,26,2,0,2,B,G,b,y,10,10,103001,1,1,399.1135,407.2591
1,9,26,2,0,2,B,G,b,y,10,10,103001,1,1,435.162,403.0997
1,9,26,2,0,2,B,G,b,y,10,10,103001,1,1,440.708,303.273
1,9,26,2,0,2,B,G,b,y,10,10,103001,1,1,440.708,225.63
1,9,26,2,0,2,B,G,b,y,10,10,103001,1,3,450.4133,340.708
1,9,26,2,0,2,B,G,b,y,10,10,103001,1,1,627.883,242.2678
1,9,26,2,0,2,B,G,b,y,10,10,104001,1,1,351.9731,483.5156
1,9,26,2,0,2,B,G,b,y,10,10,104001,1,1,432.3891,331.0026
1,9,26,2,0,2,B,G,b,y,10,10,104001,1,1,457.3458,240.8813
1,9,26,2,0,2,B,G,b,y,10,10,104001,1,1,504.4861,268.6109
1,9,26,2,0,2,B,G,b,y,10,10,104001,1,1,550.24,261.6785
1,9,26,2,0,2,B,G,b,y,10,10,104001,1,3,478.143,354.5728
1,9,26,2,0,2,B,G,b,y,10,10,104001,1,1,634.8154,461.3319
1,9,26,2,0,2,B,G,b,y,10,10,105001,1,1,331.1759,480.7426
1,9,26,2,0,2,B,G,b,y,10,10,105001,1,1,472.5971,355.9593
1,9,26,2,0,2,B,G,b,y,10,10,105001,1,3,497.5537,353.1863
1,9,26,2,0,2,B,G,b,y,10,10,106001,1,1,177.2764,369.8241
1,9,26,2,0,2,B,G,b,y,10,10,106001,1,1,378.3163,351.7998
1,9,26,2,0,2,B,G,b,y,10,10,106001,1,1,566.8778,367.0511
1,9,26,2,0,2,B,G,b,y,10,10,106001,1,3,541.9211,343.4809
1,9,26,2,0,2,B,G,b,y,10,10,106001,1,1,654.2262,349.0269
1,9,26,2,0,2,B,G,b,y,10,10,107001,1,3,363.065,74.5035
1,9,26,2,0,2,B,G,b,y,10,10,107001,1,3,508.6456,292.1811
1,9,26,2,0,2,B,G,b,y,10,10,107001,1,1,482.3024,319.9107
1,9,26,2,0,2,B,G,b,y,10,10,107001,1,1,485.0754,362.8917
1,9,26,2,0,2,B,G,b,y,10,10,107001,1,1,505.8726,361.5052
