dummy,month,day,period,view,station,fgeno,mgeno,fcol,mcol,nf,nm,frame,something,sex,x,y
1,6,25,3,1,1,C,G,b,y,5,15,1,1,1,158,199
1,6,25,3,1,1,C,G,b,y,5,15,1,1,1,486,210
1,6,25,3,1,1,C,G,b,y,5,15,1,1,1,316,72
1,6,25,3,1,1,C,G,b,y,5,15,1,1,1,413,49
1,6,25,3,1,1,C,G,b,y,5,15,1001,1,1,413,46
1,6,25,3,1,1,C,G,b,y,5,15,1001,1,1,475,210
1,6,25,3,1,1,C,G,b,y,5,15,1001,1,1,321,69
1,6,25,3,1,1,C,G,b,y,5,15,1001,1,1,163,205
1,6,25,3,1,1,C,G,b,y,5,15,2001,1,1,416,50
1,6,25,3,1,1,C,G,b,y,5,15,2001,1,1,477,218
1,6,25,3,1,1,C,G,b,y,5,15,2001,1,1,324,80
1,6,25,3,1,1,C,G,b,y,5,15,2001,1,1,155,199
1,6,25,3,1,1,C,G,b,y,5,15,3001,1,1,329,71
1,6,25,3,1,1,C,G,b,y,5,15,3001,1,1,424,188
1,6,25,3,1,1,C,G,b,y,5,15,3001,1,1,411,480
1,6,25,3,1,1,C,G,b,y,5,15,3001,1,1,237,241
1,6,25,3,1,1,C,G,b,y,5,15,3001,1,3,462,324
1,6,25,3,1,1,C,G,b,y,5,15,4001,1,3,333,139
1,6,25,3,1,1,C,G,b,y,5,15,4001,1,1,314,266
1,6,25,3,1,1,C,G,b,y,5,15,4001,1,1,302,324
1,6,25,3,1,1,C,G,b,y,5,15,4001,1,1,380,339
1,6,25,3,1,1,C,G,b,y,5,15,4001,1,1,405,330
1,6,25,3,1,1,C,G,b,y,5,15,5001,1,1,318,208
1,6,25,3,1,1,C,G,b,y,5,15,5001,1,1,347,346
1,6,25,3,1,1,C,G,b,y,5,15,5001,1,1,428,358
1,6,25,3,1,1,C,G,b,y,5,15,5001,1,3,309,433
1,6,25,3,1,1,C,G,b,y,5,15,6001,1,1,318,196
1,6,25,3,1,1,C,G,b,y,5,15,6001,1,1,422,364
1,6,25,3,1,1,C,G,b,y,5,15,6001,1,1,371,385
1,6,25,3,1,1,C,G,b,y,5,15,6001,1,1,282,369
1,6,25,3,1,1,C,G,b,y,5,15,6001,1,3,348,348
1,6,25,3,1,1,C,G,b,y,5,15,7001,1,1,315,192
1,6,25,3,1,1,C,G,b,y,5,15,7001,1,1,336,266
1,6,25,3,1,1,C,G,b,y,5,15,7001,1,1,425,356
1,6,25,3,1,1,C,G,b,y,5,15,7001,1,1,325,330
1,6,25,3,1,1,C,G,b,y,5,15,7001,1,3,285,355
1,6,25,3,1,1,C,G,b,y,5,15,8001,1,1,428,359
1,6,25,3,1,1,C,G,b,y,5,15,8001,1,1,354,398
1,6,25,3,1,1,C,G,b,y,5,15,8001,1,1,285,343
1,6,25,3,1,1,C,G,b,y,5,15,8001,1,3,224,293
1,6,25,3,1,1,C,G,b,y,5,15,8001,1,1,309,178
1,6,25,3,1,1,C,G,b,y,5,15,9001,1,1,431,360
1,6,25,3,1,1,C,G,b,y,5,15,9001,1,1,330,336
1,6,25,3,1,1,C,G,b,y,5,15,9001,1,1,128,251
1,6,25,3,1,1,C,G,b,y,5,15,9001,1,1,344,226
1,6,25,3,1,1,C,G,b,y,5,15,9001,1,3,424,243
1,6,25,3,1,1,C,G,b,y,5,15,10001,1,3,495,298
1,6,25,3,1,1,C,G,b,y,5,15,10001,1,1,451,287
1,6,25,3,1,1,C,G,b,y,5,15,10001,1,1,461,343
1,6,25,3,1,1,C,G,b,y,5,15,10001,1,1,337,339
1,6,25,3,1,1,C,G,b,y,5,15,10001,1,1,146,252
1,6,25,3,1,1,C,G,b,y,5,15,11001,1,1,348,357
1,6,25,3,1,1,C,G,b,y,5,15,11001,1,1,295,333
1,6,25,3,1,1,C,G,b,y,5,15,11001,1,1,253,349
1,6,25,3,1,1,C,G,b,y,5,15,11001,1,1,136,251
1,6,25,3,1,1,C,G,b,y,5,15,12001,1,1,345,353
1,6,25,3,1,1,C,G,b,y,5,15,12001,1,1,296,313
1,6,25,3,1,1,C,G,b,y,5,15,12001,1,1,283,359
1,6,25,3,1,1,C,G,b,y,5,15,12001,1,1,129,251
1,6,25,3,1,1,C,G,b,y,5,15,13001,1,3,621,453
1,6,25,3,1,1,C,G,b,y,5,15,13001,1,1,516,387
1,6,25,3,1,1,C,G,b,y,5,15,13001,1,1,521,359
1,6,25,3,1,1,C,G,b,y,5,15,13001,1,1,553,239
1,6,25,3,1,1,C,G,b,y,5,15,13001,1,1,128,248
1,6,25,3,1,1,C,G,b,y,5,15,14001,1,1,533,398
1,6,25,3,1,1,C,G,b,y,5,15,14001,1,1,460,395
1,6,25,3,1,1,C,G,b,y,5,15,14001,1,1,138,258
1,6,25,3,1,1,C,G,b,y,5,15,14001,1,1,460,41
1,6,25,3,1,1,C,G,b,y,5,15,14001,1,3,580,209
1,6,25,3,1,1,C,G,b,y,5,15,15001,1,1,533,404
1,6,25,3,1,1,C,G,b,y,5,15,15001,1,1,457,396
1,6,25,3,1,1,C,G,b,y,5,15,15001,1,1,132,251
1,6,25,3,1,1,C,G,b,y,5,15,15001,1,1,453,29
1,6,25,3,1,1,C,G,b,y,5,15,15001,1,3,572,208
1,6,25,3,1,1,C,G,b,y,5,15,16001,1,1,536,406
1,6,25,3,1,1,C,G,b,y,5,15,16001,1,1,456,393
1,6,25,3,1,1,C,G,b,y,5,15,16001,1,1,143,260
1,6,25,3,1,1,C,G,b,y,5,15,16001,1,1,458,44
1,6,25,3,1,1,C,G,b,y,5,15,16001,1,3,563,212
1,6,25,3,1,1,C,G,b,y,5,15,17001,1,3,463,120
1,6,25,3,1,1,C,G,b,y,5,15,17001,1,1,225,235
1,6,25,3,1,1,C,G,b,y,5,15,17001,1,1,142,255
1,6,25,3,1,1,C,G,b,y,5,15,17001,1,1,533,411
1,6,25,3,1,1,C,G,b,y,5,15,17001,1,1,467,397
1,6,25,3,1,1,C,G,b,y,5,15,18001,1,1,426,174
1,6,25,3,1,1,C,G,b,y,5,15,18001,1,1,516,404
1,6,25,3,1,1,C,G,b,y,5,15,18001,1,1,342,274
1,6,25,3,1,1,C,G,b,y,5,15,18001,1,1,168,215
1,6,25,3,1,1,C,G,b,y,5,15,18001,1,3,227,375
1,6,25,3,1,1,C,G,b,y,5,15,19001,1,3,495,433
1,6,25,3,1,1,C,G,b,y,5,15,19001,1,1,531,397
1,6,25,3,1,1,C,G,b,y,5,15,19001,1,1,422,191
1,6,25,3,1,1,C,G,b,y,5,15,19001,1,1,152,202
1,6,25,3,1,1,C,G,b,y,5,15,19001,1,1,243,467
1,6,25,3,1,1,C,G,b,y,5,15,20001,1,1,440,184
1,6,25,3,1,1,C,G,b,y,5,15,20001,1,1,521,402
1,6,25,3,1,1,C,G,b,y,5,15,20001,1,3,501,429
1,6,25,3,1,1,C,G,b,y,5,15,20001,1,1,274,527
1,6,25,3,1,1,C,G,b,y,5,15,20001,1,1,177,204
1,6,25,3,1,1,C,G,b,y,5,15,21001,1,1,431,172
1,6,25,3,1,1,C,G,b,y,5,15,21001,1,1,162,207
1,6,25,3,1,1,C,G,b,y,5,15,21001,1,1,276,499
1,6,25,3,1,1,C,G,b,y,5,15,21001,1,1,490,410
1,6,25,3,1,1,C,G,b,y,5,15,21001,1,3,543,411
1,6,25,3,1,1,C,G,b,y,5,15,22001,1,1,160,210
1,6,25,3,1,1,C,G,b,y,5,15,22001,1,1,435,180
1,6,25,3,1,1,C,G,b,y,5,15,22001,1,1,405,452
1,6,25,3,1,1,C,G,b,y,5,15,22001,1,1,382,492
1,6,25,3,1,1,C,G,b,y,5,15,22001,1,3,558,402
1,6,25,3,1,1,C,G,b,y,5,15,23001,1,3,657,249
1,6,25,3,1,1,C,G,b,y,5,15,23001,1,1,442,188
1,6,25,3,1,1,C,G,b,y,5,15,23001,1,1,168,216
1,6,25,3,1,1,C,G,b,y,5,15,23001,1,1,405,444
1,6,25,3,1,1,C,G,b,y,5,15,23001,1,1,388,499
1,6,25,3,1,1,C,G,b,y,5,15,24001,1,1,428,182
1,6,25,3,1,1,C,G,b,y,5,15,24001,1,1,148,207
1,6,25,3,1,1,C,G,b,y,5,15,24001,1,1,405,438
1,6,25,3,1,1,C,G,b,y,5,15,24001,1,1,399,504
1,6,25,3,1,1,C,G,b,y,5,15,24001,1,3,323,377
1,6,25,3,1,1,C,G,b,y,5,15,25001,1,1,441,182
1,6,25,3,1,1,C,G,b,y,5,15,25001,1,1,159,211
1,6,25,3,1,1,C,G,b,y,5,15,25001,1,1,408,439
1,6,25,3,1,1,C,G,b,y,5,15,25001,1,1,400,501
1,6,25,3,1,1,C,G,b,y,5,15,25001,1,3,374,309
1,6,25,3,1,1,C,G,b,y,5,15,26001,1,1,668,387
1,6,25,3,1,1,C,G,b,y,5,15,26001,1,1,398,436
1,6,25,3,1,1,C,G,b,y,5,15,26001,1,1,398,518
1,6,25,3,1,1,C,G,b,y,5,15,26001,1,1,428,161
1,6,25,3,1,1,C,G,b,y,5,15,26001,1,1,164,207
1,6,25,3,1,1,C,G,b,y,5,15,26001,1,3,376,311
1,6,25,3,1,1,C,G,b,y,5,15,27001,1,1,392,506
1,6,25,3,1,1,C,G,b,y,5,15,27001,1,1,401,442
1,6,25,3,1,1,C,G,b,y,5,15,27001,1,1,666,407
1,6,25,3,1,1,C,G,b,y,5,15,27001,1,1,610,250
1,6,25,3,1,1,C,G,b,y,5,15,27001,1,1,157,210
1,6,25,3,1,1,C,G,b,y,5,15,27001,1,3,384,255
1,6,25,3,1,1,C,G,b,y,5,15,28001,1,1,392,508
1,6,25,3,1,1,C,G,b,y,5,15,28001,1,1,404,443
1,6,25,3,1,1,C,G,b,y,5,15,28001,1,1,637,405
1,6,25,3,1,1,C,G,b,y,5,15,28001,1,1,613,239
1,6,25,3,1,1,C,G,b,y,5,15,28001,1,1,157,217
1,6,25,3,1,1,C,G,b,y,5,15,28001,1,3,266,174
1,6,25,3,1,1,C,G,b,y,5,15,29001,1,1,402,505
1,6,25,3,1,1,C,G,b,y,5,15,29001,1,1,407,439
1,6,25,3,1,1,C,G,b,y,5,15,29001,1,1,636,396
1,6,25,3,1,1,C,G,b,y,5,15,29001,1,1,310,209
1,6,25,3,1,1,C,G,b,y,5,15,29001,1,3,179,287
1,6,25,3,1,1,C,G,b,y,5,15,29001,1,3,243,190
1,6,25,3,1,1,C,G,b,y,5,15,29001,1,1,168,219
1,6,25,3,1,1,C,G,b,y,5,15,30001,1,1,394,503
1,6,25,3,1,1,C,G,b,y,5,15,30001,1,1,418,442
1,6,25,3,1,1,C,G,b,y,5,15,30001,1,1,635,401
1,6,25,3,1,1,C,G,b,y,5,15,30001,1,1,146,233
1,6,25,3,1,1,C,G,b,y,5,15,30001,1,1,335,166
1,6,25,3,1,1,C,G,b,y,5,15,30001,1,3,542,317
1,6,25,3,1,1,C,G,b,y,5,15,30001,1,3,356,112
1,6,25,3,1,1,C,G,b,y,5,15,31001,1,1,407,448
1,6,25,3,1,1,C,G,b,y,5,15,31001,1,1,618,396
1,6,25,3,1,1,C,G,b,y,5,15,31001,1,3,525,301
1,6,25,3,1,1,C,G,b,y,5,15,31001,1,3,578,79
1,6,25,3,1,1,C,G,b,y,5,15,31001,1,1,346,143
1,6,25,3,1,1,C,G,b,y,5,15,31001,1,1,145,241
1,6,25,3,1,1,C,G,b,y,5,15,31001,1,3,248,463
1,6,25,3,1,1,C,G,b,y,5,15,32001,1,1,614,392
1,6,25,3,1,1,C,G,b,y,5,15,32001,1,3,585,320
1,6,25,3,1,1,C,G,b,y,5,15,32001,1,3,601,253
1,6,25,3,1,1,C,G,b,y,5,15,32001,1,3,427,131
1,6,25,3,1,1,C,G,b,y,5,15,32001,1,1,460,160
1,6,25,3,1,1,C,G,b,y,5,15,32001,1,1,147,243
1,6,25,3,1,1,C,G,b,y,5,15,32001,1,1,411,452
1,6,25,3,1,1,C,G,b,y,5,15,32001,1,1,321,502
1,6,25,3,1,1,C,G,b,y,5,15,33001,1,1,597,373
1,6,25,3,1,1,C,G,b,y,5,15,33001,1,1,566,289
1,6,25,3,1,1,C,G,b,y,5,15,33001,1,1,599,146
1,6,25,3,1,1,C,G,b,y,5,15,33001,1,3,540,242
1,6,25,3,1,1,C,G,b,y,5,15,33001,1,3,429,370
1,6,25,3,1,1,C,G,b,y,5,15,33001,1,1,313,491
1,6,25,3,1,1,C,G,b,y,5,15,33001,1,1,154,237
1,6,25,3,1,1,C,G,b,y,5,15,34001,1,1,338,507
1,6,25,3,1,1,C,G,b,y,5,15,34001,1,3,354,430
1,6,25,3,1,1,C,G,b,y,5,15,34001,1,1,148,226
1,6,25,3,1,1,C,G,b,y,5,15,34001,1,1,365,313
1,6,25,3,1,1,C,G,b,y,5,15,34001,1,3,412,301
1,6,25,3,1,1,C,G,b,y,5,15,34001,1,1,591,354
1,6,25,3,1,1,C,G,b,y,5,15,34001,1,1,621,382
1,6,25,3,1,1,C,G,b,y,5,15,34001,1,3,573,139
1,6,25,3,1,1,C,G,b,y,5,15,35001,1,1,320,510
1,6,25,3,1,1,C,G,b,y,5,15,35001,1,1,370,400
1,6,25,3,1,1,C,G,b,y,5,15,35001,1,3,318,433
1,6,25,3,1,1,C,G,b,y,5,15,35001,1,3,387,379
1,6,25,3,1,1,C,G,b,y,5,15,35001,1,1,488,267
1,6,25,3,1,1,C,G,b,y,5,15,35001,1,1,143,237
1,6,25,3,1,1,C,G,b,y,5,15,35001,1,3,254,112
1,6,25,3,1,1,C,G,b,y,5,15,35001,1,1,283,75
1,6,25,3,1,1,C,G,b,y,5,15,36001,1,1,322,514
1,6,25,3,1,1,C,G,b,y,5,15,36001,1,3,319,435
1,6,25,3,1,1,C,G,b,y,5,15,36001,1,3,394,385
1,6,25,3,1,1,C,G,b,y,5,15,36001,1,1,601,218
1,6,25,3,1,1,C,G,b,y,5,15,36001,1,3,341,268
1,6,25,3,1,1,C,G,b,y,5,15,36001,1,1,295,238
1,6,25,3,1,1,C,G,b,y,5,15,36001,1,1,307,103
1,6,25,3,1,1,C,G,b,y,5,15,36001,1,1,210,136
1,6,25,3,1,1,C,G,b,y,5,15,37001,1,1,611,220
1,6,25,3,1,1,C,G,b,y,5,15,37001,1,3,575,151
1,6,25,3,1,1,C,G,b,y,5,15,37001,1,3,362,371
1,6,25,3,1,1,C,G,b,y,5,15,37001,1,3,368,430
1,6,25,3,1,1,C,G,b,y,5,15,37001,1,1,339,500
1,6,25,3,1,1,C,G,b,y,5,15,37001,1,1,311,119
1,6,25,3,1,1,C,G,b,y,5,15,37001,1,1,266,173
1,6,25,3,1,1,C,G,b,y,5,15,37001,1,1,223,142
1,6,25,3,1,1,C,G,b,y,5,15,38001,1,3,374,436
1,6,25,3,1,1,C,G,b,y,5,15,38001,1,3,339,375
1,6,25,3,1,1,C,G,b,y,5,15,38001,1,1,345,516
1,6,25,3,1,1,C,G,b,y,5,15,38001,1,1,599,283
1,6,25,3,1,1,C,G,b,y,5,15,38001,1,1,615,199
1,6,25,3,1,1,C,G,b,y,5,15,38001,1,3,569,201
1,6,25,3,1,1,C,G,b,y,5,15,38001,1,1,315,122
1,6,25,3,1,1,C,G,b,y,5,15,38001,1,1,224,136
1,6,25,3,1,1,C,G,b,y,5,15,39001,1,1,512,503
1,6,25,3,1,1,C,G,b,y,5,15,39001,1,1,400,501
1,6,25,3,1,1,C,G,b,y,5,15,39001,1,3,398,528
1,6,25,3,1,1,C,G,b,y,5,15,39001,1,3,382,413
1,6,25,3,1,1,C,G,b,y,5,15,39001,1,3,529,216
1,6,25,3,1,1,C,G,b,y,5,15,39001,1,1,559,202
1,6,25,3,1,1,C,G,b,y,5,15,39001,1,1,292,118
1,6,25,3,1,1,C,G,b,y,5,15,39001,1,1,225,135
1,6,25,3,1,1,C,G,b,y,5,15,40001,1,1,515,458
1,6,25,3,1,1,C,G,b,y,5,15,40001,1,1,556,337
1,6,25,3,1,1,C,G,b,y,5,15,40001,1,3,634,420
1,6,25,3,1,1,C,G,b,y,5,15,40001,1,3,428,394
1,6,25,3,1,1,C,G,b,y,5,15,40001,1,3,422,291
1,6,25,3,1,1,C,G,b,y,5,15,40001,1,1,381,261
1,6,25,3,1,1,C,G,b,y,5,15,40001,1,1,312,121
1,6,25,3,1,1,C,G,b,y,5,15,40001,1,1,215,137
1,6,25,3,1,1,C,G,b,y,5,15,41001,1,1,515,460
1,6,25,3,1,1,C,G,b,y,5,15,41001,1,1,483,316
1,6,25,3,1,1,C,G,b,y,5,15,41001,1,3,486,354
1,6,25,3,1,1,C,G,b,y,5,15,41001,1,3,309,327
1,6,25,3,1,1,C,G,b,y,5,15,41001,1,3,358,253
1,6,25,3,1,1,C,G,b,y,5,15,41001,1,1,316,115
1,6,25,3,1,1,C,G,b,y,5,15,41001,1,1,212,135
1,6,25,3,1,1,C,G,b,y,5,15,42001,1,1,515,462
1,6,25,3,1,1,C,G,b,y,5,15,42001,1,1,514,389
1,6,25,3,1,1,C,G,b,y,5,15,42001,1,3,545,376
1,6,25,3,1,1,C,G,b,y,5,15,42001,1,3,325,392
1,6,25,3,1,1,C,G,b,y,5,15,42001,1,3,343,230
1,6,25,3,1,1,C,G,b,y,5,15,42001,1,1,311,120
1,6,25,3,1,1,C,G,b,y,5,15,42001,1,1,267,56
1,6,25,3,1,1,C,G,b,y,5,15,42001,1,1,215,133
1,6,25,3,1,1,C,G,b,y,5,15,43001,1,1,515,469
1,6,25,3,1,1,C,G,b,y,5,15,43001,1,1,509,426
1,6,25,3,1,1,C,G,b,y,5,15,43001,1,3,512,383
1,6,25,3,1,1,C,G,b,y,5,15,43001,1,3,395,405
1,6,25,3,1,1,C,G,b,y,5,15,43001,1,3,348,211
1,6,25,3,1,1,C,G,b,y,5,15,43001,1,1,388,230
1,6,25,3,1,1,C,G,b,y,5,15,43001,1,1,196,127
1,6,25,3,1,1,C,G,b,y,5,15,43001,1,1,250,68
1,6,25,3,1,1,C,G,b,y,5,15,44001,1,3,391,435
1,6,25,3,1,1,C,G,b,y,5,15,44001,1,1,423,406
1,6,25,3,1,1,C,G,b,y,5,15,44001,1,1,393,379
1,6,25,3,1,1,C,G,b,y,5,15,44001,1,3,432,355
1,6,25,3,1,1,C,G,b,y,5,15,44001,1,3,345,208
1,6,25,3,1,1,C,G,b,y,5,15,44001,1,1,394,229
1,6,25,3,1,1,C,G,b,y,5,15,44001,1,1,191,129
1,6,25,3,1,1,C,G,b,y,5,15,44001,1,1,267,51
1,6,25,3,1,1,C,G,b,y,5,15,45001,1,3,554,277
1,6,25,3,1,1,C,G,b,y,5,15,45001,1,1,498,283
1,6,25,3,1,1,C,G,b,y,5,15,45001,1,3,437,282
1,6,25,3,1,1,C,G,b,y,5,15,45001,1,3,413,145
1,6,25,3,1,1,C,G,b,y,5,15,45001,1,1,367,183
1,6,25,3,1,1,C,G,b,y,5,15,45001,1,1,189,144
1,6,25,3,1,1,C,G,b,y,5,15,45001,1,1,667,219
1,6,25,3,1,1,C,G,b,y,5,15,46001,1,3,619,187
1,6,25,3,1,1,C,G,b,y,5,15,46001,1,3,539,98
1,6,25,3,1,1,C,G,b,y,5,15,46001,1,3,407,123
1,6,25,3,1,1,C,G,b,y,5,15,46001,1,1,431,176
1,6,25,3,1,1,C,G,b,y,5,15,46001,1,1,182,139
1,6,25,3,1,1,C,G,b,y,5,15,47001,1,3,525,79
1,6,25,3,1,1,C,G,b,y,5,15,47001,1,3,435,104
1,6,25,3,1,1,C,G,b,y,5,15,47001,1,3,377,354
1,6,25,3,1,1,C,G,b,y,5,15,47001,1,1,397,405
1,6,25,3,1,1,C,G,b,y,5,15,47001,1,1,344,336
1,6,25,3,1,1,C,G,b,y,5,15,47001,1,1,179,142
1,6,25,3,1,1,C,G,b,y,5,15,48001,1,1,546,119
1,6,25,3,1,1,C,G,b,y,5,15,48001,1,3,594,409
1,6,25,3,1,1,C,G,b,y,5,15,48001,1,3,534,80
1,6,25,3,1,1,C,G,b,y,5,15,48001,1,1,341,92
1,6,25,3,1,1,C,G,b,y,5,15,48001,1,1,219,131
1,6,25,3,1,1,C,G,b,y,5,15,48001,1,3,210,174
1,6,25,3,1,1,C,G,b,y,5,15,49001,1,3,619,405
1,6,25,3,1,1,C,G,b,y,5,15,49001,1,3,212,220
1,6,25,3,1,1,C,G,b,y,5,15,49001,1,1,211,179
1,6,25,3,1,1,C,G,b,y,5,15,49001,1,1,304,98
1,6,25,3,1,1,C,G,b,y,5,15,49001,1,3,529,68
1,6,25,3,1,1,C,G,b,y,5,15,49001,1,1,538,39
1,6,25,3,1,1,C,G,b,y,5,15,50001,1,3,622,416
1,6,25,3,1,1,C,G,b,y,5,15,50001,1,3,174,282
1,6,25,3,1,1,C,G,b,y,5,15,50001,1,1,206,246
1,6,25,3,1,1,C,G,b,y,5,15,50001,1,1,223,218
1,6,25,3,1,1,C,G,b,y,5,15,50001,1,1,165,155
1,6,25,3,1,1,C,G,b,y,5,15,50001,1,1,249,100
1,6,25,3,1,1,C,G,b,y,5,15,51001,1,3,615,407
1,6,25,3,1,1,C,G,b,y,5,15,51001,1,3,236,443
1,6,25,3,1,1,C,G,b,y,5,15,51001,1,1,248,389
1,6,25,3,1,1,C,G,b,y,5,15,51001,1,1,288,315
1,6,25,3,1,1,C,G,b,y,5,15,51001,1,1,255,209
1,6,25,3,1,1,C,G,b,y,5,15,52001,1,3,633,368
1,6,25,3,1,1,C,G,b,y,5,15,52001,1,1,392,453
1,6,25,3,1,1,C,G,b,y,5,15,52001,1,1,290,305
1,6,25,3,1,1,C,G,b,y,5,15,52001,1,1,250,180
1,6,25,3,1,1,C,G,b,y,5,15,53001,1,1,260,268
1,6,25,3,1,1,C,G,b,y,5,15,53001,1,1,241,217
1,6,25,3,1,1,C,G,b,y,5,15,53001,1,3,623,240
1,6,25,3,1,1,C,G,b,y,5,15,53001,1,3,647,199
1,6,25,3,1,1,C,G,b,y,5,15,54001,1,1,512,143
1,6,25,3,1,1,C,G,b,y,5,15,54001,1,3,476,98
1,6,25,3,1,1,C,G,b,y,5,15,54001,1,3,502,292
1,6,25,3,1,1,C,G,b,y,5,15,55001,1,1,343,467
1,6,25,3,1,1,C,G,b,y,5,15,55001,1,1,267,323
1,6,25,3,1,1,C,G,b,y,5,15,55001,1,3,218,386
1,6,25,3,1,1,C,G,b,y,5,15,56001,1,3,501,63
1,6,25,3,1,1,C,G,b,y,5,15,56001,1,1,360,474
1,6,25,3,1,1,C,G,b,y,5,15,56001,1,1,276,456
1,6,25,3,1,1,C,G,b,y,5,15,57001,1,3,549,55
1,6,25,3,1,1,C,G,b,y,5,15,57001,1,1,390,547
1,6,25,3,1,1,C,G,b,y,5,15,57001,1,1,324,494
1,6,25,3,1,1,C,G,b,y,5,15,58001,1,3,540,54
1,6,25,3,1,1,C,G,b,y,5,15,58001,1,1,391,550
1,6,25,3,1,1,C,G,b,y,5,15,58001,1,1,314,493
1,6,25,3,1,1,C,G,b,y,5,15,59001,1,1,384,531
1,6,25,3,1,1,C,G,b,y,5,15,59001,1,1,353,506
1,6,25,3,1,1,C,G,b,y,5,15,59001,1,3,539,53
1,6,25,3,1,1,C,G,b,y,5,15,60001,1,1,509,253
1,6,25,3,1,1,C,G,b,y,5,15,60001,1,3,620,199
1,6,25,3,1,1,C,G,b,y,5,15,61001,1,1,462,16
1,6,25,3,1,1,C,G,b,y,5,15,61001,1,1,350,21
1,6,25,3,1,1,C,G,b,y,5,15,62001,1,1,410,97
1,6,25,3,1,1,C,G,b,y,5,15,63001,1,1,411,391
1,6,25,3,1,1,C,G,b,y,5,15,64001,1,1,608,170
1,6,25,3,1,1,C,G,b,y,5,15,65001,1,1,611,184
1,6,25,3,1,1,C,G,b,y,5,15,66001,1,1,609,173
1,6,25,3,1,1,C,G,b,y,5,15,67001,1,1,509,77
1,6,25,3,1,1,C,G,b,y,5,15,67001,1,3,615,165
1,6,25,3,1,1,C,G,b,y,5,15,68001,1,3,612,191
1,6,25,3,1,1,C,G,b,y,5,15,68001,1,1,596,133
1,6,25,3,1,1,C,G,b,y,5,15,69001,1,3,618,211
1,6,25,3,1,1,C,G,b,y,5,15,69001,1,1,606,174
1,6,25,3,1,1,C,G,b,y,5,15,70001,1,3,635,326
1,6,25,3,1,1,C,G,b,y,5,15,70001,1,1,663,281
1,6,25,3,1,1,C,G,b,y,5,15,71001,1,3,519,442
1,6,25,3,1,1,C,G,b,y,5,15,71001,1,1,549,400
1,6,25,3,1,1,C,G,b,y,5,15,72001,1,1,512,336
1,6,25,3,1,1,C,G,b,y,5,15,73001,1,1,512,335
1,6,25,3,1,1,C,G,b,y,5,15,74001,1,1,515,358
1,6,25,3,1,1,C,G,b,y,5,15,75001,1,1,619,357
1,6,25,3,1,1,C,G,b,y,5,15,76001,1,1,610,362
1,6,25,3,1,1,C,G,b,y,5,15,77001,1,1,130,266
1,6,25,3,1,1,C,G,b,y,5,15,77001,1,3,162,252
1,6,25,3,1,1,C,G,b,y,5,15,78001,1,3,251,212
1,6,25,3,1,1,C,G,b,y,5,15,78001,1,1,188,244
1,6,25,3,1,1,C,G,b,y,5,15,79001,1,3,419,153
1,6,25,3,1,1,C,G,b,y,5,15,79001,1,1,386,185
1,6,25,3,1,1,C,G,b,y,5,15,80001,1,1,610,127
1,6,25,3,1,1,C,G,b,y,5,15,80001,1,3,635,150
1,6,25,3,1,1,C,G,b,y,5,15,81001,1,1,184,127
1,6,25,3,1,1,C,G,b,y,5,15,82001,1,1,614,196
1,6,25,3,1,1,C,G,b,y,5,15,83001,1,1,596,398
1,6,25,3,1,1,C,G,b,y,5,15,85001,1,1,583,449
1,6,25,3,1,1,C,G,b,y,5,15,86001,1,1,476,75
1,6,25,3,1,1,C,G,b,y,5,15,87001,1,1,494,68
1,6,25,3,1,1,C,G,b,y,5,15,88001,1,1,613,259
1,6,25,3,1,1,C,G,b,y,5,15,89001,1,1,631,231
1,6,25,3,1,1,C,G,b,y,5,15,90001,1,1,631,239
1,6,25,3,1,1,C,G,b,y,5,15,91001,1,1,466,56
1,6,25,3,1,1,C,G,b,y,5,15,92001,1,1,308,37
1,6,25,3,1,1,C,G,b,y,5,15,93001,1,1,321,160
1,6,25,3,1,1,C,G,b,y,5,15,94001,1,1,320,163
1,6,25,3,1,1,C,G,b,y,5,15,95001,1,1,330,161
1,6,25,3,1,1,C,G,b,y,5,15,96001,1,1,512,490
1,6,25,3,1,1,C,G,b,y,5,15,97001,1,1,243,164
1,6,25,3,1,1,C,G,b,y,5,15,98001,1,1,238,165
1,6,25,3,1,1,C,G,b,y,5,15,99001,1,1,247,154
1,6,25,3,1,1,C,G,b,y,5,15,100001,1,1,246,164
1,6,25,3,1,1,C,G,b,y,5,15,101001,1,1,251,165
1,6,25,3,1,1,C,G,b,y,5,15,102001,1,1,242,162
1,6,25,3,1,1,C,G,b,y,5,15,103001,1,1,243,170
1,6,25,3,1,1,C,G,b,y,5,15,104001,1,1,261,168
1,6,25,3,1,1,C,G,b,y,5,15,105001,1,3,619,207
1,6,25,3,1,1,C,G,b,y,5,15,105001,1,1,665,197
1,6,25,3,1,1,C,G,b,y,5,15,106001,1,3,430,441
1,6,25,3,1,1,C,G,b,y,5,15,106001,1,1,393,442
1,6,25,3,1,1,C,G,b,y,5,15,107001,1,3,478,535
1,6,25,3,1,1,C,G,b,y,5,15,107001,1,1,430,542
