dummy,month,day,period,view,station,fgeno,mgeno,fcol,mcol,nf,nm,frame,something,sex,x,y
1,6,26,3,1,2,A,F,b,y,15,5,1,1,1,480.6603,344.5882
1,6,26,3,1,2,A,F,b,y,15,5,1,1,1,466.2315,392.6844
1,6,26,3,1,2,A,F,b,y,15,5,1,1,3,495.0892,383.0651
1,6,26,3,1,2,A,F,b,y,15,5,1001,1,1,475.8507,418.3357
1,6,26,3,1,2,A,F,b,y,15,5,2001,1,1,576.8527,165.0291
1,6,26,3,1,2,A,F,b,y,15,5,2001,1,3,530.3597,174.6483
1,6,26,3,1,2,A,F,b,y,15,5,2001,1,1,344.3878,22.3437
1,6,26,3,1,2,A,F,b,y,15,5,2001,1,3,313.9269,43.1854
1,6,26,3,1,2,A,F,b,y,15,5,3001,1,3,317.1333,556.2114
1,6,26,3,1,2,A,F,b,y,15,5,3001,1,3,158.4158,288.476
1,6,26,3,1,2,A,F,b,y,15,5,3001,1,1,177.6543,318.9369
1,6,26,3,1,2,A,F,b,y,15,5,3001,1,1,203.3056,275.6503
1,6,26,3,1,2,A,F,b,y,15,5,4001,1,3,358.8166,352.6042
1,6,26,3,1,2,A,F,b,y,15,5,4001,1,1,259.4178,193.8868
1,6,26,3,1,2,A,F,b,y,15,5,5001,1,1,169.6383,320.5401
1,6,26,3,1,2,A,F,b,y,15,5,5001,1,3,176.0511,397.494
1,6,26,3,1,2,A,F,b,y,15,5,7001,1,1,522.3437,389.478
1,6,26,3,1,2,A,F,b,y,15,5,7001,1,3,177.6543,384.6683
1,6,26,3,1,2,A,F,b,y,15,5,8001,1,1,539.979,410.3196
1,6,26,3,1,2,A,F,b,y,15,5,8001,1,3,485.4699,320.5401
1,6,26,3,1,2,A,F,b,y,15,5,8001,1,3,395.6904,577.0531
1,6,26,3,1,2,A,F,b,y,15,5,9001,1,1,232.1633,442.3838
1,6,26,3,1,2,A,F,b,y,15,5,9001,1,3,222.5441,124.9489
1,6,26,3,1,2,A,F,b,y,15,5,9001,1,3,410.1192,145.7906
1,6,26,3,1,2,A,F,b,y,15,5,10001,1,1,336.3717,386.2715
1,6,26,3,1,2,A,F,b,y,15,5,10001,1,3,430.9609,442.3838
1,6,26,3,1,2,A,F,b,y,15,5,11001,1,1,329.9589,282.0631
1,6,26,3,1,2,A,F,b,y,15,5,11001,1,3,299.498,328.5561
1,6,26,3,1,2,A,F,b,y,15,5,11001,1,1,596.0912,461.6222
1,6,26,3,1,2,A,F,b,y,15,5,11001,1,3,647.3938,419.9389
1,6,26,3,1,2,A,F,b,y,15,5,12001,1,1,421.3417,129.7585
1,6,26,3,1,2,A,F,b,y,15,5,12001,1,3,355.6102,205.1092
1,6,26,3,1,2,A,F,b,y,15,5,12001,1,3,613.7265,471.2415
1,6,26,3,1,2,A,F,b,y,15,5,13001,1,3,408.516,488.8768
1,6,26,3,1,2,A,F,b,y,15,5,14001,1,1,315.5301,88.0752
1,6,26,3,1,2,A,F,b,y,15,5,14001,1,1,326.7525,512.9248
1,6,26,3,1,2,A,F,b,y,15,5,14001,1,3,264.2275,527.3537
1,6,26,3,1,2,A,F,b,y,15,5,14001,1,2,198.496,455.2094
1,6,26,3,1,2,A,F,b,y,15,5,15001,1,1,472.6443,456.8126
1,6,26,3,1,2,A,F,b,y,15,5,16001,1,1,434.1673,89.6784
1,6,26,3,1,2,A,F,b,y,15,5,17001,1,3,168.0351,410.3196
1,6,26,3,1,2,A,F,b,y,15,5,18001,1,3,350.8006,213.1253
1,6,26,3,1,2,A,F,b,y,15,5,20001,1,1,576.8527,129.7585
1,6,26,3,1,2,A,F,b,y,15,5,21001,1,1,543.1854,484.0671
1,6,26,3,1,2,A,F,b,y,15,5,22001,1,1,543.1854,158.6162
1,6,26,3,1,2,A,F,b,y,15,5,23001,1,1,209.7184,367.0331
1,6,26,3,1,2,A,F,b,y,15,5,24001,1,1,357.2134,383.0651
1,6,26,3,1,2,A,F,b,y,15,5,25001,1,1,482.2635,136.1713
1,6,26,3,1,2,A,F,b,y,15,5,26001,1,1,572.0431,145.7906
1,6,26,3,1,2,A,F,b,y,15,5,27001,1,1,637.7745,296.492
1,6,26,3,1,2,A,F,b,y,15,5,28001,1,1,628.1553,296.492
1,6,26,3,1,2,A,F,b,y,15,5,29001,1,1,507.9148,298.0952
1,6,26,3,1,2,A,F,b,y,15,5,30001,1,1,456.6122,522.5441
1,6,26,3,1,2,A,F,b,y,15,5,31001,1,1,195.2896,225.9509
1,6,26,3,1,2,A,F,b,y,15,5,32001,1,1,196.8928,225.9509
1,6,26,3,1,2,A,F,b,y,15,5,33001,1,1,446.993,89.6784
1,6,26,3,1,2,A,F,b,y,15,5,34001,1,1,533.5661,177.8547
1,6,26,3,1,2,A,F,b,y,15,5,35001,1,1,310.7204,373.4459
1,6,26,3,1,2,A,F,b,y,15,5,36001,1,1,382.8647,68.8367
1,6,26,3,1,2,A,F,b,y,15,5,37001,1,1,387.6743,206.7124
1,6,26,3,1,2,A,F,b,y,15,5,37001,1,1,336.3717,229.1573
1,6,26,3,1,2,A,F,b,y,15,5,37001,1,3,358.8166,285.2695
1,6,26,3,1,2,A,F,b,y,15,5,38001,1,1,515.9309,166.6323
1,6,26,3,1,2,A,F,b,y,15,5,38001,1,3,304.3076,232.3637
1,6,26,3,1,2,A,F,b,y,15,5,39001,1,1,455.009,36.7725
1,6,26,3,1,2,A,F,b,y,15,5,39001,1,1,642.5842,168.2355
1,6,26,3,1,2,A,F,b,y,15,5,39001,1,3,650.6002,217.9349
1,6,26,3,1,2,A,F,b,y,15,5,39001,1,3,368.4359,298.0952
1,6,26,3,1,2,A,F,b,y,15,5,40001,1,3,580.0591,176.2515
1,6,26,3,1,2,A,F,b,y,15,5,41001,1,3,613.7265,219.5381
1,6,26,3,1,2,A,F,b,y,15,5,41001,1,1,584.8687,326.9529
1,6,26,3,1,2,A,F,b,y,15,5,42001,1,1,249.7986,294.8888
1,6,26,3,1,2,A,F,b,y,15,5,42001,1,3,491.8828,201.9028
1,6,26,3,1,2,A,F,b,y,15,5,43001,1,1,507.9148,298.0952
1,6,26,3,1,2,A,F,b,y,15,5,43001,1,1,533.5661,261.2214
1,6,26,3,1,2,A,F,b,y,15,5,43001,1,3,551.2014,102.504
1,6,26,3,1,2,A,F,b,y,15,5,44001,1,1,482.2635,435.9709
1,6,26,3,1,2,A,F,b,y,15,5,44001,1,3,567.2335,347.7946
1,6,26,3,1,2,A,F,b,y,15,5,45001,1,1,665.0291,317.3337
1,6,26,3,1,2,A,F,b,y,15,5,45001,1,3,644.1874,235.5701
1,6,26,3,1,2,A,F,b,y,15,5,45001,1,3,374.8487,131.3617
1,6,26,3,1,2,A,F,b,y,15,5,46001,1,3,554.4078,208.3156
1,6,26,3,1,2,A,F,b,y,15,5,46001,1,3,326.7525,565.8307
1,6,26,3,1,2,A,F,b,y,15,5,47001,1,3,544.7886,112.1232
1,6,26,3,1,2,A,F,b,y,15,5,47001,1,1,357.2134,553.005
1,6,26,3,1,2,A,F,b,y,15,5,48001,1,3,556.011,100.9008
1,6,26,3,1,2,A,F,b,y,15,5,48001,1,1,621.7425,126.5521
1,6,26,3,1,2,A,F,b,y,15,5,49001,1,3,301.1012,274.0471
1,6,26,3,1,2,A,F,b,y,15,5,49001,1,1,491.8828,107.3136
1,6,26,3,1,2,A,F,b,y,15,5,50001,1,3,368.4359,416.7325
1,6,26,3,1,2,A,F,b,y,15,5,50001,1,1,480.6603,338.1754
1,6,26,3,1,2,A,F,b,y,15,5,51001,1,1,485.4699,43.1854
1,6,26,3,1,2,A,F,b,y,15,5,51001,1,3,312.3236,410.3196
1,6,26,3,1,2,A,F,b,y,15,5,52001,1,3,341.1814,283.6663
1,6,26,3,1,2,A,F,b,y,15,5,52001,1,1,634.5681,464.8287
1,6,26,3,1,2,A,F,b,y,15,5,53001,1,3,354.007,274.0471
1,6,26,3,1,2,A,F,b,y,15,5,53001,1,1,657.013,360.6202
1,6,26,3,1,2,A,F,b,y,15,5,54001,1,3,304.3076,291.6824
1,6,26,3,1,2,A,F,b,y,15,5,54001,1,3,328.3557,277.2535
1,6,26,3,1,2,A,F,b,y,15,5,54001,1,1,453.4058,551.4018
1,6,26,3,1,2,A,F,b,y,15,5,55001,1,3,342.7846,224.3477
1,6,26,3,1,2,A,F,b,y,15,5,56001,1,3,373.2455,344.5882
1,6,26,3,1,2,A,F,b,y,15,5,56001,1,1,195.2896,179.4579
1,6,26,3,1,2,A,F,b,y,15,5,57001,1,3,458.2154,424.7485
1,6,26,3,1,2,A,F,b,y,15,5,58001,1,3,451.8026,426.3517
1,6,26,3,1,2,A,F,b,y,15,5,58001,1,3,519.1373,157.013
1,6,26,3,1,2,A,F,b,y,15,5,59001,1,3,378.0551,437.5741
1,6,26,3,1,2,A,F,b,y,15,5,59001,1,3,533.5661,165.0291
1,6,26,3,1,2,A,F,b,y,15,5,59001,1,1,445.3898,165.0291
1,6,26,3,1,2,A,F,b,y,15,5,60001,1,3,456.6122,349.3978
1,6,26,3,1,2,A,F,b,y,15,5,60001,1,3,320.3397,201.9028
1,6,26,3,1,2,A,F,b,y,15,5,60001,1,1,334.7685,72.0431
1,6,26,3,1,2,A,F,b,y,15,5,60001,1,1,387.6743,80.0591
1,6,26,3,1,2,A,F,b,y,15,5,61001,1,3,430.9609,219.5381
1,6,26,3,1,2,A,F,b,y,15,5,61001,1,1,410.1192,193.8868
1,6,26,3,1,2,A,F,b,y,15,5,61001,1,1,366.8327,209.9188
1,6,26,3,1,2,A,F,b,y,15,5,61001,1,3,312.3236,540.1794
1,6,26,3,1,2,A,F,b,y,15,5,62001,1,3,642.5842,352.6042
1,6,26,3,1,2,A,F,b,y,15,5,62001,1,1,450.1994,347.7946
1,6,26,3,1,2,A,F,b,y,15,5,62001,1,3,354.007,278.8567
1,6,26,3,1,2,A,F,b,y,15,5,62001,1,1,321.9429,291.6824
1,6,26,3,1,2,A,F,b,y,15,5,62001,1,1,326.7525,148.997
1,6,26,3,1,2,A,F,b,y,15,5,63001,1,3,352.4038,294.8888
1,6,26,3,1,2,A,F,b,y,15,5,63001,1,1,374.8487,253.2054
1,6,26,3,1,2,A,F,b,y,15,5,63001,1,3,535.1693,179.4579
1,6,26,3,1,2,A,F,b,y,15,5,63001,1,1,586.4719,176.2515
1,6,26,3,1,2,A,F,b,y,15,5,64001,1,3,301.1012,290.0792
1,6,26,3,1,2,A,F,b,y,15,5,64001,1,1,345.991,291.6824
1,6,26,3,1,2,A,F,b,y,15,5,64001,1,3,536.7725,179.4579
1,6,26,3,1,2,A,F,b,y,15,5,65001,1,1,363.6263,376.6523
1,6,26,3,1,2,A,F,b,y,15,5,65001,1,3,381.2615,373.4459
1,6,26,3,1,2,A,F,b,y,15,5,65001,1,3,527.1533,163.4259
1,6,26,3,1,2,A,F,b,y,15,5,66001,1,1,344.3878,302.9048
1,6,26,3,1,2,A,F,b,y,15,5,66001,1,3,344.3878,267.6343
1,6,26,3,1,2,A,F,b,y,15,5,66001,1,1,466.2315,285.2695
1,6,26,3,1,2,A,F,b,y,15,5,66001,1,3,392.484,201.9028
1,6,26,3,1,2,A,F,b,y,15,5,67001,1,1,291.482,362.2234
1,6,26,3,1,2,A,F,b,y,15,5,67001,1,1,312.3236,320.5401
1,6,26,3,1,2,A,F,b,y,15,5,67001,1,3,302.7044,291.6824
1,6,26,3,1,2,A,F,b,y,15,5,67001,1,3,256.2114,76.8527
1,6,26,3,1,2,A,F,b,y,15,5,68001,1,1,547.995,213.1253
1,6,26,3,1,2,A,F,b,y,15,5,68001,1,1,293.0852,290.0792
1,6,26,3,1,2,A,F,b,y,15,5,68001,1,3,297.8948,269.2375
1,6,26,3,1,2,A,F,b,y,15,5,68001,1,3,591.2816,280.4599
1,6,26,3,1,2,A,F,b,y,15,5,69001,1,1,328.3557,312.524
1,6,26,3,1,2,A,F,b,y,15,5,69001,1,3,307.514,296.492
1,6,26,3,1,2,A,F,b,y,15,5,69001,1,3,392.484,367.0331
1,6,26,3,1,2,A,F,b,y,15,5,69001,1,1,650.6002,387.8747
1,6,26,3,1,2,A,F,b,y,15,5,70001,1,1,349.1974,322.1433
1,6,26,3,1,2,A,F,b,y,15,5,70001,1,3,373.2455,288.476
1,6,26,3,1,2,A,F,b,y,15,5,70001,1,1,514.3277,423.1453
1,6,26,3,1,2,A,F,b,y,15,5,70001,1,3,530.3597,363.8267
1,6,26,3,1,2,A,F,b,y,15,5,71001,1,1,360.4198,206.7124
1,6,26,3,1,2,A,F,b,y,15,5,71001,1,3,341.1814,245.1894
1,6,26,3,1,2,A,F,b,y,15,5,71001,1,1,265.8307,84.8687
1,6,26,3,1,2,A,F,b,y,15,5,71001,1,3,342.7846,65.6303
1,6,26,3,1,2,A,F,b,y,15,5,72001,1,1,387.6743,241.983
1,6,26,3,1,2,A,F,b,y,15,5,72001,1,3,355.6102,221.1413
1,6,26,3,1,2,A,F,b,y,15,5,72001,1,3,528.7565,169.8387
1,6,26,3,1,2,A,F,b,y,15,5,73001,1,1,365.2295,232.3637
1,6,26,3,1,2,A,F,b,y,15,5,73001,1,3,368.4359,197.0932
1,6,26,3,1,2,A,F,b,y,15,5,73001,1,3,620.1393,237.1733
1,6,26,3,1,2,A,F,b,y,15,5,74001,1,1,378.0551,306.1112
1,6,26,3,1,2,A,F,b,y,15,5,74001,1,3,424.5481,314.1273
1,6,26,3,1,2,A,F,b,y,15,5,74001,1,3,621.7425,253.2054
1,6,26,3,1,2,A,F,b,y,15,5,75001,1,1,461.4218,309.3176
1,6,26,3,1,2,A,F,b,y,15,5,75001,1,3,480.6603,309.3176
1,6,26,3,1,2,A,F,b,y,15,5,75001,1,3,597.6944,131.3617
1,6,26,3,1,2,A,F,b,y,15,5,76001,1,1,483.8667,318.9369
1,6,26,3,1,2,A,F,b,y,15,5,76001,1,3,488.6764,314.1273
1,6,26,3,1,2,A,F,b,y,15,5,76001,1,3,525.5501,176.2515
1,6,26,3,1,2,A,F,b,y,15,5,77001,1,1,499.8988,339.7786
1,6,26,3,1,2,A,F,b,y,15,5,77001,1,3,522.3437,323.7465
1,6,26,3,1,2,A,F,b,y,15,5,77001,1,3,565.6303,464.8287
1,6,26,3,1,2,A,F,b,y,15,5,78001,1,1,376.4519,278.8567
1,6,26,3,1,2,A,F,b,y,15,5,78001,1,3,371.6423,248.3958
1,6,26,3,1,2,A,F,b,y,15,5,78001,1,3,631.3617,458.4158
1,6,26,3,1,2,A,F,b,y,15,5,79001,1,1,389.2776,291.6824
1,6,26,3,1,2,A,F,b,y,15,5,79001,1,3,360.4198,302.9048
1,6,26,3,1,2,A,F,b,y,15,5,79001,1,3,381.2615,214.7285
1,6,26,3,1,2,A,F,b,y,15,5,80001,1,1,390.8808,267.6343
1,6,26,3,1,2,A,F,b,y,15,5,80001,1,3,416.5321,264.4279
1,6,26,3,1,2,A,F,b,y,15,5,80001,1,3,422.9449,548.1954
1,6,26,3,1,2,A,F,b,y,15,5,81001,1,1,557.6142,333.3657
1,6,26,3,1,2,A,F,b,y,15,5,81001,1,3,531.9629,336.5721
1,6,26,3,1,2,A,F,b,y,15,5,81001,1,3,655.4098,416.7325
1,6,26,3,1,2,A,F,b,y,15,5,82001,1,1,498.2956,256.4118
1,6,26,3,1,2,A,F,b,y,15,5,82001,1,3,503.1052,229.1573
1,6,26,3,1,2,A,F,b,y,15,5,82001,1,3,544.7886,182.6643
1,6,26,3,1,2,A,F,b,y,15,5,83001,1,1,487.0731,165.0291
1,6,26,3,1,2,A,F,b,y,15,5,83001,1,3,509.518,181.0611
1,6,26,3,1,2,A,F,b,y,15,5,83001,1,3,365.2295,235.5701
1,6,26,3,1,2,A,F,b,y,15,5,84001,1,1,463.0251,189.0772
1,6,26,3,1,2,A,F,b,y,15,5,84001,1,3,442.1834,189.0772
1,6,26,3,1,2,A,F,b,y,15,5,84001,1,3,485.4699,306.1112
1,6,26,3,1,2,A,F,b,y,15,5,85001,1,1,325.1493,299.6984
1,6,26,3,1,2,A,F,b,y,15,5,85001,1,3,331.5621,323.7465
1,6,26,3,1,2,A,F,b,y,15,5,85001,1,2,581.6623,75.2495
1,6,26,3,1,2,A,F,b,y,15,5,86001,1,1,254.6082,165.0291
1,6,26,3,1,2,A,F,b,y,15,5,86001,1,3,246.5922,217.9349
1,6,26,3,1,2,A,F,b,y,15,5,86001,1,3,520.7405,173.0451
1,6,26,3,1,2,A,F,b,y,15,5,87001,1,1,389.2776,395.8908
1,6,26,3,1,2,A,F,b,y,15,5,87001,1,3,405.3096,427.9549
1,6,26,3,1,2,A,F,b,y,15,5,87001,1,2,692.2836,243.5862
1,6,26,3,1,2,A,F,b,y,15,5,88001,1,1,400.5,416.7325
1,6,26,3,1,2,A,F,b,y,15,5,88001,1,3,414.9289,419.9389
1,6,26,3,1,2,A,F,b,y,15,5,88001,1,3,523.9469,158.6162
1,6,26,3,1,2,A,F,b,y,15,5,89001,1,1,398.8968,413.5261
1,6,26,3,1,2,A,F,b,y,15,5,89001,1,3,419.7385,421.5421
1,6,26,3,1,2,A,F,b,y,15,5,89001,1,3,345.991,569.0371
1,6,26,3,1,2,A,F,b,y,15,5,90001,1,3,342.7846,120.1393
1,6,26,3,1,2,A,F,b,y,15,5,90001,1,3,307.514,395.8908
1,6,26,3,1,2,A,F,b,y,15,5,90001,1,1,299.498,434.3677
1,6,26,3,1,2,A,F,b,y,15,5,91001,1,1,395.6904,233.9669
1,6,26,3,1,2,A,F,b,y,15,5,91001,1,3,424.5481,288.476
1,6,26,3,1,2,A,F,b,y,15,5,91001,1,3,514.3277,157.013
1,6,26,3,1,2,A,F,b,y,15,5,92001,1,1,376.4519,251.6022
1,6,26,3,1,2,A,F,b,y,15,5,92001,1,3,426.1513,379.8587
1,6,26,3,1,2,A,F,b,y,15,5,92001,1,3,594.488,214.7285
1,6,26,3,1,2,A,F,b,y,15,5,93001,1,1,342.7846,240.3798
1,6,26,3,1,2,A,F,b,y,15,5,93001,1,3,426.1513,445.5902
1,6,26,3,1,2,A,F,b,y,15,5,93001,1,3,613.7265,166.6323
1,6,26,3,1,2,A,F,b,y,15,5,94001,1,1,325.1493,301.3016
1,6,26,3,1,2,A,F,b,y,15,5,94001,1,3,530.3597,163.4259
1,6,26,3,1,2,A,F,b,y,15,5,94001,1,3,560.8206,153.8066
1,6,26,3,1,2,A,F,b,y,15,5,95001,1,1,435.7705,181.0611
1,6,26,3,1,2,A,F,b,y,15,5,95001,1,3,525.5501,112.1232
1,6,26,3,1,2,A,F,b,y,15,5,95001,1,3,556.011,177.8547
1,6,26,3,1,2,A,F,b,y,15,5,96001,1,1,523.9469,314.1273
1,6,26,3,1,2,A,F,b,y,15,5,96001,1,3,520.7405,166.6323
1,6,26,3,1,2,A,F,b,y,15,5,96001,1,3,538.3758,197.0932
1,6,26,3,1,2,A,F,b,y,15,5,97001,1,1,533.5661,333.3657
1,6,26,3,1,2,A,F,b,y,15,5,97001,1,3,238.5762,184.2675
1,6,26,3,1,2,A,F,b,y,15,5,97001,1,3,580.0591,118.5361
1,6,26,3,1,2,A,F,b,y,15,5,98001,1,1,530.3597,318.9369
1,6,26,3,1,2,A,F,b,y,15,5,98001,1,3,251.4018,195.49
1,6,26,3,1,2,A,F,b,y,15,5,98001,1,3,414.9289,91.2816
1,6,26,3,1,2,A,F,b,y,15,5,98001,1,3,522.3437,161.8226
1,6,26,3,1,2,A,F,b,y,15,5,99001,1,1,491.8828,540.1794
1,6,26,3,1,2,A,F,b,y,15,5,99001,1,3,368.4359,200.2996
1,6,26,3,1,2,A,F,b,y,15,5,99001,1,3,437.3737,166.6323
1,6,26,3,1,2,A,F,b,y,15,5,99001,1,1,464.6283,83.2655
1,6,26,3,1,2,A,F,b,y,15,5,100001,1,3,164.8287,338.1754
1,6,26,3,1,2,A,F,b,y,15,5,100001,1,3,366.8327,211.522
1,6,26,3,1,2,A,F,b,y,15,5,100001,1,1,469.4379,229.1573
1,6,26,3,1,2,A,F,b,y,15,5,100001,1,3,551.2014,192.2836
1,6,26,3,1,2,A,F,b,y,15,5,101001,1,1,329.9589,326.9529
1,6,26,3,1,2,A,F,b,y,15,5,101001,1,3,355.6102,201.9028
1,6,26,3,1,2,A,F,b,y,15,5,101001,1,3,498.2956,338.1754
1,6,26,3,1,2,A,F,b,y,15,5,101001,1,3,592.8848,278.8567
1,6,26,3,1,2,A,F,b,y,15,5,102001,1,1,283.4659,427.9549
1,6,26,3,1,2,A,F,b,y,15,5,102001,1,3,366.8327,197.0932
1,6,26,3,1,2,A,F,b,y,15,5,102001,1,3,305.9108,102.504
1,6,26,3,1,2,A,F,b,y,15,5,102001,1,3,345.991,14.3277
1,6,26,3,1,2,A,F,b,y,15,5,102001,1,3,544.7886,105.7104
1,6,26,3,1,2,A,F,b,y,15,5,103001,1,1,442.1834,338.1754
1,6,26,3,1,2,A,F,b,y,15,5,103001,1,3,362.023,203.506
1,6,26,3,1,2,A,F,b,y,15,5,103001,1,3,538.3758,158.6162
1,6,26,3,1,2,A,F,b,y,15,5,104001,1,3,533.5661,500.0992
1,6,26,3,1,2,A,F,b,y,15,5,104001,1,3,373.2455,209.9188
1,6,26,3,1,2,A,F,b,y,15,5,104001,1,1,257.8146,187.4739
1,6,26,3,1,2,A,F,b,y,15,5,104001,1,3,538.3758,158.6162
1,6,26,3,1,2,A,F,b,y,15,5,105001,1,1,217.7345,270.8407
1,6,26,3,1,2,A,F,b,y,15,5,105001,1,3,379.6583,184.2675
1,6,26,3,1,2,A,F,b,y,15,5,105001,1,3,514.3277,514.5281
1,6,26,3,1,2,A,F,b,y,15,5,105001,1,3,538.3758,160.2194
1,6,26,3,1,2,A,F,b,y,15,5,106001,1,3,203.3056,476.0511
1,6,26,3,1,2,A,F,b,y,15,5,106001,1,3,272.2435,443.987
1,6,26,3,1,2,A,F,b,y,15,5,106001,1,1,400.5,269.2375
1,6,26,3,1,2,A,F,b,y,15,5,106001,1,3,362.023,229.1573
1,6,26,3,1,2,A,F,b,y,15,5,106001,1,3,400.5,166.6323
1,6,26,3,1,2,A,F,b,y,15,5,106001,1,3,531.9629,158.6162
1,6,26,3,1,2,A,F,b,y,15,5,107001,1,3,355.6102,283.6663
1,6,26,3,1,2,A,F,b,y,15,5,107001,1,3,448.5962,280.4599
1,6,26,3,1,2,A,F,b,y,15,5,107001,1,1,469.4379,195.49
1,6,26,3,1,2,A,F,b,y,15,5,107001,1,3,520.7405,152.2034
