dummy,month,day,period,view,station,fgeno,mgeno,fcol,mcol,nf,nm,frame,something,sex,x,y
1,6,17,4,2,2,B,G,b,y,10,10,1,1,1,571.6069,101.6257
1,6,17,4,2,2,B,G,b,y,10,10,1,1,1,356.9728,256.2223
1,6,17,4,2,2,B,G,b,y,10,10,1,1,3,420.0122,322.2636
1,6,17,4,2,2,B,G,b,y,10,10,1,1,1,471.0441,322.2636
1,6,17,4,2,2,B,G,b,y,10,10,1,1,1,346.4662,395.8096
1,6,17,4,2,2,B,G,b,y,10,10,1,1,1,230.894,439.3368
1,6,17,4,2,2,B,G,b,y,10,10,1001,1,1,242.9015,413.8208
1,6,17,4,2,2,B,G,b,y,10,10,1001,1,1,268.4174,437.8358
1,6,17,4,2,2,B,G,b,y,10,10,1001,1,1,308.9428,322.2636
1,6,17,4,2,2,B,G,b,y,10,10,1001,1,3,447.0291,464.8527
1,6,17,4,2,2,B,G,b,y,10,10,1001,1,1,507.0666,314.7589
1,6,17,4,2,2,B,G,b,y,10,10,1001,1,1,648.1548,172.1698
1,6,17,4,2,2,B,G,b,y,10,10,2001,1,1,639.1492,290.7439
1,6,17,4,2,2,B,G,b,y,10,10,2001,1,1,537.0854,341.7758
1,6,17,4,2,2,B,G,b,y,10,10,2001,1,3,379.4869,443.8396
1,6,17,4,2,2,B,G,b,y,10,10,2001,1,1,281.9259,494.8715
1,6,17,4,2,2,B,G,b,y,10,10,2001,1,1,295.4343,443.8396
1,6,17,4,2,2,B,G,b,y,10,10,2001,1,1,235.3968,400.3124
1,6,17,4,2,2,B,G,b,y,10,10,3001,1,1,233.8959,365.7908
1,6,17,4,2,2,B,G,b,y,10,10,3001,1,3,299.9371,380.8002
1,6,17,4,2,2,B,G,b,y,10,10,3001,1,1,331.4568,478.3612
1,6,17,4,2,2,B,G,b,y,10,10,3001,1,1,435.0216,442.3386
1,6,17,4,2,2,B,G,b,y,10,10,3001,1,1,550.5938,371.7946
1,6,17,4,2,2,B,G,b,y,10,10,3001,1,1,573.1079,313.258
1,6,17,4,2,2,B,G,b,y,10,10,4001,1,1,241.4006,244.2148
1,6,17,4,2,2,B,G,b,y,10,10,4001,1,3,283.4268,485.8659
1,6,17,4,2,2,B,G,b,y,10,10,4001,1,1,389.9934,431.8321
1,6,17,4,2,2,B,G,b,y,10,10,4001,1,1,483.0516,389.8058
1,6,17,4,2,2,B,G,b,y,10,10,4001,1,1,519.0741,400.3124
1,6,17,4,2,2,B,G,b,y,10,10,4001,1,1,609.1304,346.2786
1,6,17,4,2,2,B,G,b,y,10,10,5001,1,1,233.8959,184.1773
1,6,17,4,2,2,B,G,b,y,10,10,5001,1,3,269.9184,481.363
1,6,17,4,2,2,B,G,b,y,10,10,5001,1,1,388.4925,550.4062
1,6,17,4,2,2,B,G,b,y,10,10,5001,1,1,448.53,443.8396
1,6,17,4,2,2,B,G,b,y,10,10,5001,1,1,525.0779,295.2467
1,6,17,4,2,2,B,G,b,y,10,10,5001,1,1,634.6463,395.8096
1,6,17,4,2,2,B,G,b,y,10,10,6001,1,1,238.3987,175.1717
1,6,17,4,2,2,B,G,b,y,10,10,6001,1,3,241.4006,386.8039
1,6,17,4,2,2,B,G,b,y,10,10,6001,1,1,299.9371,508.3799
1,6,17,4,2,2,B,G,b,y,10,10,6001,1,1,386.9916,524.8902
1,6,17,4,2,2,B,G,b,y,10,10,6001,1,1,526.5788,230.7064
1,6,17,4,2,2,B,G,b,y,10,10,6001,1,1,634.6463,424.3274
1,6,17,4,2,2,B,G,b,y,10,10,7001,1,1,238.3987,164.6651
1,6,17,4,2,2,B,G,b,y,10,10,7001,1,3,262.4137,343.2767
1,6,17,4,2,2,B,G,b,y,10,10,7001,1,1,262.4137,397.3105
1,6,17,4,2,2,B,G,b,y,10,10,7001,1,1,329.9559,496.3724
1,6,17,4,2,2,B,G,b,y,10,10,7001,1,1,526.5788,229.2054
1,6,17,4,2,2,B,G,b,y,10,10,7001,1,1,628.6426,434.834
1,6,17,4,2,2,B,G,b,y,10,10,8001,1,1,268.4174,131.6445
1,6,17,4,2,2,B,G,b,y,10,10,8001,1,1,269.9184,199.1867
1,6,17,4,2,2,B,G,b,y,10,10,8001,1,1,257.9109,281.7383
1,6,17,4,2,2,B,G,b,y,10,10,8001,1,3,224.8902,389.8058
1,6,17,4,2,2,B,G,b,y,10,10,8001,1,1,528.0797,232.2073
1,6,17,4,2,2,B,G,b,y,10,10,8001,1,1,609.1304,433.333
1,6,17,4,2,2,B,G,b,y,10,10,9001,1,1,418.5113,101.6257
1,6,17,4,2,2,B,G,b,y,10,10,9001,1,1,280.425,113.6332
1,6,17,4,2,2,B,G,b,y,10,10,9001,1,1,220.3874,233.7083
1,6,17,4,2,2,B,G,b,y,10,10,9001,1,3,280.425,491.8696
1,6,17,4,2,2,B,G,b,y,10,10,9001,1,1,523.5769,236.7101
1,6,17,4,2,2,B,G,b,y,10,10,9001,1,1,561.1004,430.3311
1,6,17,4,2,2,B,G,b,y,10,10,10001,1,1,287.9296,107.6295
1,6,17,4,2,2,B,G,b,y,10,10,10001,1,1,526.5788,155.6595
1,6,17,4,2,2,B,G,b,y,10,10,10001,1,1,526.5788,211.1942
1,6,17,4,2,2,B,G,b,y,10,10,10001,1,1,520.575,418.3236
1,6,17,4,2,2,B,G,b,y,10,10,10001,1,3,278.924,482.864
1,6,17,4,2,2,B,G,b,y,10,10,10001,1,1,223.3893,340.2749
1,6,17,4,2,2,B,G,b,y,10,10,11001,1,3,278.924,485.8659
1,6,17,4,2,2,B,G,b,y,10,10,11001,1,1,325.4531,461.8508
1,6,17,4,2,2,B,G,b,y,10,10,11001,1,1,457.5356,424.3274
1,6,17,4,2,2,B,G,b,y,10,10,11001,1,1,483.0516,259.2242
1,6,17,4,2,2,B,G,b,y,10,10,11001,1,1,568.6051,127.1417
1,6,17,4,2,2,B,G,b,y,10,10,11001,1,1,305.9409,97.1229
1,6,17,4,2,2,B,G,b,y,10,10,12001,1,3,280.425,487.3668
1,6,17,4,2,2,B,G,b,y,10,10,12001,1,1,383.9897,460.3499
1,6,17,4,2,2,B,G,b,y,10,10,12001,1,1,456.0347,484.3649
1,6,17,4,2,2,B,G,b,y,10,10,12001,1,1,421.5131,374.7964
1,6,17,4,2,2,B,G,b,y,10,10,12001,1,1,601.6257,176.6726
1,6,17,4,2,2,B,G,b,y,10,10,12001,1,1,317.9484,91.1191
1,6,17,4,2,2,B,G,b,y,10,10,13001,1,1,346.4662,67.1041
1,6,17,4,2,2,B,G,b,y,10,10,13001,1,1,597.1229,173.6707
1,6,17,4,2,2,B,G,b,y,10,10,13001,1,1,553.5957,454.3462
1,6,17,4,2,2,B,G,b,y,10,10,13001,1,1,368.9803,454.3462
1,6,17,4,2,2,B,G,b,y,10,10,13001,1,3,274.4212,481.363
1,6,17,4,2,2,B,G,b,y,10,10,13001,1,1,250.4062,449.8433
1,6,17,4,2,2,B,G,b,y,10,10,13001,1,1,247.4043,325.2655
1,6,17,4,2,2,B,G,b,y,10,10,14001,1,3,278.924,479.8621
1,6,17,4,2,2,B,G,b,y,10,10,14001,1,1,427.5169,449.8433
1,6,17,4,2,2,B,G,b,y,10,10,14001,1,1,619.637,382.3011
1,6,17,4,2,2,B,G,b,y,10,10,14001,1,1,603.1266,178.1735
1,6,17,4,2,2,B,G,b,y,10,10,14001,1,1,409.5056,55.0966
1,6,17,4,2,2,B,G,b,y,10,10,14001,1,1,319.4493,185.6782
1,6,17,4,2,2,B,G,b,y,10,10,15001,1,1,397.4981,77.6107
1,6,17,4,2,2,B,G,b,y,10,10,15001,1,1,435.0216,53.5957
1,6,17,4,2,2,B,G,b,y,10,10,15001,1,1,603.1266,178.1735
1,6,17,4,2,2,B,G,b,y,10,10,15001,1,1,709.6932,347.7795
1,6,17,4,2,2,B,G,b,y,10,10,15001,1,1,496.56,449.8433
1,6,17,4,2,2,B,G,b,y,10,10,15001,1,3,277.4231,487.3668
1,6,17,4,2,2,B,G,b,y,10,10,16001,1,1,528.0797,64.1023
1,6,17,4,2,2,B,G,b,y,10,10,16001,1,1,612.1323,136.1473
1,6,17,4,2,2,B,G,b,y,10,10,16001,1,1,601.6257,176.6726
1,6,17,4,2,2,B,G,b,y,10,10,16001,1,1,715.697,337.273
1,6,17,4,2,2,B,G,b,y,10,10,16001,1,1,532.5826,461.8508
1,6,17,4,2,2,B,G,b,y,10,10,16001,1,3,278.924,487.3668
1,6,17,4,2,2,B,G,b,y,10,10,17001,1,3,275.9221,488.8677
1,6,17,4,2,2,B,G,b,y,10,10,17001,1,1,534.0835,461.8508
1,6,17,4,2,2,B,G,b,y,10,10,17001,1,1,715.697,335.772
1,6,17,4,2,2,B,G,b,y,10,10,17001,1,1,678.1735,329.7683
1,6,17,4,2,2,B,G,b,y,10,10,17001,1,1,618.136,268.2298
1,6,17,4,2,2,B,G,b,y,10,10,17001,1,1,601.6257,104.6276
1,6,17,4,2,2,B,G,b,y,10,10,18001,1,3,254.909,457.348
1,6,17,4,2,2,B,G,b,y,10,10,18001,1,1,562.6013,478.3612
1,6,17,4,2,2,B,G,b,y,10,10,18001,1,1,591.1191,460.3499
1,6,17,4,2,2,B,G,b,y,10,10,18001,1,1,580.6126,395.8096
1,6,17,4,2,2,B,G,b,y,10,10,18001,1,1,687.1792,263.727
1,6,17,4,2,2,B,G,b,y,10,10,18001,1,1,565.6032,184.1773
1,6,17,4,2,2,B,G,b,y,10,10,19001,1,3,239.8996,407.8171
1,6,17,4,2,2,B,G,b,y,10,10,19001,1,1,478.5488,413.8208
1,6,17,4,2,2,B,G,b,y,10,10,19001,1,1,498.061,458.849
1,6,17,4,2,2,B,G,b,y,10,10,19001,1,1,597.1229,482.864
1,6,17,4,2,2,B,G,b,y,10,10,19001,1,1,559.5994,199.1867
1,6,17,4,2,2,B,G,b,y,10,10,19001,1,1,690.1811,197.6857
1,6,17,4,2,2,B,G,b,y,10,10,20001,1,3,308.9428,418.3236
1,6,17,4,2,2,B,G,b,y,10,10,20001,1,1,350.969,395.8096
1,6,17,4,2,2,B,G,b,y,10,10,20001,1,1,391.4944,431.8321
1,6,17,4,2,2,B,G,b,y,10,10,20001,1,1,592.6201,463.3518
1,6,17,4,2,2,B,G,b,y,10,10,20001,1,1,520.575,229.2054
1,6,17,4,2,2,B,G,b,y,10,10,20001,1,3,681.1754,221.7008
1,6,17,4,2,2,B,G,b,y,10,10,20001,1,1,284.9278,122.6388
1,6,17,4,2,2,B,G,b,y,10,10,21001,1,1,353.9709,134.6463
1,6,17,4,2,2,B,G,b,y,10,10,21001,1,1,241.4006,403.3143
1,6,17,4,2,2,B,G,b,y,10,10,21001,1,1,361.4756,316.2598
1,6,17,4,2,2,B,G,b,y,10,10,21001,1,3,283.4268,490.3687
1,6,17,4,2,2,B,G,b,y,10,10,21001,1,1,610.6313,449.8433
1,6,17,4,2,2,B,G,b,y,10,10,21001,1,3,558.0985,179.6745
1,6,17,4,2,2,B,G,b,y,10,10,21001,1,1,573.1079,212.6951
1,6,17,4,2,2,B,G,b,y,10,10,21001,1,1,600.1248,199.1867
1,6,17,4,2,2,B,G,b,y,10,10,22001,1,1,391.4944,95.622
1,6,17,4,2,2,B,G,b,y,10,10,22001,1,1,376.485,145.1529
1,6,17,4,2,2,B,G,b,y,10,10,22001,1,1,421.5131,146.6538
1,6,17,4,2,2,B,G,b,y,10,10,22001,1,1,426.0159,193.1829
1,6,17,4,2,2,B,G,b,y,10,10,22001,1,3,280.425,208.1923
1,6,17,4,2,2,B,G,b,y,10,10,22001,1,1,290.9315,242.7139
1,6,17,4,2,2,B,G,b,y,10,10,22001,1,1,356.9728,334.2711
1,6,17,4,2,2,B,G,b,y,10,10,22001,1,3,286.4287,481.363
1,6,17,4,2,2,B,G,b,y,10,10,23001,1,3,287.9296,481.363
1,6,17,4,2,2,B,G,b,y,10,10,23001,1,1,358.4737,422.8265
1,6,17,4,2,2,B,G,b,y,10,10,23001,1,1,371.9822,326.7664
1,6,17,4,2,2,B,G,b,y,10,10,23001,1,1,248.9053,193.1829
1,6,17,4,2,2,B,G,b,y,10,10,23001,1,3,311.9447,178.1735
1,6,17,4,2,2,B,G,b,y,10,10,23001,1,1,311.9447,133.1454
1,6,17,4,2,2,B,G,b,y,10,10,23001,1,1,412.5075,118.136
1,6,17,4,2,2,B,G,b,y,10,10,23001,1,1,537.0854,188.6801
1,6,17,4,2,2,B,G,b,y,10,10,24001,1,3,526.5788,98.6238
1,6,17,4,2,2,B,G,b,y,10,10,24001,1,1,487.5544,100.1248
1,6,17,4,2,2,B,G,b,y,10,10,24001,1,1,439.5244,97.1229
1,6,17,4,2,2,B,G,b,y,10,10,24001,1,1,379.4869,104.6276
1,6,17,4,2,2,B,G,b,y,10,10,24001,1,1,392.9953,142.151
1,6,17,4,2,2,B,G,b,y,10,10,24001,1,1,435.0216,206.6914
1,6,17,4,2,2,B,G,b,y,10,10,24001,1,1,233.8959,397.3105
1,6,17,4,2,2,B,G,b,y,10,10,24001,1,3,284.9278,479.8621
1,6,17,4,2,2,B,G,b,y,10,10,25001,1,1,287.9296,487.3668
1,6,17,4,2,2,B,G,b,y,10,10,25001,1,1,448.53,352.2824
1,6,17,4,2,2,B,G,b,y,10,10,25001,1,1,519.0741,382.3011
1,6,17,4,2,2,B,G,b,y,10,10,25001,1,1,604.6276,386.8039
1,6,17,4,2,2,B,G,b,y,10,10,25001,1,1,371.9822,245.7158
1,6,17,4,2,2,B,G,b,y,10,10,25001,1,1,386.9916,134.6463
1,6,17,4,2,2,B,G,b,y,10,10,26001,1,1,362.9765,68.6051
1,6,17,4,2,2,B,G,b,y,10,10,26001,1,1,376.485,229.2054
1,6,17,4,2,2,B,G,b,y,10,10,26001,1,1,323.9522,350.7814
1,6,17,4,2,2,B,G,b,y,10,10,26001,1,3,280.425,478.3612
1,6,17,4,2,2,B,G,b,y,10,10,26001,1,1,475.5469,350.7814
1,6,17,4,2,2,B,G,b,y,10,10,26001,1,3,579.1116,460.3499
1,6,17,4,2,2,B,G,b,y,10,10,26001,1,1,633.1454,439.3368
1,6,17,4,2,2,B,G,b,y,10,10,26001,1,1,567.1041,191.682
1,6,17,4,2,2,B,G,b,y,10,10,27001,1,3,496.56,122.6388
1,6,17,4,2,2,B,G,b,y,10,10,27001,1,1,483.0516,80.6126
1,6,17,4,2,2,B,G,b,y,10,10,27001,1,1,427.5169,107.6295
1,6,17,4,2,2,B,G,b,y,10,10,27001,1,1,403.5019,137.6482
1,6,17,4,2,2,B,G,b,y,10,10,27001,1,3,694.6839,368.7927
1,6,17,4,2,2,B,G,b,y,10,10,27001,1,1,682.6764,412.3199
1,6,17,4,2,2,B,G,b,y,10,10,27001,1,1,667.667,391.3068
1,6,17,4,2,2,B,G,b,y,10,10,27001,1,1,298.4362,400.3124
1,6,17,4,2,2,B,G,b,y,10,10,27001,1,3,277.4231,490.3687
1,6,17,4,2,2,B,G,b,y,10,10,28001,1,3,277.4231,493.3705
1,6,17,4,2,2,B,G,b,y,10,10,28001,1,3,472.545,371.7946
1,6,17,4,2,2,B,G,b,y,10,10,28001,1,1,525.0779,421.3255
1,6,17,4,2,2,B,G,b,y,10,10,28001,1,1,555.0966,188.6801
1,6,17,4,2,2,B,G,b,y,10,10,28001,1,1,301.4381,143.652
1,6,17,4,2,2,B,G,b,y,10,10,29001,1,3,280.425,487.3668
1,6,17,4,2,2,B,G,b,y,10,10,29001,1,3,316.4475,488.8677
1,6,17,4,2,2,B,G,b,y,10,10,29001,1,1,341.9634,433.333
1,6,17,4,2,2,B,G,b,y,10,10,29001,1,3,349.4681,136.1473
1,6,17,4,2,2,B,G,b,y,10,10,29001,1,1,322.4512,89.6182
1,6,17,4,2,2,B,G,b,y,10,10,29001,1,1,383.9897,109.1304
1,6,17,4,2,2,B,G,b,y,10,10,29001,1,1,397.4981,88.1173
1,6,17,4,2,2,B,G,b,y,10,10,30001,1,3,278.924,484.3649
1,6,17,4,2,2,B,G,b,y,10,10,30001,1,3,358.4737,317.7608
1,6,17,4,2,2,B,G,b,y,10,10,30001,1,1,532.5826,367.2917
1,6,17,4,2,2,B,G,b,y,10,10,30001,1,1,609.1304,367.2917
1,6,17,4,2,2,B,G,b,y,10,10,30001,1,1,618.136,400.3124
1,6,17,4,2,2,B,G,b,y,10,10,30001,1,1,676.6726,203.6895
1,6,17,4,2,2,B,G,b,y,10,10,30001,1,1,696.1848,173.6707
1,6,17,4,2,2,B,G,b,y,10,10,31001,1,1,367.4794,161.6632
1,6,17,4,2,2,B,G,b,y,10,10,31001,1,3,358.4737,214.1961
1,6,17,4,2,2,B,G,b,y,10,10,31001,1,3,266.9165,316.2598
1,6,17,4,2,2,B,G,b,y,10,10,31001,1,1,218.8865,308.7552
1,6,17,4,2,2,B,G,b,y,10,10,31001,1,3,284.9278,485.8659
1,6,17,4,2,2,B,G,b,y,10,10,31001,1,1,702.1886,394.3086
1,6,17,4,2,2,B,G,b,y,10,10,31001,1,1,696.1848,272.7326
1,6,17,4,2,2,B,G,b,y,10,10,32001,1,3,266.9165,436.3349
1,6,17,4,2,2,B,G,b,y,10,10,32001,1,3,379.4869,451.3443
1,6,17,4,2,2,B,G,b,y,10,10,32001,1,1,669.1679,424.3274
1,6,17,4,2,2,B,G,b,y,10,10,32001,1,1,622.6388,107.6295
1,6,17,4,2,2,B,G,b,y,10,10,32001,1,1,436.5225,110.6313
1,6,17,4,2,2,B,G,b,y,10,10,32001,1,3,316.4475,145.1529
1,6,17,4,2,2,B,G,b,y,10,10,32001,1,1,292.4325,101.6257
1,6,17,4,2,2,B,G,b,y,10,10,33001,1,3,260.9128,475.3593
1,6,17,4,2,2,B,G,b,y,10,10,33001,1,3,281.9259,407.8171
1,6,17,4,2,2,B,G,b,y,10,10,33001,1,1,427.5169,425.8283
1,6,17,4,2,2,B,G,b,y,10,10,33001,1,1,543.0891,170.6689
1,6,17,4,2,2,B,G,b,y,10,10,33001,1,3,544.5901,107.6295
1,6,17,4,2,2,B,G,b,y,10,10,33001,1,1,553.5957,67.1041
1,6,17,4,2,2,B,G,b,y,10,10,34001,1,3,278.924,454.3462
1,6,17,4,2,2,B,G,b,y,10,10,34001,1,1,202.3762,326.7664
1,6,17,4,2,2,B,G,b,y,10,10,34001,1,1,510.0685,142.151
1,6,17,4,2,2,B,G,b,y,10,10,34001,1,3,534.0835,421.3255
1,6,17,4,2,2,B,G,b,y,10,10,34001,1,1,645.1529,493.3705
1,6,17,4,2,2,B,G,b,y,10,10,35001,1,3,278.924,482.864
1,6,17,4,2,2,B,G,b,y,10,10,35001,1,1,507.0666,472.3574
1,6,17,4,2,2,B,G,b,y,10,10,35001,1,3,517.5732,395.8096
1,6,17,4,2,2,B,G,b,y,10,10,35001,1,1,597.1229,256.2223
1,6,17,4,2,2,B,G,b,y,10,10,35001,1,1,622.6388,229.2054
1,6,17,4,2,2,B,G,b,y,10,10,35001,1,3,574.6088,224.7026
1,6,17,4,2,2,B,G,b,y,10,10,35001,1,1,272.9203,169.1679
1,6,17,4,2,2,B,G,b,y,10,10,36001,1,1,444.0272,130.1435
1,6,17,4,2,2,B,G,b,y,10,10,36001,1,3,477.0478,124.1398
1,6,17,4,2,2,B,G,b,y,10,10,36001,1,1,550.5938,263.727
1,6,17,4,2,2,B,G,b,y,10,10,36001,1,3,245.9034,296.7477
1,6,17,4,2,2,B,G,b,y,10,10,37001,1,1,296.9353,520.3874
1,6,17,4,2,2,B,G,b,y,10,10,37001,1,1,346.4662,466.3537
1,6,17,4,2,2,B,G,b,y,10,10,37001,1,3,352.47,350.7814
1,6,17,4,2,2,B,G,b,y,10,10,37001,1,3,444.0272,58.0985
1,6,17,4,2,2,B,G,b,y,10,10,38001,1,3,257.9109,460.3499
1,6,17,4,2,2,B,G,b,y,10,10,38001,1,3,275.9221,125.6407
1,6,17,4,2,2,B,G,b,y,10,10,38001,1,3,639.1492,167.667
1,6,17,4,2,2,B,G,b,y,10,10,38001,1,3,564.1023,470.8565
1,6,17,4,2,2,B,G,b,y,10,10,38001,1,1,570.106,500.8752
1,6,17,4,2,2,B,G,b,y,10,10,39001,1,3,504.0647,176.6726
1,6,17,4,2,2,B,G,b,y,10,10,39001,1,3,546.091,235.2092
1,6,17,4,2,2,B,G,b,y,10,10,39001,1,1,718.6989,284.7402
1,6,17,4,2,2,B,G,b,y,10,10,39001,1,1,442.5263,319.2617
1,6,17,4,2,2,B,G,b,y,10,10,39001,1,3,436.5225,365.7908
1,6,17,4,2,2,B,G,b,y,10,10,39001,1,1,444.0272,556.4099
1,6,17,4,2,2,B,G,b,y,10,10,40001,1,3,248.9053,193.1829
1,6,17,4,2,2,B,G,b,y,10,10,40001,1,3,534.0835,275.7345
1,6,17,4,2,2,B,G,b,y,10,10,40001,1,1,489.0553,299.7495
1,6,17,4,2,2,B,G,b,y,10,10,40001,1,1,528.0797,344.7777
1,6,17,4,2,2,B,G,b,y,10,10,40001,1,1,474.046,520.3874
1,6,17,4,2,2,B,G,b,y,10,10,40001,1,3,326.954,463.3518
1,6,17,4,2,2,B,G,b,y,10,10,40001,1,3,290.9315,427.3293
1,6,17,4,2,2,B,G,b,y,10,10,41001,1,1,337.4606,226.2036
1,6,17,4,2,2,B,G,b,y,10,10,41001,1,1,462.0385,47.5919
1,6,17,4,2,2,B,G,b,y,10,10,41001,1,3,451.5319,328.2674
1,6,17,4,2,2,B,G,b,y,10,10,41001,1,3,316.4475,454.3462
1,6,17,4,2,2,B,G,b,y,10,10,42001,1,1,344.9653,206.6914
1,6,17,4,2,2,B,G,b,y,10,10,42001,1,1,582.1135,194.6839
1,6,17,4,2,2,B,G,b,y,10,10,42001,1,3,286.4287,491.8696
1,6,17,4,2,2,B,G,b,y,10,10,42001,1,1,423.0141,541.4006
1,6,17,4,2,2,B,G,b,y,10,10,42001,1,3,352.47,551.9071
1,6,17,4,2,2,B,G,b,y,10,10,43001,1,3,229.3931,379.2992
1,6,17,4,2,2,B,G,b,y,10,10,43001,1,3,262.4137,134.6463
1,6,17,4,2,2,B,G,b,y,10,10,43001,1,1,322.4512,178.1735
1,6,17,4,2,2,B,G,b,y,10,10,43001,1,1,520.575,65.6032
1,6,17,4,2,2,B,G,b,y,10,10,43001,1,1,621.1379,178.1735
1,6,17,4,2,2,B,G,b,y,10,10,43001,1,1,678.1735,191.682
1,6,17,4,2,2,B,G,b,y,10,10,43001,1,1,597.1229,479.8621
1,6,17,4,2,2,B,G,b,y,10,10,44001,1,3,343.4644,508.3799
1,6,17,4,2,2,B,G,b,y,10,10,44001,1,1,522.076,547.4043
1,6,17,4,2,2,B,G,b,y,10,10,44001,1,1,606.1285,329.7683
1,6,17,4,2,2,B,G,b,y,10,10,44001,1,3,604.6276,287.742
1,6,17,4,2,2,B,G,b,y,10,10,44001,1,1,667.667,260.7251
1,6,17,4,2,2,B,G,b,y,10,10,44001,1,1,445.5281,248.7176
1,6,17,4,2,2,B,G,b,y,10,10,44001,1,1,411.0066,257.7233
1,6,17,4,2,2,B,G,b,y,10,10,45001,1,3,292.4325,494.8715
1,6,17,4,2,2,B,G,b,y,10,10,45001,1,1,305.9409,433.333
1,6,17,4,2,2,B,G,b,y,10,10,45001,1,1,504.0647,458.849
1,6,17,4,2,2,B,G,b,y,10,10,45001,1,3,639.1492,487.3668
1,6,17,4,2,2,B,G,b,y,10,10,45001,1,1,651.1567,215.697
1,6,17,4,2,2,B,G,b,y,10,10,45001,1,1,429.0178,157.1604
1,6,17,4,2,2,B,G,b,y,10,10,45001,1,3,301.4381,170.6689
1,6,17,4,2,2,B,G,b,y,10,10,45001,1,1,257.9109,181.1754
1,6,17,4,2,2,B,G,b,y,10,10,45001,1,1,254.909,218.6989
1,6,17,4,2,2,B,G,b,y,10,10,46001,1,1,242.9015,394.3086
1,6,17,4,2,2,B,G,b,y,10,10,46001,1,3,241.4006,328.2674
1,6,17,4,2,2,B,G,b,y,10,10,46001,1,3,397.4981,466.3537
1,6,17,4,2,2,B,G,b,y,10,10,46001,1,1,646.6538,487.3668
1,6,17,4,2,2,B,G,b,y,10,10,46001,1,1,552.0947,242.7139
1,6,17,4,2,2,B,G,b,y,10,10,46001,1,3,420.0122,224.7026
1,6,17,4,2,2,B,G,b,y,10,10,46001,1,1,441.0253,89.6182
1,6,17,4,2,2,B,G,b,y,10,10,47001,1,3,546.091,259.2242
1,6,17,4,2,2,B,G,b,y,10,10,47001,1,1,308.9428,223.2017
1,6,17,4,2,2,B,G,b,y,10,10,47001,1,1,278.924,164.6651
1,6,17,4,2,2,B,G,b,y,10,10,47001,1,3,190.3687,332.7702
1,6,17,4,2,2,B,G,b,y,10,10,47001,1,3,239.8996,392.8077
1,6,17,4,2,2,B,G,b,y,10,10,47001,1,1,332.9578,496.3724
1,6,17,4,2,2,B,G,b,y,10,10,47001,1,1,472.545,542.9015
1,6,17,4,2,2,B,G,b,y,10,10,48001,1,3,227.8921,226.2036
1,6,17,4,2,2,B,G,b,y,10,10,48001,1,1,353.9709,245.7158
1,6,17,4,2,2,B,G,b,y,10,10,48001,1,3,562.6013,328.2674
1,6,17,4,2,2,B,G,b,y,10,10,48001,1,1,418.5113,404.8152
1,6,17,4,2,2,B,G,b,y,10,10,48001,1,1,365.9784,398.8114
1,6,17,4,2,2,B,G,b,y,10,10,48001,1,1,290.9315,458.849
1,6,17,4,2,2,B,G,b,y,10,10,48001,1,3,275.9221,488.8677
1,6,17,4,2,2,B,G,b,y,10,10,49001,1,1,447.0291,43.0891
1,6,17,4,2,2,B,G,b,y,10,10,49001,1,3,367.4794,131.6445
1,6,17,4,2,2,B,G,b,y,10,10,49001,1,1,304.44,397.3105
1,6,17,4,2,2,B,G,b,y,10,10,49001,1,3,529.5807,290.7439
1,6,17,4,2,2,B,G,b,y,10,10,49001,1,1,556.5976,367.2917
1,6,17,4,2,2,B,G,b,y,10,10,49001,1,1,519.0741,538.3987
1,6,17,4,2,2,B,G,b,y,10,10,50001,1,1,546.091,169.1679
1,6,17,4,2,2,B,G,b,y,10,10,50001,1,1,562.6013,241.2129
1,6,17,4,2,2,B,G,b,y,10,10,50001,1,1,561.1004,406.3161
1,6,17,4,2,2,B,G,b,y,10,10,50001,1,3,498.061,380.8002
1,6,17,4,2,2,B,G,b,y,10,10,50001,1,3,335.9597,403.3143
1,6,17,4,2,2,B,G,b,y,10,10,50001,1,1,226.3912,386.8039
1,6,17,4,2,2,B,G,b,y,10,10,51001,1,1,429.0178,92.6201
1,6,17,4,2,2,B,G,b,y,10,10,51001,1,1,543.0891,191.682
1,6,17,4,2,2,B,G,b,y,10,10,51001,1,1,594.121,254.7214
1,6,17,4,2,2,B,G,b,y,10,10,51001,1,3,386.9916,383.8021
1,6,17,4,2,2,B,G,b,y,10,10,51001,1,1,206.879,292.2448
1,6,17,4,2,2,B,G,b,y,10,10,51001,1,3,233.8959,193.1829
1,6,17,4,2,2,B,G,b,y,10,10,52001,1,3,296.9353,337.273
1,6,17,4,2,2,B,G,b,y,10,10,52001,1,3,400.5,274.2336
1,6,17,4,2,2,B,G,b,y,10,10,52001,1,1,633.1454,367.2917
1,6,17,4,2,2,B,G,b,y,10,10,52001,1,1,586.6163,91.1191
1,6,17,4,2,2,B,G,b,y,10,10,52001,1,1,417.0103,113.6332
1,6,17,4,2,2,B,G,b,y,10,10,52001,1,1,307.4418,149.6557
1,6,17,4,2,2,B,G,b,y,10,10,53001,1,3,209.8809,322.2636
1,6,17,4,2,2,B,G,b,y,10,10,53001,1,3,308.9428,269.7308
1,6,17,4,2,2,B,G,b,y,10,10,53001,1,1,340.4625,124.1398
1,6,17,4,2,2,B,G,b,y,10,10,53001,1,1,511.5694,196.1848
1,6,17,4,2,2,B,G,b,y,10,10,53001,1,1,661.6632,242.7139
1,6,17,4,2,2,B,G,b,y,10,10,53001,1,1,666.166,271.2317
1,6,17,4,2,2,B,G,b,y,10,10,54001,1,1,331.4568,239.712
1,6,17,4,2,2,B,G,b,y,10,10,54001,1,3,392.9953,166.166
1,6,17,4,2,2,B,G,b,y,10,10,54001,1,1,355.4719,128.6426
1,6,17,4,2,2,B,G,b,y,10,10,54001,1,1,332.9578,88.1173
1,6,17,4,2,2,B,G,b,y,10,10,54001,1,3,472.545,55.0966
1,6,17,4,2,2,B,G,b,y,10,10,54001,1,1,481.5507,95.622
1,6,17,4,2,2,B,G,b,y,10,10,54001,1,1,700.6876,296.7477
1,6,17,4,2,2,B,G,b,y,10,10,54001,1,1,667.667,404.8152
1,6,17,4,2,2,B,G,b,y,10,10,55001,1,1,329.9559,119.637
1,6,17,4,2,2,B,G,b,y,10,10,55001,1,3,344.9653,245.7158
1,6,17,4,2,2,B,G,b,y,10,10,55001,1,1,299.9371,350.7814
1,6,17,4,2,2,B,G,b,y,10,10,55001,1,1,531.0816,331.2692
1,6,17,4,2,2,B,G,b,y,10,10,55001,1,3,679.6745,305.7533
1,6,17,4,2,2,B,G,b,y,10,10,55001,1,1,685.6782,197.6857
1,6,17,4,2,2,B,G,b,y,10,10,55001,1,1,619.637,479.8621
1,6,17,4,2,2,B,G,b,y,10,10,55001,1,1,510.0685,457.348
1,6,17,4,2,2,B,G,b,y,10,10,56001,1,3,483.0516,556.4099
1,6,17,4,2,2,B,G,b,y,10,10,56001,1,1,514.5713,475.3593
1,6,17,4,2,2,B,G,b,y,10,10,56001,1,1,412.5075,410.8189
1,6,17,4,2,2,B,G,b,y,10,10,56001,1,1,438.0235,361.288
1,6,17,4,2,2,B,G,b,y,10,10,56001,1,1,567.1041,425.8283
1,6,17,4,2,2,B,G,b,y,10,10,56001,1,1,711.1942,353.7833
1,6,17,4,2,2,B,G,b,y,10,10,56001,1,3,501.0629,217.1979
1,6,17,4,2,2,B,G,b,y,10,10,56001,1,1,349.4681,85.1154
1,6,17,4,2,2,B,G,b,y,10,10,57001,1,1,388.4925,559.4118
1,6,17,4,2,2,B,G,b,y,10,10,57001,1,1,612.1323,503.8771
1,6,17,4,2,2,B,G,b,y,10,10,57001,1,1,468.0422,371.7946
1,6,17,4,2,2,B,G,b,y,10,10,57001,1,1,364.4775,314.7589
1,6,17,4,2,2,B,G,b,y,10,10,57001,1,3,358.4737,244.2148
1,6,17,4,2,2,B,G,b,y,10,10,57001,1,3,208.3799,229.2054
1,6,17,4,2,2,B,G,b,y,10,10,57001,1,1,343.4644,91.1191
1,6,17,4,2,2,B,G,b,y,10,10,57001,1,1,561.1004,215.697
1,6,17,4,2,2,B,G,b,y,10,10,58001,1,3,478.5488,83.6144
1,6,17,4,2,2,B,G,b,y,10,10,58001,1,1,432.0197,185.6782
1,6,17,4,2,2,B,G,b,y,10,10,58001,1,1,377.9859,121.1379
1,6,17,4,2,2,B,G,b,y,10,10,58001,1,1,287.9296,218.6989
1,6,17,4,2,2,B,G,b,y,10,10,58001,1,1,463.5394,239.712
1,6,17,4,2,2,B,G,b,y,10,10,58001,1,1,669.1679,199.1867
1,6,17,4,2,2,B,G,b,y,10,10,58001,1,3,402.0009,344.7777
1,6,17,4,2,2,B,G,b,y,10,10,58001,1,3,365.9784,470.8565
1,6,17,4,2,2,B,G,b,y,10,10,58001,1,1,356.9728,535.3968
1,6,17,4,2,2,B,G,b,y,10,10,59001,1,1,341.9634,545.9034
1,6,17,4,2,2,B,G,b,y,10,10,59001,1,3,284.9278,491.8696
1,6,17,4,2,2,B,G,b,y,10,10,59001,1,1,353.9709,280.2373
1,6,17,4,2,2,B,G,b,y,10,10,59001,1,1,322.4512,112.1323
1,6,17,4,2,2,B,G,b,y,10,10,59001,1,1,438.0235,53.5957
1,6,17,4,2,2,B,G,b,y,10,10,59001,1,1,460.5375,155.6595
1,6,17,4,2,2,B,G,b,y,10,10,59001,1,3,582.1135,197.6857
1,6,17,4,2,2,B,G,b,y,10,10,59001,1,1,567.1041,302.7514
1,6,17,4,2,2,B,G,b,y,10,10,59001,1,3,571.6069,380.8002
1,6,17,4,2,2,B,G,b,y,10,10,60001,1,3,335.9597,544.4024
1,6,17,4,2,2,B,G,b,y,10,10,60001,1,3,281.9259,484.3649
1,6,17,4,2,2,B,G,b,y,10,10,60001,1,1,301.4381,422.8265
1,6,17,4,2,2,B,G,b,y,10,10,60001,1,1,421.5131,274.2336
1,6,17,4,2,2,B,G,b,y,10,10,60001,1,1,453.0328,157.1604
1,6,17,4,2,2,B,G,b,y,10,10,60001,1,1,358.4737,74.6088
1,6,17,4,2,2,B,G,b,y,10,10,60001,1,1,531.0816,80.6126
1,6,17,4,2,2,B,G,b,y,10,10,60001,1,3,585.1154,221.7008
1,6,17,4,2,2,B,G,b,y,10,10,60001,1,3,628.6426,263.727
1,6,17,4,2,2,B,G,b,y,10,10,61001,1,1,289.4306,514.3837
1,6,17,4,2,2,B,G,b,y,10,10,61001,1,1,408.0047,496.3724
1,6,17,4,2,2,B,G,b,y,10,10,61001,1,1,397.4981,368.7927
1,6,17,4,2,2,B,G,b,y,10,10,61001,1,3,236.8977,382.3011
1,6,17,4,2,2,B,G,b,y,10,10,61001,1,1,268.4174,167.667
1,6,17,4,2,2,B,G,b,y,10,10,61001,1,3,477.0478,70.106
1,6,17,4,2,2,B,G,b,y,10,10,61001,1,1,552.0947,169.1679
1,6,17,4,2,2,B,G,b,y,10,10,61001,1,3,586.6163,143.652
1,6,17,4,2,2,B,G,b,y,10,10,61001,1,1,669.1679,193.1829
1,6,17,4,2,2,B,G,b,y,10,10,62001,1,1,298.4362,505.378
1,6,17,4,2,2,B,G,b,y,10,10,62001,1,1,402.0009,532.3949
1,6,17,4,2,2,B,G,b,y,10,10,62001,1,3,415.5094,437.8358
1,6,17,4,2,2,B,G,b,y,10,10,62001,1,1,516.0722,406.3161
1,6,17,4,2,2,B,G,b,y,10,10,62001,1,1,700.6876,319.2617
1,6,17,4,2,2,B,G,b,y,10,10,62001,1,1,655.6595,143.652
1,6,17,4,2,2,B,G,b,y,10,10,62001,1,3,427.5169,142.151
1,6,17,4,2,2,B,G,b,y,10,10,62001,1,1,251.9071,187.1792
1,6,17,4,2,2,B,G,b,y,10,10,62001,1,3,278.924,281.7383
1,6,17,4,2,2,B,G,b,y,10,10,63001,1,1,274.4212,488.8677
1,6,17,4,2,2,B,G,b,y,10,10,63001,1,3,230.894,358.2861
1,6,17,4,2,2,B,G,b,y,10,10,63001,1,1,272.9203,316.2598
1,6,17,4,2,2,B,G,b,y,10,10,63001,1,3,397.4981,206.6914
1,6,17,4,2,2,B,G,b,y,10,10,63001,1,1,444.0272,113.6332
1,6,17,4,2,2,B,G,b,y,10,10,63001,1,3,520.575,215.697
1,6,17,4,2,2,B,G,b,y,10,10,63001,1,1,585.1154,308.7552
1,6,17,4,2,2,B,G,b,y,10,10,63001,1,1,478.5488,368.7927
1,6,17,4,2,2,B,G,b,y,10,10,63001,1,1,501.0629,466.3537
1,6,17,4,2,2,B,G,b,y,10,10,64001,1,3,263.9146,487.3668
1,6,17,4,2,2,B,G,b,y,10,10,64001,1,1,356.9728,536.8977
1,6,17,4,2,2,B,G,b,y,10,10,64001,1,1,398.9991,337.273
1,6,17,4,2,2,B,G,b,y,10,10,64001,1,1,511.5694,337.273
1,6,17,4,2,2,B,G,b,y,10,10,64001,1,1,304.44,229.2054
1,6,17,4,2,2,B,G,b,y,10,10,64001,1,3,283.4268,197.6857
1,6,17,4,2,2,B,G,b,y,10,10,64001,1,3,525.0779,122.6388
1,6,17,4,2,2,B,G,b,y,10,10,64001,1,1,643.652,122.6388
1,6,17,4,2,2,B,G,b,y,10,10,65001,1,3,268.4174,490.3687
1,6,17,4,2,2,B,G,b,y,10,10,65001,1,1,389.9934,529.3931
1,6,17,4,2,2,B,G,b,y,10,10,65001,1,1,460.5375,565.4156
1,6,17,4,2,2,B,G,b,y,10,10,65001,1,1,251.9071,257.7233
1,6,17,4,2,2,B,G,b,y,10,10,65001,1,3,364.4775,113.6332
1,6,17,4,2,2,B,G,b,y,10,10,65001,1,1,561.1004,67.1041
1,6,17,4,2,2,B,G,b,y,10,10,65001,1,3,550.5938,209.6932
1,6,17,4,2,2,B,G,b,y,10,10,65001,1,1,606.1285,226.2036
1,6,17,4,2,2,B,G,b,y,10,10,65001,1,1,705.1904,352.2824
1,6,17,4,2,2,B,G,b,y,10,10,66001,1,3,365.9784,529.3931
1,6,17,4,2,2,B,G,b,y,10,10,66001,1,3,287.9296,445.3405
1,6,17,4,2,2,B,G,b,y,10,10,66001,1,1,233.8959,287.742
1,6,17,4,2,2,B,G,b,y,10,10,66001,1,3,445.5281,340.2749
1,6,17,4,2,2,B,G,b,y,10,10,66001,1,1,601.6257,509.8809
1,6,17,4,2,2,B,G,b,y,10,10,66001,1,1,681.1754,389.8058
1,6,17,4,2,2,B,G,b,y,10,10,66001,1,1,712.6951,356.7852
1,6,17,4,2,2,B,G,b,y,10,10,66001,1,1,540.0872,140.6501
1,6,17,4,2,2,B,G,b,y,10,10,66001,1,3,493.5582,110.6313
1,6,17,4,2,2,B,G,b,y,10,10,67001,1,1,338.9615,524.8902
1,6,17,4,2,2,B,G,b,y,10,10,67001,1,1,311.9447,406.3161
1,6,17,4,2,2,B,G,b,y,10,10,67001,1,3,475.5469,391.3068
1,6,17,4,2,2,B,G,b,y,10,10,67001,1,1,484.5525,425.8283
1,6,17,4,2,2,B,G,b,y,10,10,67001,1,1,552.0947,445.3405
1,6,17,4,2,2,B,G,b,y,10,10,67001,1,1,483.0516,229.2054
1,6,17,4,2,2,B,G,b,y,10,10,67001,1,3,547.5919,163.1642
1,6,17,4,2,2,B,G,b,y,10,10,67001,1,3,672.1698,263.727
1,6,17,4,2,2,B,G,b,y,10,10,68001,1,3,283.4268,502.3762
1,6,17,4,2,2,B,G,b,y,10,10,68001,1,1,287.9296,472.3574
1,6,17,4,2,2,B,G,b,y,10,10,68001,1,1,355.4719,449.8433
1,6,17,4,2,2,B,G,b,y,10,10,68001,1,1,534.0835,346.2786
1,6,17,4,2,2,B,G,b,y,10,10,68001,1,3,469.5432,283.2392
1,6,17,4,2,2,B,G,b,y,10,10,68001,1,3,508.5675,206.6914
1,6,17,4,2,2,B,G,b,y,10,10,68001,1,1,631.6445,194.6839
1,6,17,4,2,2,B,G,b,y,10,10,69001,1,1,286.4287,493.3705
1,6,17,4,2,2,B,G,b,y,10,10,69001,1,3,328.455,370.2936
1,6,17,4,2,2,B,G,b,y,10,10,69001,1,1,211.3818,283.2392
1,6,17,4,2,2,B,G,b,y,10,10,69001,1,3,468.0422,341.7758
1,6,17,4,2,2,B,G,b,y,10,10,69001,1,1,604.6276,391.3068
1,6,17,4,2,2,B,G,b,y,10,10,69001,1,3,634.6463,355.2842
1,6,17,4,2,2,B,G,b,y,10,10,69001,1,1,709.6932,293.7458
1,6,17,4,2,2,B,G,b,y,10,10,70001,1,1,287.9296,128.6426
1,6,17,4,2,2,B,G,b,y,10,10,70001,1,1,257.9109,356.7852
1,6,17,4,2,2,B,G,b,y,10,10,70001,1,3,272.9203,506.879
1,6,17,4,2,2,B,G,b,y,10,10,70001,1,3,406.5038,358.2861
1,6,17,4,2,2,B,G,b,y,10,10,70001,1,1,573.1079,461.8508
1,6,17,4,2,2,B,G,b,y,10,10,70001,1,1,666.166,424.3274
1,6,17,4,2,2,B,G,b,y,10,10,70001,1,3,667.667,359.7871
1,6,17,4,2,2,B,G,b,y,10,10,71001,1,1,367.4794,122.6388
1,6,17,4,2,2,B,G,b,y,10,10,71001,1,3,325.4531,169.1679
1,6,17,4,2,2,B,G,b,y,10,10,71001,1,1,340.4625,281.7383
1,6,17,4,2,2,B,G,b,y,10,10,71001,1,3,386.9916,275.7345
1,6,17,4,2,2,B,G,b,y,10,10,71001,1,3,607.6295,322.2636
1,6,17,4,2,2,B,G,b,y,10,10,71001,1,1,492.0572,485.8659
1,6,17,4,2,2,B,G,b,y,10,10,71001,1,1,579.1116,526.3912
1,6,17,4,2,2,B,G,b,y,10,10,72001,1,3,426.0159,101.6257
1,6,17,4,2,2,B,G,b,y,10,10,72001,1,1,344.9653,106.1285
1,6,17,4,2,2,B,G,b,y,10,10,72001,1,1,290.9315,302.7514
1,6,17,4,2,2,B,G,b,y,10,10,72001,1,3,433.5206,307.2542
1,6,17,4,2,2,B,G,b,y,10,10,72001,1,3,537.0854,239.712
1,6,17,4,2,2,B,G,b,y,10,10,72001,1,1,523.5769,377.7983
1,6,17,4,2,2,B,G,b,y,10,10,72001,1,1,459.0366,463.3518
1,6,17,4,2,2,B,G,b,y,10,10,73001,1,1,368.9803,413.8208
1,6,17,4,2,2,B,G,b,y,10,10,73001,1,1,368.9803,367.2917
1,6,17,4,2,2,B,G,b,y,10,10,73001,1,1,411.0066,275.7345
1,6,17,4,2,2,B,G,b,y,10,10,73001,1,3,472.545,200.6876
1,6,17,4,2,2,B,G,b,y,10,10,73001,1,1,522.076,278.7364
1,6,17,4,2,2,B,G,b,y,10,10,73001,1,3,540.0872,359.7871
1,6,17,4,2,2,B,G,b,y,10,10,73001,1,3,583.6144,124.1398
1,6,17,4,2,2,B,G,b,y,10,10,74001,1,1,280.425,350.7814
1,6,17,4,2,2,B,G,b,y,10,10,74001,1,1,266.9165,215.697
1,6,17,4,2,2,B,G,b,y,10,10,74001,1,1,350.969,119.637
1,6,17,4,2,2,B,G,b,y,10,10,74001,1,1,370.4812,224.7026
1,6,17,4,2,2,B,G,b,y,10,10,74001,1,3,460.5375,232.2073
1,6,17,4,2,2,B,G,b,y,10,10,74001,1,3,568.6051,193.1829
1,6,17,4,2,2,B,G,b,y,10,10,74001,1,1,564.1023,317.7608
1,6,17,4,2,2,B,G,b,y,10,10,74001,1,3,687.1792,278.7364
1,6,17,4,2,2,B,G,b,y,10,10,75001,1,1,226.3912,359.7871
1,6,17,4,2,2,B,G,b,y,10,10,75001,1,1,323.9522,283.2392
1,6,17,4,2,2,B,G,b,y,10,10,75001,1,1,293.9334,197.6857
1,6,17,4,2,2,B,G,b,y,10,10,75001,1,1,450.031,86.6163
1,6,17,4,2,2,B,G,b,y,10,10,75001,1,3,408.0047,302.7514
1,6,17,4,2,2,B,G,b,y,10,10,75001,1,3,344.9653,343.2767
1,6,17,4,2,2,B,G,b,y,10,10,75001,1,3,429.0178,454.3462
1,6,17,4,2,2,B,G,b,y,10,10,75001,1,1,706.6914,337.273
1,6,17,4,2,2,B,G,b,y,10,10,76001,1,1,331.4568,532.3949
1,6,17,4,2,2,B,G,b,y,10,10,76001,1,3,397.4981,484.3649
1,6,17,4,2,2,B,G,b,y,10,10,76001,1,3,290.9315,442.3386
1,6,17,4,2,2,B,G,b,y,10,10,76001,1,1,241.4006,374.7964
1,6,17,4,2,2,B,G,b,y,10,10,76001,1,1,289.4306,283.2392
1,6,17,4,2,2,B,G,b,y,10,10,76001,1,3,292.4325,202.1886
1,6,17,4,2,2,B,G,b,y,10,10,76001,1,1,447.0291,241.2129
1,6,17,4,2,2,B,G,b,y,10,10,76001,1,1,496.56,64.1023
1,6,17,4,2,2,B,G,b,y,10,10,77001,1,1,206.879,379.2992
1,6,17,4,2,2,B,G,b,y,10,10,77001,1,1,257.9109,379.2992
1,6,17,4,2,2,B,G,b,y,10,10,77001,1,1,332.9578,308.7552
1,6,17,4,2,2,B,G,b,y,10,10,77001,1,3,429.0178,221.7008
1,6,17,4,2,2,B,G,b,y,10,10,77001,1,1,496.56,64.1023
1,6,17,4,2,2,B,G,b,y,10,10,77001,1,1,469.5432,242.7139
1,6,17,4,2,2,B,G,b,y,10,10,77001,1,3,314.9465,515.8846
1,6,17,4,2,2,B,G,b,y,10,10,77001,1,1,546.091,508.3799
1,6,17,4,2,2,B,G,b,y,10,10,78001,1,1,298.4362,83.6144
1,6,17,4,2,2,B,G,b,y,10,10,78001,1,3,304.44,169.1679
1,6,17,4,2,2,B,G,b,y,10,10,78001,1,1,546.091,68.6051
1,6,17,4,2,2,B,G,b,y,10,10,78001,1,1,400.5,242.7139
1,6,17,4,2,2,B,G,b,y,10,10,78001,1,1,517.5732,298.2486
1,6,17,4,2,2,B,G,b,y,10,10,78001,1,3,594.121,316.2598
1,6,17,4,2,2,B,G,b,y,10,10,78001,1,3,435.0216,524.8902
1,6,17,4,2,2,B,G,b,y,10,10,78001,1,1,317.9484,410.8189
1,6,17,4,2,2,B,G,b,y,10,10,79001,1,1,293.9334,82.1135
1,6,17,4,2,2,B,G,b,y,10,10,79001,1,1,277.4231,149.6557
1,6,17,4,2,2,B,G,b,y,10,10,79001,1,3,320.9503,277.2355
1,6,17,4,2,2,B,G,b,y,10,10,79001,1,1,380.9878,260.7251
1,6,17,4,2,2,B,G,b,y,10,10,79001,1,3,433.5206,113.6332
1,6,17,4,2,2,B,G,b,y,10,10,79001,1,1,604.6276,116.6351
1,6,17,4,2,2,B,G,b,y,10,10,79001,1,1,571.6069,226.2036
1,6,17,4,2,2,B,G,b,y,10,10,79001,1,3,475.5469,464.8527
1,6,17,4,2,2,B,G,b,y,10,10,80001,1,3,417.0103,458.849
1,6,17,4,2,2,B,G,b,y,10,10,80001,1,3,379.4869,431.8321
1,6,17,4,2,2,B,G,b,y,10,10,80001,1,3,268.4174,196.1848
1,6,17,4,2,2,B,G,b,y,10,10,80001,1,1,236.8977,169.1679
1,6,17,4,2,2,B,G,b,y,10,10,80001,1,1,444.0272,137.6482
1,6,17,4,2,2,B,G,b,y,10,10,80001,1,1,571.6069,89.6182
1,6,17,4,2,2,B,G,b,y,10,10,80001,1,1,561.1004,143.652
1,6,17,4,2,2,B,G,b,y,10,10,80001,1,1,637.6482,187.1792
1,6,17,4,2,2,B,G,b,y,10,10,81001,1,3,287.9296,484.3649
1,6,17,4,2,2,B,G,b,y,10,10,81001,1,3,347.9672,431.8321
1,6,17,4,2,2,B,G,b,y,10,10,81001,1,3,253.4081,301.2505
1,6,17,4,2,2,B,G,b,y,10,10,81001,1,1,205.378,322.2636
1,6,17,4,2,2,B,G,b,y,10,10,81001,1,1,242.9015,176.6726
1,6,17,4,2,2,B,G,b,y,10,10,81001,1,1,430.5188,122.6388
1,6,17,4,2,2,B,G,b,y,10,10,81001,1,1,541.5882,196.1848
1,6,17,4,2,2,B,G,b,y,10,10,81001,1,1,627.1417,253.2205
1,6,17,4,2,2,B,G,b,y,10,10,82001,1,3,457.5356,98.6238
1,6,17,4,2,2,B,G,b,y,10,10,82001,1,1,414.0084,235.2092
1,6,17,4,2,2,B,G,b,y,10,10,82001,1,1,571.6069,293.7458
1,6,17,4,2,2,B,G,b,y,10,10,82001,1,1,693.1829,304.2523
1,6,17,4,2,2,B,G,b,y,10,10,82001,1,3,368.9803,358.2861
1,6,17,4,2,2,B,G,b,y,10,10,82001,1,1,275.9221,410.8189
1,6,17,4,2,2,B,G,b,y,10,10,82001,1,3,283.4268,482.864
1,6,17,4,2,2,B,G,b,y,10,10,83001,1,3,289.4306,488.8677
1,6,17,4,2,2,B,G,b,y,10,10,83001,1,1,289.4306,425.8283
1,6,17,4,2,2,B,G,b,y,10,10,83001,1,1,389.9934,355.2842
1,6,17,4,2,2,B,G,b,y,10,10,83001,1,3,343.4644,232.2073
1,6,17,4,2,2,B,G,b,y,10,10,83001,1,1,490.5563,322.2636
1,6,17,4,2,2,B,G,b,y,10,10,83001,1,3,543.0891,196.1848
1,6,17,4,2,2,B,G,b,y,10,10,83001,1,1,712.6951,311.757
1,6,17,4,2,2,B,G,b,y,10,10,84001,1,3,280.425,482.864
1,6,17,4,2,2,B,G,b,y,10,10,84001,1,1,334.4587,424.3274
1,6,17,4,2,2,B,G,b,y,10,10,84001,1,1,388.4925,391.3068
1,6,17,4,2,2,B,G,b,y,10,10,84001,1,1,486.0535,326.7664
1,6,17,4,2,2,B,G,b,y,10,10,84001,1,3,544.5901,221.7008
1,6,17,4,2,2,B,G,b,y,10,10,84001,1,3,430.5188,113.6332
1,6,17,4,2,2,B,G,b,y,10,10,84001,1,1,723.2017,325.2655
1,6,17,4,2,2,B,G,b,y,10,10,85001,1,3,275.9221,491.8696
1,6,17,4,2,2,B,G,b,y,10,10,85001,1,1,364.4775,404.8152
1,6,17,4,2,2,B,G,b,y,10,10,85001,1,1,350.969,287.742
1,6,17,4,2,2,B,G,b,y,10,10,85001,1,1,495.0591,328.2674
1,6,17,4,2,2,B,G,b,y,10,10,85001,1,3,579.1116,349.2805
1,6,17,4,2,2,B,G,b,y,10,10,85001,1,1,694.6839,386.8039
1,6,17,4,2,2,B,G,b,y,10,10,85001,1,3,540.0872,101.6257
1,6,17,4,2,2,B,G,b,y,10,10,86001,1,3,280.425,500.8752
1,6,17,4,2,2,B,G,b,y,10,10,86001,1,1,304.44,338.7739
1,6,17,4,2,2,B,G,b,y,10,10,86001,1,1,299.9371,172.1698
1,6,17,4,2,2,B,G,b,y,10,10,86001,1,1,496.56,332.7702
1,6,17,4,2,2,B,G,b,y,10,10,86001,1,3,546.091,202.1886
1,6,17,4,2,2,B,G,b,y,10,10,86001,1,3,624.1398,265.228
1,6,17,4,2,2,B,G,b,y,10,10,86001,1,1,661.6632,458.849
1,6,17,4,2,2,B,G,b,y,10,10,87001,1,3,281.9259,485.8659
1,6,17,4,2,2,B,G,b,y,10,10,87001,1,1,217.3856,223.2017
1,6,17,4,2,2,B,G,b,y,10,10,87001,1,1,383.9897,248.7176
1,6,17,4,2,2,B,G,b,y,10,10,87001,1,3,371.9822,302.7514
1,6,17,4,2,2,B,G,b,y,10,10,87001,1,3,472.545,214.1961
1,6,17,4,2,2,B,G,b,y,10,10,87001,1,1,445.5281,355.2842
1,6,17,4,2,2,B,G,b,y,10,10,87001,1,1,573.1079,463.3518
1,6,17,4,2,2,B,G,b,y,10,10,88001,1,3,268.4174,485.8659
1,6,17,4,2,2,B,G,b,y,10,10,88001,1,3,242.9015,416.8227
1,6,17,4,2,2,B,G,b,y,10,10,88001,1,1,268.4174,332.7702
1,6,17,4,2,2,B,G,b,y,10,10,88001,1,1,438.0235,443.8396
1,6,17,4,2,2,B,G,b,y,10,10,88001,1,1,477.0478,319.2617
1,6,17,4,2,2,B,G,b,y,10,10,88001,1,1,459.0366,191.682
1,6,17,4,2,2,B,G,b,y,10,10,88001,1,1,493.5582,173.6707
1,6,17,4,2,2,B,G,b,y,10,10,88001,1,3,648.1548,221.7008
1,6,17,4,2,2,B,G,b,y,10,10,89001,1,3,289.4306,320.7627
1,6,17,4,2,2,B,G,b,y,10,10,89001,1,1,269.9184,443.8396
1,6,17,4,2,2,B,G,b,y,10,10,89001,1,3,353.9709,526.3912
1,6,17,4,2,2,B,G,b,y,10,10,89001,1,1,445.5281,173.6707
1,6,17,4,2,2,B,G,b,y,10,10,89001,1,1,513.0704,163.1642
1,6,17,4,2,2,B,G,b,y,10,10,89001,1,3,619.637,404.8152
1,6,17,4,2,2,B,G,b,y,10,10,90001,1,1,287.9296,499.3743
1,6,17,4,2,2,B,G,b,y,10,10,90001,1,3,296.9353,473.8583
1,6,17,4,2,2,B,G,b,y,10,10,90001,1,1,555.0966,535.3968
1,6,17,4,2,2,B,G,b,y,10,10,90001,1,3,368.9803,244.2148
1,6,17,4,2,2,B,G,b,y,10,10,90001,1,1,498.061,64.1023
1,6,17,4,2,2,B,G,b,y,10,10,90001,1,1,568.6051,191.682
1,6,17,4,2,2,B,G,b,y,10,10,90001,1,3,690.1811,269.7308
1,6,17,4,2,2,B,G,b,y,10,10,91001,1,3,271.4193,488.8677
1,6,17,4,2,2,B,G,b,y,10,10,91001,1,1,287.9296,380.8002
1,6,17,4,2,2,B,G,b,y,10,10,91001,1,3,310.4437,104.6276
1,6,17,4,2,2,B,G,b,y,10,10,91001,1,3,492.0572,56.5976
1,6,17,4,2,2,B,G,b,y,10,10,91001,1,1,636.1473,145.1529
1,6,17,4,2,2,B,G,b,y,10,10,91001,1,1,679.6745,208.1923
1,6,17,4,2,2,B,G,b,y,10,10,91001,1,1,519.0741,503.8771
1,6,17,4,2,2,B,G,b,y,10,10,92001,1,3,226.3912,218.6989
1,6,17,4,2,2,B,G,b,y,10,10,92001,1,3,286.4287,221.7008
1,6,17,4,2,2,B,G,b,y,10,10,92001,1,3,277.4231,491.8696
1,6,17,4,2,2,B,G,b,y,10,10,92001,1,1,484.5525,559.4118
1,6,17,4,2,2,B,G,b,y,10,10,92001,1,1,507.0666,511.3818
1,6,17,4,2,2,B,G,b,y,10,10,92001,1,1,700.6876,358.2861
1,6,17,4,2,2,B,G,b,y,10,10,92001,1,1,649.6557,230.7064
1,6,17,4,2,2,B,G,b,y,10,10,93001,1,3,310.4437,365.7908
1,6,17,4,2,2,B,G,b,y,10,10,93001,1,3,271.4193,490.3687
1,6,17,4,2,2,B,G,b,y,10,10,93001,1,3,337.4606,529.3931
1,6,17,4,2,2,B,G,b,y,10,10,93001,1,1,448.53,511.3818
1,6,17,4,2,2,B,G,b,y,10,10,93001,1,1,613.6332,479.8621
1,6,17,4,2,2,B,G,b,y,10,10,93001,1,1,634.6463,359.7871
1,6,17,4,2,2,B,G,b,y,10,10,93001,1,1,679.6745,368.7927
1,6,17,4,2,2,B,G,b,y,10,10,94001,1,3,411.0066,347.7795
1,6,17,4,2,2,B,G,b,y,10,10,94001,1,3,402.0009,301.2505
1,6,17,4,2,2,B,G,b,y,10,10,94001,1,3,275.9221,491.8696
1,6,17,4,2,2,B,G,b,y,10,10,94001,1,1,543.0891,281.7383
1,6,17,4,2,2,B,G,b,y,10,10,94001,1,1,543.0891,392.8077
1,6,17,4,2,2,B,G,b,y,10,10,94001,1,1,592.6201,427.3293
1,6,17,4,2,2,B,G,b,y,10,10,94001,1,1,721.7008,391.3068
1,6,17,4,2,2,B,G,b,y,10,10,95001,1,1,508.5675,130.1435
1,6,17,4,2,2,B,G,b,y,10,10,95001,1,3,471.0441,160.1623
1,6,17,4,2,2,B,G,b,y,10,10,95001,1,1,655.6595,320.7627
1,6,17,4,2,2,B,G,b,y,10,10,95001,1,1,723.2017,337.273
1,6,17,4,2,2,B,G,b,y,10,10,95001,1,3,655.6595,404.8152
1,6,17,4,2,2,B,G,b,y,10,10,95001,1,1,492.0572,451.3443
1,6,17,4,2,2,B,G,b,y,10,10,95001,1,3,275.9221,484.3649
1,6,17,4,2,2,B,G,b,y,10,10,96001,1,3,337.4606,251.7195
1,6,17,4,2,2,B,G,b,y,10,10,96001,1,3,289.4306,475.3593
1,6,17,4,2,2,B,G,b,y,10,10,96001,1,1,414.0084,410.8189
1,6,17,4,2,2,B,G,b,y,10,10,96001,1,3,594.121,194.6839
1,6,17,4,2,2,B,G,b,y,10,10,96001,1,1,681.1754,194.6839
1,6,17,4,2,2,B,G,b,y,10,10,96001,1,1,727.7045,337.273
1,6,17,4,2,2,B,G,b,y,10,10,97001,1,3,289.4306,467.8546
1,6,17,4,2,2,B,G,b,y,10,10,97001,1,1,421.5131,407.8171
1,6,17,4,2,2,B,G,b,y,10,10,97001,1,3,522.076,224.7026
1,6,17,4,2,2,B,G,b,y,10,10,97001,1,3,459.0366,121.1379
1,6,17,4,2,2,B,G,b,y,10,10,97001,1,1,562.6013,146.6538
1,6,17,4,2,2,B,G,b,y,10,10,98001,1,3,403.5019,496.3724
1,6,17,4,2,2,B,G,b,y,10,10,98001,1,1,421.5131,412.3199
1,6,17,4,2,2,B,G,b,y,10,10,98001,1,3,519.0741,323.7645
1,6,17,4,2,2,B,G,b,y,10,10,98001,1,1,568.6051,209.6932
1,6,17,4,2,2,B,G,b,y,10,10,98001,1,3,696.1848,202.1886
1,6,17,4,2,2,B,G,b,y,10,10,99001,1,1,391.4944,407.8171
1,6,17,4,2,2,B,G,b,y,10,10,99001,1,3,370.4812,380.8002
1,6,17,4,2,2,B,G,b,y,10,10,99001,1,1,520.575,289.243
1,6,17,4,2,2,B,G,b,y,10,10,99001,1,3,576.1098,256.2223
1,6,17,4,2,2,B,G,b,y,10,10,99001,1,3,618.136,406.3161
1,6,17,4,2,2,B,G,b,y,10,10,100001,1,3,355.4719,373.2955
1,6,17,4,2,2,B,G,b,y,10,10,100001,1,1,408.0047,352.2824
1,6,17,4,2,2,B,G,b,y,10,10,100001,1,1,520.575,290.7439
1,6,17,4,2,2,B,G,b,y,10,10,100001,1,3,549.0929,188.6801
1,6,17,4,2,2,B,G,b,y,10,10,100001,1,3,630.1435,484.3649
1,6,17,4,2,2,B,G,b,y,10,10,101001,1,3,347.9672,379.2992
1,6,17,4,2,2,B,G,b,y,10,10,101001,1,1,451.5319,311.757
1,6,17,4,2,2,B,G,b,y,10,10,101001,1,1,525.0779,295.2467
1,6,17,4,2,2,B,G,b,y,10,10,101001,1,3,583.6144,107.6295
1,6,17,4,2,2,B,G,b,y,10,10,101001,1,3,697.6857,295.2467
1,6,17,4,2,2,B,G,b,y,10,10,102001,1,3,349.4681,454.3462
1,6,17,4,2,2,B,G,b,y,10,10,102001,1,1,487.5544,343.2767
1,6,17,4,2,2,B,G,b,y,10,10,102001,1,1,486.0535,176.6726
1,6,17,4,2,2,B,G,b,y,10,10,102001,1,3,469.5432,89.6182
1,6,17,4,2,2,B,G,b,y,10,10,102001,1,3,576.1098,136.1473
1,6,17,4,2,2,B,G,b,y,10,10,103001,1,3,420.0122,424.3274
1,6,17,4,2,2,B,G,b,y,10,10,103001,1,1,484.5525,335.772
1,6,17,4,2,2,B,G,b,y,10,10,103001,1,3,436.5225,109.1304
1,6,17,4,2,2,B,G,b,y,10,10,103001,1,1,498.061,70.106
1,6,17,4,2,2,B,G,b,y,10,10,104001,1,3,356.9728,326.7664
1,6,17,4,2,2,B,G,b,y,10,10,104001,1,1,484.5525,331.2692
1,6,17,4,2,2,B,G,b,y,10,10,104001,1,3,450.031,155.6595
1,6,17,4,2,2,B,G,b,y,10,10,104001,1,1,616.6351,124.1398
1,6,17,4,2,2,B,G,b,y,10,10,104001,1,3,631.6445,295.2467
1,6,17,4,2,2,B,G,b,y,10,10,105001,1,3,314.9465,172.1698
1,6,17,4,2,2,B,G,b,y,10,10,105001,1,3,433.5206,215.697
1,6,17,4,2,2,B,G,b,y,10,10,105001,1,1,610.6313,122.6388
1,6,17,4,2,2,B,G,b,y,10,10,105001,1,3,669.1679,299.7495
1,6,17,4,2,2,B,G,b,y,10,10,105001,1,1,486.0535,340.2749
1,6,17,4,2,2,B,G,b,y,10,10,106001,1,3,316.4475,235.2092
1,6,17,4,2,2,B,G,b,y,10,10,106001,1,3,403.5019,209.6932
1,6,17,4,2,2,B,G,b,y,10,10,106001,1,3,565.6032,199.1867
1,6,17,4,2,2,B,G,b,y,10,10,106001,1,1,606.1285,107.6295
1,6,17,4,2,2,B,G,b,y,10,10,106001,1,1,493.5582,341.7758
1,6,17,4,2,2,B,G,b,y,10,10,107001,1,3,531.0816,374.7964
1,6,17,4,2,2,B,G,b,y,10,10,107001,1,1,520.575,310.2561
1,6,17,4,2,2,B,G,b,y,10,10,107001,1,3,499.5619,157.1604
1,6,17,4,2,2,B,G,b,y,10,10,107001,1,3,535.5844,118.136
1,6,17,4,2,2,B,G,b,y,10,10,107001,1,1,610.6313,113.6332
