dummy,month,day,period,view,station,fgeno,mgeno,fcol,mcol,nf,nm,frame,something,sex,x,y
1,6,17,4,3,2,B,G,b,y,10,10,1,1,3,337.4606,260.7251
1,6,17,4,3,2,B,G,b,y,10,10,1,1,3,397.4981,259.2242
1,6,17,4,3,2,B,G,b,y,10,10,1,1,3,607.6295,146.6538
1,6,17,4,3,2,B,G,b,y,10,10,1,1,3,607.6295,280.2373
1,6,17,4,3,2,B,G,b,y,10,10,1,1,1,663.1642,326.7664
1,6,17,4,3,2,B,G,b,y,10,10,1001,1,1,481.5507,70.106
1,6,17,4,3,2,B,G,b,y,10,10,1001,1,3,484.5525,121.1379
1,6,17,4,3,2,B,G,b,y,10,10,1001,1,3,570.106,277.2355
1,6,17,4,3,2,B,G,b,y,10,10,1001,1,3,529.5807,298.2486
1,6,17,4,3,2,B,G,b,y,10,10,1001,1,3,313.4456,385.303
1,6,17,4,3,2,B,G,b,y,10,10,2001,1,3,307.4418,305.7533
1,6,17,4,3,2,B,G,b,y,10,10,2001,1,3,359.9747,292.2448
1,6,17,4,3,2,B,G,b,y,10,10,2001,1,1,411.0066,286.2411
1,6,17,4,3,2,B,G,b,y,10,10,2001,1,3,424.515,341.7758
1,6,17,4,3,2,B,G,b,y,10,10,2001,1,3,498.061,448.3424
1,6,17,4,3,2,B,G,b,y,10,10,3001,1,3,281.9259,335.772
1,6,17,4,3,2,B,G,b,y,10,10,3001,1,1,395.9972,394.3086
1,6,17,4,3,2,B,G,b,y,10,10,3001,1,3,395.9972,337.273
1,6,17,4,3,2,B,G,b,y,10,10,3001,1,3,478.5488,371.7946
1,6,17,4,3,2,B,G,b,y,10,10,3001,1,3,406.5038,304.2523
1,6,17,4,3,2,B,G,b,y,10,10,3001,1,3,501.0629,101.6257
1,6,17,4,3,2,B,G,b,y,10,10,4001,1,3,453.0328,388.3049
1,6,17,4,3,2,B,G,b,y,10,10,4001,1,3,562.6013,547.4043
1,6,17,4,3,2,B,G,b,y,10,10,4001,1,1,612.1323,358.2861
1,6,17,4,3,2,B,G,b,y,10,10,4001,1,1,543.0891,287.742
1,6,17,4,3,2,B,G,b,y,10,10,4001,1,3,558.0985,254.7214
1,6,17,4,3,2,B,G,b,y,10,10,4001,1,3,595.622,272.7326
1,6,17,4,3,2,B,G,b,y,10,10,4001,1,3,334.4587,103.1266
1,6,17,4,3,2,B,G,b,y,10,10,5001,1,3,358.4737,155.6595
1,6,17,4,3,2,B,G,b,y,10,10,5001,1,1,389.9934,166.166
1,6,17,4,3,2,B,G,b,y,10,10,5001,1,3,370.4812,193.1829
1,6,17,4,3,2,B,G,b,y,10,10,5001,1,3,541.5882,244.2148
1,6,17,4,3,2,B,G,b,y,10,10,5001,1,3,430.5188,445.3405
1,6,17,4,3,2,B,G,b,y,10,10,6001,1,1,259.4118,275.7345
1,6,17,4,3,2,B,G,b,y,10,10,6001,1,1,471.0441,352.2824
1,6,17,4,3,2,B,G,b,y,10,10,6001,1,3,595.622,332.7702
1,6,17,4,3,2,B,G,b,y,10,10,6001,1,3,588.1173,281.7383
1,6,17,4,3,2,B,G,b,y,10,10,7001,1,3,403.5019,362.7889
1,6,17,4,3,2,B,G,b,y,10,10,7001,1,3,601.6257,289.243
1,6,17,4,3,2,B,G,b,y,10,10,7001,1,1,565.6032,314.7589
1,6,17,4,3,2,B,G,b,y,10,10,7001,1,3,586.6163,437.8358
1,6,17,4,3,2,B,G,b,y,10,10,8001,1,1,335.9597,433.333
1,6,17,4,3,2,B,G,b,y,10,10,8001,1,1,340.4625,392.8077
1,6,17,4,3,2,B,G,b,y,10,10,8001,1,3,409.5056,353.7833
1,6,17,4,3,2,B,G,b,y,10,10,8001,1,3,472.545,331.2692
1,6,17,4,3,2,B,G,b,y,10,10,8001,1,3,601.6257,325.2655
1,6,17,4,3,2,B,G,b,y,10,10,9001,1,1,371.9822,509.8809
1,6,17,4,3,2,B,G,b,y,10,10,9001,1,3,510.0685,272.7326
1,6,17,4,3,2,B,G,b,y,10,10,9001,1,3,573.1079,262.2261
1,6,17,4,3,2,B,G,b,y,10,10,9001,1,3,429.0178,101.6257
1,6,17,4,3,2,B,G,b,y,10,10,10001,1,3,417.0103,71.6069
1,6,17,4,3,2,B,G,b,y,10,10,10001,1,3,576.1098,287.742
1,6,17,4,3,2,B,G,b,y,10,10,11001,1,3,364.4775,154.1585
1,6,17,4,3,2,B,G,b,y,10,10,11001,1,3,529.5807,266.7289
1,6,17,4,3,2,B,G,b,y,10,10,11001,1,1,483.0516,278.7364
1,6,17,4,3,2,B,G,b,y,10,10,11001,1,3,287.9296,413.8208
1,6,17,4,3,2,B,G,b,y,10,10,12001,1,1,495.0591,275.7345
1,6,17,4,3,2,B,G,b,y,10,10,12001,1,3,559.5994,283.2392
1,6,17,4,3,2,B,G,b,y,10,10,12001,1,3,537.0854,76.1098
1,6,17,4,3,2,B,G,b,y,10,10,13001,1,3,374.9841,245.7158
1,6,17,4,3,2,B,G,b,y,10,10,13001,1,3,568.6051,284.7402
1,6,17,4,3,2,B,G,b,y,10,10,13001,1,1,583.6144,301.2505
1,6,17,4,3,2,B,G,b,y,10,10,13001,1,3,607.6295,452.8452
1,6,17,4,3,2,B,G,b,y,10,10,14001,1,1,347.9672,305.7533
1,6,17,4,3,2,B,G,b,y,10,10,14001,1,3,350.969,203.6895
1,6,17,4,3,2,B,G,b,y,10,10,14001,1,3,576.1098,275.7345
1,6,17,4,3,2,B,G,b,y,10,10,14001,1,1,622.6388,247.2167
1,6,17,4,3,2,B,G,b,y,10,10,14001,1,3,565.6032,206.6914
1,6,17,4,3,2,B,G,b,y,10,10,15001,1,1,340.4625,148.1548
1,6,17,4,3,2,B,G,b,y,10,10,15001,1,3,383.9897,73.1079
1,6,17,4,3,2,B,G,b,y,10,10,15001,1,3,534.0835,317.7608
1,6,17,4,3,2,B,G,b,y,10,10,16001,1,1,320.9503,163.1642
1,6,17,4,3,2,B,G,b,y,10,10,16001,1,3,298.4362,185.6782
1,6,17,4,3,2,B,G,b,y,10,10,16001,1,3,190.3687,269.7308
1,6,17,4,3,2,B,G,b,y,10,10,16001,1,3,576.1098,284.7402
1,6,17,4,3,2,B,G,b,y,10,10,17001,1,1,334.4587,424.3274
1,6,17,4,3,2,B,G,b,y,10,10,17001,1,3,423.0141,299.7495
1,6,17,4,3,2,B,G,b,y,10,10,17001,1,3,570.106,284.7402
1,6,17,4,3,2,B,G,b,y,10,10,18001,1,3,573.1079,298.2486
1,6,17,4,3,2,B,G,b,y,10,10,18001,1,3,571.6069,250.2186
1,6,17,4,3,2,B,G,b,y,10,10,18001,1,1,453.0328,136.1473
1,6,17,4,3,2,B,G,b,y,10,10,19001,1,3,568.6051,290.7439
1,6,17,4,3,2,B,G,b,y,10,10,19001,1,1,573.1079,241.2129
1,6,17,4,3,2,B,G,b,y,10,10,19001,1,3,544.5901,224.7026
1,6,17,4,3,2,B,G,b,y,10,10,20001,1,3,585.1154,278.7364
1,6,17,4,3,2,B,G,b,y,10,10,20001,1,3,588.1173,314.7589
1,6,17,4,3,2,B,G,b,y,10,10,21001,1,3,525.0779,275.7345
1,6,17,4,3,2,B,G,b,y,10,10,21001,1,1,549.0929,293.7458
1,6,17,4,3,2,B,G,b,y,10,10,21001,1,3,574.6088,274.2336
1,6,17,4,3,2,B,G,b,y,10,10,21001,1,3,338.9615,476.8602
1,6,17,4,3,2,B,G,b,y,10,10,22001,1,3,577.6107,281.7383
1,6,17,4,3,2,B,G,b,y,10,10,22001,1,3,543.0891,103.1266
1,6,17,4,3,2,B,G,b,y,10,10,23001,1,1,445.5281,253.2205
1,6,17,4,3,2,B,G,b,y,10,10,23001,1,3,571.6069,247.2167
1,6,17,4,3,2,B,G,b,y,10,10,23001,1,3,567.1041,284.7402
1,6,17,4,3,2,B,G,b,y,10,10,24001,1,1,486.0535,302.7514
1,6,17,4,3,2,B,G,b,y,10,10,24001,1,3,529.5807,280.2373
1,6,17,4,3,2,B,G,b,y,10,10,24001,1,3,564.1023,284.7402
1,6,17,4,3,2,B,G,b,y,10,10,25001,1,3,537.0854,179.6745
1,6,17,4,3,2,B,G,b,y,10,10,25001,1,1,537.0854,244.2148
1,6,17,4,3,2,B,G,b,y,10,10,25001,1,3,558.0985,277.2355
1,6,17,4,3,2,B,G,b,y,10,10,26001,1,1,453.0328,299.7495
1,6,17,4,3,2,B,G,b,y,10,10,26001,1,3,531.0816,302.7514
1,6,17,4,3,2,B,G,b,y,10,10,26001,1,3,574.6088,277.2355
1,6,17,4,3,2,B,G,b,y,10,10,27001,1,3,526.5788,305.7533
1,6,17,4,3,2,B,G,b,y,10,10,27001,1,1,526.5788,268.2298
1,6,17,4,3,2,B,G,b,y,10,10,27001,1,3,579.1116,265.228
1,6,17,4,3,2,B,G,b,y,10,10,28001,1,3,562.6013,284.7402
1,6,17,4,3,2,B,G,b,y,10,10,28001,1,3,568.6051,259.2242
1,6,17,4,3,2,B,G,b,y,10,10,29001,1,3,555.0966,280.2373
1,6,17,4,3,2,B,G,b,y,10,10,29001,1,3,579.1116,274.2336
1,6,17,4,3,2,B,G,b,y,10,10,29001,1,1,510.0685,197.6857
1,6,17,4,3,2,B,G,b,y,10,10,30001,1,1,371.9822,494.8715
1,6,17,4,3,2,B,G,b,y,10,10,30001,1,3,549.0929,332.7702
1,6,17,4,3,2,B,G,b,y,10,10,30001,1,3,570.106,280.2373
1,6,17,4,3,2,B,G,b,y,10,10,31001,1,1,218.8865,278.7364
1,6,17,4,3,2,B,G,b,y,10,10,31001,1,3,571.6069,284.7402
1,6,17,4,3,2,B,G,b,y,10,10,31001,1,1,618.136,233.7083
1,6,17,4,3,2,B,G,b,y,10,10,31001,1,3,670.6689,305.7533
1,6,17,4,3,2,B,G,b,y,10,10,32001,1,3,433.5206,196.1848
1,6,17,4,3,2,B,G,b,y,10,10,32001,1,3,553.5957,314.7589
1,6,17,4,3,2,B,G,b,y,10,10,32001,1,1,609.1304,296.7477
1,6,17,4,3,2,B,G,b,y,10,10,33001,1,1,466.5413,124.1398
1,6,17,4,3,2,B,G,b,y,10,10,33001,1,3,559.5994,248.7176
1,6,17,4,3,2,B,G,b,y,10,10,33001,1,3,639.1492,238.2111
1,6,17,4,3,2,B,G,b,y,10,10,34001,1,3,535.5844,208.1923
1,6,17,4,3,2,B,G,b,y,10,10,34001,1,3,571.6069,250.2186
1,6,17,4,3,2,B,G,b,y,10,10,34001,1,3,607.6295,215.697
1,6,17,4,3,2,B,G,b,y,10,10,34001,1,1,266.9165,122.6388
1,6,17,4,3,2,B,G,b,y,10,10,35001,1,3,374.9841,518.8865
1,6,17,4,3,2,B,G,b,y,10,10,35001,1,1,392.9953,481.363
1,6,17,4,3,2,B,G,b,y,10,10,35001,1,1,460.5375,472.3574
1,6,17,4,3,2,B,G,b,y,10,10,35001,1,3,540.0872,262.2261
1,6,17,4,3,2,B,G,b,y,10,10,36001,1,1,555.0966,332.7702
1,6,17,4,3,2,B,G,b,y,10,10,36001,1,3,582.1135,296.7477
1,6,17,4,3,2,B,G,b,y,10,10,36001,1,3,631.6445,290.7439
1,6,17,4,3,2,B,G,b,y,10,10,37001,1,1,299.9371,176.6726
1,6,17,4,3,2,B,G,b,y,10,10,37001,1,1,316.4475,140.6501
1,6,17,4,3,2,B,G,b,y,10,10,37001,1,3,338.9615,115.1341
1,6,17,4,3,2,B,G,b,y,10,10,37001,1,3,510.0685,335.772
1,6,17,4,3,2,B,G,b,y,10,10,38001,1,1,296.9353,314.7589
1,6,17,4,3,2,B,G,b,y,10,10,38001,1,3,323.9522,190.1811
1,6,17,4,3,2,B,G,b,y,10,10,38001,1,1,556.5976,302.7514
1,6,17,4,3,2,B,G,b,y,10,10,38001,1,3,567.1041,253.2205
1,6,17,4,3,2,B,G,b,y,10,10,39001,1,3,400.5,365.7908
1,6,17,4,3,2,B,G,b,y,10,10,39001,1,3,167.8546,266.7289
1,6,17,4,3,2,B,G,b,y,10,10,39001,1,3,209.8809,247.2167
1,6,17,4,3,2,B,G,b,y,10,10,39001,1,1,218.8865,202.1886
1,6,17,4,3,2,B,G,b,y,10,10,40001,1,1,305.9409,361.288
1,6,17,4,3,2,B,G,b,y,10,10,40001,1,3,433.5206,389.8058
1,6,17,4,3,2,B,G,b,y,10,10,40001,1,3,412.5075,128.6426
1,6,17,4,3,2,B,G,b,y,10,10,41001,1,3,349.4681,386.8039
1,6,17,4,3,2,B,G,b,y,10,10,41001,1,1,353.9709,350.7814
1,6,17,4,3,2,B,G,b,y,10,10,41001,1,3,511.5694,394.3086
1,6,17,4,3,2,B,G,b,y,10,10,42001,1,1,196.3724,319.2617
1,6,17,4,3,2,B,G,b,y,10,10,42001,1,3,576.1098,301.2505
1,6,17,4,3,2,B,G,b,y,10,10,43001,1,3,436.5225,470.8565
1,6,17,4,3,2,B,G,b,y,10,10,43001,1,1,505.5657,401.8133
1,6,17,4,3,2,B,G,b,y,10,10,43001,1,3,570.106,251.7195
1,6,17,4,3,2,B,G,b,y,10,10,44001,1,1,513.0704,530.894
1,6,17,4,3,2,B,G,b,y,10,10,44001,1,3,415.5094,266.7289
1,6,17,4,3,2,B,G,b,y,10,10,44001,1,3,513.0704,151.1567
1,6,17,4,3,2,B,G,b,y,10,10,45001,1,3,520.575,164.6651
1,6,17,4,3,2,B,G,b,y,10,10,45001,1,1,480.0497,145.1529
1,6,17,4,3,2,B,G,b,y,10,10,45001,1,3,513.0704,88.1173
1,6,17,4,3,2,B,G,b,y,10,10,46001,1,3,367.4794,119.637
1,6,17,4,3,2,B,G,b,y,10,10,46001,1,1,534.0835,235.2092
1,6,17,4,3,2,B,G,b,y,10,10,46001,1,3,564.1023,176.6726
1,6,17,4,3,2,B,G,b,y,10,10,47001,1,3,516.0722,343.2767
1,6,17,4,3,2,B,G,b,y,10,10,47001,1,3,588.1173,295.2467
1,6,17,4,3,2,B,G,b,y,10,10,47001,1,1,619.637,194.6839
1,6,17,4,3,2,B,G,b,y,10,10,48001,1,1,287.9296,109.1304
1,6,17,4,3,2,B,G,b,y,10,10,48001,1,3,552.0947,190.1811
1,6,17,4,3,2,B,G,b,y,10,10,48001,1,3,540.0872,523.3893
1,6,17,4,3,2,B,G,b,y,10,10,49001,1,1,316.4475,119.637
1,6,17,4,3,2,B,G,b,y,10,10,49001,1,3,439.5244,76.1098
1,6,17,4,3,2,B,G,b,y,10,10,49001,1,3,529.5807,308.7552
1,6,17,4,3,2,B,G,b,y,10,10,50001,1,1,335.9597,209.6932
1,6,17,4,3,2,B,G,b,y,10,10,50001,1,3,368.9803,205.1904
1,6,17,4,3,2,B,G,b,y,10,10,50001,1,3,374.9841,119.637
1,6,17,4,3,2,B,G,b,y,10,10,51001,1,1,266.9165,178.1735
1,6,17,4,3,2,B,G,b,y,10,10,51001,1,3,334.4587,130.1435
1,6,17,4,3,2,B,G,b,y,10,10,51001,1,3,666.166,314.7589
1,6,17,4,3,2,B,G,b,y,10,10,52001,1,3,337.4606,119.637
1,6,17,4,3,2,B,G,b,y,10,10,52001,1,3,514.5713,142.151
1,6,17,4,3,2,B,G,b,y,10,10,52001,1,1,229.3931,395.8096
1,6,17,4,3,2,B,G,b,y,10,10,53001,1,3,507.0666,275.7345
1,6,17,4,3,2,B,G,b,y,10,10,53001,1,1,546.091,292.2448
1,6,17,4,3,2,B,G,b,y,10,10,53001,1,3,292.4325,422.8265
1,6,17,4,3,2,B,G,b,y,10,10,54001,1,1,256.4099,347.7795
1,6,17,4,3,2,B,G,b,y,10,10,54001,1,3,499.5619,397.3105
1,6,17,4,3,2,B,G,b,y,10,10,54001,1,3,537.0854,211.1942
1,6,17,4,3,2,B,G,b,y,10,10,55001,1,3,241.4006,374.7964
1,6,17,4,3,2,B,G,b,y,10,10,55001,1,1,430.5188,427.3293
1,6,17,4,3,2,B,G,b,y,10,10,55001,1,3,457.5356,317.7608
1,6,17,4,3,2,B,G,b,y,10,10,55001,1,3,639.1492,299.7495
1,6,17,4,3,2,B,G,b,y,10,10,56001,1,3,316.4475,98.6238
1,6,17,4,3,2,B,G,b,y,10,10,56001,1,1,335.9597,127.1417
1,6,17,4,3,2,B,G,b,y,10,10,56001,1,3,475.5469,262.2261
1,6,17,4,3,2,B,G,b,y,10,10,56001,1,3,586.6163,161.6632
1,6,17,4,3,2,B,G,b,y,10,10,57001,1,1,286.4287,170.6689
1,6,17,4,3,2,B,G,b,y,10,10,57001,1,3,537.0854,317.7608
1,6,17,4,3,2,B,G,b,y,10,10,57001,1,3,598.6238,272.7326
1,6,17,4,3,2,B,G,b,y,10,10,58001,1,1,355.4719,503.8771
1,6,17,4,3,2,B,G,b,y,10,10,58001,1,3,411.0066,523.3893
1,6,17,4,3,2,B,G,b,y,10,10,58001,1,3,553.5957,290.7439
1,6,17,4,3,2,B,G,b,y,10,10,59001,1,1,340.4625,458.849
1,6,17,4,3,2,B,G,b,y,10,10,59001,1,3,586.6163,292.2448
1,6,17,4,3,2,B,G,b,y,10,10,60001,1,3,426.0159,367.2917
1,6,17,4,3,2,B,G,b,y,10,10,60001,1,1,468.0422,332.7702
1,6,17,4,3,2,B,G,b,y,10,10,61001,1,3,402.0009,377.7983
1,6,17,4,3,2,B,G,b,y,10,10,61001,1,1,389.9934,434.834
1,6,17,4,3,2,B,G,b,y,10,10,62001,1,3,391.4944,346.2786
1,6,17,4,3,2,B,G,b,y,10,10,62001,1,1,353.9709,331.2692
1,6,17,4,3,2,B,G,b,y,10,10,63001,1,1,328.455,502.3762
1,6,17,4,3,2,B,G,b,y,10,10,63001,1,3,328.455,221.7008
1,6,17,4,3,2,B,G,b,y,10,10,64001,1,1,415.5094,58.0985
1,6,17,4,3,2,B,G,b,y,10,10,64001,1,3,462.0385,64.1023
1,6,17,4,3,2,B,G,b,y,10,10,65001,1,3,340.4625,122.6388
1,6,17,4,3,2,B,G,b,y,10,10,65001,1,1,337.4606,421.3255
1,6,17,4,3,2,B,G,b,y,10,10,66001,1,3,226.3912,290.7439
1,6,17,4,3,2,B,G,b,y,10,10,66001,1,1,383.9897,482.864
1,6,17,4,3,2,B,G,b,y,10,10,66001,1,3,600.1248,311.757
1,6,17,4,3,2,B,G,b,y,10,10,67001,1,3,609.1304,322.2636
1,6,17,4,3,2,B,G,b,y,10,10,69001,1,3,462.0385,155.6595
1,6,17,4,3,2,B,G,b,y,10,10,69001,1,1,501.0629,166.166
1,6,17,4,3,2,B,G,b,y,10,10,69001,1,3,355.4719,118.136
1,6,17,4,3,2,B,G,b,y,10,10,70001,1,1,353.9709,97.1229
1,6,17,4,3,2,B,G,b,y,10,10,70001,1,3,379.4869,121.1379
1,6,17,4,3,2,B,G,b,y,10,10,70001,1,3,573.1079,508.3799
1,6,17,4,3,2,B,G,b,y,10,10,71001,1,1,310.4437,115.1341
1,6,17,4,3,2,B,G,b,y,10,10,71001,1,3,344.9653,155.6595
1,6,17,4,3,2,B,G,b,y,10,10,71001,1,3,272.9203,265.228
1,6,17,4,3,2,B,G,b,y,10,10,72001,1,1,332.9578,446.8415
1,6,17,4,3,2,B,G,b,y,10,10,72001,1,3,498.061,128.6426
1,6,17,4,3,2,B,G,b,y,10,10,73001,1,1,541.5882,397.3105
1,6,17,4,3,2,B,G,b,y,10,10,74001,1,1,538.5863,344.7777
1,6,17,4,3,2,B,G,b,y,10,10,75001,1,1,414.0084,68.6051
1,6,17,4,3,2,B,G,b,y,10,10,76001,1,1,370.4812,547.4043
1,6,17,4,3,2,B,G,b,y,10,10,76001,1,3,415.5094,518.8865
1,6,17,4,3,2,B,G,b,y,10,10,78001,1,1,305.9409,160.1623
1,6,17,4,3,2,B,G,b,y,10,10,78001,1,3,320.9503,82.1135
1,6,17,4,3,2,B,G,b,y,10,10,79001,1,1,239.8996,238.2111
1,6,17,4,3,2,B,G,b,y,10,10,80001,1,1,338.9615,470.8565
1,6,17,4,3,2,B,G,b,y,10,10,80001,1,3,540.0872,526.3912
1,6,17,4,3,2,B,G,b,y,10,10,81001,1,1,377.9859,533.8959
1,6,17,4,3,2,B,G,b,y,10,10,81001,1,3,462.0385,511.3818
1,6,17,4,3,2,B,G,b,y,10,10,82001,1,1,248.9053,290.7439
1,6,17,4,3,2,B,G,b,y,10,10,82001,1,3,245.9034,262.2261
1,6,17,4,3,2,B,G,b,y,10,10,83001,1,1,238.3987,332.7702
1,6,17,4,3,2,B,G,b,y,10,10,83001,1,3,595.622,283.2392
1,6,17,4,3,2,B,G,b,y,10,10,84001,1,1,311.9447,190.1811
1,6,17,4,3,2,B,G,b,y,10,10,84001,1,3,447.0291,373.2955
1,6,17,4,3,2,B,G,b,y,10,10,85001,1,3,380.9878,373.2955
1,6,17,4,3,2,B,G,b,y,10,10,85001,1,1,640.6501,283.2392
1,6,17,4,3,2,B,G,b,y,10,10,86001,1,3,429.0178,338.7739
1,6,17,4,3,2,B,G,b,y,10,10,86001,1,1,475.5469,319.2617
1,6,17,4,3,2,B,G,b,y,10,10,87001,1,3,421.5131,61.1004
1,6,17,4,3,2,B,G,b,y,10,10,89001,1,1,251.9071,154.1585
1,6,17,4,3,2,B,G,b,y,10,10,90001,1,1,224.8902,290.7439
1,6,17,4,3,2,B,G,b,y,10,10,91001,1,1,218.8865,284.7402
1,6,17,4,3,2,B,G,b,y,10,10,92001,1,1,245.9034,335.772
1,6,17,4,3,2,B,G,b,y,10,10,92001,1,3,486.0535,484.3649
1,6,17,4,3,2,B,G,b,y,10,10,93001,1,1,438.0235,374.7964
1,6,17,4,3,2,B,G,b,y,10,10,93001,1,3,505.5657,383.8021
1,6,17,4,3,2,B,G,b,y,10,10,94001,1,1,538.5863,302.7514
1,6,17,4,3,2,B,G,b,y,10,10,94001,1,3,565.6032,277.2355
1,6,17,4,3,2,B,G,b,y,10,10,95001,1,3,489.0553,128.6426
1,6,17,4,3,2,B,G,b,y,10,10,98001,1,1,565.6032,259.2242
1,6,17,4,3,2,B,G,b,y,10,10,99001,1,1,317.9484,442.3386
1,6,17,4,3,2,B,G,b,y,10,10,100001,1,1,310.4437,439.3368
1,6,17,4,3,2,B,G,b,y,10,10,101001,1,1,311.9447,440.8377
1,6,17,4,3,2,B,G,b,y,10,10,102001,1,1,337.4606,458.849
1,6,17,4,3,2,B,G,b,y,10,10,103001,1,1,350.969,454.3462
1,6,17,4,3,2,B,G,b,y,10,10,104001,1,1,347.9672,455.8471
1,6,17,4,3,2,B,G,b,y,10,10,105001,1,1,350.969,458.849
1,6,17,4,3,2,B,G,b,y,10,10,106001,1,3,496.56,331.2692
1,6,17,4,3,2,B,G,b,y,10,10,106001,1,1,347.9672,455.8471
1,6,17,4,3,2,B,G,b,y,10,10,107001,1,1,350.969,458.849
1,6,17,4,3,2,B,G,b,y,10,10,107001,1,3,498.061,329.7683
