dummy,month,day,period,view,station,fgeno,mgeno,fcol,mcol,nf,nm,frame,something,sex,x,y
1,9,23,1,2,2,C,E,b,y,15,5,15001,1,3,637.0812,336.0556
1,9,23,1,2,2,C,E,b,y,15,5,16001,1,3,638.4487,457.765
1,9,23,1,2,2,C,E,b,y,15,5,17001,1,3,337.594,106.312
1,9,23,1,2,2,C,E,b,y,15,5,18001,1,3,604.2607,496.0556
1,9,23,1,2,2,C,E,b,y,15,5,19001,1,3,280.1581,140.5
1,9,23,1,2,2,C,E,b,y,15,5,20001,1,3,165.2863,340.1581
1,9,23,1,2,2,C,E,b,y,15,5,21001,1,3,691.7821,233.4915
1,9,23,1,2,2,C,E,b,y,15,5,22001,1,3,181.6966,162.3803
1,9,23,1,2,2,C,E,b,y,15,5,23001,1,3,538.6197,479.6453
1,9,23,1,2,2,C,E,b,y,15,5,24001,1,3,524.9444,57.0812
1,9,23,1,2,2,C,E,b,y,15,5,25001,1,3,236.3974,121.3547
1,9,23,1,2,2,C,E,b,y,15,5,26001,1,3,405.9701,517.9359
1,9,23,1,2,2,C,E,b,y,15,5,29001,1,3,393.6624,520.6709
1,9,23,1,2,2,C,E,b,y,15,5,30001,1,3,596.0556,192.4658
1,9,23,1,2,2,C,E,b,y,15,5,31001,1,3,322.5513,393.4915
1,9,23,1,2,2,C,E,b,y,15,5,32001,1,3,600.1581,173.3205
1,9,23,1,2,2,C,E,b,y,15,5,33001,1,3,318.4487,275.8846
1,9,23,1,2,2,C,E,b,y,15,5,34001,1,3,393.6624,165.1154
1,9,23,1,2,2,C,E,b,y,15,5,35001,1,3,646.6538,442.7222
1,9,23,1,2,2,C,E,b,y,15,5,36001,1,3,266.4829,132.2949
1,9,23,1,2,2,C,E,b,y,15,5,37001,1,3,561.8675,83.0641
1,9,23,1,2,2,C,E,b,y,15,5,38001,1,3,498.9615,180.1581
1,9,23,1,2,2,C,E,b,y,15,5,39001,1,3,404.6026,92.6368
1,9,23,1,2,2,C,E,b,y,15,5,40001,1,3,392.2949,65.2863
1,9,23,1,2,2,C,E,b,y,15,5,41001,1,3,274.688,96.7393
1,9,23,1,2,2,C,E,b,y,15,5,42001,1,3,250.0726,293.6624
1,9,23,1,2,2,C,E,b,y,15,5,43001,1,3,464.7735,427.6795
1,9,23,1,2,2,C,E,b,y,15,5,43001,1,3,523.5769,47.5085
1,9,23,1,2,2,C,E,b,y,15,5,44001,1,3,317.0812,526.141
1,9,23,1,2,2,C,E,b,y,15,5,44001,1,3,611.0983,99.4744
1,9,23,1,2,2,C,E,b,y,15,5,45001,1,3,263.7479,195.2009
1,9,23,1,2,2,C,E,b,y,15,5,45001,1,3,553.6624,89.9017
1,9,23,1,2,2,C,E,b,y,15,5,45001,1,3,523.5769,520.6709
1,9,23,1,2,2,C,E,b,y,15,5,46001,1,3,421.0128,553.4915
1,9,23,1,2,2,C,E,b,y,15,5,46001,1,3,533.1496,519.3034
1,9,23,1,2,2,C,E,b,y,15,5,46001,1,3,559.1325,81.6966
1,9,23,1,2,2,C,E,b,y,15,5,47001,1,3,367.6795,251.2692
1,9,23,1,2,2,C,E,b,y,15,5,47001,1,3,489.3889,77.594
1,9,23,1,2,2,C,E,b,y,15,5,47001,1,3,542.7222,541.1838
1,9,23,1,2,2,C,E,b,y,15,5,48001,1,3,245.9701,445.4573
1,9,23,1,2,2,C,E,b,y,15,5,48001,1,3,366.312,245.7991
1,9,23,1,2,2,C,E,b,y,15,5,48001,1,3,377.2521,200.6709
1,9,23,1,2,2,C,E,b,y,15,5,49001,1,3,237.765,136.3974
1,9,23,1,2,2,C,E,b,y,15,5,49001,1,3,471.6111,132.2949
1,9,23,1,2,2,C,E,b,y,15,5,49001,1,3,523.5769,293.6624
1,9,23,1,2,2,C,E,b,y,15,5,50001,1,3,169.3889,243.0641
1,9,23,1,2,2,C,E,b,y,15,5,50001,1,3,370.4145,204.7735
1,9,23,1,2,2,C,E,b,y,15,5,50001,1,3,285.6282,461.8675
1,9,23,1,2,2,C,E,b,y,15,5,51001,1,3,385.4573,152.8077
1,9,23,1,2,2,C,E,b,y,15,5,51001,1,3,704.0897,385.2863
1,9,23,1,2,2,C,E,b,y,15,5,52001,1,3,559.1325,63.9188
1,9,23,1,2,2,C,E,b,y,15,5,52001,1,3,589.2179,207.5085
1,9,23,1,2,2,C,E,b,y,15,5,52001,1,3,663.0641,204.7735
1,9,23,1,2,2,C,E,b,y,15,5,53001,1,3,263.7479,185.6282
1,9,23,1,2,2,C,E,b,y,15,5,53001,1,3,489.3889,367.5085
1,9,23,1,2,2,C,E,b,y,15,5,54001,1,3,477.0812,154.1752
1,9,23,1,2,2,C,E,b,y,15,5,54001,1,3,470.2436,394.859
1,9,23,1,2,2,C,E,b,y,15,5,55001,1,3,613.8333,271.7821
1,9,23,1,2,2,C,E,b,y,15,5,55001,1,3,514.0043,486.4829
1,9,23,1,2,2,C,E,b,y,15,5,56001,1,3,284.2607,147.3376
1,9,23,1,2,2,C,E,b,y,15,5,56001,1,3,400.5,166.4829
1,9,23,1,2,2,C,E,b,y,15,5,57001,1,3,203.5769,245.7991
1,9,23,1,2,2,C,E,b,y,15,5,57001,1,3,351.2692,98.1068
1,9,23,1,2,2,C,E,b,y,15,5,58001,1,3,228.1923,475.5427
1,9,23,1,2,2,C,E,b,y,15,5,58001,1,3,445.6282,289.5598
1,9,23,1,2,2,C,E,b,y,15,5,59001,1,3,492.1239,526.141
1,9,23,1,2,2,C,E,b,y,15,5,59001,1,3,392.2949,61.1838
1,9,23,1,2,2,C,E,b,y,15,5,60001,1,3,555.0299,456.3974
1,9,23,1,2,2,C,E,b,y,15,5,60001,1,3,642.5513,424.9444
1,9,23,1,2,2,C,E,b,y,15,5,61001,1,3,478.4487,77.594
1,9,23,1,2,2,C,E,b,y,15,5,61001,1,3,448.3632,542.5513
1,9,23,1,2,2,C,E,b,y,15,5,62001,1,3,291.0983,87.1667
1,9,23,1,2,2,C,E,b,y,15,5,62001,1,1,598.7906,104.9444
1,9,23,1,2,2,C,E,b,y,15,5,62001,1,3,716.3974,267.6795
1,9,23,1,2,2,C,E,b,y,15,5,63001,1,3,277.4231,163.7479
1,9,23,1,2,2,C,E,b,y,15,5,63001,1,3,683.5769,177.4231
1,9,23,1,2,2,C,E,b,y,15,5,63001,1,1,706.8248,192.4658
1,9,23,1,2,2,C,E,b,y,15,5,64001,1,3,351.2692,342.8932
1,9,23,1,2,2,C,E,b,y,15,5,64001,1,1,318.4487,322.3803
1,9,23,1,2,2,C,E,b,y,15,5,65001,1,3,504.4316,412.6368
1,9,23,1,2,2,C,E,b,y,15,5,66001,1,3,418.2778,46.141
1,9,23,1,2,2,C,E,b,y,15,5,66001,1,1,514.0043,74.859
1,9,23,1,2,2,C,E,b,y,15,5,67001,1,3,410.0726,423.5769
1,9,23,1,2,2,C,E,b,y,15,5,67001,1,3,658.9615,456.3974
1,9,23,1,2,2,C,E,b,y,15,5,68001,1,3,388.1923,65.2863
1,9,23,1,2,2,C,E,b,y,15,5,68001,1,2,430.5855,25.6282
1,9,23,1,2,2,C,E,b,y,15,5,69001,1,3,282.8932,130.9274
1,9,23,1,2,2,C,E,b,y,15,5,69001,1,3,412.8077,537.0812
1,9,23,1,2,2,C,E,b,y,15,5,70001,1,3,214.5171,139.1325
1,9,23,1,2,2,C,E,b,y,15,5,70001,1,3,291.0983,89.9017
1,9,23,1,2,2,C,E,b,y,15,5,71001,1,3,348.5342,184.2607
1,9,23,1,2,2,C,E,b,y,15,5,71001,1,3,683.5769,126.8248
1,9,23,1,2,2,C,E,b,y,15,5,72001,1,3,590.5855,519.3034
1,9,23,1,2,2,C,E,b,y,15,5,73001,1,3,587.8504,126.8248
1,9,23,1,2,2,C,E,b,y,15,5,74001,1,3,273.3205,81.6966
1,9,23,1,2,2,C,E,b,y,15,5,75001,1,3,530.4145,133.6624
1,9,23,1,2,2,C,E,b,y,15,5,76001,1,3,706.8248,256.7393
1,9,23,1,2,2,C,E,b,y,15,5,77001,1,3,709.5598,256.7393
1,9,23,1,2,2,C,E,b,y,15,5,78001,1,3,650.7564,135.0299
1,9,23,1,2,2,C,E,b,y,15,5,79001,1,3,352.6368,43.406
1,9,23,1,2,2,C,E,b,y,15,5,80001,1,3,211.7821,333.3205
1,9,23,1,2,2,C,E,b,y,15,5,81001,1,3,596.0556,78.9615
1,9,23,1,2,2,C,E,b,y,15,5,90001,1,3,575.5427,515.2009
1,9,23,1,2,2,C,E,b,y,15,5,92001,1,3,293.8333,122.7222
1,9,23,1,2,2,C,E,b,y,15,5,93001,1,3,177.594,329.2179
1,9,23,1,2,2,C,E,b,y,15,5,94001,1,3,538.6197,489.2179
1,9,23,1,2,2,C,E,b,y,15,5,94001,1,1,514.0043,461.8675
1,9,23,1,2,2,C,E,b,y,15,5,95001,1,3,687.6795,359.3034
1,9,23,1,2,2,C,E,b,y,15,5,95001,1,1,732.8077,326.4829
1,9,23,1,2,2,C,E,b,y,15,5,96001,1,3,299.3034,527.5085
1,9,23,1,2,2,C,E,b,y,15,5,96001,1,1,285.6282,487.8504
1,9,23,1,2,2,C,E,b,y,15,5,97001,1,3,224.0897,479.6453
1,9,23,1,2,2,C,E,b,y,15,5,97001,1,1,224.0897,426.312
1,9,23,1,2,2,C,E,b,y,15,5,98001,1,3,508.5342,109.047
1,9,23,1,2,2,C,E,b,y,15,5,98001,1,1,535.8846,173.3205
1,9,23,1,2,2,C,E,b,y,15,5,99001,1,3,356.7393,81.6966
1,9,23,1,2,2,C,E,b,y,15,5,99001,1,1,452.4658,39.3034
1,9,23,1,2,2,C,E,b,y,15,5,100001,1,3,266.4829,439.9872
1,9,23,1,2,2,C,E,b,y,15,5,100001,1,1,213.1496,419.4744
1,9,23,1,2,2,C,E,b,y,15,5,105001,1,3,511.2692,434.5171
1,9,23,1,2,2,C,E,b,y,15,5,106001,1,3,195.3718,344.2607
1,9,23,1,2,2,C,E,b,y,15,5,107001,1,3,185.7991,370.2436
