dummy,month,day,period,view,station,fgeno,mgeno,fcol,mcol,nf,nm,frame,something,sex,x,y
1,11,7,1,3,2,A,G,b,y,5,15,1,1,1,335.9597,491.8696
1,11,7,1,3,2,A,G,b,y,5,15,1,1,1,423.0141,478.3612
1,11,7,1,3,2,A,G,b,y,5,15,1001,1,1,402.0009,310.2561
1,11,7,1,3,2,A,G,b,y,5,15,2001,1,1,316.4475,241.2129
1,11,7,1,3,2,A,G,b,y,5,15,3001,1,1,637.6482,407.8171
1,11,7,1,3,2,A,G,b,y,5,15,4001,1,1,535.5844,347.7795
1,11,7,1,3,2,A,G,b,y,5,15,5001,1,1,439.5244,55.0966
1,11,7,1,3,2,A,G,b,y,5,15,5001,1,1,705.1904,269.7308
1,11,7,1,3,2,A,G,b,y,5,15,6001,1,1,540.0872,185.6782
1,11,7,1,3,2,A,G,b,y,5,15,7001,1,1,206.879,230.7064
1,11,7,1,3,2,A,G,b,y,5,15,8001,1,1,558.0985,439.3368
1,11,7,1,3,2,A,G,b,y,5,15,9001,1,1,323.9522,464.8527
1,11,7,1,3,2,A,G,b,y,5,15,9001,1,3,349.4681,442.3386
1,11,7,1,3,2,A,G,b,y,5,15,9001,1,3,543.0891,58.0985
1,11,7,1,3,2,A,G,b,y,5,15,10001,1,1,328.455,83.6144
1,11,7,1,3,2,A,G,b,y,5,15,10001,1,3,420.0122,127.1417
1,11,7,1,3,2,A,G,b,y,5,15,10001,1,1,646.6538,220.1998
1,11,7,1,3,2,A,G,b,y,5,15,10001,1,3,679.6745,229.2054
1,11,7,1,3,2,A,G,b,y,5,15,11001,1,1,618.136,152.6576
1,11,7,1,3,2,A,G,b,y,5,15,11001,1,3,568.6051,118.136
1,11,7,1,3,2,A,G,b,y,5,15,11001,1,3,567.1041,488.8677
1,11,7,1,3,2,A,G,b,y,5,15,12001,1,1,293.9334,460.3499
1,11,7,1,3,2,A,G,b,y,5,15,12001,1,1,232.3949,416.8227
1,11,7,1,3,2,A,G,b,y,5,15,12001,1,3,274.4212,418.3236
1,11,7,1,3,2,A,G,b,y,5,15,12001,1,3,385.4906,220.1998
1,11,7,1,3,2,A,G,b,y,5,15,13001,1,3,364.4775,176.6726
1,11,7,1,3,2,A,G,b,y,5,15,13001,1,3,469.5432,133.1454
1,11,7,1,3,2,A,G,b,y,5,15,13001,1,1,462.0385,79.1116
1,11,7,1,3,2,A,G,b,y,5,15,14001,1,3,281.9259,404.8152
1,11,7,1,3,2,A,G,b,y,5,15,14001,1,1,296.9353,415.3218
1,11,7,1,3,2,A,G,b,y,5,15,14001,1,3,463.5394,110.6313
1,11,7,1,3,2,A,G,b,y,5,15,15001,1,3,392.9953,160.1623
1,11,7,1,3,2,A,G,b,y,5,15,15001,1,3,534.0835,91.1191
1,11,7,1,3,2,A,G,b,y,5,15,15001,1,1,397.4981,115.1341
1,11,7,1,3,2,A,G,b,y,5,15,15001,1,3,453.0328,412.3199
1,11,7,1,3,2,A,G,b,y,5,15,16001,1,3,411.0066,398.8114
1,11,7,1,3,2,A,G,b,y,5,15,16001,1,3,335.9597,451.3443
1,11,7,1,3,2,A,G,b,y,5,15,16001,1,1,325.4531,400.3124
1,11,7,1,3,2,A,G,b,y,5,15,16001,1,1,514.5713,94.121
1,11,7,1,3,2,A,G,b,y,5,15,16001,1,3,441.0253,95.622
1,11,7,1,3,2,A,G,b,y,5,15,17001,1,3,215.8846,338.7739
1,11,7,1,3,2,A,G,b,y,5,15,18001,1,1,241.4006,461.8508
1,11,7,1,3,2,A,G,b,y,5,15,19001,1,1,197.8734,389.8058
1,11,7,1,3,2,A,G,b,y,5,15,20001,1,1,326.954,406.3161
1,11,7,1,3,2,A,G,b,y,5,15,21001,1,1,624.1398,310.2561
1,11,7,1,3,2,A,G,b,y,5,15,21001,1,1,642.151,475.3593
1,11,7,1,3,2,A,G,b,y,5,15,24001,1,3,395.9972,479.8621
1,11,7,1,3,2,A,G,b,y,5,15,25001,1,3,507.0666,251.7195
1,11,7,1,3,2,A,G,b,y,5,15,25001,1,1,526.5788,299.7495
1,11,7,1,3,2,A,G,b,y,5,15,26001,1,1,281.9259,370.2936
1,11,7,1,3,2,A,G,b,y,5,15,26001,1,1,275.9221,287.742
1,11,7,1,3,2,A,G,b,y,5,15,26001,1,3,325.4531,305.7533
1,11,7,1,3,2,A,G,b,y,5,15,26001,1,1,427.5169,434.834
1,11,7,1,3,2,A,G,b,y,5,15,26001,1,1,531.0816,500.8752
1,11,7,1,3,2,A,G,b,y,5,15,27001,1,3,408.0047,116.6351
1,11,7,1,3,2,A,G,b,y,5,15,27001,1,1,496.56,419.8246
1,11,7,1,3,2,A,G,b,y,5,15,27001,1,1,532.5826,443.8396
1,11,7,1,3,2,A,G,b,y,5,15,27001,1,1,663.1642,418.3236
1,11,7,1,3,2,A,G,b,y,5,15,27001,1,3,681.1754,377.7983
1,11,7,1,3,2,A,G,b,y,5,15,28001,1,1,353.9709,512.8827
1,11,7,1,3,2,A,G,b,y,5,15,28001,1,1,424.515,313.258
1,11,7,1,3,2,A,G,b,y,5,15,28001,1,3,277.4231,328.2674
1,11,7,1,3,2,A,G,b,y,5,15,28001,1,3,308.9428,253.2205
1,11,7,1,3,2,A,G,b,y,5,15,28001,1,3,447.0291,104.6276
1,11,7,1,3,2,A,G,b,y,5,15,29001,1,1,411.0066,265.228
1,11,7,1,3,2,A,G,b,y,5,15,29001,1,3,226.3912,290.7439
1,11,7,1,3,2,A,G,b,y,5,15,29001,1,3,376.485,230.7064
1,11,7,1,3,2,A,G,b,y,5,15,29001,1,3,374.9841,182.6764
1,11,7,1,3,2,A,G,b,y,5,15,29001,1,1,371.9822,127.1417
1,11,7,1,3,2,A,G,b,y,5,15,29001,1,1,328.455,160.1623
1,11,7,1,3,2,A,G,b,y,5,15,29001,1,2,380.9878,151.1567
1,11,7,1,3,2,A,G,b,y,5,15,30001,1,1,272.9203,445.3405
1,11,7,1,3,2,A,G,b,y,5,15,30001,1,3,229.3931,415.3218
1,11,7,1,3,2,A,G,b,y,5,15,30001,1,1,468.0422,313.258
1,11,7,1,3,2,A,G,b,y,5,15,30001,1,1,565.6032,85.1154
1,11,7,1,3,2,A,G,b,y,5,15,30001,1,3,525.0779,110.6313
1,11,7,1,3,2,A,G,b,y,5,15,30001,1,3,442.5263,119.637
1,11,7,1,3,2,A,G,b,y,5,15,30001,1,3,310.4437,107.6295
1,11,7,1,3,2,A,G,b,y,5,15,31001,1,3,469.5432,478.3612
1,11,7,1,3,2,A,G,b,y,5,15,31001,1,1,490.5563,521.8884
1,11,7,1,3,2,A,G,b,y,5,15,32001,1,3,481.5507,116.6351
1,11,7,1,3,2,A,G,b,y,5,15,32001,1,1,678.1735,272.7326
1,11,7,1,3,2,A,G,b,y,5,15,32001,1,1,242.9015,131.6445
1,11,7,1,3,2,A,G,b,y,5,15,32001,1,1,368.9803,436.3349
1,11,7,1,3,2,A,G,b,y,5,15,33001,1,1,320.9503,206.6914
1,11,7,1,3,2,A,G,b,y,5,15,33001,1,1,373.4831,50.5938
1,11,7,1,3,2,A,G,b,y,5,15,33001,1,1,486.0535,422.8265
1,11,7,1,3,2,A,G,b,y,5,15,33001,1,1,580.6126,403.3143
1,11,7,1,3,2,A,G,b,y,5,15,33001,1,3,630.1435,382.3011
1,11,7,1,3,2,A,G,b,y,5,15,34001,1,1,319.4493,209.6932
1,11,7,1,3,2,A,G,b,y,5,15,34001,1,1,361.4756,358.2861
1,11,7,1,3,2,A,G,b,y,5,15,35001,1,1,474.046,160.1623
1,11,7,1,3,2,A,G,b,y,5,15,35001,1,1,526.5788,157.1604
1,11,7,1,3,2,A,G,b,y,5,15,35001,1,1,577.6107,278.7364
1,11,7,1,3,2,A,G,b,y,5,15,36001,1,1,514.5713,347.7795
1,11,7,1,3,2,A,G,b,y,5,15,36001,1,3,676.6726,208.1923
1,11,7,1,3,2,A,G,b,y,5,15,36001,1,1,559.5994,88.1173
1,11,7,1,3,2,A,G,b,y,5,15,36001,1,1,492.0572,130.1435
1,11,7,1,3,2,A,G,b,y,5,15,36001,1,3,469.5432,118.136
1,11,7,1,3,2,A,G,b,y,5,15,36001,1,1,426.0159,157.1604
1,11,7,1,3,2,A,G,b,y,5,15,36001,1,1,265.4156,362.7889
1,11,7,1,3,2,A,G,b,y,5,15,37001,1,3,414.0084,227.7045
1,11,7,1,3,2,A,G,b,y,5,15,37001,1,1,430.5188,115.1341
1,11,7,1,3,2,A,G,b,y,5,15,37001,1,1,661.6632,143.652
1,11,7,1,3,2,A,G,b,y,5,15,38001,1,1,292.4325,290.7439
1,11,7,1,3,2,A,G,b,y,5,15,38001,1,3,447.0291,305.7533
1,11,7,1,3,2,A,G,b,y,5,15,38001,1,1,535.5844,484.3649
1,11,7,1,3,2,A,G,b,y,5,15,38001,1,1,631.6445,496.3724
1,11,7,1,3,2,A,G,b,y,5,15,39001,1,3,385.4906,203.6895
1,11,7,1,3,2,A,G,b,y,5,15,39001,1,3,415.5094,350.7814
1,11,7,1,3,2,A,G,b,y,5,15,39001,1,1,487.5544,301.2505
1,11,7,1,3,2,A,G,b,y,5,15,39001,1,1,570.106,295.2467
1,11,7,1,3,2,A,G,b,y,5,15,40001,1,3,429.0178,127.1417
1,11,7,1,3,2,A,G,b,y,5,15,40001,1,1,477.0478,82.1135
1,11,7,1,3,2,A,G,b,y,5,15,40001,1,1,489.0553,17.5732
1,11,7,1,3,2,A,G,b,y,5,15,41001,1,1,450.031,130.1435
1,11,7,1,3,2,A,G,b,y,5,15,41001,1,1,292.4325,275.7345
1,11,7,1,3,2,A,G,b,y,5,15,41001,1,1,262.4137,283.2392
1,11,7,1,3,2,A,G,b,y,5,15,41001,1,3,284.9278,287.742
1,11,7,1,3,2,A,G,b,y,5,15,41001,1,1,517.5732,515.8846
1,11,7,1,3,2,A,G,b,y,5,15,42001,1,1,340.4625,520.3874
1,11,7,1,3,2,A,G,b,y,5,15,42001,1,3,368.9803,490.3687
1,11,7,1,3,2,A,G,b,y,5,15,43001,1,1,453.0328,481.363
1,11,7,1,3,2,A,G,b,y,5,15,43001,1,3,395.9972,122.6388
1,11,7,1,3,2,A,G,b,y,5,15,44001,1,3,603.1266,91.1191
1,11,7,1,3,2,A,G,b,y,5,15,44001,1,1,634.6463,85.1154
1,11,7,1,3,2,A,G,b,y,5,15,44001,1,1,618.136,53.5957
1,11,7,1,3,2,A,G,b,y,5,15,45001,1,1,355.4719,77.6107
1,11,7,1,3,2,A,G,b,y,5,15,45001,1,1,278.924,457.348
1,11,7,1,3,2,A,G,b,y,5,15,46001,1,1,496.56,182.6764
1,11,7,1,3,2,A,G,b,y,5,15,46001,1,1,224.8902,416.8227
1,11,7,1,3,2,A,G,b,y,5,15,47001,1,1,340.4625,157.1604
1,11,7,1,3,2,A,G,b,y,5,15,48001,1,1,472.545,110.6313
1,11,7,1,3,2,A,G,b,y,5,15,48001,1,1,392.9953,136.1473
1,11,7,1,3,2,A,G,b,y,5,15,48001,1,3,429.0178,134.6463
1,11,7,1,3,2,A,G,b,y,5,15,48001,1,1,582.1135,412.3199
1,11,7,1,3,2,A,G,b,y,5,15,49001,1,3,361.4756,244.2148
1,11,7,1,3,2,A,G,b,y,5,15,49001,1,1,373.4831,347.7795
1,11,7,1,3,2,A,G,b,y,5,15,49001,1,1,338.9615,370.2936
1,11,7,1,3,2,A,G,b,y,5,15,49001,1,1,453.0328,397.3105
1,11,7,1,3,2,A,G,b,y,5,15,49001,1,48,457.5356,400.3124
1,11,7,1,3,2,A,G,b,y,5,15,50001,1,1,226.3912,187.1792
1,11,7,1,3,2,A,G,b,y,5,15,50001,1,1,364.4775,221.7008
1,11,7,1,3,2,A,G,b,y,5,15,50001,1,3,392.9953,125.6407
1,11,7,1,3,2,A,G,b,y,5,15,50001,1,1,406.5038,85.1154
1,11,7,1,3,2,A,G,b,y,5,15,50001,1,1,427.5169,113.6332
1,11,7,1,3,2,A,G,b,y,5,15,50001,1,1,592.6201,68.6051
1,11,7,1,3,2,A,G,b,y,5,15,51001,1,3,341.9634,146.6538
1,11,7,1,3,2,A,G,b,y,5,15,51001,1,1,699.1867,253.2205
1,11,7,1,3,2,A,G,b,y,5,15,51001,1,1,371.9822,376.2974
1,11,7,1,3,2,A,G,b,y,5,15,51001,1,1,341.9634,422.8265
1,11,7,1,3,2,A,G,b,y,5,15,51001,1,1,395.9972,517.3856
1,11,7,1,3,2,A,G,b,y,5,15,51001,1,1,541.5882,493.3705
1,11,7,1,3,2,A,G,b,y,5,15,52001,1,1,567.1041,73.1079
1,11,7,1,3,2,A,G,b,y,5,15,52001,1,1,408.0047,172.1698
1,11,7,1,3,2,A,G,b,y,5,15,52001,1,3,380.9878,196.1848
1,11,7,1,3,2,A,G,b,y,5,15,52001,1,1,415.5094,230.7064
1,11,7,1,3,2,A,G,b,y,5,15,52001,1,1,564.1023,562.4137
1,11,7,1,3,2,A,G,b,y,5,15,53001,1,3,465.0403,104.6276
1,11,7,1,3,2,A,G,b,y,5,15,53001,1,3,388.4925,239.712
1,11,7,1,3,2,A,G,b,y,5,15,53001,1,1,328.455,211.1942
1,11,7,1,3,2,A,G,b,y,5,15,53001,1,1,573.1079,401.8133
1,11,7,1,3,2,A,G,b,y,5,15,54001,1,1,561.1004,142.151
1,11,7,1,3,2,A,G,b,y,5,15,54001,1,1,334.4587,401.8133
1,11,7,1,3,2,A,G,b,y,5,15,54001,1,1,540.0872,469.3555
1,11,7,1,3,2,A,G,b,y,5,15,55001,1,3,260.9128,155.6595
1,11,7,1,3,2,A,G,b,y,5,15,55001,1,1,314.9465,239.712
1,11,7,1,3,2,A,G,b,y,5,15,55001,1,1,317.9484,199.1867
1,11,7,1,3,2,A,G,b,y,5,15,55001,1,1,391.4944,220.1998
1,11,7,1,3,2,A,G,b,y,5,15,57001,1,1,553.5957,62.6013
1,11,7,1,3,2,A,G,b,y,5,15,57001,1,3,526.5788,110.6313
1,11,7,1,3,2,A,G,b,y,5,15,57001,1,1,335.9597,517.3856
1,11,7,1,3,2,A,G,b,y,5,15,58001,1,1,432.0197,119.637
1,11,7,1,3,2,A,G,b,y,5,15,58001,1,1,469.5432,68.6051
1,11,7,1,3,2,A,G,b,y,5,15,59001,1,3,444.0272,122.6388
1,11,7,1,3,2,A,G,b,y,5,15,60001,1,1,571.6069,293.7458
1,11,7,1,3,2,A,G,b,y,5,15,60001,1,1,675.1717,196.1848
1,11,7,1,3,2,A,G,b,y,5,15,61001,1,1,495.0591,91.1191
1,11,7,1,3,2,A,G,b,y,5,15,61001,1,1,223.3893,262.2261
1,11,7,1,3,2,A,G,b,y,5,15,61001,1,1,397.4981,517.3856
1,11,7,1,3,2,A,G,b,y,5,15,61001,1,1,649.6557,487.3668
1,11,7,1,3,2,A,G,b,y,5,15,62001,1,3,468.0422,535.3968
1,11,7,1,3,2,A,G,b,y,5,15,62001,1,1,601.6257,256.2223
1,11,7,1,3,2,A,G,b,y,5,15,62001,1,1,439.5244,113.6332
1,11,7,1,3,2,A,G,b,y,5,15,62001,1,1,361.4756,187.1792
1,11,7,1,3,2,A,G,b,y,5,15,62001,1,1,272.9203,179.6745
1,11,7,1,3,2,A,G,b,y,5,15,63001,1,1,492.0572,137.6482
1,11,7,1,3,2,A,G,b,y,5,15,63001,1,1,487.5544,110.6313
1,11,7,1,3,2,A,G,b,y,5,15,63001,1,3,451.5319,125.6407
1,11,7,1,3,2,A,G,b,y,5,15,63001,1,3,481.5507,493.3705
1,11,7,1,3,2,A,G,b,y,5,15,64001,1,1,544.5901,167.667
1,11,7,1,3,2,A,G,b,y,5,15,64001,1,1,286.4287,131.6445
1,11,7,1,3,2,A,G,b,y,5,15,64001,1,1,325.4531,478.3612
1,11,7,1,3,2,A,G,b,y,5,15,65001,1,1,326.954,88.1173
1,11,7,1,3,2,A,G,b,y,5,15,65001,1,3,481.5507,158.6614
1,11,7,1,3,2,A,G,b,y,5,15,65001,1,1,624.1398,119.637
1,11,7,1,3,2,A,G,b,y,5,15,65001,1,1,468.0422,308.7552
1,11,7,1,3,2,A,G,b,y,5,15,65001,1,1,510.0685,323.7645
1,11,7,1,3,2,A,G,b,y,5,15,66001,1,1,499.5619,316.2598
1,11,7,1,3,2,A,G,b,y,5,15,67001,1,1,346.4662,232.2073
1,11,7,1,3,2,A,G,b,y,5,15,67001,1,1,257.9109,335.772
1,11,7,1,3,2,A,G,b,y,5,15,67001,1,3,266.9165,280.2373
1,11,7,1,3,2,A,G,b,y,5,15,67001,1,1,636.1473,490.3687
1,11,7,1,3,2,A,G,b,y,5,15,68001,1,1,456.0347,250.2186
1,11,7,1,3,2,A,G,b,y,5,15,68001,1,1,347.9672,188.6801
1,11,7,1,3,2,A,G,b,y,5,15,68001,1,1,382.4887,523.3893
1,11,7,1,3,2,A,G,b,y,5,15,68001,1,1,417.0103,536.8977
1,11,7,1,3,2,A,G,b,y,5,15,69001,1,1,444.0272,137.6482
1,11,7,1,3,2,A,G,b,y,5,15,69001,1,1,447.0291,98.6238
1,11,7,1,3,2,A,G,b,y,5,15,70001,1,1,531.0816,404.8152
1,11,7,1,3,2,A,G,b,y,5,15,71001,1,1,456.0347,43.0891
1,11,7,1,3,2,A,G,b,y,5,15,72001,1,1,269.9184,422.8265
1,11,7,1,3,2,A,G,b,y,5,15,74001,1,1,568.6051,184.1773
1,11,7,1,3,2,A,G,b,y,5,15,77001,1,1,474.046,107.6295
1,11,7,1,3,2,A,G,b,y,5,15,78001,1,1,529.5807,293.7458
1,11,7,1,3,2,A,G,b,y,5,15,78001,1,1,586.6163,343.2767
1,11,7,1,3,2,A,G,b,y,5,15,78001,1,3,290.9315,484.3649
1,11,7,1,3,2,A,G,b,y,5,15,79001,1,1,355.4719,116.6351
1,11,7,1,3,2,A,G,b,y,5,15,79001,1,1,367.4794,74.6088
1,11,7,1,3,2,A,G,b,y,5,15,79001,1,3,379.4869,112.1323
1,11,7,1,3,2,A,G,b,y,5,15,80001,1,1,628.6426,232.2073
1,11,7,1,3,2,A,G,b,y,5,15,80001,1,1,732.2073,242.7139
1,11,7,1,3,2,A,G,b,y,5,15,81001,1,1,250.4062,337.273
1,11,7,1,3,2,A,G,b,y,5,15,81001,1,1,253.4081,272.7326
1,11,7,1,3,2,A,G,b,y,5,15,81001,1,1,238.3987,460.3499
1,11,7,1,3,2,A,G,b,y,5,15,82001,1,1,402.0009,412.3199
1,11,7,1,3,2,A,G,b,y,5,15,82001,1,1,311.9447,149.6557
1,11,7,1,3,2,A,G,b,y,5,15,83001,1,1,445.5281,490.3687
1,11,7,1,3,2,A,G,b,y,5,15,84001,1,1,534.0835,148.1548
1,11,7,1,3,2,A,G,b,y,5,15,84001,1,1,696.1848,302.7514
1,11,7,1,3,2,A,G,b,y,5,15,85001,1,1,657.1604,365.7908
1,11,7,1,3,2,A,G,b,y,5,15,85001,1,3,634.6463,362.7889
1,11,7,1,3,2,A,G,b,y,5,15,86001,1,1,320.9503,532.3949
1,11,7,1,3,2,A,G,b,y,5,15,87001,1,1,450.031,35.5844
1,11,7,1,3,2,A,G,b,y,5,15,88001,1,1,444.0272,122.6388
1,11,7,1,3,2,A,G,b,y,5,15,88001,1,3,450.031,170.6689
1,11,7,1,3,2,A,G,b,y,5,15,89001,1,1,544.5901,242.7139
1,11,7,1,3,2,A,G,b,y,5,15,89001,1,1,507.0666,518.8865
1,11,7,1,3,2,A,G,b,y,5,15,89001,1,3,484.5525,515.8846
1,11,7,1,3,2,A,G,b,y,5,15,90001,1,1,495.0591,89.6182
1,11,7,1,3,2,A,G,b,y,5,15,91001,1,1,272.9203,133.1454
1,11,7,1,3,2,A,G,b,y,5,15,92001,1,1,265.4156,319.2617
1,11,7,1,3,2,A,G,b,y,5,15,92001,1,1,244.4024,358.2861
1,11,7,1,3,2,A,G,b,y,5,15,93001,1,1,586.6163,115.1341
1,11,7,1,3,2,A,G,b,y,5,15,94001,1,1,334.4587,515.8846
1,11,7,1,3,2,A,G,b,y,5,15,95001,1,1,227.8921,200.6876
1,11,7,1,3,2,A,G,b,y,5,15,96001,1,1,483.0516,113.6332
1,11,7,1,3,2,A,G,b,y,5,15,96001,1,3,426.0159,113.6332
1,11,7,1,3,2,A,G,b,y,5,15,96001,1,48,409.5056,106.1285
1,11,7,1,3,2,A,G,b,y,5,15,98001,1,1,598.6238,394.3086
1,11,7,1,3,2,A,G,b,y,5,15,101001,1,1,263.9146,304.2523
1,11,7,1,3,2,A,G,b,y,5,15,102001,1,1,406.5038,218.6989
1,11,7,1,3,2,A,G,b,y,5,15,102001,1,1,432.0197,124.1398
1,11,7,1,3,2,A,G,b,y,5,15,103001,1,1,526.5788,140.6501
1,11,7,1,3,2,A,G,b,y,5,15,104001,1,1,411.0066,169.1679
1,11,7,1,3,2,A,G,b,y,5,15,104001,1,1,406.5038,208.1923
1,11,7,1,3,2,A,G,b,y,5,15,104001,1,1,332.9578,128.6426
1,11,7,1,3,2,A,G,b,y,5,15,104001,1,1,337.4606,310.2561
1,11,7,1,3,2,A,G,b,y,5,15,104001,1,3,382.4887,296.7477
1,11,7,1,3,2,A,G,b,y,5,15,104001,1,1,314.9465,511.3818
1,11,7,1,3,2,A,G,b,y,5,15,105001,1,1,444.0272,314.7589
1,11,7,1,3,2,A,G,b,y,5,15,105001,1,1,395.9972,391.3068
1,11,7,1,3,2,A,G,b,y,5,15,105001,1,1,362.9765,388.3049
1,11,7,1,3,2,A,G,b,y,5,15,105001,1,1,335.9597,388.3049
1,11,7,1,3,2,A,G,b,y,5,15,105001,1,1,334.4587,365.7908
1,11,7,1,3,2,A,G,b,y,5,15,105001,1,3,311.9447,365.7908
1,11,7,1,3,2,A,G,b,y,5,15,106001,1,1,447.0291,8.5675
1,11,7,1,3,2,A,G,b,y,5,15,106001,1,1,691.682,184.1773
1,11,7,1,3,2,A,G,b,y,5,15,107001,1,3,511.5694,229.2054
1,11,7,1,3,2,A,G,b,y,5,15,107001,1,1,417.0103,263.727
1,11,7,1,3,2,A,G,b,y,5,15,107001,1,3,383.9897,214.1961
1,11,7,1,3,2,A,G,b,y,5,15,107001,1,3,358.4737,227.7045
1,11,7,1,3,2,A,G,b,y,5,15,107001,1,1,355.4719,209.6932
1,11,7,1,3,2,A,G,b,y,5,15,107001,1,1,371.9822,185.6782
1,11,7,1,3,2,A,G,b,y,5,15,107001,1,1,265.4156,128.6426
