dummy,month,day,period,view,station,fgeno,mgeno,fcol,mcol,nf,nm,frame,something,sex,x,y
1,6,20,4,2,1,B,G,r,g,5,15,1,1,1,309,57
1,6,20,4,2,1,B,G,r,g,5,15,1,1,1,257,71
1,6,20,4,2,1,B,G,r,g,5,15,1,1,1,455,252
1,6,20,4,2,1,B,G,r,g,5,15,1,1,1,311,339
1,6,20,4,2,1,B,G,r,g,5,15,1,1,1,197,315
1,6,20,4,2,1,B,G,r,g,5,15,1,1,1,41,288
1,6,20,4,2,1,B,G,r,g,5,15,1,1,3,327,145
1,6,20,4,2,1,B,G,r,g,5,15,1001,1,1,432,302
1,6,20,4,2,1,B,G,r,g,5,15,1001,1,1,417,244
1,6,20,4,2,1,B,G,r,g,5,15,1001,1,3,315,229
1,6,20,4,2,1,B,G,r,g,5,15,1001,1,1,341,104
1,6,20,4,2,1,B,G,r,g,5,15,1001,1,1,226,84
1,6,20,4,2,1,B,G,r,g,5,15,1001,1,1,69,272
1,6,20,4,2,1,B,G,r,g,5,15,1001,1,1,157,391
1,6,20,4,2,1,B,G,r,g,5,15,2001,1,1,454,334
1,6,20,4,2,1,B,G,r,g,5,15,2001,1,1,190,432
1,6,20,4,2,1,B,G,r,g,5,15,2001,1,1,33,258
1,6,20,4,2,1,B,G,r,g,5,15,2001,1,3,354,262
1,6,20,4,2,1,B,G,r,g,5,15,2001,1,1,323,189
1,6,20,4,2,1,B,G,r,g,5,15,2001,1,1,353,100
1,6,20,4,2,1,B,G,r,g,5,15,2001,1,1,223,91
1,6,20,4,2,1,B,G,r,g,5,15,3001,1,1,472,360
1,6,20,4,2,1,B,G,r,g,5,15,3001,1,1,184,450
1,6,20,4,2,1,B,G,r,g,5,15,3001,1,1,42,253
1,6,20,4,2,1,B,G,r,g,5,15,3001,1,3,436,265
1,6,20,4,2,1,B,G,r,g,5,15,3001,1,1,328,102
1,6,20,4,2,1,B,G,r,g,5,15,3001,1,1,212,139
1,6,20,4,2,1,B,G,r,g,5,15,3001,1,1,176,111
1,6,20,4,2,1,B,G,r,g,5,15,4001,1,1,480,416
1,6,20,4,2,1,B,G,r,g,5,15,4001,1,3,415,295
1,6,20,4,2,1,B,G,r,g,5,15,4001,1,1,206,465
1,6,20,4,2,1,B,G,r,g,5,15,4001,1,1,41,256
1,6,20,4,2,1,B,G,r,g,5,15,4001,1,1,166,196
1,6,20,4,2,1,B,G,r,g,5,15,4001,1,1,171,103
1,6,20,4,2,1,B,G,r,g,5,15,4001,1,1,392,137
1,6,20,4,2,1,B,G,r,g,5,15,5001,1,1,483,446
1,6,20,4,2,1,B,G,r,g,5,15,5001,1,1,209,462
1,6,20,4,2,1,B,G,r,g,5,15,5001,1,3,294,331
1,6,20,4,2,1,B,G,r,g,5,15,5001,1,1,349,200
1,6,20,4,2,1,B,G,r,g,5,15,5001,1,1,112,243
1,6,20,4,2,1,B,G,r,g,5,15,5001,1,1,93,228
1,6,20,4,2,1,B,G,r,g,5,15,5001,1,1,171,114
1,6,20,4,2,1,B,G,r,g,5,15,6001,1,1,465,445
1,6,20,4,2,1,B,G,r,g,5,15,6001,1,1,205,468
1,6,20,4,2,1,B,G,r,g,5,15,6001,1,3,318,347
1,6,20,4,2,1,B,G,r,g,5,15,6001,1,1,99,316
1,6,20,4,2,1,B,G,r,g,5,15,6001,1,1,88,222
1,6,20,4,2,1,B,G,r,g,5,15,6001,1,1,324,174
1,6,20,4,2,1,B,G,r,g,5,15,6001,1,1,143,115
1,6,20,4,2,1,B,G,r,g,5,15,7001,1,1,465,444
1,6,20,4,2,1,B,G,r,g,5,15,7001,1,1,211,461
1,6,20,4,2,1,B,G,r,g,5,15,7001,1,3,289,396
1,6,20,4,2,1,B,G,r,g,5,15,7001,1,1,82,369
1,6,20,4,2,1,B,G,r,g,5,15,7001,1,1,126,139
1,6,20,4,2,1,B,G,r,g,5,15,7001,1,1,132,164
1,6,20,4,2,1,B,G,r,g,5,15,7001,1,1,265,135
1,6,20,4,2,1,B,G,r,g,5,15,8001,1,1,465,445
1,6,20,4,2,1,B,G,r,g,5,15,8001,1,3,341,323
1,6,20,4,2,1,B,G,r,g,5,15,8001,1,1,272,416
1,6,20,4,2,1,B,G,r,g,5,15,8001,1,1,134,411
1,6,20,4,2,1,B,G,r,g,5,15,8001,1,1,143,336
1,6,20,4,2,1,B,G,r,g,5,15,8001,1,1,211,102
1,6,20,4,2,1,B,G,r,g,5,15,9001,1,1,140,81
1,6,20,4,2,1,B,G,r,g,5,15,9001,1,1,252,138
1,6,20,4,2,1,B,G,r,g,5,15,9001,1,1,58,320
1,6,20,4,2,1,B,G,r,g,5,15,9001,1,1,135,410
1,6,20,4,2,1,B,G,r,g,5,15,9001,1,1,452,446
1,6,20,4,2,1,B,G,r,g,5,15,9001,1,1,393,396
1,6,20,4,2,1,B,G,r,g,5,15,9001,1,3,425,276
1,6,20,4,2,1,B,G,r,g,5,15,10001,1,1,127,167
1,6,20,4,2,1,B,G,r,g,5,15,10001,1,1,181,181
1,6,20,4,2,1,B,G,r,g,5,15,10001,1,1,296,149
1,6,20,4,2,1,B,G,r,g,5,15,10001,1,1,162,439
1,6,20,4,2,1,B,G,r,g,5,15,10001,1,1,457,444
1,6,20,4,2,1,B,G,r,g,5,15,10001,1,1,459,337
1,6,20,4,2,1,B,G,r,g,5,15,10001,1,3,384,232
1,6,20,4,2,1,B,G,r,g,5,15,11001,1,1,228,132
1,6,20,4,2,1,B,G,r,g,5,15,11001,1,1,262,169
1,6,20,4,2,1,B,G,r,g,5,15,11001,1,1,396,227
1,6,20,4,2,1,B,G,r,g,5,15,11001,1,3,282,226
1,6,20,4,2,1,B,G,r,g,5,15,11001,1,1,434,397
1,6,20,4,2,1,B,G,r,g,5,15,11001,1,1,432,448
1,6,20,4,2,1,B,G,r,g,5,15,11001,1,1,212,476
1,6,20,4,2,1,B,G,r,g,5,15,12001,1,1,234,139
1,6,20,4,2,1,B,G,r,g,5,15,12001,1,1,278,157
1,6,20,4,2,1,B,G,r,g,5,15,12001,1,1,428,252
1,6,20,4,2,1,B,G,r,g,5,15,12001,1,1,401,409
1,6,20,4,2,1,B,G,r,g,5,15,12001,1,1,419,445
1,6,20,4,2,1,B,G,r,g,5,15,12001,1,1,400,444
1,6,20,4,2,1,B,G,r,g,5,15,12001,1,3,200,294
1,6,20,4,2,1,B,G,r,g,5,15,13001,1,1,348,490
1,6,20,4,2,1,B,G,r,g,5,15,13001,1,1,385,451
1,6,20,4,2,1,B,G,r,g,5,15,13001,1,1,351,448
1,6,20,4,2,1,B,G,r,g,5,15,13001,1,1,406,387
1,6,20,4,2,1,B,G,r,g,5,15,13001,1,3,110,326
1,6,20,4,2,1,B,G,r,g,5,15,13001,1,1,233,162
1,6,20,4,2,1,B,G,r,g,5,15,13001,1,1,303,126
1,6,20,4,2,1,B,G,r,g,5,15,14001,1,1,400,494
1,6,20,4,2,1,B,G,r,g,5,15,14001,1,1,253,447
1,6,20,4,2,1,B,G,r,g,5,15,14001,1,1,299,391
1,6,20,4,2,1,B,G,r,g,5,15,14001,1,1,288,341
1,6,20,4,2,1,B,G,r,g,5,15,14001,1,1,317,287
1,6,20,4,2,1,B,G,r,g,5,15,14001,1,3,177,185
1,6,20,4,2,1,B,G,r,g,5,15,14001,1,1,317,173
1,6,20,4,2,1,B,G,r,g,5,15,15001,1,1,394,499
1,6,20,4,2,1,B,G,r,g,5,15,15001,1,1,254,412
1,6,20,4,2,1,B,G,r,g,5,15,15001,1,1,318,286
1,6,20,4,2,1,B,G,r,g,5,15,15001,1,1,230,249
1,6,20,4,2,1,B,G,r,g,5,15,15001,1,3,312,208
1,6,20,4,2,1,B,G,r,g,5,15,15001,1,1,240,156
1,6,20,4,2,1,B,G,r,g,5,15,15001,1,1,270,140
1,6,20,4,2,1,B,G,r,g,5,15,16001,1,1,382,505
1,6,20,4,2,1,B,G,r,g,5,15,16001,1,1,246,432
1,6,20,4,2,1,B,G,r,g,5,15,16001,1,1,314,288
1,6,20,4,2,1,B,G,r,g,5,15,16001,1,3,360,272
1,6,20,4,2,1,B,G,r,g,5,15,16001,1,1,199,262
1,6,20,4,2,1,B,G,r,g,5,15,16001,1,1,275,82
1,6,20,4,2,1,B,G,r,g,5,15,16001,1,1,221,61
1,6,20,4,2,1,B,G,r,g,5,15,17001,1,1,382,447
1,6,20,4,2,1,B,G,r,g,5,15,17001,1,1,299,464
1,6,20,4,2,1,B,G,r,g,5,15,17001,1,1,249,434
1,6,20,4,2,1,B,G,r,g,5,15,17001,1,3,408,273
1,6,20,4,2,1,B,G,r,g,5,15,17001,1,1,272,233
1,6,20,4,2,1,B,G,r,g,5,15,17001,1,1,126,296
1,6,20,4,2,1,B,G,r,g,5,15,17001,1,1,227,71
1,6,20,4,2,1,B,G,r,g,5,15,17001,1,1,335,124
1,6,20,4,2,1,B,G,r,g,5,15,18001,1,1,202,488
1,6,20,4,2,1,B,G,r,g,5,15,18001,1,1,250,430
1,6,20,4,2,1,B,G,r,g,5,15,18001,1,1,143,294
1,6,20,4,2,1,B,G,r,g,5,15,18001,1,1,400,284
1,6,20,4,2,1,B,G,r,g,5,15,18001,1,3,427,266
1,6,20,4,2,1,B,G,r,g,5,15,18001,1,1,373,234
1,6,20,4,2,1,B,G,r,g,5,15,18001,1,1,388,106
1,6,20,4,2,1,B,G,r,g,5,15,18001,1,1,324,119
1,6,20,4,2,1,B,G,r,g,5,15,19001,1,1,218,491
1,6,20,4,2,1,B,G,r,g,5,15,19001,1,1,235,425
1,6,20,4,2,1,B,G,r,g,5,15,19001,1,1,133,298
1,6,20,4,2,1,B,G,r,g,5,15,19001,1,1,388,318
1,6,20,4,2,1,B,G,r,g,5,15,19001,1,3,430,273
1,6,20,4,2,1,B,G,r,g,5,15,19001,1,1,449,204
1,6,20,4,2,1,B,G,r,g,5,15,19001,1,1,290,148
1,6,20,4,2,1,B,G,r,g,5,15,19001,1,1,304,46
1,6,20,4,2,1,B,G,r,g,5,15,20001,1,1,129,295
1,6,20,4,2,1,B,G,r,g,5,15,20001,1,1,195,456
1,6,20,4,2,1,B,G,r,g,5,15,20001,1,1,157,486
1,6,20,4,2,1,B,G,r,g,5,15,20001,1,1,410,350
1,6,20,4,2,1,B,G,r,g,5,15,20001,1,3,435,269
1,6,20,4,2,1,B,G,r,g,5,15,20001,1,1,480,218
1,6,20,4,2,1,B,G,r,g,5,15,20001,1,1,240,87
1,6,20,4,2,1,B,G,r,g,5,15,20001,1,1,337,37
1,6,20,4,2,1,B,G,r,g,5,15,21001,1,1,137,304
1,6,20,4,2,1,B,G,r,g,5,15,21001,1,1,140,420
1,6,20,4,2,1,B,G,r,g,5,15,21001,1,1,192,438
1,6,20,4,2,1,B,G,r,g,5,15,21001,1,1,438,349
1,6,20,4,2,1,B,G,r,g,5,15,21001,1,3,432,267
1,6,20,4,2,1,B,G,r,g,5,15,21001,1,1,400,110
1,6,20,4,2,1,B,G,r,g,5,15,21001,1,1,409,67
1,6,20,4,2,1,B,G,r,g,5,15,21001,1,1,204,95
1,6,20,4,2,1,B,G,r,g,5,15,22001,1,1,130,414
1,6,20,4,2,1,B,G,r,g,5,15,22001,1,1,191,471
1,6,20,4,2,1,B,G,r,g,5,15,22001,1,1,136,311
1,6,20,4,2,1,B,G,r,g,5,15,22001,1,1,442,272
1,6,20,4,2,1,B,G,r,g,5,15,22001,1,3,376,255
1,6,20,4,2,1,B,G,r,g,5,15,22001,1,1,317,105
1,6,20,4,2,1,B,G,r,g,5,15,22001,1,1,173,113
1,6,20,4,2,1,B,G,r,g,5,15,23001,1,1,180,479
1,6,20,4,2,1,B,G,r,g,5,15,23001,1,1,166,407
1,6,20,4,2,1,B,G,r,g,5,15,23001,1,1,173,381
1,6,20,4,2,1,B,G,r,g,5,15,23001,1,3,406,266
1,6,20,4,2,1,B,G,r,g,5,15,23001,1,1,374,240
1,6,20,4,2,1,B,G,r,g,5,15,23001,1,1,168,112
1,6,20,4,2,1,B,G,r,g,5,15,23001,1,1,233,30
1,6,20,4,2,1,B,G,r,g,5,15,24001,1,1,191,495
1,6,20,4,2,1,B,G,r,g,5,15,24001,1,1,250,435
1,6,20,4,2,1,B,G,r,g,5,15,24001,1,1,352,314
1,6,20,4,2,1,B,G,r,g,5,15,24001,1,3,413,257
1,6,20,4,2,1,B,G,r,g,5,15,24001,1,1,166,168
1,6,20,4,2,1,B,G,r,g,5,15,24001,1,1,75,148
1,6,20,4,2,1,B,G,r,g,5,15,24001,1,1,233,32
1,6,20,4,2,1,B,G,r,g,5,15,25001,1,1,189,490
1,6,20,4,2,1,B,G,r,g,5,15,25001,1,1,210,460
1,6,20,4,2,1,B,G,r,g,5,15,25001,1,1,336,328
1,6,20,4,2,1,B,G,r,g,5,15,25001,1,1,116,318
1,6,20,4,2,1,B,G,r,g,5,15,25001,1,1,159,219
1,6,20,4,2,1,B,G,r,g,5,15,25001,1,3,419,195
1,6,20,4,2,1,B,G,r,g,5,15,26001,1,1,190,480
1,6,20,4,2,1,B,G,r,g,5,15,26001,1,1,149,437
1,6,20,4,2,1,B,G,r,g,5,15,26001,1,1,183,411
1,6,20,4,2,1,B,G,r,g,5,15,26001,1,1,320,355
1,6,20,4,2,1,B,G,r,g,5,15,26001,1,1,168,323
1,6,20,4,2,1,B,G,r,g,5,15,26001,1,3,436,97
1,6,20,4,2,1,B,G,r,g,5,15,27001,1,1,195,491
1,6,20,4,2,1,B,G,r,g,5,15,27001,1,1,160,434
1,6,20,4,2,1,B,G,r,g,5,15,27001,1,1,200,389
1,6,20,4,2,1,B,G,r,g,5,15,27001,1,1,285,389
1,6,20,4,2,1,B,G,r,g,5,15,27001,1,1,112,281
1,6,20,4,2,1,B,G,r,g,5,15,27001,1,3,416,269
1,6,20,4,2,1,B,G,r,g,5,15,28001,1,3,512,168
1,6,20,4,2,1,B,G,r,g,5,15,28001,1,1,151,133
1,6,20,4,2,1,B,G,r,g,5,15,28001,1,1,153,435
1,6,20,4,2,1,B,G,r,g,5,15,28001,1,1,202,490
1,6,20,4,2,1,B,G,r,g,5,15,28001,1,1,206,436
1,6,20,4,2,1,B,G,r,g,5,15,28001,1,1,241,419
1,6,20,4,2,1,B,G,r,g,5,15,29001,1,1,230,505
1,6,20,4,2,1,B,G,r,g,5,15,29001,1,1,371,435
1,6,20,4,2,1,B,G,r,g,5,15,29001,1,1,156,464
1,6,20,4,2,1,B,G,r,g,5,15,29001,1,1,119,303
1,6,20,4,2,1,B,G,r,g,5,15,29001,1,3,366,276
1,6,20,4,2,1,B,G,r,g,5,15,29001,1,1,150,123
1,6,20,4,2,1,B,G,r,g,5,15,30001,1,1,222,503
1,6,20,4,2,1,B,G,r,g,5,15,30001,1,1,137,393
1,6,20,4,2,1,B,G,r,g,5,15,30001,1,3,345,359
1,6,20,4,2,1,B,G,r,g,5,15,30001,1,1,390,317
1,6,20,4,2,1,B,G,r,g,5,15,30001,1,1,287,241
1,6,20,4,2,1,B,G,r,g,5,15,30001,1,1,143,125
1,6,20,4,2,1,B,G,r,g,5,15,31001,1,1,267,517
1,6,20,4,2,1,B,G,r,g,5,15,31001,1,1,305,378
1,6,20,4,2,1,B,G,r,g,5,15,31001,1,1,138,337
1,6,20,4,2,1,B,G,r,g,5,15,31001,1,3,402,373
1,6,20,4,2,1,B,G,r,g,5,15,31001,1,1,484,184
1,6,20,4,2,1,B,G,r,g,5,15,31001,1,1,166,118
1,6,20,4,2,1,B,G,r,g,5,15,32001,1,1,250,516
1,6,20,4,2,1,B,G,r,g,5,15,32001,1,1,243,457
1,6,20,4,2,1,B,G,r,g,5,15,32001,1,1,246,266
1,6,20,4,2,1,B,G,r,g,5,15,32001,1,3,290,243
1,6,20,4,2,1,B,G,r,g,5,15,32001,1,1,166,111
1,6,20,4,2,1,B,G,r,g,5,15,32001,1,1,373,73
1,6,20,4,2,1,B,G,r,g,5,15,33001,1,1,240,499
1,6,20,4,2,1,B,G,r,g,5,15,33001,1,1,187,463
1,6,20,4,2,1,B,G,r,g,5,15,33001,1,1,269,323
1,6,20,4,2,1,B,G,r,g,5,15,33001,1,3,108,275
1,6,20,4,2,1,B,G,r,g,5,15,33001,1,1,177,110
1,6,20,4,2,1,B,G,r,g,5,15,33001,1,1,303,58
1,6,20,4,2,1,B,G,r,g,5,15,34001,1,1,210,504
1,6,20,4,2,1,B,G,r,g,5,15,34001,1,1,175,486
1,6,20,4,2,1,B,G,r,g,5,15,34001,1,3,202,478
1,6,20,4,2,1,B,G,r,g,5,15,34001,1,1,221,350
1,6,20,4,2,1,B,G,r,g,5,15,34001,1,1,204,137
1,6,20,4,2,1,B,G,r,g,5,15,34001,1,1,163,110
1,6,20,4,2,1,B,G,r,g,5,15,35001,1,1,181,478
1,6,20,4,2,1,B,G,r,g,5,15,35001,1,1,210,300
1,6,20,4,2,1,B,G,r,g,5,15,35001,1,3,242,326
1,6,20,4,2,1,B,G,r,g,5,15,35001,1,1,235,238
1,6,20,4,2,1,B,G,r,g,5,15,35001,1,1,93,187
1,6,20,4,2,1,B,G,r,g,5,15,35001,1,1,177,108
1,6,20,4,2,1,B,G,r,g,5,15,36001,1,1,196,444
1,6,20,4,2,1,B,G,r,g,5,15,36001,1,1,295,255
1,6,20,4,2,1,B,G,r,g,5,15,36001,1,1,308,209
1,6,20,4,2,1,B,G,r,g,5,15,36001,1,1,262,104
1,6,20,4,2,1,B,G,r,g,5,15,36001,1,1,181,88
1,6,20,4,2,1,B,G,r,g,5,15,36001,1,3,420,265
1,6,20,4,2,1,B,G,r,g,5,15,37001,1,1,133,448
1,6,20,4,2,1,B,G,r,g,5,15,37001,1,1,426,228
1,6,20,4,2,1,B,G,r,g,5,15,37001,1,1,227,163
1,6,20,4,2,1,B,G,r,g,5,15,37001,1,1,281,102
1,6,20,4,2,1,B,G,r,g,5,15,37001,1,1,250,69
1,6,20,4,2,1,B,G,r,g,5,15,37001,1,3,415,98
1,6,20,4,2,1,B,G,r,g,5,15,37001,1,1,130,446
1,6,20,4,2,1,B,G,r,g,5,15,37001,1,1,427,230
1,6,20,4,2,1,B,G,r,g,5,15,37001,1,1,221,168
1,6,20,4,2,1,B,G,r,g,5,15,37001,1,1,279,101
1,6,20,4,2,1,B,G,r,g,5,15,37001,1,1,251,69
1,6,20,4,2,1,B,G,r,g,5,15,37001,1,3,416,97
1,6,20,4,2,1,B,G,r,g,5,15,38001,1,1,129,459
1,6,20,4,2,1,B,G,r,g,5,15,38001,1,1,385,271
1,6,20,4,2,1,B,G,r,g,5,15,38001,1,1,192,219
1,6,20,4,2,1,B,G,r,g,5,15,38001,1,3,214,196
1,6,20,4,2,1,B,G,r,g,5,15,38001,1,1,300,96
1,6,20,4,2,1,B,G,r,g,5,15,38001,1,1,300,46
1,6,20,4,2,1,B,G,r,g,5,15,38001,1,1,355,70
1,6,20,4,2,1,B,G,r,g,5,15,39001,1,1,51,385
1,6,20,4,2,1,B,G,r,g,5,15,39001,1,1,158,296
1,6,20,4,2,1,B,G,r,g,5,15,39001,1,3,147,190
1,6,20,4,2,1,B,G,r,g,5,15,39001,1,1,325,214
1,6,20,4,2,1,B,G,r,g,5,15,39001,1,1,373,140
1,6,20,4,2,1,B,G,r,g,5,15,39001,1,1,386,73
1,6,20,4,2,1,B,G,r,g,5,15,39001,1,1,332,79
1,6,20,4,2,1,B,G,r,g,5,15,40001,1,1,60,376
1,6,20,4,2,1,B,G,r,g,5,15,40001,1,1,277,282
1,6,20,4,2,1,B,G,r,g,5,15,40001,1,1,409,201
1,6,20,4,2,1,B,G,r,g,5,15,40001,1,1,284,156
1,6,20,4,2,1,B,G,r,g,5,15,40001,1,1,299,35
1,6,20,4,2,1,B,G,r,g,5,15,40001,1,3,377,107
1,6,20,4,2,1,B,G,r,g,5,15,41001,1,1,61,372
1,6,20,4,2,1,B,G,r,g,5,15,41001,1,1,304,268
1,6,20,4,2,1,B,G,r,g,5,15,41001,1,1,422,245
1,6,20,4,2,1,B,G,r,g,5,15,41001,1,3,382,123
1,6,20,4,2,1,B,G,r,g,5,15,41001,1,1,276,97
1,6,20,4,2,1,B,G,r,g,5,15,41001,1,1,300,35
1,6,20,4,2,1,B,G,r,g,5,15,42001,1,1,41,279
1,6,20,4,2,1,B,G,r,g,5,15,42001,1,3,233,272
1,6,20,4,2,1,B,G,r,g,5,15,42001,1,1,307,267
1,6,20,4,2,1,B,G,r,g,5,15,42001,1,1,423,264
1,6,20,4,2,1,B,G,r,g,5,15,42001,1,1,301,74
1,6,20,4,2,1,B,G,r,g,5,15,42001,1,1,316,35
1,6,20,4,2,1,B,G,r,g,5,15,43001,1,1,38,230
1,6,20,4,2,1,B,G,r,g,5,15,43001,1,3,383,363
1,6,20,4,2,1,B,G,r,g,5,15,43001,1,1,380,275
1,6,20,4,2,1,B,G,r,g,5,15,43001,1,1,365,236
1,6,20,4,2,1,B,G,r,g,5,15,43001,1,1,381,177
1,6,20,4,2,1,B,G,r,g,5,15,43001,1,1,388,66
1,6,20,4,2,1,B,G,r,g,5,15,43001,1,1,332,25
1,6,20,4,2,1,B,G,r,g,5,15,44001,1,3,439,365
1,6,20,4,2,1,B,G,r,g,5,15,44001,1,1,325,296
1,6,20,4,2,1,B,G,r,g,5,15,44001,1,1,418,257
1,6,20,4,2,1,B,G,r,g,5,15,44001,1,1,328,149
1,6,20,4,2,1,B,G,r,g,5,15,44001,1,1,113,106
1,6,20,4,2,1,B,G,r,g,5,15,44001,1,1,328,26
1,6,20,4,2,1,B,G,r,g,5,15,44001,1,1,377,38
1,6,20,4,2,1,B,G,r,g,5,15,45001,1,3,356,313
1,6,20,4,2,1,B,G,r,g,5,15,45001,1,1,307,302
1,6,20,4,2,1,B,G,r,g,5,15,45001,1,1,427,273
1,6,20,4,2,1,B,G,r,g,5,15,45001,1,1,181,231
1,6,20,4,2,1,B,G,r,g,5,15,45001,1,1,331,148
1,6,20,4,2,1,B,G,r,g,5,15,45001,1,1,369,74
1,6,20,4,2,1,B,G,r,g,5,15,45001,1,1,391,33
1,6,20,4,2,1,B,G,r,g,5,15,46001,1,1,208,350
1,6,20,4,2,1,B,G,r,g,5,15,46001,1,1,305,319
1,6,20,4,2,1,B,G,r,g,5,15,46001,1,1,431,288
1,6,20,4,2,1,B,G,r,g,5,15,46001,1,1,371,175
1,6,20,4,2,1,B,G,r,g,5,15,46001,1,1,422,76
1,6,20,4,2,1,B,G,r,g,5,15,46001,1,1,282,105
1,6,20,4,2,1,B,G,r,g,5,15,46001,1,3,395,107
1,6,20,4,2,1,B,G,r,g,5,15,47001,1,1,230,363
1,6,20,4,2,1,B,G,r,g,5,15,47001,1,1,297,317
1,6,20,4,2,1,B,G,r,g,5,15,47001,1,1,456,309
1,6,20,4,2,1,B,G,r,g,5,15,47001,1,1,357,198
1,6,20,4,2,1,B,G,r,g,5,15,47001,1,1,220,119
1,6,20,4,2,1,B,G,r,g,5,15,47001,1,1,406,47
1,6,20,4,2,1,B,G,r,g,5,15,47001,1,3,372,91
1,6,20,4,2,1,B,G,r,g,5,15,48001,1,1,215,443
1,6,20,4,2,1,B,G,r,g,5,15,48001,1,1,294,315
1,6,20,4,2,1,B,G,r,g,5,15,48001,1,1,460,308
1,6,20,4,2,1,B,G,r,g,5,15,48001,1,1,330,187
1,6,20,4,2,1,B,G,r,g,5,15,48001,1,3,213,198
1,6,20,4,2,1,B,G,r,g,5,15,48001,1,1,334,90
1,6,20,4,2,1,B,G,r,g,5,15,48001,1,1,401,40
1,6,20,4,2,1,B,G,r,g,5,15,49001,1,1,245,508
1,6,20,4,2,1,B,G,r,g,5,15,49001,1,3,148,432
1,6,20,4,2,1,B,G,r,g,5,15,49001,1,1,299,317
1,6,20,4,2,1,B,G,r,g,5,15,49001,1,1,456,304
1,6,20,4,2,1,B,G,r,g,5,15,49001,1,1,262,232
1,6,20,4,2,1,B,G,r,g,5,15,49001,1,1,263,96
1,6,20,4,2,1,B,G,r,g,5,15,49001,1,1,412,64
1,6,20,4,2,1,B,G,r,g,5,15,50001,1,3,232,438
1,6,20,4,2,1,B,G,r,g,5,15,50001,1,1,276,406
1,6,20,4,2,1,B,G,r,g,5,15,50001,1,1,270,307
1,6,20,4,2,1,B,G,r,g,5,15,50001,1,1,459,308
1,6,20,4,2,1,B,G,r,g,5,15,50001,1,1,343,295
1,6,20,4,2,1,B,G,r,g,5,15,50001,1,1,340,192
1,6,20,4,2,1,B,G,r,g,5,15,50001,1,1,270,91
1,6,20,4,2,1,B,G,r,g,5,15,51001,1,1,200,313
1,6,20,4,2,1,B,G,r,g,5,15,51001,1,1,330,300
1,6,20,4,2,1,B,G,r,g,5,15,51001,1,1,436,296
1,6,20,4,2,1,B,G,r,g,5,15,51001,1,1,169,287
1,6,20,4,2,1,B,G,r,g,5,15,51001,1,3,360,281
1,6,20,4,2,1,B,G,r,g,5,15,51001,1,1,220,221
1,6,20,4,2,1,B,G,r,g,5,15,51001,1,1,156,89
1,6,20,4,2,1,B,G,r,g,5,15,51001,1,1,240,136
1,6,20,4,2,1,B,G,r,g,5,15,52001,1,1,388,304
1,6,20,4,2,1,B,G,r,g,5,15,52001,1,3,430,274
1,6,20,4,2,1,B,G,r,g,5,15,52001,1,1,63,377
1,6,20,4,2,1,B,G,r,g,5,15,52001,1,1,199,252
1,6,20,4,2,1,B,G,r,g,5,15,52001,1,1,127,161
1,6,20,4,2,1,B,G,r,g,5,15,52001,1,1,290,145
1,6,20,4,2,1,B,G,r,g,5,15,52001,1,1,331,60
1,6,20,4,2,1,B,G,r,g,5,15,53001,1,1,444,268
1,6,20,4,2,1,B,G,r,g,5,15,53001,1,1,314,292
1,6,20,4,2,1,B,G,r,g,5,15,53001,1,1,132,332
1,6,20,4,2,1,B,G,r,g,5,15,53001,1,1,44,228
1,6,20,4,2,1,B,G,r,g,5,15,53001,1,1,129,201
1,6,20,4,2,1,B,G,r,g,5,15,53001,1,1,279,145
1,6,20,4,2,1,B,G,r,g,5,15,53001,1,1,142,92
1,6,20,4,2,1,B,G,r,g,5,15,54001,1,3,275,407
1,6,20,4,2,1,B,G,r,g,5,15,54001,1,1,281,228
1,6,20,4,2,1,B,G,r,g,5,15,54001,1,1,185,243
1,6,20,4,2,1,B,G,r,g,5,15,54001,1,1,118,229
1,6,20,4,2,1,B,G,r,g,5,15,54001,1,1,352,134
1,6,20,4,2,1,B,G,r,g,5,15,54001,1,1,256,73
1,6,20,4,2,1,B,G,r,g,5,15,54001,1,1,208,85
1,6,20,4,2,1,B,G,r,g,5,15,54001,1,1,137,83
1,6,20,4,2,1,B,G,r,g,5,15,55001,1,3,201,480
1,6,20,4,2,1,B,G,r,g,5,15,55001,1,1,48,268
1,6,20,4,2,1,B,G,r,g,5,15,55001,1,1,196,256
1,6,20,4,2,1,B,G,r,g,5,15,55001,1,1,262,219
1,6,20,4,2,1,B,G,r,g,5,15,55001,1,1,257,185
1,6,20,4,2,1,B,G,r,g,5,15,55001,1,1,121,205
1,6,20,4,2,1,B,G,r,g,5,15,55001,1,1,93,150
1,6,20,4,2,1,B,G,r,g,5,15,55001,1,1,333,141
1,6,20,4,2,1,B,G,r,g,5,15,55001,1,1,416,113
1,6,20,4,2,1,B,G,r,g,5,15,56001,1,1,280,505
1,6,20,4,2,1,B,G,r,g,5,15,56001,1,1,195,416
1,6,20,4,2,1,B,G,r,g,5,15,56001,1,1,214,346
1,6,20,4,2,1,B,G,r,g,5,15,56001,1,3,84,282
1,6,20,4,2,1,B,G,r,g,5,15,56001,1,1,137,238
1,6,20,4,2,1,B,G,r,g,5,15,56001,1,1,266,241
1,6,20,4,2,1,B,G,r,g,5,15,56001,1,1,331,191
1,6,20,4,2,1,B,G,r,g,5,15,56001,1,1,367,160
1,6,20,4,2,1,B,G,r,g,5,15,56001,1,1,235,130
1,6,20,4,2,1,B,G,r,g,5,15,57001,1,1,324,527
1,6,20,4,2,1,B,G,r,g,5,15,57001,1,1,264,460
1,6,20,4,2,1,B,G,r,g,5,15,57001,1,1,213,452
1,6,20,4,2,1,B,G,r,g,5,15,57001,1,1,326,298
1,6,20,4,2,1,B,G,r,g,5,15,57001,1,1,314,202
1,6,20,4,2,1,B,G,r,g,5,15,57001,1,1,406,238
1,6,20,4,2,1,B,G,r,g,5,15,57001,1,1,443,190
1,6,20,4,2,1,B,G,r,g,5,15,57001,1,1,168,106
1,6,20,4,2,1,B,G,r,g,5,15,57001,1,3,439,241
1,6,20,4,2,1,B,G,r,g,5,15,58001,1,1,346,469
1,6,20,4,2,1,B,G,r,g,5,15,58001,1,1,230,524
1,6,20,4,2,1,B,G,r,g,5,15,58001,1,1,326,298
1,6,20,4,2,1,B,G,r,g,5,15,58001,1,1,391,254
1,6,20,4,2,1,B,G,r,g,5,15,58001,1,1,447,231
1,6,20,4,2,1,B,G,r,g,5,15,58001,1,3,456,284
1,6,20,4,2,1,B,G,r,g,5,15,58001,1,1,417,138
1,6,20,4,2,1,B,G,r,g,5,15,58001,1,1,413,94
1,6,20,4,2,1,B,G,r,g,5,15,58001,1,1,118,135
1,6,20,4,2,1,B,G,r,g,5,15,59001,1,1,338,519
1,6,20,4,2,1,B,G,r,g,5,15,59001,1,1,397,369
1,6,20,4,2,1,B,G,r,g,5,15,59001,1,1,337,362
1,6,20,4,2,1,B,G,r,g,5,15,59001,1,1,313,288
1,6,20,4,2,1,B,G,r,g,5,15,59001,1,1,194,213
1,6,20,4,2,1,B,G,r,g,5,15,59001,1,3,421,268
1,6,20,4,2,1,B,G,r,g,5,15,59001,1,1,400,251
1,6,20,4,2,1,B,G,r,g,5,15,59001,1,1,424,208
1,6,20,4,2,1,B,G,r,g,5,15,59001,1,1,355,194
1,6,20,4,2,1,B,G,r,g,5,15,60001,1,1,339,519
1,6,20,4,2,1,B,G,r,g,5,15,60001,1,1,496,222
1,6,20,4,2,1,B,G,r,g,5,15,60001,1,1,494,278
1,6,20,4,2,1,B,G,r,g,5,15,60001,1,1,405,293
1,6,20,4,2,1,B,G,r,g,5,15,60001,1,3,402,244
1,6,20,4,2,1,B,G,r,g,5,15,60001,1,1,320,304
1,6,20,4,2,1,B,G,r,g,5,15,60001,1,1,273,225
1,6,20,4,2,1,B,G,r,g,5,15,60001,1,1,207,219
1,6,20,4,2,1,B,G,r,g,5,15,60001,1,1,235,200
1,6,20,4,2,1,B,G,r,g,5,15,61001,1,1,302,545
1,6,20,4,2,1,B,G,r,g,5,15,61001,1,1,430,446
1,6,20,4,2,1,B,G,r,g,5,15,61001,1,1,493,284
1,6,20,4,2,1,B,G,r,g,5,15,61001,1,3,451,314
1,6,20,4,2,1,B,G,r,g,5,15,61001,1,1,385,266
1,6,20,4,2,1,B,G,r,g,5,15,61001,1,1,318,294
1,6,20,4,2,1,B,G,r,g,5,15,61001,1,1,220,259
1,6,20,4,2,1,B,G,r,g,5,15,61001,1,1,258,155
1,6,20,4,2,1,B,G,r,g,5,15,61001,1,1,172,110
1,6,20,4,2,1,B,G,r,g,5,15,62001,1,1,215,482
1,6,20,4,2,1,B,G,r,g,5,15,62001,1,1,337,443
1,6,20,4,2,1,B,G,r,g,5,15,62001,1,1,467,310
1,6,20,4,2,1,B,G,r,g,5,15,62001,1,1,321,304
1,6,20,4,2,1,B,G,r,g,5,15,62001,1,1,283,268
1,6,20,4,2,1,B,G,r,g,5,15,62001,1,1,198,292
1,6,20,4,2,1,B,G,r,g,5,15,62001,1,1,263,146
1,6,20,4,2,1,B,G,r,g,5,15,62001,1,3,151,122
1,6,20,4,2,1,B,G,r,g,5,15,62001,1,1,248,73
1,6,20,4,2,1,B,G,r,g,5,15,63001,1,1,130,462
1,6,20,4,2,1,B,G,r,g,5,15,63001,1,3,168,398
1,6,20,4,2,1,B,G,r,g,5,15,63001,1,1,88,309
1,6,20,4,2,1,B,G,r,g,5,15,63001,1,1,469,318
1,6,20,4,2,1,B,G,r,g,5,15,63001,1,1,323,305
1,6,20,4,2,1,B,G,r,g,5,15,63001,1,1,257,305
1,6,20,4,2,1,B,G,r,g,5,15,63001,1,1,237,263
1,6,20,4,2,1,B,G,r,g,5,15,63001,1,1,277,152
1,6,20,4,2,1,B,G,r,g,5,15,63001,1,1,170,122
1,6,20,4,2,1,B,G,r,g,5,15,64001,1,1,332,470
1,6,20,4,2,1,B,G,r,g,5,15,64001,1,1,188,484
1,6,20,4,2,1,B,G,r,g,5,15,64001,1,1,162,381
1,6,20,4,2,1,B,G,r,g,5,15,64001,1,3,311,358
1,6,20,4,2,1,B,G,r,g,5,15,64001,1,1,463,297
1,6,20,4,2,1,B,G,r,g,5,15,64001,1,1,323,305
1,6,20,4,2,1,B,G,r,g,5,15,64001,1,1,220,256
1,6,20,4,2,1,B,G,r,g,5,15,64001,1,1,143,187
1,6,20,4,2,1,B,G,r,g,5,15,64001,1,1,330,211
1,6,20,4,2,1,B,G,r,g,5,15,65001,1,1,205,458
1,6,20,4,2,1,B,G,r,g,5,15,65001,1,1,323,448
1,6,20,4,2,1,B,G,r,g,5,15,65001,1,1,324,303
1,6,20,4,2,1,B,G,r,g,5,15,65001,1,1,386,284
1,6,20,4,2,1,B,G,r,g,5,15,65001,1,3,429,249
1,6,20,4,2,1,B,G,r,g,5,15,65001,1,1,330,213
1,6,20,4,2,1,B,G,r,g,5,15,65001,1,1,318,168
1,6,20,4,2,1,B,G,r,g,5,15,65001,1,1,181,239
1,6,20,4,2,1,B,G,r,g,5,15,65001,1,1,149,179
1,6,20,4,2,1,B,G,r,g,5,15,66001,1,1,221,518
1,6,20,4,2,1,B,G,r,g,5,15,66001,1,1,464,433
1,6,20,4,2,1,B,G,r,g,5,15,66001,1,1,292,387
1,6,20,4,2,1,B,G,r,g,5,15,66001,1,1,318,295
1,6,20,4,2,1,B,G,r,g,5,15,66001,1,1,329,270
1,6,20,4,2,1,B,G,r,g,5,15,66001,1,1,332,206
1,6,20,4,2,1,B,G,r,g,5,15,66001,1,3,424,268
1,6,20,4,2,1,B,G,r,g,5,15,66001,1,1,107,226
1,6,20,4,2,1,B,G,r,g,5,15,66001,1,1,159,174
1,6,20,4,2,1,B,G,r,g,5,15,67001,1,1,478,320
1,6,20,4,2,1,B,G,r,g,5,15,67001,1,1,285,555
1,6,20,4,2,1,B,G,r,g,5,15,67001,1,1,218,518
1,6,20,4,2,1,B,G,r,g,5,15,67001,1,3,245,488
1,6,20,4,2,1,B,G,r,g,5,15,67001,1,1,315,297
1,6,20,4,2,1,B,G,r,g,5,15,67001,1,1,327,204
1,6,20,4,2,1,B,G,r,g,5,15,67001,1,1,236,216
1,6,20,4,2,1,B,G,r,g,5,15,67001,1,1,167,169
1,6,20,4,2,1,B,G,r,g,5,15,67001,1,1,44,254
1,6,20,4,2,1,B,G,r,g,5,15,68001,1,1,215,512
1,6,20,4,2,1,B,G,r,g,5,15,68001,1,3,175,437
1,6,20,4,2,1,B,G,r,g,5,15,68001,1,1,108,360
1,6,20,4,2,1,B,G,r,g,5,15,68001,1,1,138,275
1,6,20,4,2,1,B,G,r,g,5,15,68001,1,1,406,328
1,6,20,4,2,1,B,G,r,g,5,15,68001,1,1,362,278
1,6,20,4,2,1,B,G,r,g,5,15,68001,1,1,244,208
1,6,20,4,2,1,B,G,r,g,5,15,68001,1,1,302,207
1,6,20,4,2,1,B,G,r,g,5,15,68001,1,1,257,171
1,6,20,4,2,1,B,G,r,g,5,15,69001,1,1,235,522
1,6,20,4,2,1,B,G,r,g,5,15,69001,1,1,423,398
1,6,20,4,2,1,B,G,r,g,5,15,69001,1,1,225,378
1,6,20,4,2,1,B,G,r,g,5,15,69001,1,1,382,268
1,6,20,4,2,1,B,G,r,g,5,15,69001,1,1,104,242
1,6,20,4,2,1,B,G,r,g,5,15,69001,1,1,163,257
1,6,20,4,2,1,B,G,r,g,5,15,69001,1,1,261,236
1,6,20,4,2,1,B,G,r,g,5,15,69001,1,1,352,131
1,6,20,4,2,1,B,G,r,g,5,15,69001,1,3,356,80
1,6,20,4,2,1,B,G,r,g,5,15,70001,1,1,227,522
1,6,20,4,2,1,B,G,r,g,5,15,70001,1,1,387,513
1,6,20,4,2,1,B,G,r,g,5,15,70001,1,1,437,271
1,6,20,4,2,1,B,G,r,g,5,15,70001,1,1,341,282
1,6,20,4,2,1,B,G,r,g,5,15,70001,1,1,234,252
1,6,20,4,2,1,B,G,r,g,5,15,70001,1,1,193,233
1,6,20,4,2,1,B,G,r,g,5,15,70001,1,1,98,244
1,6,20,4,2,1,B,G,r,g,5,15,70001,1,1,415,176
1,6,20,4,2,1,B,G,r,g,5,15,70001,1,3,402,120
1,6,20,4,2,1,B,G,r,g,5,15,71001,1,1,226,525
1,6,20,4,2,1,B,G,r,g,5,15,71001,1,1,383,508
1,6,20,4,2,1,B,G,r,g,5,15,71001,1,1,451,236
1,6,20,4,2,1,B,G,r,g,5,15,71001,1,1,399,266
1,6,20,4,2,1,B,G,r,g,5,15,71001,1,1,340,212
1,6,20,4,2,1,B,G,r,g,5,15,71001,1,1,203,242
1,6,20,4,2,1,B,G,r,g,5,15,71001,1,1,99,240
1,6,20,4,2,1,B,G,r,g,5,15,71001,1,1,267,171
1,6,20,4,2,1,B,G,r,g,5,15,71001,1,3,228,136
1,6,20,4,2,1,B,G,r,g,5,15,72001,1,1,396,513
1,6,20,4,2,1,B,G,r,g,5,15,72001,1,1,209,518
1,6,20,4,2,1,B,G,r,g,5,15,72001,1,1,452,283
1,6,20,4,2,1,B,G,r,g,5,15,72001,1,1,452,215
1,6,20,4,2,1,B,G,r,g,5,15,72001,1,1,95,249
1,6,20,4,2,1,B,G,r,g,5,15,72001,1,1,149,281
1,6,20,4,2,1,B,G,r,g,5,15,72001,1,1,291,207
1,6,20,4,2,1,B,G,r,g,5,15,72001,1,1,272,136
1,6,20,4,2,1,B,G,r,g,5,15,72001,1,3,225,134
1,6,20,4,2,1,B,G,r,g,5,15,73001,1,1,228,527
1,6,20,4,2,1,B,G,r,g,5,15,73001,1,1,398,512
1,6,20,4,2,1,B,G,r,g,5,15,73001,1,1,445,280
1,6,20,4,2,1,B,G,r,g,5,15,73001,1,1,451,203
1,6,20,4,2,1,B,G,r,g,5,15,73001,1,1,237,271
1,6,20,4,2,1,B,G,r,g,5,15,73001,1,1,250,230
1,6,20,4,2,1,B,G,r,g,5,15,73001,1,1,155,240
1,6,20,4,2,1,B,G,r,g,5,15,73001,1,1,42,232
1,6,20,4,2,1,B,G,r,g,5,15,73001,1,1,195,86
1,6,20,4,2,1,B,G,r,g,5,15,73001,1,3,208,125
1,6,20,4,2,1,B,G,r,g,5,15,74001,1,1,383,500
1,6,20,4,2,1,B,G,r,g,5,15,74001,1,1,224,521
1,6,20,4,2,1,B,G,r,g,5,15,74001,1,1,446,276
1,6,20,4,2,1,B,G,r,g,5,15,74001,1,1,454,207
1,6,20,4,2,1,B,G,r,g,5,15,74001,1,1,196,312
1,6,20,4,2,1,B,G,r,g,5,15,74001,1,1,214,260
1,6,20,4,2,1,B,G,r,g,5,15,74001,1,1,296,223
1,6,20,4,2,1,B,G,r,g,5,15,74001,1,1,184,233
1,6,20,4,2,1,B,G,r,g,5,15,74001,1,3,264,183
1,6,20,4,2,1,B,G,r,g,5,15,74001,1,1,187,139
1,6,20,4,2,1,B,G,r,g,5,15,75001,1,1,227,524
1,6,20,4,2,1,B,G,r,g,5,15,75001,1,1,393,497
1,6,20,4,2,1,B,G,r,g,5,15,75001,1,1,226,377
1,6,20,4,2,1,B,G,r,g,5,15,75001,1,1,181,302
1,6,20,4,2,1,B,G,r,g,5,15,75001,1,1,116,211
1,6,20,4,2,1,B,G,r,g,5,15,75001,1,1,214,201
1,6,20,4,2,1,B,G,r,g,5,15,75001,1,1,464,277
1,6,20,4,2,1,B,G,r,g,5,15,75001,1,1,438,197
1,6,20,4,2,1,B,G,r,g,5,15,75001,1,3,315,184
1,6,20,4,2,1,B,G,r,g,5,15,75001,1,1,178,77
1,6,20,4,2,1,B,G,r,g,5,15,76001,1,1,216,515
1,6,20,4,2,1,B,G,r,g,5,15,76001,1,1,320,454
1,6,20,4,2,1,B,G,r,g,5,15,76001,1,1,222,382
1,6,20,4,2,1,B,G,r,g,5,15,76001,1,1,161,374
1,6,20,4,2,1,B,G,r,g,5,15,76001,1,1,113,221
1,6,20,4,2,1,B,G,r,g,5,15,76001,1,1,189,81
1,6,20,4,2,1,B,G,r,g,5,15,76001,1,1,288,210
1,6,20,4,2,1,B,G,r,g,5,15,76001,1,1,347,229
1,6,20,4,2,1,B,G,r,g,5,15,76001,1,1,450,291
1,6,20,4,2,1,B,G,r,g,5,15,76001,1,3,359,189
1,6,20,4,2,1,B,G,r,g,5,15,77001,1,1,213,516
1,6,20,4,2,1,B,G,r,g,5,15,77001,1,1,217,477
1,6,20,4,2,1,B,G,r,g,5,15,77001,1,1,189,439
1,6,20,4,2,1,B,G,r,g,5,15,77001,1,1,293,402
1,6,20,4,2,1,B,G,r,g,5,15,77001,1,1,350,325
1,6,20,4,2,1,B,G,r,g,5,15,77001,1,1,396,233
1,6,20,4,2,1,B,G,r,g,5,15,77001,1,1,298,274
1,6,20,4,2,1,B,G,r,g,5,15,77001,1,1,343,205
1,6,20,4,2,1,B,G,r,g,5,15,77001,1,3,229,266
1,6,20,4,2,1,B,G,r,g,5,15,77001,1,1,124,212
1,6,20,4,2,1,B,G,r,g,5,15,77001,1,1,163,70
1,6,20,4,2,1,B,G,r,g,5,15,78001,1,1,214,516
1,6,20,4,2,1,B,G,r,g,5,15,78001,1,1,136,468
1,6,20,4,2,1,B,G,r,g,5,15,78001,1,1,252,405
1,6,20,4,2,1,B,G,r,g,5,15,78001,1,1,418,384
1,6,20,4,2,1,B,G,r,g,5,15,78001,1,1,341,313
1,6,20,4,2,1,B,G,r,g,5,15,78001,1,1,440,267
1,6,20,4,2,1,B,G,r,g,5,15,78001,1,1,401,271
1,6,20,4,2,1,B,G,r,g,5,15,78001,1,3,325,245
1,6,20,4,2,1,B,G,r,g,5,15,78001,1,1,118,215
1,6,20,4,2,1,B,G,r,g,5,15,78001,1,1,263,128
1,6,20,4,2,1,B,G,r,g,5,15,79001,1,1,217,511
1,6,20,4,2,1,B,G,r,g,5,15,79001,1,1,282,406
1,6,20,4,2,1,B,G,r,g,5,15,79001,1,1,431,421
1,6,20,4,2,1,B,G,r,g,5,15,79001,1,1,392,329
1,6,20,4,2,1,B,G,r,g,5,15,79001,1,1,350,308
1,6,20,4,2,1,B,G,r,g,5,15,79001,1,1,270,290
1,6,20,4,2,1,B,G,r,g,5,15,79001,1,1,167,319
1,6,20,4,2,1,B,G,r,g,5,15,79001,1,1,194,258
1,6,20,4,2,1,B,G,r,g,5,15,79001,1,1,259,187
1,6,20,4,2,1,B,G,r,g,5,15,79001,1,3,236,133
1,6,20,4,2,1,B,G,r,g,5,15,80001,1,1,241,502
1,6,20,4,2,1,B,G,r,g,5,15,80001,1,1,446,466
1,6,20,4,2,1,B,G,r,g,5,15,80001,1,1,360,390
1,6,20,4,2,1,B,G,r,g,5,15,80001,1,1,360,335
1,6,20,4,2,1,B,G,r,g,5,15,80001,1,1,303,326
1,6,20,4,2,1,B,G,r,g,5,15,80001,1,1,254,342
1,6,20,4,2,1,B,G,r,g,5,15,80001,1,1,287,253
1,6,20,4,2,1,B,G,r,g,5,15,80001,1,3,202,253
1,6,20,4,2,1,B,G,r,g,5,15,80001,1,1,324,129
1,6,20,4,2,1,B,G,r,g,5,15,80001,1,1,338,55
1,6,20,4,2,1,B,G,r,g,5,15,81001,1,1,224,525
1,6,20,4,2,1,B,G,r,g,5,15,81001,1,1,365,479
1,6,20,4,2,1,B,G,r,g,5,15,81001,1,1,430,468
1,6,20,4,2,1,B,G,r,g,5,15,81001,1,1,311,408
1,6,20,4,2,1,B,G,r,g,5,15,81001,1,1,326,367
1,6,20,4,2,1,B,G,r,g,5,15,81001,1,1,381,298
1,6,20,4,2,1,B,G,r,g,5,15,81001,1,1,414,233
1,6,20,4,2,1,B,G,r,g,5,15,81001,1,1,473,212
1,6,20,4,2,1,B,G,r,g,5,15,81001,1,1,257,118
1,6,20,4,2,1,B,G,r,g,5,15,81001,1,3,254,186
1,6,20,4,2,1,B,G,r,g,5,15,82001,1,1,217,523
1,6,20,4,2,1,B,G,r,g,5,15,82001,1,1,222,479
1,6,20,4,2,1,B,G,r,g,5,15,82001,1,1,294,435
1,6,20,4,2,1,B,G,r,g,5,15,82001,1,1,299,410
1,6,20,4,2,1,B,G,r,g,5,15,82001,1,1,390,388
1,6,20,4,2,1,B,G,r,g,5,15,82001,1,1,417,366
1,6,20,4,2,1,B,G,r,g,5,15,82001,1,1,480,344
1,6,20,4,2,1,B,G,r,g,5,15,82001,1,1,485,223
1,6,20,4,2,1,B,G,r,g,5,15,82001,1,3,426,275
1,6,20,4,2,1,B,G,r,g,5,15,82001,1,1,257,81
1,6,20,4,2,1,B,G,r,g,5,15,83001,1,1,276,540
1,6,20,4,2,1,B,G,r,g,5,15,83001,1,1,299,436
1,6,20,4,2,1,B,G,r,g,5,15,83001,1,1,159,425
1,6,20,4,2,1,B,G,r,g,5,15,83001,1,1,195,397
1,6,20,4,2,1,B,G,r,g,5,15,83001,1,1,226,391
1,6,20,4,2,1,B,G,r,g,5,15,83001,1,1,429,399
1,6,20,4,2,1,B,G,r,g,5,15,83001,1,1,445,409
1,6,20,4,2,1,B,G,r,g,5,15,83001,1,1,510,197
1,6,20,4,2,1,B,G,r,g,5,15,83001,1,3,411,228
1,6,20,4,2,1,B,G,r,g,5,15,83001,1,1,251,87
1,6,20,4,2,1,B,G,r,g,5,15,84001,1,1,46,388
1,6,20,4,2,1,B,G,r,g,5,15,84001,1,1,220,446
1,6,20,4,2,1,B,G,r,g,5,15,84001,1,1,320,469
1,6,20,4,2,1,B,G,r,g,5,15,84001,1,1,371,520
1,6,20,4,2,1,B,G,r,g,5,15,84001,1,1,384,425
1,6,20,4,2,1,B,G,r,g,5,15,84001,1,1,269,298
1,6,20,4,2,1,B,G,r,g,5,15,84001,1,3,401,235
1,6,20,4,2,1,B,G,r,g,5,15,84001,1,1,417,111
1,6,20,4,2,1,B,G,r,g,5,15,84001,1,1,235,75
1,6,20,4,2,1,B,G,r,g,5,15,84001,1,1,195,74
1,6,20,4,2,1,B,G,r,g,5,15,85001,1,1,418,492
1,6,20,4,2,1,B,G,r,g,5,15,85001,1,1,323,481
1,6,20,4,2,1,B,G,r,g,5,15,85001,1,1,203,477
1,6,20,4,2,1,B,G,r,g,5,15,85001,1,1,58,392
1,6,20,4,2,1,B,G,r,g,5,15,85001,1,1,259,300
1,6,20,4,2,1,B,G,r,g,5,15,85001,1,3,295,328
1,6,20,4,2,1,B,G,r,g,5,15,85001,1,1,349,129
1,6,20,4,2,1,B,G,r,g,5,15,85001,1,1,321,75
1,6,20,4,2,1,B,G,r,g,5,15,85001,1,1,270,69
1,6,20,4,2,1,B,G,r,g,5,15,85001,1,1,113,92
1,6,20,4,2,1,B,G,r,g,5,15,86001,1,1,56,388
1,6,20,4,2,1,B,G,r,g,5,15,86001,1,1,144,476
1,6,20,4,2,1,B,G,r,g,5,15,86001,1,1,272,452
1,6,20,4,2,1,B,G,r,g,5,15,86001,1,1,419,479
1,6,20,4,2,1,B,G,r,g,5,15,86001,1,3,303,356
1,6,20,4,2,1,B,G,r,g,5,15,86001,1,1,263,300
1,6,20,4,2,1,B,G,r,g,5,15,86001,1,1,360,263
1,6,20,4,2,1,B,G,r,g,5,15,86001,1,1,111,99
1,6,20,4,2,1,B,G,r,g,5,15,86001,1,1,181,92
1,6,20,4,2,1,B,G,r,g,5,15,86001,1,1,267,68
1,6,20,4,2,1,B,G,r,g,5,15,87001,1,1,474,427
1,6,20,4,2,1,B,G,r,g,5,15,87001,1,1,268,448
1,6,20,4,2,1,B,G,r,g,5,15,87001,1,1,275,315
1,6,20,4,2,1,B,G,r,g,5,15,87001,1,1,54,387
1,6,20,4,2,1,B,G,r,g,5,15,87001,1,1,131,296
1,6,20,4,2,1,B,G,r,g,5,15,87001,1,3,216,311
1,6,20,4,2,1,B,G,r,g,5,15,87001,1,1,246,242
1,6,20,4,2,1,B,G,r,g,5,15,87001,1,1,181,181
1,6,20,4,2,1,B,G,r,g,5,15,87001,1,1,111,91
1,6,20,4,2,1,B,G,r,g,5,15,87001,1,1,281,70
1,6,20,4,2,1,B,G,r,g,5,15,88001,1,1,479,421
1,6,20,4,2,1,B,G,r,g,5,15,88001,1,1,277,459
1,6,20,4,2,1,B,G,r,g,5,15,88001,1,1,50,354
1,6,20,4,2,1,B,G,r,g,5,15,88001,1,1,110,326
1,6,20,4,2,1,B,G,r,g,5,15,88001,1,1,121,291
1,6,20,4,2,1,B,G,r,g,5,15,88001,1,3,270,234
1,6,20,4,2,1,B,G,r,g,5,15,88001,1,1,128,158
1,6,20,4,2,1,B,G,r,g,5,15,88001,1,1,114,116
1,6,20,4,2,1,B,G,r,g,5,15,88001,1,1,208,98
1,6,20,4,2,1,B,G,r,g,5,15,88001,1,1,285,141
1,6,20,4,2,1,B,G,r,g,5,15,89001,1,1,523,382
1,6,20,4,2,1,B,G,r,g,5,15,89001,1,1,268,446
1,6,20,4,2,1,B,G,r,g,5,15,89001,1,1,158,347
1,6,20,4,2,1,B,G,r,g,5,15,89001,1,1,32,285
1,6,20,4,2,1,B,G,r,g,5,15,89001,1,1,64,212
1,6,20,4,2,1,B,G,r,g,5,15,89001,1,1,143,208
1,6,20,4,2,1,B,G,r,g,5,15,89001,1,1,162,179
1,6,20,4,2,1,B,G,r,g,5,15,89001,1,1,296,163
1,6,20,4,2,1,B,G,r,g,5,15,89001,1,3,251,170
1,6,20,4,2,1,B,G,r,g,5,15,90001,1,1,262,444
1,6,20,4,2,1,B,G,r,g,5,15,90001,1,1,456,268
1,6,20,4,2,1,B,G,r,g,5,15,90001,1,1,219,260
1,6,20,4,2,1,B,G,r,g,5,15,90001,1,1,183,252
1,6,20,4,2,1,B,G,r,g,5,15,90001,1,1,152,219
1,6,20,4,2,1,B,G,r,g,5,15,90001,1,1,22,286
1,6,20,4,2,1,B,G,r,g,5,15,90001,1,1,64,211
1,6,20,4,2,1,B,G,r,g,5,15,90001,1,1,64,162
1,6,20,4,2,1,B,G,r,g,5,15,90001,1,3,205,146
1,6,20,4,2,1,B,G,r,g,5,15,91001,1,1,266,443
1,6,20,4,2,1,B,G,r,g,5,15,91001,1,1,400,262
1,6,20,4,2,1,B,G,r,g,5,15,91001,1,3,272,226
1,6,20,4,2,1,B,G,r,g,5,15,91001,1,1,228,256
1,6,20,4,2,1,B,G,r,g,5,15,91001,1,1,178,256
1,6,20,4,2,1,B,G,r,g,5,15,91001,1,1,146,209
1,6,20,4,2,1,B,G,r,g,5,15,91001,1,1,76,279
1,6,20,4,2,1,B,G,r,g,5,15,91001,1,1,25,288
1,6,20,4,2,1,B,G,r,g,5,15,91001,1,1,72,161
1,6,20,4,2,1,B,G,r,g,5,15,92001,1,1,263,446
1,6,20,4,2,1,B,G,r,g,5,15,92001,1,1,349,344
1,6,20,4,2,1,B,G,r,g,5,15,92001,1,1,221,450
1,6,20,4,2,1,B,G,r,g,5,15,92001,1,1,217,301
1,6,20,4,2,1,B,G,r,g,5,15,92001,1,1,260,240
1,6,20,4,2,1,B,G,r,g,5,15,92001,1,1,215,218
1,6,20,4,2,1,B,G,r,g,5,15,92001,1,1,154,221
1,6,20,4,2,1,B,G,r,g,5,15,92001,1,1,32,283
1,6,20,4,2,1,B,G,r,g,5,15,92001,1,1,67,156
1,6,20,4,2,1,B,G,r,g,5,15,93001,1,1,268,388
1,6,20,4,2,1,B,G,r,g,5,15,93001,1,1,347,357
1,6,20,4,2,1,B,G,r,g,5,15,93001,1,1,213,294
1,6,20,4,2,1,B,G,r,g,5,15,93001,1,1,198,239
1,6,20,4,2,1,B,G,r,g,5,15,93001,1,1,24,290
1,6,20,4,2,1,B,G,r,g,5,15,93001,1,1,65,157
1,6,20,4,2,1,B,G,r,g,5,15,93001,1,1,244,81
1,6,20,4,2,1,B,G,r,g,5,15,93001,1,1,495,185
1,6,20,4,2,1,B,G,r,g,5,15,93001,1,3,355,194
1,6,20,4,2,1,B,G,r,g,5,15,94001,1,1,328,352
1,6,20,4,2,1,B,G,r,g,5,15,94001,1,1,237,311
1,6,20,4,2,1,B,G,r,g,5,15,94001,1,1,263,267
1,6,20,4,2,1,B,G,r,g,5,15,94001,1,1,196,294
1,6,20,4,2,1,B,G,r,g,5,15,94001,1,1,23,288
1,6,20,4,2,1,B,G,r,g,5,15,94001,1,1,60,157
1,6,20,4,2,1,B,G,r,g,5,15,94001,1,1,153,122
1,6,20,4,2,1,B,G,r,g,5,15,94001,1,1,267,79
1,6,20,4,2,1,B,G,r,g,5,15,94001,1,1,228,64
1,6,20,4,2,1,B,G,r,g,5,15,95001,1,1,292,368
1,6,20,4,2,1,B,G,r,g,5,15,95001,1,1,345,291
1,6,20,4,2,1,B,G,r,g,5,15,95001,1,1,240,219
1,6,20,4,2,1,B,G,r,g,5,15,95001,1,1,166,243
1,6,20,4,2,1,B,G,r,g,5,15,95001,1,1,87,351
1,6,20,4,2,1,B,G,r,g,5,15,95001,1,1,24,286
1,6,20,4,2,1,B,G,r,g,5,15,95001,1,1,65,150
1,6,20,4,2,1,B,G,r,g,5,15,95001,1,1,211,73
1,6,20,4,2,1,B,G,r,g,5,15,95001,1,1,392,136
1,6,20,4,2,1,B,G,r,g,5,15,95001,1,3,423,275
1,6,20,4,2,1,B,G,r,g,5,15,96001,1,1,160,484
1,6,20,4,2,1,B,G,r,g,5,15,96001,1,1,217,438
1,6,20,4,2,1,B,G,r,g,5,15,96001,1,1,51,241
1,6,20,4,2,1,B,G,r,g,5,15,96001,1,1,154,221
1,6,20,4,2,1,B,G,r,g,5,15,96001,1,3,190,238
1,6,20,4,2,1,B,G,r,g,5,15,96001,1,1,499,236
1,6,20,4,2,1,B,G,r,g,5,15,96001,1,1,67,144
1,6,20,4,2,1,B,G,r,g,5,15,96001,1,1,120,145
1,6,20,4,2,1,B,G,r,g,5,15,96001,1,1,231,85
1,6,20,4,2,1,B,G,r,g,5,15,96001,1,1,337,60
1,6,20,4,2,1,B,G,r,g,5,15,97001,1,1,193,495
1,6,20,4,2,1,B,G,r,g,5,15,97001,1,1,203,468
1,6,20,4,2,1,B,G,r,g,5,15,97001,1,1,494,398
1,6,20,4,2,1,B,G,r,g,5,15,97001,1,1,425,264
1,6,20,4,2,1,B,G,r,g,5,15,97001,1,1,135,297
1,6,20,4,2,1,B,G,r,g,5,15,97001,1,1,88,199
1,6,20,4,2,1,B,G,r,g,5,15,97001,1,1,30,201
1,6,20,4,2,1,B,G,r,g,5,15,97001,1,1,166,73
1,6,20,4,2,1,B,G,r,g,5,15,97001,1,1,312,68
1,6,20,4,2,1,B,G,r,g,5,15,97001,1,3,332,147
1,6,20,4,2,1,B,G,r,g,5,15,98001,1,1,331,486
1,6,20,4,2,1,B,G,r,g,5,15,98001,1,1,352,435
1,6,20,4,2,1,B,G,r,g,5,15,98001,1,1,187,467
1,6,20,4,2,1,B,G,r,g,5,15,98001,1,1,55,369
1,6,20,4,2,1,B,G,r,g,5,15,98001,1,1,38,205
1,6,20,4,2,1,B,G,r,g,5,15,98001,1,1,88,195
1,6,20,4,2,1,B,G,r,g,5,15,98001,1,1,559,253
1,6,20,4,2,1,B,G,r,g,5,15,98001,1,3,418,260
1,6,20,4,2,1,B,G,r,g,5,15,98001,1,1,398,223
1,6,20,4,2,1,B,G,r,g,5,15,98001,1,1,282,63
1,6,20,4,2,1,B,G,r,g,5,15,99001,1,1,269,510
1,6,20,4,2,1,B,G,r,g,5,15,99001,1,1,204,482
1,6,20,4,2,1,B,G,r,g,5,15,99001,1,1,177,493
1,6,20,4,2,1,B,G,r,g,5,15,99001,1,1,51,376
1,6,20,4,2,1,B,G,r,g,5,15,99001,1,1,40,220
1,6,20,4,2,1,B,G,r,g,5,15,99001,1,1,94,185
1,6,20,4,2,1,B,G,r,g,5,15,99001,1,3,307,387
1,6,20,4,2,1,B,G,r,g,5,15,99001,1,1,433,286
1,6,20,4,2,1,B,G,r,g,5,15,99001,1,1,374,97
1,6,20,4,2,1,B,G,r,g,5,15,100001,1,1,212,483
1,6,20,4,2,1,B,G,r,g,5,15,100001,1,1,177,501
1,6,20,4,2,1,B,G,r,g,5,15,100001,1,3,201,462
1,6,20,4,2,1,B,G,r,g,5,15,100001,1,1,154,420
1,6,20,4,2,1,B,G,r,g,5,15,100001,1,1,97,413
1,6,20,4,2,1,B,G,r,g,5,15,100001,1,1,446,355
1,6,20,4,2,1,B,G,r,g,5,15,100001,1,1,32,224
1,6,20,4,2,1,B,G,r,g,5,15,100001,1,1,142,155
1,6,20,4,2,1,B,G,r,g,5,15,100001,1,1,388,139
1,6,20,4,2,1,B,G,r,g,5,15,101001,1,1,475,404
1,6,20,4,2,1,B,G,r,g,5,15,101001,1,1,386,137
1,6,20,4,2,1,B,G,r,g,5,15,101001,1,1,228,142
1,6,20,4,2,1,B,G,r,g,5,15,101001,1,1,105,311
1,6,20,4,2,1,B,G,r,g,5,15,101001,1,1,66,353
1,6,20,4,2,1,B,G,r,g,5,15,101001,1,1,131,399
1,6,20,4,2,1,B,G,r,g,5,15,101001,1,1,77,473
1,6,20,4,2,1,B,G,r,g,5,15,101001,1,1,141,490
1,6,20,4,2,1,B,G,r,g,5,15,101001,1,3,235,490
1,6,20,4,2,1,B,G,r,g,5,15,102001,1,1,94,409
1,6,20,4,2,1,B,G,r,g,5,15,102001,1,1,169,511
1,6,20,4,2,1,B,G,r,g,5,15,102001,1,1,177,447
1,6,20,4,2,1,B,G,r,g,5,15,102001,1,3,207,380
1,6,20,4,2,1,B,G,r,g,5,15,102001,1,1,454,442
1,6,20,4,2,1,B,G,r,g,5,15,102001,1,1,221,55
1,6,20,4,2,1,B,G,r,g,5,15,102001,1,1,241,139
1,6,20,4,2,1,B,G,r,g,5,15,102001,1,1,385,138
1,6,20,4,2,1,B,G,r,g,5,15,103001,1,1,373,434
1,6,20,4,2,1,B,G,r,g,5,15,103001,1,1,224,449
1,6,20,4,2,1,B,G,r,g,5,15,103001,1,1,201,475
1,6,20,4,2,1,B,G,r,g,5,15,103001,1,1,154,454
1,6,20,4,2,1,B,G,r,g,5,15,103001,1,3,116,230
1,6,20,4,2,1,B,G,r,g,5,15,103001,1,1,239,143
1,6,20,4,2,1,B,G,r,g,5,15,103001,1,1,221,55
1,6,20,4,2,1,B,G,r,g,5,15,103001,1,1,392,142
1,6,20,4,2,1,B,G,r,g,5,15,104001,1,1,181,428
1,6,20,4,2,1,B,G,r,g,5,15,104001,1,1,202,470
1,6,20,4,2,1,B,G,r,g,5,15,104001,1,1,225,515
1,6,20,4,2,1,B,G,r,g,5,15,104001,1,1,318,423
1,6,20,4,2,1,B,G,r,g,5,15,104001,1,1,402,156
1,6,20,4,2,1,B,G,r,g,5,15,104001,1,1,257,195
1,6,20,4,2,1,B,G,r,g,5,15,104001,1,1,227,62
1,6,20,4,2,1,B,G,r,g,5,15,104001,1,3,298,117
1,6,20,4,2,1,B,G,r,g,5,15,105001,1,1,237,520
1,6,20,4,2,1,B,G,r,g,5,15,105001,1,1,207,473
1,6,20,4,2,1,B,G,r,g,5,15,105001,1,1,284,439
1,6,20,4,2,1,B,G,r,g,5,15,105001,1,1,296,339
1,6,20,4,2,1,B,G,r,g,5,15,105001,1,1,399,178
1,6,20,4,2,1,B,G,r,g,5,15,105001,1,1,256,206
1,6,20,4,2,1,B,G,r,g,5,15,105001,1,3,206,129
1,6,20,4,2,1,B,G,r,g,5,15,105001,1,1,233,60
1,6,20,4,2,1,B,G,r,g,5,15,106001,1,1,216,522
1,6,20,4,2,1,B,G,r,g,5,15,106001,1,1,211,471
1,6,20,4,2,1,B,G,r,g,5,15,106001,1,1,298,336
1,6,20,4,2,1,B,G,r,g,5,15,106001,1,1,330,307
1,6,20,4,2,1,B,G,r,g,5,15,106001,1,1,357,194
1,6,20,4,2,1,B,G,r,g,5,15,106001,1,1,403,180
1,6,20,4,2,1,B,G,r,g,5,15,106001,1,1,257,67
1,6,20,4,2,1,B,G,r,g,5,15,107001,1,1,178,528
1,6,20,4,2,1,B,G,r,g,5,15,107001,1,1,210,473
1,6,20,4,2,1,B,G,r,g,5,15,107001,1,3,177,486
1,6,20,4,2,1,B,G,r,g,5,15,107001,1,1,372,397
1,6,20,4,2,1,B,G,r,g,5,15,107001,1,1,407,258
1,6,20,4,2,1,B,G,r,g,5,15,107001,1,1,330,228
1,6,20,4,2,1,B,G,r,g,5,15,107001,1,1,400,166
1,6,20,4,2,1,B,G,r,g,5,15,107001,1,1,258,68
