dummy,month,day,period,view,station,fgeno,mgeno,fcol,mcol,nf,nm,frame,something,sex,x,y
1,6,18,2,3,2,B,G,b,y,10,10,1,1,3,317.9484,245.7158
1,6,18,2,3,2,B,G,b,y,10,10,1,1,3,338.9615,145.1529
1,6,18,2,3,2,B,G,b,y,10,10,1,1,3,472.545,197.6857
1,6,18,2,3,2,B,G,b,y,10,10,1001,1,3,516.0722,110.6313
1,6,18,2,3,2,B,G,b,y,10,10,1001,1,3,469.5432,197.6857
1,6,18,2,3,2,B,G,b,y,10,10,1001,1,3,308.9428,398.8114
1,6,18,2,3,2,B,G,b,y,10,10,1001,1,1,526.5788,367.2917
1,6,18,2,3,2,B,G,b,y,10,10,2001,1,3,275.9221,235.2092
1,6,18,2,3,2,B,G,b,y,10,10,2001,1,3,463.5394,221.7008
1,6,18,2,3,2,B,G,b,y,10,10,2001,1,1,490.5563,245.7158
1,6,18,2,3,2,B,G,b,y,10,10,2001,1,3,574.6088,308.7552
1,6,18,2,3,2,B,G,b,y,10,10,3001,1,3,414.0084,293.7458
1,6,18,2,3,2,B,G,b,y,10,10,3001,1,1,459.0366,284.7402
1,6,18,2,3,2,B,G,b,y,10,10,3001,1,3,462.0385,202.1886
1,6,18,2,3,2,B,G,b,y,10,10,3001,1,3,517.5732,212.6951
1,6,18,2,3,2,B,G,b,y,10,10,3001,1,1,496.56,119.637
1,6,18,2,3,2,B,G,b,y,10,10,4001,1,3,481.5507,191.682
1,6,18,2,3,2,B,G,b,y,10,10,4001,1,1,628.6426,184.1773
1,6,18,2,3,2,B,G,b,y,10,10,4001,1,3,598.6238,247.2167
1,6,18,2,3,2,B,G,b,y,10,10,4001,1,3,517.5732,470.8565
1,6,18,2,3,2,B,G,b,y,10,10,4001,1,1,278.924,469.3555
1,6,18,2,3,2,B,G,b,y,10,10,5001,1,1,328.455,167.667
1,6,18,2,3,2,B,G,b,y,10,10,5001,1,3,358.4737,203.6895
1,6,18,2,3,2,B,G,b,y,10,10,5001,1,3,480.0497,196.1848
1,6,18,2,3,2,B,G,b,y,10,10,5001,1,3,502.5638,374.7964
1,6,18,2,3,2,B,G,b,y,10,10,6001,1,3,490.5563,199.1867
1,6,18,2,3,2,B,G,b,y,10,10,6001,1,1,272.9203,377.7983
1,6,18,2,3,2,B,G,b,y,10,10,6001,1,3,236.8977,383.8021
1,6,18,2,3,2,B,G,b,y,10,10,6001,1,3,287.9296,505.378
1,6,18,2,3,2,B,G,b,y,10,10,6001,1,1,395.9972,482.864
1,6,18,2,3,2,B,G,b,y,10,10,7001,1,1,265.4156,208.1923
1,6,18,2,3,2,B,G,b,y,10,10,7001,1,3,305.9409,187.1792
1,6,18,2,3,2,B,G,b,y,10,10,7001,1,3,311.9447,143.652
1,6,18,2,3,2,B,G,b,y,10,10,7001,1,1,323.9522,112.1323
1,6,18,2,3,2,B,G,b,y,10,10,7001,1,3,478.5488,194.6839
1,6,18,2,3,2,B,G,b,y,10,10,8001,1,3,184.3649,313.258
1,6,18,2,3,2,B,G,b,y,10,10,8001,1,3,451.5319,178.1735
1,6,18,2,3,2,B,G,b,y,10,10,8001,1,1,320.9503,374.7964
1,6,18,2,3,2,B,G,b,y,10,10,8001,1,3,373.4831,458.849
1,6,18,2,3,2,B,G,b,y,10,10,8001,1,3,567.1041,413.8208
1,6,18,2,3,2,B,G,b,y,10,10,9001,1,3,382.4887,419.8246
1,6,18,2,3,2,B,G,b,y,10,10,9001,1,1,380.9878,317.7608
1,6,18,2,3,2,B,G,b,y,10,10,9001,1,3,373.4831,245.7158
1,6,18,2,3,2,B,G,b,y,10,10,9001,1,3,451.5319,170.6689
1,6,18,2,3,2,B,G,b,y,10,10,9001,1,3,507.0666,122.6388
1,6,18,2,3,2,B,G,b,y,10,10,10001,1,3,450.031,176.6726
1,6,18,2,3,2,B,G,b,y,10,10,10001,1,1,253.4081,196.1848
1,6,18,2,3,2,B,G,b,y,10,10,10001,1,3,257.9109,251.7195
1,6,18,2,3,2,B,G,b,y,10,10,10001,1,3,148.3424,275.7345
1,6,18,2,3,2,B,G,b,y,10,10,10001,1,3,499.5619,503.8771
1,6,18,2,3,2,B,G,b,y,10,10,11001,1,1,221.8884,296.7477
1,6,18,2,3,2,B,G,b,y,10,10,11001,1,3,466.5413,191.682
1,6,18,2,3,2,B,G,b,y,10,10,11001,1,1,394.4962,425.8283
1,6,18,2,3,2,B,G,b,y,10,10,11001,1,3,340.4625,466.3537
1,6,18,2,3,2,B,G,b,y,10,10,11001,1,3,403.5019,542.9015
1,6,18,2,3,2,B,G,b,y,10,10,11001,1,3,493.5582,484.3649
1,6,18,2,3,2,B,G,b,y,10,10,12001,1,3,359.9747,430.3311
1,6,18,2,3,2,B,G,b,y,10,10,12001,1,3,411.0066,395.8096
1,6,18,2,3,2,B,G,b,y,10,10,12001,1,3,570.106,428.8302
1,6,18,2,3,2,B,G,b,y,10,10,12001,1,1,543.0891,281.7383
1,6,18,2,3,2,B,G,b,y,10,10,12001,1,3,559.5994,232.2073
1,6,18,2,3,2,B,G,b,y,10,10,12001,1,3,430.5188,148.1548
1,6,18,2,3,2,B,G,b,y,10,10,12001,1,1,516.0722,92.6201
1,6,18,2,3,2,B,G,b,y,10,10,13001,1,3,423.0141,280.2373
1,6,18,2,3,2,B,G,b,y,10,10,13001,1,3,432.0197,166.166
1,6,18,2,3,2,B,G,b,y,10,10,13001,1,3,534.0835,100.1248
1,6,18,2,3,2,B,G,b,y,10,10,13001,1,3,546.091,350.7814
1,6,18,2,3,2,B,G,b,y,10,10,13001,1,3,178.3612,320.7627
1,6,18,2,3,2,B,G,b,y,10,10,13001,1,1,151.3443,353.7833
1,6,18,2,3,2,B,G,b,y,10,10,14001,1,3,391.4944,307.2542
1,6,18,2,3,2,B,G,b,y,10,10,14001,1,3,471.0441,188.6801
1,6,18,2,3,2,B,G,b,y,10,10,14001,1,3,439.5244,160.1623
1,6,18,2,3,2,B,G,b,y,10,10,14001,1,3,567.1041,344.7777
1,6,18,2,3,2,B,G,b,y,10,10,14001,1,1,606.1285,283.2392
1,6,18,2,3,2,B,G,b,y,10,10,15001,1,3,385.4906,505.378
1,6,18,2,3,2,B,G,b,y,10,10,15001,1,3,450.031,434.834
1,6,18,2,3,2,B,G,b,y,10,10,15001,1,1,526.5788,391.3068
1,6,18,2,3,2,B,G,b,y,10,10,15001,1,3,432.0197,212.6951
1,6,18,2,3,2,B,G,b,y,10,10,15001,1,3,469.5432,161.6632
1,6,18,2,3,2,B,G,b,y,10,10,16001,1,3,430.5188,364.2899
1,6,18,2,3,2,B,G,b,y,10,10,16001,1,3,544.5901,233.7083
1,6,18,2,3,2,B,G,b,y,10,10,16001,1,3,462.0385,199.1867
1,6,18,2,3,2,B,G,b,y,10,10,16001,1,3,206.879,412.3199
1,6,18,2,3,2,B,G,b,y,10,10,16001,1,1,146.8415,217.1979
1,6,18,2,3,2,B,G,b,y,10,10,17001,1,1,235.3968,409.318
1,6,18,2,3,2,B,G,b,y,10,10,17001,1,3,287.9296,467.8546
1,6,18,2,3,2,B,G,b,y,10,10,17001,1,1,338.9615,463.3518
1,6,18,2,3,2,B,G,b,y,10,10,17001,1,3,385.4906,404.8152
1,6,18,2,3,2,B,G,b,y,10,10,17001,1,3,475.5469,322.2636
1,6,18,2,3,2,B,G,b,y,10,10,17001,1,1,459.0366,206.6914
1,6,18,2,3,2,B,G,b,y,10,10,17001,1,3,550.5938,233.7083
1,6,18,2,3,2,B,G,b,y,10,10,18001,1,3,402.0009,481.363
1,6,18,2,3,2,B,G,b,y,10,10,18001,1,3,535.5844,413.8208
1,6,18,2,3,2,B,G,b,y,10,10,18001,1,3,550.5938,226.2036
1,6,18,2,3,2,B,G,b,y,10,10,18001,1,1,466.5413,184.1773
1,6,18,2,3,2,B,G,b,y,10,10,18001,1,3,424.515,170.6689
1,6,18,2,3,2,B,G,b,y,10,10,19001,1,3,296.9353,413.8208
1,6,18,2,3,2,B,G,b,y,10,10,19001,1,3,466.5413,346.2786
1,6,18,2,3,2,B,G,b,y,10,10,19001,1,3,549.0929,233.7083
1,6,18,2,3,2,B,G,b,y,10,10,19001,1,1,585.1154,245.7158
1,6,18,2,3,2,B,G,b,y,10,10,20001,1,1,406.5038,185.6782
1,6,18,2,3,2,B,G,b,y,10,10,20001,1,1,400.5,227.7045
1,6,18,2,3,2,B,G,b,y,10,10,20001,1,3,444.0272,215.697
1,6,18,2,3,2,B,G,b,y,10,10,20001,1,3,550.5938,230.7064
1,6,18,2,3,2,B,G,b,y,10,10,20001,1,3,259.4118,391.3068
1,6,18,2,3,2,B,G,b,y,10,10,21001,1,3,406.5038,284.7402
1,6,18,2,3,2,B,G,b,y,10,10,21001,1,3,522.076,224.7026
1,6,18,2,3,2,B,G,b,y,10,10,21001,1,3,520.575,169.1679
1,6,18,2,3,2,B,G,b,y,10,10,21001,1,1,531.0816,139.1492
1,6,18,2,3,2,B,G,b,y,10,10,22001,1,3,465.0403,190.1811
1,6,18,2,3,2,B,G,b,y,10,10,22001,1,3,547.5919,239.712
1,6,18,2,3,2,B,G,b,y,10,10,22001,1,1,484.5525,311.757
1,6,18,2,3,2,B,G,b,y,10,10,22001,1,3,395.9972,389.8058
1,6,18,2,3,2,B,G,b,y,10,10,23001,1,1,394.4962,275.7345
1,6,18,2,3,2,B,G,b,y,10,10,23001,1,3,412.5075,340.2749
1,6,18,2,3,2,B,G,b,y,10,10,23001,1,3,549.0929,233.7083
1,6,18,2,3,2,B,G,b,y,10,10,23001,1,1,253.4081,247.2167
1,6,18,2,3,2,B,G,b,y,10,10,23001,1,3,149.8433,295.2467
1,6,18,2,3,2,B,G,b,y,10,10,24001,1,1,281.9259,367.2917
1,6,18,2,3,2,B,G,b,y,10,10,24001,1,3,418.5113,356.7852
1,6,18,2,3,2,B,G,b,y,10,10,24001,1,3,549.0929,239.712
1,6,18,2,3,2,B,G,b,y,10,10,24001,1,3,441.0253,163.1642
1,6,18,2,3,2,B,G,b,y,10,10,25001,1,3,414.0084,355.2842
1,6,18,2,3,2,B,G,b,y,10,10,25001,1,3,441.0253,166.166
1,6,18,2,3,2,B,G,b,y,10,10,25001,1,1,499.5619,215.697
1,6,18,2,3,2,B,G,b,y,10,10,25001,1,3,555.0966,203.6895
1,6,18,2,3,2,B,G,b,y,10,10,26001,1,1,331.4568,400.3124
1,6,18,2,3,2,B,G,b,y,10,10,26001,1,3,412.5075,377.7983
1,6,18,2,3,2,B,G,b,y,10,10,26001,1,3,475.5469,191.682
1,6,18,2,3,2,B,G,b,y,10,10,26001,1,3,553.5957,226.2036
1,6,18,2,3,2,B,G,b,y,10,10,27001,1,3,559.5994,245.7158
1,6,18,2,3,2,B,G,b,y,10,10,27001,1,3,540.0872,239.712
1,6,18,2,3,2,B,G,b,y,10,10,27001,1,1,460.5375,350.7814
1,6,18,2,3,2,B,G,b,y,10,10,27001,1,3,415.5094,376.2974
1,6,18,2,3,2,B,G,b,y,10,10,28001,1,3,457.5356,364.2899
1,6,18,2,3,2,B,G,b,y,10,10,28001,1,3,534.0835,215.697
1,6,18,2,3,2,B,G,b,y,10,10,28001,1,3,559.5994,241.2129
1,6,18,2,3,2,B,G,b,y,10,10,28001,1,1,514.5713,446.8415
1,6,18,2,3,2,B,G,b,y,10,10,28001,1,1,427.5169,458.849
1,6,18,2,3,2,B,G,b,y,10,10,29001,1,3,550.5938,227.7045
1,6,18,2,3,2,B,G,b,y,10,10,29001,1,1,550.5938,227.7045
1,6,18,2,3,2,B,G,b,y,10,10,29001,1,3,567.1041,235.2092
1,6,18,2,3,2,B,G,b,y,10,10,29001,1,1,475.5469,347.7795
1,6,18,2,3,2,B,G,b,y,10,10,29001,1,3,386.9916,379.2992
1,6,18,2,3,2,B,G,b,y,10,10,29001,1,1,307.4418,376.2974
1,6,18,2,3,2,B,G,b,y,10,10,30001,1,3,417.0103,350.7814
1,6,18,2,3,2,B,G,b,y,10,10,30001,1,3,541.5882,260.7251
1,6,18,2,3,2,B,G,b,y,10,10,30001,1,3,559.5994,236.7101
1,6,18,2,3,2,B,G,b,y,10,10,30001,1,3,534.0835,106.1285
1,6,18,2,3,2,B,G,b,y,10,10,30001,1,1,368.9803,86.6163
1,6,18,2,3,2,B,G,b,y,10,10,31001,1,3,537.0854,229.2054
1,6,18,2,3,2,B,G,b,y,10,10,31001,1,3,556.5976,236.7101
1,6,18,2,3,2,B,G,b,y,10,10,31001,1,1,558.0985,301.2505
1,6,18,2,3,2,B,G,b,y,10,10,31001,1,3,567.1041,467.8546
1,6,18,2,3,2,B,G,b,y,10,10,31001,1,1,507.0666,494.8715
1,6,18,2,3,2,B,G,b,y,10,10,31001,1,3,275.9221,398.8114
1,6,18,2,3,2,B,G,b,y,10,10,32001,1,1,323.9522,259.2242
1,6,18,2,3,2,B,G,b,y,10,10,32001,1,3,391.4944,278.7364
1,6,18,2,3,2,B,G,b,y,10,10,32001,1,3,544.5901,239.712
1,6,18,2,3,2,B,G,b,y,10,10,32001,1,3,553.5957,232.2073
1,6,18,2,3,2,B,G,b,y,10,10,32001,1,3,588.1173,233.7083
1,6,18,2,3,2,B,G,b,y,10,10,33001,1,3,423.0141,362.7889
1,6,18,2,3,2,B,G,b,y,10,10,33001,1,3,523.5769,245.7158
1,6,18,2,3,2,B,G,b,y,10,10,33001,1,3,564.1023,235.2092
1,6,18,2,3,2,B,G,b,y,10,10,33001,1,3,556.5976,412.3199
1,6,18,2,3,2,B,G,b,y,10,10,33001,1,1,367.4794,553.4081
1,6,18,2,3,2,B,G,b,y,10,10,34001,1,3,335.9597,398.8114
1,6,18,2,3,2,B,G,b,y,10,10,34001,1,3,486.0535,446.8415
1,6,18,2,3,2,B,G,b,y,10,10,34001,1,1,471.0441,283.2392
1,6,18,2,3,2,B,G,b,y,10,10,34001,1,1,409.5056,233.7083
1,6,18,2,3,2,B,G,b,y,10,10,34001,1,3,561.1004,239.712
1,6,18,2,3,2,B,G,b,y,10,10,34001,1,3,598.6238,262.2261
1,6,18,2,3,2,B,G,b,y,10,10,35001,1,3,553.5957,235.2092
1,6,18,2,3,2,B,G,b,y,10,10,35001,1,3,466.5413,307.2542
1,6,18,2,3,2,B,G,b,y,10,10,35001,1,1,505.5657,431.8321
1,6,18,2,3,2,B,G,b,y,10,10,35001,1,3,305.9409,421.3255
1,6,18,2,3,2,B,G,b,y,10,10,35001,1,3,254.909,418.3236
1,6,18,2,3,2,B,G,b,y,10,10,36001,1,3,293.9334,466.3537
1,6,18,2,3,2,B,G,b,y,10,10,36001,1,3,311.9447,419.8246
1,6,18,2,3,2,B,G,b,y,10,10,36001,1,3,514.5713,454.3462
1,6,18,2,3,2,B,G,b,y,10,10,36001,1,1,510.0685,283.2392
1,6,18,2,3,2,B,G,b,y,10,10,36001,1,1,486.0535,236.7101
1,6,18,2,3,2,B,G,b,y,10,10,36001,1,3,535.5844,232.2073
1,6,18,2,3,2,B,G,b,y,10,10,37001,1,3,251.9071,400.3124
1,6,18,2,3,2,B,G,b,y,10,10,37001,1,3,317.9484,418.3236
1,6,18,2,3,2,B,G,b,y,10,10,37001,1,1,302.939,460.3499
1,6,18,2,3,2,B,G,b,y,10,10,37001,1,1,426.0159,379.2992
1,6,18,2,3,2,B,G,b,y,10,10,37001,1,3,468.0422,379.2992
1,6,18,2,3,2,B,G,b,y,10,10,37001,1,3,547.5919,233.7083
1,6,18,2,3,2,B,G,b,y,10,10,38001,1,3,310.4437,419.8246
1,6,18,2,3,2,B,G,b,y,10,10,38001,1,1,415.5094,368.7927
1,6,18,2,3,2,B,G,b,y,10,10,38001,1,1,389.9934,175.1717
1,6,18,2,3,2,B,G,b,y,10,10,38001,1,3,412.5075,142.151
1,6,18,2,3,2,B,G,b,y,10,10,38001,1,3,423.0141,184.1773
1,6,18,2,3,2,B,G,b,y,10,10,38001,1,3,544.5901,235.2092
1,6,18,2,3,2,B,G,b,y,10,10,39001,1,3,305.9409,400.3124
1,6,18,2,3,2,B,G,b,y,10,10,39001,1,3,382.4887,367.2917
1,6,18,2,3,2,B,G,b,y,10,10,39001,1,3,564.1023,266.7289
1,6,18,2,3,2,B,G,b,y,10,10,39001,1,3,552.0947,230.7064
1,6,18,2,3,2,B,G,b,y,10,10,40001,1,3,293.9334,382.3011
1,6,18,2,3,2,B,G,b,y,10,10,40001,1,3,304.44,433.333
1,6,18,2,3,2,B,G,b,y,10,10,40001,1,1,340.4625,421.3255
1,6,18,2,3,2,B,G,b,y,10,10,40001,1,3,496.56,461.8508
1,6,18,2,3,2,B,G,b,y,10,10,40001,1,3,540.0872,230.7064
1,6,18,2,3,2,B,G,b,y,10,10,40001,1,3,556.5976,230.7064
1,6,18,2,3,2,B,G,b,y,10,10,40001,1,1,603.1266,175.1717
1,6,18,2,3,2,B,G,b,y,10,10,41001,1,3,314.9465,409.318
1,6,18,2,3,2,B,G,b,y,10,10,41001,1,3,340.4625,406.3161
1,6,18,2,3,2,B,G,b,y,10,10,41001,1,1,471.0441,242.7139
1,6,18,2,3,2,B,G,b,y,10,10,41001,1,1,498.061,233.7083
1,6,18,2,3,2,B,G,b,y,10,10,41001,1,3,529.5807,236.7101
1,6,18,2,3,2,B,G,b,y,10,10,41001,1,3,547.5919,236.7101
1,6,18,2,3,2,B,G,b,y,10,10,41001,1,3,559.5994,215.697
1,6,18,2,3,2,B,G,b,y,10,10,42001,1,3,308.9428,400.3124
1,6,18,2,3,2,B,G,b,y,10,10,42001,1,3,343.4644,389.8058
1,6,18,2,3,2,B,G,b,y,10,10,42001,1,1,347.9672,340.2749
1,6,18,2,3,2,B,G,b,y,10,10,42001,1,3,540.0872,223.2017
1,6,18,2,3,2,B,G,b,y,10,10,42001,1,3,553.5957,236.7101
1,6,18,2,3,2,B,G,b,y,10,10,42001,1,3,583.6144,356.7852
1,6,18,2,3,2,B,G,b,y,10,10,42001,1,1,582.1135,401.8133
1,6,18,2,3,2,B,G,b,y,10,10,43001,1,3,296.9353,391.3068
1,6,18,2,3,2,B,G,b,y,10,10,43001,1,1,283.4268,413.8208
1,6,18,2,3,2,B,G,b,y,10,10,43001,1,3,456.0347,377.7983
1,6,18,2,3,2,B,G,b,y,10,10,43001,1,3,579.1116,452.8452
1,6,18,2,3,2,B,G,b,y,10,10,43001,1,1,607.6295,428.8302
1,6,18,2,3,2,B,G,b,y,10,10,43001,1,3,571.6069,236.7101
1,6,18,2,3,2,B,G,b,y,10,10,43001,1,3,537.0854,214.1961
1,6,18,2,3,2,B,G,b,y,10,10,44001,1,3,299.9371,511.3818
1,6,18,2,3,2,B,G,b,y,10,10,44001,1,1,325.4531,500.8752
1,6,18,2,3,2,B,G,b,y,10,10,44001,1,1,340.4625,527.8921
1,6,18,2,3,2,B,G,b,y,10,10,44001,1,3,421.5131,463.3518
1,6,18,2,3,2,B,G,b,y,10,10,44001,1,1,441.0253,406.3161
1,6,18,2,3,2,B,G,b,y,10,10,44001,1,3,489.0553,398.8114
1,6,18,2,3,2,B,G,b,y,10,10,44001,1,3,555.0966,241.2129
1,6,18,2,3,2,B,G,b,y,10,10,44001,1,3,561.1004,215.697
1,6,18,2,3,2,B,G,b,y,10,10,45001,1,3,224.8902,239.712
1,6,18,2,3,2,B,G,b,y,10,10,45001,1,3,448.53,164.6651
1,6,18,2,3,2,B,G,b,y,10,10,45001,1,3,472.545,272.7326
1,6,18,2,3,2,B,G,b,y,10,10,45001,1,3,553.5957,242.7139
1,6,18,2,3,2,B,G,b,y,10,10,45001,1,1,561.1004,139.1492
1,6,18,2,3,2,B,G,b,y,10,10,45001,1,1,562.6013,113.6332
1,6,18,2,3,2,B,G,b,y,10,10,45001,1,1,591.1191,146.6538
1,6,18,2,3,2,B,G,b,y,10,10,46001,1,1,290.9315,58.0985
1,6,18,2,3,2,B,G,b,y,10,10,46001,1,1,408.0047,142.151
1,6,18,2,3,2,B,G,b,y,10,10,46001,1,3,552.0947,215.697
1,6,18,2,3,2,B,G,b,y,10,10,46001,1,1,594.121,238.2111
1,6,18,2,3,2,B,G,b,y,10,10,46001,1,3,435.0216,356.7852
1,6,18,2,3,2,B,G,b,y,10,10,46001,1,3,295.4343,266.7289
1,6,18,2,3,2,B,G,b,y,10,10,46001,1,3,260.9128,251.7195
1,6,18,2,3,2,B,G,b,y,10,10,46001,1,1,469.5432,520.3874
1,6,18,2,3,2,B,G,b,y,10,10,46001,1,3,523.5769,503.8771
1,6,18,2,3,2,B,G,b,y,10,10,47001,1,1,465.0403,218.6989
1,6,18,2,3,2,B,G,b,y,10,10,47001,1,3,489.0553,194.6839
1,6,18,2,3,2,B,G,b,y,10,10,47001,1,3,556.5976,229.2054
1,6,18,2,3,2,B,G,b,y,10,10,47001,1,1,610.6313,317.7608
1,6,18,2,3,2,B,G,b,y,10,10,47001,1,1,669.1679,332.7702
1,6,18,2,3,2,B,G,b,y,10,10,47001,1,1,531.0816,539.8996
1,6,18,2,3,2,B,G,b,y,10,10,47001,1,3,403.5019,374.7964
1,6,18,2,3,2,B,G,b,y,10,10,47001,1,3,316.4475,448.3424
1,6,18,2,3,2,B,G,b,y,10,10,47001,1,3,265.4156,341.7758
1,6,18,2,3,2,B,G,b,y,10,10,48001,1,3,238.3987,308.7552
1,6,18,2,3,2,B,G,b,y,10,10,48001,1,3,389.9934,377.7983
1,6,18,2,3,2,B,G,b,y,10,10,48001,1,3,398.9991,499.3743
1,6,18,2,3,2,B,G,b,y,10,10,48001,1,1,445.5281,509.8809
1,6,18,2,3,2,B,G,b,y,10,10,48001,1,3,492.0572,511.3818
1,6,18,2,3,2,B,G,b,y,10,10,48001,1,1,498.061,478.3612
1,6,18,2,3,2,B,G,b,y,10,10,48001,1,3,558.0985,254.7214
1,6,18,2,3,2,B,G,b,y,10,10,48001,1,1,561.1004,214.1961
1,6,18,2,3,2,B,G,b,y,10,10,49001,1,1,139.3368,275.7345
1,6,18,2,3,2,B,G,b,y,10,10,49001,1,3,235.3968,323.7645
1,6,18,2,3,2,B,G,b,y,10,10,49001,1,3,307.4418,410.8189
1,6,18,2,3,2,B,G,b,y,10,10,49001,1,3,394.4962,379.2992
1,6,18,2,3,2,B,G,b,y,10,10,49001,1,3,537.0854,425.8283
1,6,18,2,3,2,B,G,b,y,10,10,49001,1,3,486.0535,293.7458
1,6,18,2,3,2,B,G,b,y,10,10,49001,1,1,625.6407,292.2448
1,6,18,2,3,2,B,G,b,y,10,10,50001,1,1,263.9146,122.6388
1,6,18,2,3,2,B,G,b,y,10,10,50001,1,1,287.9296,233.7083
1,6,18,2,3,2,B,G,b,y,10,10,50001,1,1,421.5131,226.2036
1,6,18,2,3,2,B,G,b,y,10,10,50001,1,1,432.0197,125.6407
1,6,18,2,3,2,B,G,b,y,10,10,50001,1,3,507.0666,223.2017
1,6,18,2,3,2,B,G,b,y,10,10,50001,1,3,553.5957,245.7158
1,6,18,2,3,2,B,G,b,y,10,10,50001,1,3,511.5694,425.8283
1,6,18,2,3,2,B,G,b,y,10,10,50001,1,3,371.9822,382.3011
1,6,18,2,3,2,B,G,b,y,10,10,50001,1,1,287.9296,491.8696
1,6,18,2,3,2,B,G,b,y,10,10,50001,1,1,202.3762,460.3499
1,6,18,2,3,2,B,G,b,y,10,10,51001,1,1,277.4231,319.2617
1,6,18,2,3,2,B,G,b,y,10,10,51001,1,1,341.9634,283.2392
1,6,18,2,3,2,B,G,b,y,10,10,51001,1,3,304.44,380.8002
1,6,18,2,3,2,B,G,b,y,10,10,51001,1,3,427.5169,415.3218
1,6,18,2,3,2,B,G,b,y,10,10,51001,1,1,403.5019,446.8415
1,6,18,2,3,2,B,G,b,y,10,10,51001,1,1,394.4962,491.8696
1,6,18,2,3,2,B,G,b,y,10,10,51001,1,3,426.0159,218.6989
1,6,18,2,3,2,B,G,b,y,10,10,51001,1,3,561.1004,239.712
1,6,18,2,3,2,B,G,b,y,10,10,52001,1,1,257.9109,320.7627
1,6,18,2,3,2,B,G,b,y,10,10,52001,1,1,329.9559,343.2767
1,6,18,2,3,2,B,G,b,y,10,10,52001,1,1,305.9409,463.3518
1,6,18,2,3,2,B,G,b,y,10,10,52001,1,3,426.0159,416.8227
1,6,18,2,3,2,B,G,b,y,10,10,52001,1,1,511.5694,296.7477
1,6,18,2,3,2,B,G,b,y,10,10,52001,1,3,559.5994,274.2336
1,6,18,2,3,2,B,G,b,y,10,10,52001,1,3,555.0966,230.7064
1,6,18,2,3,2,B,G,b,y,10,10,52001,1,1,619.637,229.2054
1,6,18,2,3,2,B,G,b,y,10,10,52001,1,3,505.5657,109.1304
1,6,18,2,3,2,B,G,b,y,10,10,53001,1,3,262.4137,316.2598
1,6,18,2,3,2,B,G,b,y,10,10,53001,1,1,331.4568,392.8077
1,6,18,2,3,2,B,G,b,y,10,10,53001,1,3,427.5169,419.8246
1,6,18,2,3,2,B,G,b,y,10,10,53001,1,3,544.5901,247.2167
1,6,18,2,3,2,B,G,b,y,10,10,53001,1,3,570.106,259.2242
1,6,18,2,3,2,B,G,b,y,10,10,53001,1,1,528.0797,106.1285
1,6,18,2,3,2,B,G,b,y,10,10,54001,1,3,417.0103,428.8302
1,6,18,2,3,2,B,G,b,y,10,10,54001,1,3,442.5263,391.3068
1,6,18,2,3,2,B,G,b,y,10,10,54001,1,3,490.5563,343.2767
1,6,18,2,3,2,B,G,b,y,10,10,54001,1,3,547.5919,229.2054
1,6,18,2,3,2,B,G,b,y,10,10,54001,1,1,513.0704,46.091
1,6,18,2,3,2,B,G,b,y,10,10,55001,1,3,311.9447,214.1961
1,6,18,2,3,2,B,G,b,y,10,10,55001,1,3,424.515,382.3011
1,6,18,2,3,2,B,G,b,y,10,10,55001,1,3,353.9709,425.8283
1,6,18,2,3,2,B,G,b,y,10,10,55001,1,1,377.9859,475.3593
1,6,18,2,3,2,B,G,b,y,10,10,55001,1,3,421.5131,518.8865
1,6,18,2,3,2,B,G,b,y,10,10,56001,1,3,468.0422,380.8002
1,6,18,2,3,2,B,G,b,y,10,10,56001,1,3,474.046,355.2842
1,6,18,2,3,2,B,G,b,y,10,10,56001,1,3,525.0779,287.742
1,6,18,2,3,2,B,G,b,y,10,10,56001,1,3,550.5938,350.7814
1,6,18,2,3,2,B,G,b,y,10,10,56001,1,1,196.3724,355.2842
1,6,18,2,3,2,B,G,b,y,10,10,56001,1,1,277.4231,59.5994
1,6,18,2,3,2,B,G,b,y,10,10,57001,1,3,244.4024,401.8133
1,6,18,2,3,2,B,G,b,y,10,10,57001,1,3,296.9353,400.3124
1,6,18,2,3,2,B,G,b,y,10,10,57001,1,3,447.0291,248.7176
1,6,18,2,3,2,B,G,b,y,10,10,57001,1,3,556.5976,193.1829
1,6,18,2,3,2,B,G,b,y,10,10,57001,1,3,420.0122,49.0929
1,6,18,2,3,2,B,G,b,y,10,10,58001,1,3,302.939,362.7889
1,6,18,2,3,2,B,G,b,y,10,10,58001,1,3,334.4587,476.8602
1,6,18,2,3,2,B,G,b,y,10,10,58001,1,3,435.0216,169.1679
1,6,18,2,3,2,B,G,b,y,10,10,58001,1,1,523.5769,193.1829
1,6,18,2,3,2,B,G,b,y,10,10,58001,1,3,549.0929,236.7101
1,6,18,2,3,2,B,G,b,y,10,10,59001,1,3,277.4231,248.7176
1,6,18,2,3,2,B,G,b,y,10,10,59001,1,1,253.4081,74.6088
1,6,18,2,3,2,B,G,b,y,10,10,59001,1,3,451.5319,256.2223
1,6,18,2,3,2,B,G,b,y,10,10,59001,1,3,541.5882,265.228
1,6,18,2,3,2,B,G,b,y,10,10,59001,1,3,510.0685,385.303
1,6,18,2,3,2,B,G,b,y,10,10,59001,1,3,331.4568,395.8096
1,6,18,2,3,2,B,G,b,y,10,10,60001,1,3,272.9203,304.2523
1,6,18,2,3,2,B,G,b,y,10,10,60001,1,3,439.5244,166.166
1,6,18,2,3,2,B,G,b,y,10,10,60001,1,1,432.0197,191.682
1,6,18,2,3,2,B,G,b,y,10,10,60001,1,3,335.9597,403.3143
1,6,18,2,3,2,B,G,b,y,10,10,60001,1,3,457.5356,379.2992
1,6,18,2,3,2,B,G,b,y,10,10,60001,1,3,400.5,430.3311
1,6,18,2,3,2,B,G,b,y,10,10,60001,1,1,412.5075,460.3499
1,6,18,2,3,2,B,G,b,y,10,10,60001,1,1,392.9953,482.864
1,6,18,2,3,2,B,G,b,y,10,10,61001,1,3,230.894,242.7139
1,6,18,2,3,2,B,G,b,y,10,10,61001,1,3,305.9409,382.3011
1,6,18,2,3,2,B,G,b,y,10,10,61001,1,1,289.4306,428.8302
1,6,18,2,3,2,B,G,b,y,10,10,61001,1,3,550.5938,488.8677
1,6,18,2,3,2,B,G,b,y,10,10,61001,1,3,546.091,269.7308
1,6,18,2,3,2,B,G,b,y,10,10,61001,1,3,505.5657,103.1266
1,6,18,2,3,2,B,G,b,y,10,10,61001,1,1,471.0441,71.6069
1,6,18,2,3,2,B,G,b,y,10,10,62001,1,3,265.4156,83.6144
1,6,18,2,3,2,B,G,b,y,10,10,62001,1,1,286.4287,154.1585
1,6,18,2,3,2,B,G,b,y,10,10,62001,1,1,263.9146,148.1548
1,6,18,2,3,2,B,G,b,y,10,10,62001,1,1,253.4081,172.1698
1,6,18,2,3,2,B,G,b,y,10,10,62001,1,3,286.4287,172.1698
1,6,18,2,3,2,B,G,b,y,10,10,62001,1,3,289.4306,400.3124
1,6,18,2,3,2,B,G,b,y,10,10,62001,1,3,523.5769,442.3386
1,6,18,2,3,2,B,G,b,y,10,10,62001,1,3,456.0347,173.6707
1,6,18,2,3,2,B,G,b,y,10,10,63001,1,3,409.5056,139.1492
1,6,18,2,3,2,B,G,b,y,10,10,63001,1,3,475.5469,211.1942
1,6,18,2,3,2,B,G,b,y,10,10,63001,1,1,585.1154,104.6276
1,6,18,2,3,2,B,G,b,y,10,10,63001,1,1,606.1285,205.1904
1,6,18,2,3,2,B,G,b,y,10,10,63001,1,3,607.6295,247.2167
1,6,18,2,3,2,B,G,b,y,10,10,63001,1,3,532.5826,382.3011
1,6,18,2,3,2,B,G,b,y,10,10,63001,1,3,335.9597,437.8358
1,6,18,2,3,2,B,G,b,y,10,10,63001,1,1,242.9015,320.7627
1,6,18,2,3,2,B,G,b,y,10,10,64001,1,3,445.5281,164.6651
1,6,18,2,3,2,B,G,b,y,10,10,64001,1,1,395.9972,164.6651
1,6,18,2,3,2,B,G,b,y,10,10,64001,1,3,355.4719,128.6426
1,6,18,2,3,2,B,G,b,y,10,10,64001,1,1,376.485,287.742
1,6,18,2,3,2,B,G,b,y,10,10,64001,1,3,395.9972,352.2824
1,6,18,2,3,2,B,G,b,y,10,10,64001,1,3,522.076,382.3011
1,6,18,2,3,2,B,G,b,y,10,10,64001,1,1,537.0854,418.3236
1,6,18,2,3,2,B,G,b,y,10,10,64001,1,1,265.4156,488.8677
1,6,18,2,3,2,B,G,b,y,10,10,65001,1,3,320.9503,389.8058
1,6,18,2,3,2,B,G,b,y,10,10,65001,1,3,513.0704,382.3011
1,6,18,2,3,2,B,G,b,y,10,10,65001,1,3,499.5619,239.712
1,6,18,2,3,2,B,G,b,y,10,10,65001,1,3,436.5225,160.1623
1,6,18,2,3,2,B,G,b,y,10,10,65001,1,1,655.6595,254.7214
1,6,18,2,3,2,B,G,b,y,10,10,66001,1,3,483.0516,176.6726
1,6,18,2,3,2,B,G,b,y,10,10,66001,1,3,553.5957,233.7083
1,6,18,2,3,2,B,G,b,y,10,10,66001,1,3,507.0666,367.2917
1,6,18,2,3,2,B,G,b,y,10,10,66001,1,3,489.0553,475.3593
1,6,18,2,3,2,B,G,b,y,10,10,66001,1,1,430.5188,472.3574
1,6,18,2,3,2,B,G,b,y,10,10,66001,1,1,553.5957,368.7927
1,6,18,2,3,2,B,G,b,y,10,10,67001,1,3,438.0235,170.6689
1,6,18,2,3,2,B,G,b,y,10,10,67001,1,3,487.5544,254.7214
1,6,18,2,3,2,B,G,b,y,10,10,67001,1,3,556.5976,232.2073
1,6,18,2,3,2,B,G,b,y,10,10,67001,1,1,535.5844,343.2767
1,6,18,2,3,2,B,G,b,y,10,10,67001,1,3,409.5056,376.2974
1,6,18,2,3,2,B,G,b,y,10,10,67001,1,1,389.9934,343.2767
1,6,18,2,3,2,B,G,b,y,10,10,67001,1,1,383.9897,229.2054
1,6,18,2,3,2,B,G,b,y,10,10,68001,1,1,448.53,136.1473
1,6,18,2,3,2,B,G,b,y,10,10,68001,1,3,471.0441,187.1792
1,6,18,2,3,2,B,G,b,y,10,10,68001,1,3,444.0272,232.2073
1,6,18,2,3,2,B,G,b,y,10,10,68001,1,3,418.5113,365.7908
1,6,18,2,3,2,B,G,b,y,10,10,68001,1,3,558.0985,235.2092
1,6,18,2,3,2,B,G,b,y,10,10,69001,1,3,412.5075,148.1548
1,6,18,2,3,2,B,G,b,y,10,10,69001,1,3,469.5432,188.6801
1,6,18,2,3,2,B,G,b,y,10,10,69001,1,3,535.5844,232.2073
1,6,18,2,3,2,B,G,b,y,10,10,69001,1,1,278.924,262.2261
1,6,18,2,3,2,B,G,b,y,10,10,69001,1,3,328.455,389.8058
1,6,18,2,3,2,B,G,b,y,10,10,70001,1,3,408.0047,140.6501
1,6,18,2,3,2,B,G,b,y,10,10,70001,1,3,463.5394,194.6839
1,6,18,2,3,2,B,G,b,y,10,10,70001,1,3,544.5901,244.2148
1,6,18,2,3,2,B,G,b,y,10,10,70001,1,3,567.1041,358.2861
1,6,18,2,3,2,B,G,b,y,10,10,70001,1,1,478.5488,359.7871
1,6,18,2,3,2,B,G,b,y,10,10,70001,1,1,462.0385,530.894
1,6,18,2,3,2,B,G,b,y,10,10,71001,1,3,397.4981,193.1829
1,6,18,2,3,2,B,G,b,y,10,10,71001,1,3,430.5188,209.6932
1,6,18,2,3,2,B,G,b,y,10,10,71001,1,3,565.6032,226.2036
1,6,18,2,3,2,B,G,b,y,10,10,71001,1,3,585.1154,200.6876
1,6,18,2,3,2,B,G,b,y,10,10,71001,1,1,594.121,122.6388
1,6,18,2,3,2,B,G,b,y,10,10,71001,1,1,615.1341,419.8246
1,6,18,2,3,2,B,G,b,y,10,10,72001,1,1,442.5263,53.5957
1,6,18,2,3,2,B,G,b,y,10,10,72001,1,3,451.5319,88.1173
1,6,18,2,3,2,B,G,b,y,10,10,72001,1,3,427.5169,209.6932
1,6,18,2,3,2,B,G,b,y,10,10,72001,1,3,406.5038,278.7364
1,6,18,2,3,2,B,G,b,y,10,10,72001,1,3,535.5844,328.2674
1,6,18,2,3,2,B,G,b,y,10,10,72001,1,3,259.4118,310.2561
1,6,18,2,3,2,B,G,b,y,10,10,72001,1,1,302.939,320.7627
1,6,18,2,3,2,B,G,b,y,10,10,72001,1,3,329.9559,526.3912
1,6,18,2,3,2,B,G,b,y,10,10,73001,1,3,215.8846,364.2899
1,6,18,2,3,2,B,G,b,y,10,10,73001,1,1,232.3949,326.7664
1,6,18,2,3,2,B,G,b,y,10,10,73001,1,3,350.969,419.8246
1,6,18,2,3,2,B,G,b,y,10,10,73001,1,1,373.4831,476.8602
1,6,18,2,3,2,B,G,b,y,10,10,73001,1,3,484.5525,427.3293
1,6,18,2,3,2,B,G,b,y,10,10,73001,1,3,418.5113,370.2936
1,6,18,2,3,2,B,G,b,y,10,10,73001,1,3,463.5394,308.7552
1,6,18,2,3,2,B,G,b,y,10,10,73001,1,3,534.0835,305.7533
1,6,18,2,3,2,B,G,b,y,10,10,73001,1,1,534.0835,205.1904
1,6,18,2,3,2,B,G,b,y,10,10,74001,1,1,245.9034,392.8077
1,6,18,2,3,2,B,G,b,y,10,10,74001,1,3,299.9371,434.834
1,6,18,2,3,2,B,G,b,y,10,10,74001,1,3,402.0009,428.8302
1,6,18,2,3,2,B,G,b,y,10,10,74001,1,3,405.0028,293.7458
1,6,18,2,3,2,B,G,b,y,10,10,74001,1,3,480.0497,286.2411
1,6,18,2,3,2,B,G,b,y,10,10,74001,1,1,543.0891,289.243
1,6,18,2,3,2,B,G,b,y,10,10,74001,1,3,242.9015,140.6501
1,6,18,2,3,2,B,G,b,y,10,10,75001,1,3,229.3931,305.7533
1,6,18,2,3,2,B,G,b,y,10,10,75001,1,1,283.4268,371.7946
1,6,18,2,3,2,B,G,b,y,10,10,75001,1,3,329.9559,343.2767
1,6,18,2,3,2,B,G,b,y,10,10,75001,1,1,289.4306,268.2298
1,6,18,2,3,2,B,G,b,y,10,10,75001,1,1,313.4456,187.1792
1,6,18,2,3,2,B,G,b,y,10,10,75001,1,3,337.4606,154.1585
1,6,18,2,3,2,B,G,b,y,10,10,75001,1,3,418.5113,68.6051
1,6,18,2,3,2,B,G,b,y,10,10,75001,1,3,475.5469,191.682
1,6,18,2,3,2,B,G,b,y,10,10,75001,1,3,594.121,313.258
1,6,18,2,3,2,B,G,b,y,10,10,76001,1,3,358.4737,413.8208
1,6,18,2,3,2,B,G,b,y,10,10,76001,1,1,397.4981,497.8734
1,6,18,2,3,2,B,G,b,y,10,10,76001,1,3,438.0235,485.8659
1,6,18,2,3,2,B,G,b,y,10,10,76001,1,1,531.0816,484.3649
1,6,18,2,3,2,B,G,b,y,10,10,76001,1,3,424.515,194.6839
1,6,18,2,3,2,B,G,b,y,10,10,76001,1,3,308.9428,226.2036
1,6,18,2,3,2,B,G,b,y,10,10,76001,1,3,338.9615,157.1604
1,6,18,2,3,2,B,G,b,y,10,10,77001,1,3,338.9615,152.6576
1,6,18,2,3,2,B,G,b,y,10,10,77001,1,3,310.4437,217.1979
1,6,18,2,3,2,B,G,b,y,10,10,77001,1,3,377.9859,170.6689
1,6,18,2,3,2,B,G,b,y,10,10,77001,1,3,412.5075,146.6538
1,6,18,2,3,2,B,G,b,y,10,10,77001,1,1,459.0366,166.166
1,6,18,2,3,2,B,G,b,y,10,10,77001,1,1,459.0366,211.1942
1,6,18,2,3,2,B,G,b,y,10,10,78001,1,3,462.0385,188.6801
1,6,18,2,3,2,B,G,b,y,10,10,78001,1,3,448.53,166.166
1,6,18,2,3,2,B,G,b,y,10,10,78001,1,1,395.9972,130.1435
1,6,18,2,3,2,B,G,b,y,10,10,78001,1,3,341.9634,151.1567
1,6,18,2,3,2,B,G,b,y,10,10,78001,1,3,256.4099,313.258
1,6,18,2,3,2,B,G,b,y,10,10,78001,1,1,322.4512,388.3049
1,6,18,2,3,2,B,G,b,y,10,10,78001,1,3,310.4437,434.834
1,6,18,2,3,2,B,G,b,y,10,10,79001,1,1,224.8902,422.8265
1,6,18,2,3,2,B,G,b,y,10,10,79001,1,3,247.4043,224.7026
1,6,18,2,3,2,B,G,b,y,10,10,79001,1,3,402.0009,125.6407
1,6,18,2,3,2,B,G,b,y,10,10,79001,1,3,447.0291,158.6614
1,6,18,2,3,2,B,G,b,y,10,10,79001,1,3,568.6051,233.7083
1,6,18,2,3,2,B,G,b,y,10,10,80001,1,3,263.9146,304.2523
1,6,18,2,3,2,B,G,b,y,10,10,80001,1,3,280.425,173.6707
1,6,18,2,3,2,B,G,b,y,10,10,80001,1,1,293.9334,82.1135
1,6,18,2,3,2,B,G,b,y,10,10,80001,1,3,447.0291,152.6576
1,6,18,2,3,2,B,G,b,y,10,10,80001,1,3,432.0197,176.6726
1,6,18,2,3,2,B,G,b,y,10,10,80001,1,3,456.0347,206.6914
1,6,18,2,3,2,B,G,b,y,10,10,81001,1,1,340.4625,446.8415
1,6,18,2,3,2,B,G,b,y,10,10,81001,1,1,499.5619,287.742
1,6,18,2,3,2,B,G,b,y,10,10,81001,1,3,549.0929,328.2674
1,6,18,2,3,2,B,G,b,y,10,10,81001,1,3,598.6238,188.6801
1,6,18,2,3,2,B,G,b,y,10,10,81001,1,3,450.031,124.1398
1,6,18,2,3,2,B,G,b,y,10,10,81001,1,3,459.0366,187.1792
1,6,18,2,3,2,B,G,b,y,10,10,81001,1,3,355.4719,184.1773
1,6,18,2,3,2,B,G,b,y,10,10,82001,1,3,450.031,244.2148
1,6,18,2,3,2,B,G,b,y,10,10,82001,1,3,415.5094,154.1585
1,6,18,2,3,2,B,G,b,y,10,10,82001,1,3,474.046,191.682
1,6,18,2,3,2,B,G,b,y,10,10,82001,1,3,559.5994,227.7045
1,6,18,2,3,2,B,G,b,y,10,10,82001,1,3,517.5732,509.8809
1,6,18,2,3,2,B,G,b,y,10,10,83001,1,3,483.0516,188.6801
1,6,18,2,3,2,B,G,b,y,10,10,83001,1,3,477.0478,271.2317
1,6,18,2,3,2,B,G,b,y,10,10,83001,1,3,474.046,308.7552
1,6,18,2,3,2,B,G,b,y,10,10,83001,1,3,411.0066,151.1567
1,6,18,2,3,2,B,G,b,y,10,10,83001,1,1,438.0235,116.6351
1,6,18,2,3,2,B,G,b,y,10,10,84001,1,3,395.9972,143.652
1,6,18,2,3,2,B,G,b,y,10,10,84001,1,3,460.5375,197.6857
1,6,18,2,3,2,B,G,b,y,10,10,84001,1,3,417.0103,361.288
1,6,18,2,3,2,B,G,b,y,10,10,84001,1,3,478.5488,440.8377
1,6,18,2,3,2,B,G,b,y,10,10,85001,1,3,426.0159,220.1998
1,6,18,2,3,2,B,G,b,y,10,10,85001,1,3,266.9165,136.1473
1,6,18,2,3,2,B,G,b,y,10,10,85001,1,1,420.0122,272.7326
1,6,18,2,3,2,B,G,b,y,10,10,85001,1,3,423.0141,359.7871
1,6,18,2,3,2,B,G,b,y,10,10,85001,1,3,507.0666,430.3311
1,6,18,2,3,2,B,G,b,y,10,10,86001,1,1,286.4287,94.121
1,6,18,2,3,2,B,G,b,y,10,10,86001,1,3,317.9484,113.6332
1,6,18,2,3,2,B,G,b,y,10,10,86001,1,3,427.5169,145.1529
1,6,18,2,3,2,B,G,b,y,10,10,86001,1,3,423.0141,358.2861
1,6,18,2,3,2,B,G,b,y,10,10,86001,1,1,409.5056,388.3049
1,6,18,2,3,2,B,G,b,y,10,10,86001,1,3,469.5432,364.2899
1,6,18,2,3,2,B,G,b,y,10,10,87001,1,1,350.969,107.6295
1,6,18,2,3,2,B,G,b,y,10,10,87001,1,1,350.969,148.1548
1,6,18,2,3,2,B,G,b,y,10,10,87001,1,3,380.9878,184.1773
1,6,18,2,3,2,B,G,b,y,10,10,87001,1,3,269.9184,194.6839
1,6,18,2,3,2,B,G,b,y,10,10,87001,1,3,320.9503,401.8133
1,6,18,2,3,2,B,G,b,y,10,10,87001,1,3,420.0122,347.7795
1,6,18,2,3,2,B,G,b,y,10,10,88001,1,3,430.5188,175.1717
1,6,18,2,3,2,B,G,b,y,10,10,88001,1,1,484.5525,227.7045
1,6,18,2,3,2,B,G,b,y,10,10,88001,1,3,519.0741,241.2129
1,6,18,2,3,2,B,G,b,y,10,10,88001,1,3,417.0103,356.7852
1,6,18,2,3,2,B,G,b,y,10,10,88001,1,3,256.4099,386.8039
1,6,18,2,3,2,B,G,b,y,10,10,89001,1,3,415.5094,362.7889
1,6,18,2,3,2,B,G,b,y,10,10,89001,1,3,492.0572,419.8246
1,6,18,2,3,2,B,G,b,y,10,10,89001,1,3,292.4325,229.2054
1,6,18,2,3,2,B,G,b,y,10,10,89001,1,3,420.0122,155.6595
1,6,18,2,3,2,B,G,b,y,10,10,89001,1,1,468.0422,160.1623
1,6,18,2,3,2,B,G,b,y,10,10,90001,1,3,314.9465,191.682
1,6,18,2,3,2,B,G,b,y,10,10,90001,1,3,367.4794,322.2636
1,6,18,2,3,2,B,G,b,y,10,10,90001,1,1,383.9897,280.2373
1,6,18,2,3,2,B,G,b,y,10,10,90001,1,3,418.5113,358.2861
1,6,18,2,3,2,B,G,b,y,10,10,90001,1,3,314.9465,415.3218
1,6,18,2,3,2,B,G,b,y,10,10,91001,1,1,430.5188,317.7608
1,6,18,2,3,2,B,G,b,y,10,10,91001,1,3,471.0441,353.7833
1,6,18,2,3,2,B,G,b,y,10,10,91001,1,3,441.0253,392.8077
1,6,18,2,3,2,B,G,b,y,10,10,91001,1,3,227.8921,385.303
1,6,18,2,3,2,B,G,b,y,10,10,91001,1,3,250.4062,220.1998
1,6,18,2,3,2,B,G,b,y,10,10,92001,1,3,435.0216,173.6707
1,6,18,2,3,2,B,G,b,y,10,10,92001,1,1,525.0779,257.7233
1,6,18,2,3,2,B,G,b,y,10,10,92001,1,3,505.5657,293.7458
1,6,18,2,3,2,B,G,b,y,10,10,92001,1,3,414.0084,350.7814
1,6,18,2,3,2,B,G,b,y,10,10,92001,1,3,322.4512,466.3537
1,6,18,2,3,2,B,G,b,y,10,10,93001,1,3,426.0159,193.1829
1,6,18,2,3,2,B,G,b,y,10,10,93001,1,3,406.5038,368.7927
1,6,18,2,3,2,B,G,b,y,10,10,93001,1,3,435.0216,484.3649
1,6,18,2,3,2,B,G,b,y,10,10,93001,1,1,526.5788,167.667
1,6,18,2,3,2,B,G,b,y,10,10,94001,1,3,272.9203,254.7214
1,6,18,2,3,2,B,G,b,y,10,10,94001,1,1,271.4193,334.2711
1,6,18,2,3,2,B,G,b,y,10,10,94001,1,3,418.5113,350.7814
1,6,18,2,3,2,B,G,b,y,10,10,94001,1,3,426.0159,367.2917
1,6,18,2,3,2,B,G,b,y,10,10,94001,1,3,577.6107,334.2711
1,6,18,2,3,2,B,G,b,y,10,10,95001,1,3,262.4137,311.757
1,6,18,2,3,2,B,G,b,y,10,10,95001,1,1,268.4174,266.7289
1,6,18,2,3,2,B,G,b,y,10,10,95001,1,1,406.5038,100.1248
1,6,18,2,3,2,B,G,b,y,10,10,95001,1,3,547.5919,251.7195
1,6,18,2,3,2,B,G,b,y,10,10,95001,1,3,391.4944,377.7983
1,6,18,2,3,2,B,G,b,y,10,10,95001,1,3,450.031,535.3968
1,6,18,2,3,2,B,G,b,y,10,10,96001,1,3,280.425,340.2749
1,6,18,2,3,2,B,G,b,y,10,10,96001,1,1,337.4606,304.2523
1,6,18,2,3,2,B,G,b,y,10,10,96001,1,3,471.0441,371.7946
1,6,18,2,3,2,B,G,b,y,10,10,96001,1,3,562.6013,284.7402
1,6,18,2,3,2,B,G,b,y,10,10,96001,1,3,462.0385,184.1773
1,6,18,2,3,2,B,G,b,y,10,10,97001,1,3,301.4381,398.8114
1,6,18,2,3,2,B,G,b,y,10,10,97001,1,3,305.9409,461.8508
1,6,18,2,3,2,B,G,b,y,10,10,97001,1,3,436.5225,170.6689
1,6,18,2,3,2,B,G,b,y,10,10,97001,1,3,389.9934,76.1098
1,6,18,2,3,2,B,G,b,y,10,10,97001,1,1,435.0216,80.6126
1,6,18,2,3,2,B,G,b,y,10,10,98001,1,1,232.3949,145.1529
1,6,18,2,3,2,B,G,b,y,10,10,98001,1,3,212.8827,251.7195
1,6,18,2,3,2,B,G,b,y,10,10,98001,1,3,262.4137,343.2767
1,6,18,2,3,2,B,G,b,y,10,10,98001,1,3,299.9371,397.3105
1,6,18,2,3,2,B,G,b,y,10,10,98001,1,3,438.0235,245.7158
1,6,18,2,3,2,B,G,b,y,10,10,99001,1,3,247.4043,293.7458
1,6,18,2,3,2,B,G,b,y,10,10,99001,1,3,266.9165,334.2711
1,6,18,2,3,2,B,G,b,y,10,10,99001,1,3,302.939,397.3105
1,6,18,2,3,2,B,G,b,y,10,10,99001,1,3,487.5544,263.727
1,6,18,2,3,2,B,G,b,y,10,10,99001,1,1,328.455,47.5919
1,6,18,2,3,2,B,G,b,y,10,10,99001,1,1,550.5938,110.6313
1,6,18,2,3,2,B,G,b,y,10,10,100001,1,3,266.9165,332.7702
1,6,18,2,3,2,B,G,b,y,10,10,100001,1,3,248.9053,335.772
1,6,18,2,3,2,B,G,b,y,10,10,100001,1,3,298.4362,431.8321
1,6,18,2,3,2,B,G,b,y,10,10,100001,1,3,514.5713,209.6932
1,6,18,2,3,2,B,G,b,y,10,10,100001,1,1,365.9784,23.5769
1,6,18,2,3,2,B,G,b,y,10,10,101001,1,3,248.9053,313.258
1,6,18,2,3,2,B,G,b,y,10,10,101001,1,3,295.4343,320.7627
1,6,18,2,3,2,B,G,b,y,10,10,101001,1,3,301.4381,406.3161
1,6,18,2,3,2,B,G,b,y,10,10,101001,1,1,235.3968,385.303
1,6,18,2,3,2,B,G,b,y,10,10,101001,1,1,332.9578,226.2036
1,6,18,2,3,2,B,G,b,y,10,10,101001,1,3,265.4156,145.1529
1,6,18,2,3,2,B,G,b,y,10,10,101001,1,3,430.5188,178.1735
1,6,18,2,3,2,B,G,b,y,10,10,102001,1,3,233.8959,311.757
1,6,18,2,3,2,B,G,b,y,10,10,102001,1,1,196.3724,334.2711
1,6,18,2,3,2,B,G,b,y,10,10,102001,1,1,244.4024,334.2711
1,6,18,2,3,2,B,G,b,y,10,10,102001,1,3,271.4193,319.2617
1,6,18,2,3,2,B,G,b,y,10,10,102001,1,3,280.425,290.7439
1,6,18,2,3,2,B,G,b,y,10,10,102001,1,1,265.4156,287.742
1,6,18,2,3,2,B,G,b,y,10,10,102001,1,3,295.4343,397.3105
1,6,18,2,3,2,B,G,b,y,10,10,102001,1,3,361.4756,326.7664
1,6,18,2,3,2,B,G,b,y,10,10,102001,1,1,471.0441,389.8058
1,6,18,2,3,2,B,G,b,y,10,10,103001,1,3,241.4006,356.7852
1,6,18,2,3,2,B,G,b,y,10,10,103001,1,3,286.4287,365.7908
1,6,18,2,3,2,B,G,b,y,10,10,103001,1,3,311.9447,386.8039
1,6,18,2,3,2,B,G,b,y,10,10,103001,1,1,316.4475,331.2692
1,6,18,2,3,2,B,G,b,y,10,10,103001,1,3,364.4775,361.288
1,6,18,2,3,2,B,G,b,y,10,10,103001,1,3,296.9353,452.8452
1,6,18,2,3,2,B,G,b,y,10,10,103001,1,1,343.4644,460.3499
1,6,18,2,3,2,B,G,b,y,10,10,104001,1,3,242.9015,310.2561
1,6,18,2,3,2,B,G,b,y,10,10,104001,1,1,319.4493,332.7702
1,6,18,2,3,2,B,G,b,y,10,10,104001,1,3,296.9353,364.2899
1,6,18,2,3,2,B,G,b,y,10,10,104001,1,3,302.939,410.8189
1,6,18,2,3,2,B,G,b,y,10,10,104001,1,1,343.4644,391.3068
1,6,18,2,3,2,B,G,b,y,10,10,104001,1,3,274.4212,428.8302
1,6,18,2,3,2,B,G,b,y,10,10,104001,1,3,301.4381,452.8452
1,6,18,2,3,2,B,G,b,y,10,10,104001,1,1,598.6238,254.7214
1,6,18,2,3,2,B,G,b,y,10,10,105001,1,1,241.4006,457.348
1,6,18,2,3,2,B,G,b,y,10,10,105001,1,3,299.9371,389.8058
1,6,18,2,3,2,B,G,b,y,10,10,105001,1,1,245.9034,373.2955
1,6,18,2,3,2,B,G,b,y,10,10,105001,1,3,269.9184,328.2674
1,6,18,2,3,2,B,G,b,y,10,10,105001,1,3,286.4287,265.228
1,6,18,2,3,2,B,G,b,y,10,10,105001,1,3,344.9653,305.7533
1,6,18,2,3,2,B,G,b,y,10,10,105001,1,3,501.0629,227.7045
1,6,18,2,3,2,B,G,b,y,10,10,105001,1,1,547.5919,217.1979
1,6,18,2,3,2,B,G,b,y,10,10,105001,1,1,525.0779,155.6595
1,6,18,2,3,2,B,G,b,y,10,10,106001,1,3,301.4381,410.8189
1,6,18,2,3,2,B,G,b,y,10,10,106001,1,3,290.9315,374.7964
1,6,18,2,3,2,B,G,b,y,10,10,106001,1,3,269.9184,323.7645
1,6,18,2,3,2,B,G,b,y,10,10,106001,1,1,284.9278,277.2355
1,6,18,2,3,2,B,G,b,y,10,10,106001,1,3,329.9559,262.2261
1,6,18,2,3,2,B,G,b,y,10,10,106001,1,3,426.0159,220.1998
1,6,18,2,3,2,B,G,b,y,10,10,106001,1,1,463.5394,182.6764
1,6,18,2,3,2,B,G,b,y,10,10,106001,1,1,459.0366,235.2092
1,6,18,2,3,2,B,G,b,y,10,10,107001,1,3,320.9503,526.3912
1,6,18,2,3,2,B,G,b,y,10,10,107001,1,1,284.9278,517.3856
1,6,18,2,3,2,B,G,b,y,10,10,107001,1,3,314.9465,403.3143
1,6,18,2,3,2,B,G,b,y,10,10,107001,1,3,325.4531,400.3124
1,6,18,2,3,2,B,G,b,y,10,10,107001,1,3,307.4418,397.3105
1,6,18,2,3,2,B,G,b,y,10,10,107001,1,3,266.9165,326.7664
1,6,18,2,3,2,B,G,b,y,10,10,107001,1,1,305.9409,296.7477
1,6,18,2,3,2,B,G,b,y,10,10,107001,1,1,436.5225,409.318
