dummy,month,day,period,view,station,fgeno,mgeno,fcol,mcol,nf,nm,frame,something,sex,x,y
1,7,11,4,0,2,A,E,b,y,15,5,1,1,3,349.4633,68.9211
1,7,11,4,0,2,A,E,b,y,15,5,1,1,3,312.4617,86.7839
1,7,11,4,0,2,A,E,b,y,15,5,1,1,3,459.1922,237.3421
1,7,11,4,0,2,A,E,b,y,15,5,1,1,3,487.2624,419.7982
1,7,11,4,0,2,A,E,b,y,15,5,1001,1,3,385.189,90.6116
1,7,11,4,0,2,A,E,b,y,15,5,1001,1,3,373.7057,108.4745
1,7,11,4,0,2,A,E,b,y,15,5,1001,1,3,450.2608,229.6866
1,7,11,4,0,2,A,E,b,y,15,5,1001,1,3,498.7456,410.8668
1,7,11,4,0,2,A,E,b,y,15,5,2001,1,3,429.8461,61.2656
1,7,11,4,0,2,A,E,b,y,15,5,2001,1,3,394.1204,160.7871
1,7,11,4,0,2,A,E,b,y,15,5,2001,1,3,488.5383,225.8589
1,7,11,4,0,2,A,E,b,y,15,5,2001,1,3,489.8142,404.4872
1,7,11,4,0,2,A,E,b,y,15,5,3001,1,3,436.2257,43.4027
1,7,11,4,0,2,A,E,b,y,15,5,3001,1,3,455.3644,155.6834
1,7,11,4,0,2,A,E,b,y,15,5,3001,1,3,419.6388,179.9258
1,7,11,4,0,2,A,E,b,y,15,5,3001,1,3,485.9864,386.6244
1,7,11,4,0,2,A,E,b,y,15,5,4001,1,3,437.5016,44.6786
1,7,11,4,0,2,A,E,b,y,15,5,4001,1,3,446.433,132.7169
1,7,11,4,0,2,A,E,b,y,15,5,4001,1,3,428.5702,186.3054
1,7,11,4,0,2,A,E,b,y,15,5,4001,1,3,491.0901,380.2448
1,7,11,4,0,2,A,E,b,y,15,5,5001,1,3,446.433,42.1268
1,7,11,4,0,2,A,E,b,y,15,5,5001,1,3,415.811,109.7504
1,7,11,4,0,2,A,E,b,y,15,5,5001,1,3,468.1236,261.5845
1,7,11,4,0,2,A,E,b,y,15,5,5001,1,3,508.953,364.9338
1,7,11,4,0,2,A,E,b,y,15,5,6001,1,3,438.7775,39.575
1,7,11,4,0,2,A,E,b,y,15,5,6001,1,3,367.3262,206.7201
1,7,11,4,0,2,A,E,b,y,15,5,6001,1,3,463.0199,237.3421
1,7,11,4,0,2,A,E,b,y,15,5,6001,1,3,505.1252,350.8987
1,7,11,4,0,2,A,E,b,y,15,5,7001,1,1,524.264,66.3692
1,7,11,4,0,2,A,E,b,y,15,5,7001,1,3,441.3293,44.6786
1,7,11,4,0,2,A,E,b,y,15,5,7001,1,3,460.4681,253.929
1,7,11,4,0,2,A,E,b,y,15,5,7001,1,3,397.9482,259.0327
1,7,11,4,0,2,A,E,b,y,15,5,7001,1,3,524.264,353.4506
1,7,11,4,0,2,A,E,b,y,15,5,8001,1,3,471.9514,80.4043
1,7,11,4,0,2,A,E,b,y,15,5,8001,1,3,459.1922,206.7201
1,7,11,4,0,2,A,E,b,y,15,5,8001,1,3,433.6738,299.862
1,7,11,4,0,2,A,E,b,y,15,5,8001,1,3,503.8493,354.7265
1,7,11,4,0,2,A,E,b,y,15,5,8001,1,1,266.5287,473.3868
1,7,11,4,0,2,A,E,b,y,15,5,9001,1,3,474.5032,95.7153
1,7,11,4,0,2,A,E,b,y,15,5,9001,1,3,493.6419,257.7568
1,7,11,4,0,2,A,E,b,y,15,5,9001,1,3,442.6053,283.2751
1,7,11,4,0,2,A,E,b,y,15,5,9001,1,3,450.2608,371.3134
1,7,11,4,0,2,A,E,b,y,15,5,10001,1,3,383.9131,53.61
1,7,11,4,0,2,A,E,b,y,15,5,10001,1,3,475.7791,244.9976
1,7,11,4,0,2,A,E,b,y,15,5,10001,1,3,441.3293,299.862
1,7,11,4,0,2,A,E,b,y,15,5,10001,1,3,452.8126,372.5893
1,7,11,4,0,2,A,E,b,y,15,5,11001,1,3,480.8828,88.0598
1,7,11,4,0,2,A,E,b,y,15,5,11001,1,3,510.2289,270.5159
1,7,11,4,0,2,A,E,b,y,15,5,11001,1,3,438.7775,303.6898
1,7,11,4,0,2,A,E,b,y,15,5,11001,1,3,465.5718,409.5909
1,7,11,4,0,2,A,E,b,y,15,5,12001,1,3,500.0215,204.1683
1,7,11,4,0,2,A,E,b,y,15,5,12001,1,1,533.1954,239.8939
1,7,11,4,0,2,A,E,b,y,15,5,12001,1,3,394.1204,336.8636
1,7,11,4,0,2,A,E,b,y,15,5,12001,1,3,483.4346,421.0742
1,7,11,4,0,2,A,E,b,y,15,5,13001,1,3,471.9514,246.2735
1,7,11,4,0,2,A,E,b,y,15,5,13001,1,3,403.0518,325.3804
1,7,11,4,0,2,A,E,b,y,15,5,13001,1,3,487.2624,427.4537
1,7,11,4,0,2,A,E,b,y,15,5,13001,1,3,255.0455,238.618
1,7,11,4,0,2,A,E,b,y,15,5,14001,1,3,521.7121,163.3389
1,7,11,4,0,2,A,E,b,y,15,5,14001,1,3,622.5096,326.6563
1,7,11,4,0,2,A,E,b,y,15,5,14001,1,3,405.6037,336.8636
1,7,11,4,0,2,A,E,b,y,15,5,14001,1,3,249.9418,279.4474
1,7,11,4,0,2,A,E,b,y,15,5,15001,1,3,492.366,139.0965
1,7,11,4,0,2,A,E,b,y,15,5,15001,1,3,618.6818,349.6228
1,7,11,4,0,2,A,E,b,y,15,5,15001,1,3,385.189,336.8636
1,7,11,4,0,2,A,E,b,y,15,5,15001,1,3,270.3565,274.3437
1,7,11,4,0,2,A,E,b,y,15,5,16001,1,3,445.1571,90.6116
1,7,11,4,0,2,A,E,b,y,15,5,16001,1,3,608.4745,336.8636
1,7,11,4,0,2,A,E,b,y,15,5,16001,1,3,368.6021,336.8636
1,7,11,4,0,2,A,E,b,y,15,5,16001,1,3,262.701,304.9657
1,7,11,4,0,2,A,E,b,y,15,5,17001,1,3,345.6356,111.0263
1,7,11,4,0,2,A,E,b,y,15,5,17001,1,3,177.2145,269.24
1,7,11,4,0,2,A,E,b,y,15,5,17001,1,3,368.6021,331.76
1,7,11,4,0,2,A,E,b,y,15,5,17001,1,3,623.7855,343.2432
1,7,11,4,0,2,A,E,b,y,15,5,18001,1,3,339.256,128.8892
1,7,11,4,0,2,A,E,b,y,15,5,18001,1,3,179.7663,281.9992
1,7,11,4,0,2,A,E,b,y,15,5,18001,1,3,426.0183,368.7616
1,7,11,4,0,2,A,E,b,y,15,5,18001,1,3,628.8892,347.071
1,7,11,4,0,2,A,E,b,y,15,5,19001,1,3,329.0486,141.6483
1,7,11,4,0,2,A,E,b,y,15,5,19001,1,3,211.6643,292.2065
1,7,11,4,0,2,A,E,b,y,15,5,19001,1,3,455.3644,357.2783
1,7,11,4,0,2,A,E,b,y,15,5,19001,1,3,602.0949,326.6563
1,7,11,4,0,2,A,E,b,y,15,5,20001,1,3,300.9785,111.0263
1,7,11,4,0,2,A,E,b,y,15,5,20001,1,3,468.1236,364.9338
1,7,11,4,0,2,A,E,b,y,15,5,20001,1,3,596.9912,326.6563
1,7,11,4,0,2,A,E,b,y,15,5,20001,1,3,173.3868,285.827
1,7,11,4,0,2,A,E,b,y,15,5,21001,1,3,403.0518,75.3006
1,7,11,4,0,2,A,E,b,y,15,5,21001,1,3,497.4697,352.1746
1,7,11,4,0,2,A,E,b,y,15,5,21001,1,3,604.6467,329.2081
1,7,11,4,0,2,A,E,b,y,15,5,21001,1,3,165.7313,303.6898
1,7,11,4,0,2,A,E,b,y,15,5,22001,1,3,441.3293,108.4745
1,7,11,4,0,2,A,E,b,y,15,5,22001,1,3,489.8142,340.6914
1,7,11,4,0,2,A,E,b,y,15,5,22001,1,3,595.7153,294.7584
1,7,11,4,0,2,A,E,b,y,15,5,22001,1,3,175.9386,366.2097
1,7,11,4,0,2,A,E,b,y,15,5,23001,1,3,456.6404,109.7504
1,7,11,4,0,2,A,E,b,y,15,5,23001,1,1,377.5335,75.3006
1,7,11,4,0,2,A,E,b,y,15,5,23001,1,3,510.2289,362.382
1,7,11,4,0,2,A,E,b,y,15,5,23001,1,3,552.3341,335.5877
1,7,11,4,0,2,A,E,b,y,15,5,23001,1,3,173.3868,373.8652
1,7,11,4,0,2,A,E,b,y,15,5,24001,1,3,500.0215,153.1316
1,7,11,4,0,2,A,E,b,y,15,5,24001,1,3,505.1252,343.2432
1,7,11,4,0,2,A,E,b,y,15,5,24001,1,3,539.575,326.6563
1,7,11,4,0,2,A,E,b,y,15,5,24001,1,3,178.4904,386.6244
1,7,11,4,0,2,A,E,b,y,15,5,24001,1,1,156.7998,303.6898
1,7,11,4,0,2,A,E,b,y,15,5,25001,1,3,420.9147,227.1348
1,7,11,4,0,2,A,E,b,y,15,5,25001,1,3,505.1252,358.5542
1,7,11,4,0,2,A,E,b,y,15,5,25001,1,3,559.9896,382.7967
1,7,11,4,0,2,A,E,b,y,15,5,25001,1,3,193.8014,409.5909
1,7,11,4,0,2,A,E,b,y,15,5,26001,1,3,414.5351,207.996
1,7,11,4,0,2,A,E,b,y,15,5,26001,1,3,454.0885,326.6563
1,7,11,4,0,2,A,E,b,y,15,5,26001,1,3,574.0247,348.3469
1,7,11,4,0,2,A,E,b,y,15,5,26001,1,3,200.181,430.0056
1,7,11,4,0,2,A,E,b,y,15,5,27001,1,3,464.2959,237.3421
1,7,11,4,0,2,A,E,b,y,15,5,27001,1,3,426.0183,334.3118
1,7,11,4,0,2,A,E,b,y,15,5,27001,1,3,588.0598,336.8636
1,7,11,4,0,2,A,E,b,y,15,5,27001,1,3,205.2847,431.2815
1,7,11,4,0,2,A,E,b,y,15,5,28001,1,3,502.5734,178.6499
1,7,11,4,0,2,A,E,b,y,15,5,28001,1,3,436.2257,327.9322
1,7,11,4,0,2,A,E,b,y,15,5,28001,1,3,596.9912,324.1045
1,7,11,4,0,2,A,E,b,y,15,5,28001,1,3,218.0439,442.7648
1,7,11,4,0,2,A,E,b,y,15,5,29001,1,3,488.5383,144.2002
1,7,11,4,0,2,A,E,b,y,15,5,29001,1,3,434.9498,353.4506
1,7,11,4,0,2,A,E,b,y,15,5,29001,1,3,584.2321,311.3453
1,7,11,4,0,2,A,E,b,y,15,5,29001,1,3,228.2512,451.6962
1,7,11,4,0,2,A,E,b,y,15,5,30001,1,3,487.2624,126.3373
1,7,11,4,0,2,A,E,b,y,15,5,30001,1,3,584.2321,324.1045
1,7,11,4,0,2,A,E,b,y,15,5,30001,1,3,459.1922,363.6579
1,7,11,4,0,2,A,E,b,y,15,5,30001,1,3,239.7344,467.0072
1,7,11,4,0,2,A,E,b,y,15,5,31001,1,3,429.8461,91.8876
1,7,11,4,0,2,A,E,b,y,15,5,31001,1,3,501.2974,358.5542
1,7,11,4,0,2,A,E,b,y,15,5,31001,1,3,586.7839,310.0694
1,7,11,4,0,2,A,E,b,y,15,5,31001,1,3,232.0789,470.8349
1,7,11,4,0,2,A,E,b,y,15,5,32001,1,3,410.7073,113.5781
1,7,11,4,0,2,A,E,b,y,15,5,32001,1,3,565.0933,150.5797
1,7,11,4,0,2,A,E,b,y,15,5,32001,1,3,520.4362,354.7265
1,7,11,4,0,2,A,E,b,y,15,5,32001,1,3,232.0789,459.3517
1,7,11,4,0,2,A,E,b,y,15,5,33001,1,3,363.4984,80.4043
1,7,11,4,0,2,A,E,b,y,15,5,33001,1,3,445.1571,172.2703
1,7,11,4,0,2,A,E,b,y,15,5,33001,1,3,497.4697,354.7265
1,7,11,4,0,2,A,E,b,y,15,5,33001,1,3,216.7679,475.9386
1,7,11,4,0,2,A,E,b,y,15,5,34001,1,3,349.4633,75.3006
1,7,11,4,0,2,A,E,b,y,15,5,34001,1,3,258.8732,432.5574
1,7,11,4,0,2,A,E,b,y,15,5,34001,1,3,455.3644,376.4171
1,7,11,4,0,2,A,E,b,y,15,5,34001,1,3,506.4011,353.4506
1,7,11,4,0,2,A,E,b,y,15,5,35001,1,3,307.3581,367.4856
1,7,11,4,0,2,A,E,b,y,15,5,35001,1,3,446.433,320.2767
1,7,11,4,0,2,A,E,b,y,15,5,35001,1,3,539.575,357.2783
1,7,11,4,0,2,A,E,b,y,15,5,35001,1,3,355.8429,85.508
1,7,11,4,0,2,A,E,b,y,15,5,36001,1,3,428.5702,30.6435
1,7,11,4,0,2,A,E,b,y,15,5,36001,1,3,539.575,348.3469
1,7,11,4,0,2,A,E,b,y,15,5,36001,1,3,400.5,398.1077
1,7,11,4,0,2,A,E,b,y,15,5,36001,1,3,346.9115,398.1077
1,7,11,4,0,2,A,E,b,y,15,5,37001,1,3,410.7073,130.1651
1,7,11,4,0,2,A,E,b,y,15,5,37001,1,3,575.3006,306.2416
1,7,11,4,0,2,A,E,b,y,15,5,37001,1,3,399.2241,395.5558
1,7,11,4,0,2,A,E,b,y,15,5,37001,1,3,294.5989,358.5542
1,7,11,4,0,2,A,E,b,y,15,5,38001,1,3,420.9147,130.1651
1,7,11,4,0,2,A,E,b,y,15,5,38001,1,3,563.8174,247.5494
1,7,11,4,0,2,A,E,b,y,15,5,38001,1,3,415.811,418.5223
1,7,11,4,0,2,A,E,b,y,15,5,38001,1,3,294.5989,350.8987
1,7,11,4,0,2,A,E,b,y,15,5,39001,1,3,317.5654,283.2751
1,7,11,4,0,2,A,E,b,y,15,5,39001,1,3,419.6388,139.0965
1,7,11,4,0,2,A,E,b,y,15,5,39001,1,3,545.9545,241.1699
1,7,11,4,0,2,A,E,b,y,15,5,39001,1,3,400.5,407.0391
1,7,11,4,0,2,A,E,b,y,15,5,40001,1,3,364.7743,178.6499
1,7,11,4,0,2,A,E,b,y,15,5,40001,1,3,391.5686,148.0279
1,7,11,4,0,2,A,E,b,y,15,5,40001,1,3,561.2656,234.7903
1,7,11,4,0,2,A,E,b,y,15,5,40001,1,3,385.189,393.004
1,7,11,4,0,2,A,E,b,y,15,5,41001,1,3,364.7743,196.5128
1,7,11,4,0,2,A,E,b,y,15,5,41001,1,3,436.2257,266.6882
1,7,11,4,0,2,A,E,b,y,15,5,41001,1,3,584.2321,233.5144
1,7,11,4,0,2,A,E,b,y,15,5,41001,1,3,391.5686,403.2113
1,7,11,4,0,2,A,E,b,y,15,5,42001,1,3,355.8429,191.4091
1,7,11,4,0,2,A,E,b,y,15,5,42001,1,3,387.7408,401.9354
1,7,11,4,0,2,A,E,b,y,15,5,42001,1,3,537.0231,316.449
1,7,11,4,0,2,A,E,b,y,15,5,42001,1,3,571.4729,238.618
1,7,11,4,0,2,A,E,b,y,15,5,43001,1,3,352.0152,196.5128
1,7,11,4,0,2,A,E,b,y,15,5,43001,1,3,568.9211,233.5144
1,7,11,4,0,2,A,E,b,y,15,5,43001,1,3,522.988,307.5175
1,7,11,4,0,2,A,E,b,y,15,5,43001,1,3,389.0167,430.0056
1,7,11,4,0,2,A,E,b,y,15,5,44001,1,3,337.9801,219.4793
1,7,11,4,0,2,A,E,b,y,15,5,44001,1,3,528.0917,225.8589
1,7,11,4,0,2,A,E,b,y,15,5,44001,1,3,525.5399,330.4841
1,7,11,4,0,2,A,E,b,y,15,5,44001,1,3,441.3293,400.6595
1,7,11,4,0,2,A,E,b,y,15,5,45001,1,3,340.5319,222.0311
1,7,11,4,0,2,A,E,b,y,15,5,45001,1,3,498.7456,225.8589
1,7,11,4,0,2,A,E,b,y,15,5,45001,1,3,522.988,310.0694
1,7,11,4,0,2,A,E,b,y,15,5,45001,1,3,447.7089,404.4872
1,7,11,4,0,2,A,E,b,y,15,5,46001,1,3,391.5686,112.3022
1,7,11,4,0,2,A,E,b,y,15,5,46001,1,3,414.5351,233.5144
1,7,11,4,0,2,A,E,b,y,15,5,46001,1,3,470.6754,382.7967
1,7,11,4,0,2,A,E,b,y,15,5,46001,1,3,524.264,325.3804
1,7,11,4,0,2,A,E,b,y,15,5,47001,1,3,432.3979,111.0263
1,7,11,4,0,2,A,E,b,y,15,5,47001,1,3,415.811,213.0997
1,7,11,4,0,2,A,E,b,y,15,5,47001,1,3,480.8828,350.8987
1,7,11,4,0,2,A,E,b,y,15,5,47001,1,3,482.1587,398.1077
1,7,11,4,0,2,A,E,b,y,15,5,48001,1,3,410.7073,140.3724
1,7,11,4,0,2,A,E,b,y,15,5,48001,1,3,466.8477,114.8541
1,7,11,4,0,2,A,E,b,y,15,5,48001,1,3,516.6085,344.5191
1,7,11,4,0,2,A,E,b,y,15,5,48001,1,3,489.8142,398.1077
1,7,11,4,0,2,A,E,b,y,15,5,49001,1,3,397.9482,118.6818
1,7,11,4,0,2,A,E,b,y,15,5,49001,1,3,452.8126,284.551
1,7,11,4,0,2,A,E,b,y,15,5,49001,1,3,478.3309,400.6595
1,7,11,4,0,2,A,E,b,y,15,5,49001,1,3,561.2656,326.6563
1,7,11,4,0,2,A,E,b,y,15,5,50001,1,3,340.5319,114.8541
1,7,11,4,0,2,A,E,b,y,15,5,50001,1,3,440.0534,285.827
1,7,11,4,0,2,A,E,b,y,15,5,50001,1,3,572.7488,319.0008
1,7,11,4,0,2,A,E,b,y,15,5,50001,1,3,482.1587,414.6946
1,7,11,4,0,2,A,E,b,y,15,5,51001,1,3,331.6005,118.6818
1,7,11,4,0,2,A,E,b,y,15,5,51001,1,3,494.9179,350.8987
1,7,11,4,0,2,A,E,b,y,15,5,51001,1,3,474.5032,413.4187
1,7,11,4,0,2,A,E,b,y,15,5,51001,1,3,590.6116,284.551
1,7,11,4,0,2,A,E,b,y,15,5,52001,1,3,341.8078,118.6818
1,7,11,4,0,2,A,E,b,y,15,5,52001,1,3,474.5032,415.9705
1,7,11,4,0,2,A,E,b,y,15,5,52001,1,3,519.1603,366.2097
1,7,11,4,0,2,A,E,b,y,15,5,52001,1,3,595.7153,304.9657
1,7,11,4,0,2,A,E,b,y,15,5,53001,1,3,323.945,164.6148
1,7,11,4,0,2,A,E,b,y,15,5,53001,1,3,455.3644,334.3118
1,7,11,4,0,2,A,E,b,y,15,5,53001,1,3,445.1571,395.5558
1,7,11,4,0,2,A,E,b,y,15,5,53001,1,3,526.8158,350.8987
1,7,11,4,0,2,A,E,b,y,15,5,54001,1,3,298.4266,149.3038
1,7,11,4,0,2,A,E,b,y,15,5,54001,1,3,471.9514,354.7265
1,7,11,4,0,2,A,E,b,y,15,5,54001,1,3,441.3293,415.9705
1,7,11,4,0,2,A,E,b,y,15,5,54001,1,3,598.2671,280.7233
1,7,11,4,0,2,A,E,b,y,15,5,55001,1,3,358.3947,160.7871
1,7,11,4,0,2,A,E,b,y,15,5,55001,1,3,410.7073,412.1427
1,7,11,4,0,2,A,E,b,y,15,5,55001,1,3,533.1954,343.2432
1,7,11,4,0,2,A,E,b,y,15,5,55001,1,3,595.7153,287.1029
1,7,11,4,0,2,A,E,b,y,15,5,56001,1,3,353.2911,186.3054
1,7,11,4,0,2,A,E,b,y,15,5,56001,1,3,408.1555,423.626
1,7,11,4,0,2,A,E,b,y,15,5,56001,1,3,524.264,344.5191
1,7,11,4,0,2,A,E,b,y,15,5,56001,1,3,607.1986,288.3788
1,7,11,4,0,2,A,E,b,y,15,5,56001,1,1,488.5383,117.4059
1,7,11,4,0,2,A,E,b,y,15,5,57001,1,3,349.4633,177.374
1,7,11,4,0,2,A,E,b,y,15,5,57001,1,3,408.1555,415.9705
1,7,11,4,0,2,A,E,b,y,15,5,57001,1,3,547.2305,341.9673
1,7,11,4,0,2,A,E,b,y,15,5,57001,1,3,589.3357,285.827
1,7,11,4,0,2,A,E,b,y,15,5,58001,1,3,420.9147,170.9944
1,7,11,4,0,2,A,E,b,y,15,5,58001,1,3,552.3341,322.8285
1,7,11,4,0,2,A,E,b,y,15,5,58001,1,3,607.1986,284.551
1,7,11,4,0,2,A,E,b,y,15,5,58001,1,3,404.3278,424.9019
1,7,11,4,0,2,A,E,b,y,15,5,59001,1,3,377.5335,112.3022
1,7,11,4,0,2,A,E,b,y,15,5,59001,1,3,548.5064,260.3086
1,7,11,4,0,2,A,E,b,y,15,5,59001,1,3,466.8477,417.2464
1,7,11,4,0,2,A,E,b,y,15,5,59001,1,3,339.256,450.4203
1,7,11,4,0,2,A,E,b,y,15,5,60001,1,3,316.2895,102.0949
1,7,11,4,0,2,A,E,b,y,15,5,60001,1,3,544.6786,265.4123
1,7,11,4,0,2,A,E,b,y,15,5,60001,1,3,485.9864,401.9354
1,7,11,4,0,2,A,E,b,y,15,5,60001,1,3,346.9115,455.5239
1,7,11,4,0,2,A,E,b,y,15,5,61001,1,3,303.5303,89.3357
1,7,11,4,0,2,A,E,b,y,15,5,61001,1,3,354.567,415.9705
1,7,11,4,0,2,A,E,b,y,15,5,61001,1,3,508.953,340.6914
1,7,11,4,0,2,A,E,b,y,15,5,61001,1,3,519.1603,399.3836
1,7,11,4,0,2,A,E,b,y,15,5,62001,1,3,284.3915,82.9561
1,7,11,4,0,2,A,E,b,y,15,5,62001,1,3,355.8429,399.3836
1,7,11,4,0,2,A,E,b,y,15,5,62001,1,3,497.4697,349.6228
1,7,11,4,0,2,A,E,b,y,15,5,62001,1,3,489.8142,413.4187
1,7,11,4,0,2,A,E,b,y,15,5,63001,1,3,290.7711,81.6802
1,7,11,4,0,2,A,E,b,y,15,5,63001,1,3,353.2911,380.2448
1,7,11,4,0,2,A,E,b,y,15,5,63001,1,3,409.4314,417.2464
1,7,11,4,0,2,A,E,b,y,15,5,63001,1,3,451.5367,399.3836
1,7,11,4,0,2,A,E,b,y,15,5,64001,1,3,298.4266,88.0598
1,7,11,4,0,2,A,E,b,y,15,5,64001,1,3,354.567,384.0726
1,7,11,4,0,2,A,E,b,y,15,5,64001,1,3,403.0518,435.1093
1,7,11,4,0,2,A,E,b,y,15,5,64001,1,3,474.5032,413.4187
1,7,11,4,0,2,A,E,b,y,15,5,65001,1,3,261.425,89.3357
1,7,11,4,0,2,A,E,b,y,15,5,65001,1,3,372.4298,347.071
1,7,11,4,0,2,A,E,b,y,15,5,65001,1,3,408.1555,432.5574
1,7,11,4,0,2,A,E,b,y,15,5,65001,1,3,477.055,409.5909
1,7,11,4,0,2,A,E,b,y,15,5,66001,1,3,262.701,103.3708
1,7,11,4,0,2,A,E,b,y,15,5,66001,1,3,366.0502,47.2305
1,7,11,4,0,2,A,E,b,y,15,5,66001,1,3,367.3262,348.3469
1,7,11,4,0,2,A,E,b,y,15,5,66001,1,3,469.3995,414.6946
1,7,11,4,0,2,A,E,b,y,15,5,67001,1,3,224.4234,111.0263
1,7,11,4,0,2,A,E,b,y,15,5,67001,1,3,253.7695,167.1667
1,7,11,4,0,2,A,E,b,y,15,5,67001,1,3,366.0502,348.3469
1,7,11,4,0,2,A,E,b,y,15,5,67001,1,3,501.2974,412.1427
1,7,11,4,0,2,A,E,b,y,15,5,68001,1,3,216.7679,122.5096
1,7,11,4,0,2,A,E,b,y,15,5,68001,1,3,246.114,159.5112
1,7,11,4,0,2,A,E,b,y,15,5,68001,1,3,346.9115,352.1746
1,7,11,4,0,2,A,E,b,y,15,5,68001,1,3,498.7456,390.4522
1,7,11,4,0,2,A,E,b,y,15,5,69001,1,3,209.1124,151.8557
1,7,11,4,0,2,A,E,b,y,15,5,69001,1,3,247.39,172.2703
1,7,11,4,0,2,A,E,b,y,15,5,69001,1,3,335.4282,359.8301
1,7,11,4,0,2,A,E,b,y,15,5,69001,1,3,512.7807,356.0024
1,7,11,4,0,2,A,E,b,y,15,5,70001,1,3,241.0104,114.8541
1,7,11,4,0,2,A,E,b,y,15,5,70001,1,3,186.1459,222.0311
1,7,11,4,0,2,A,E,b,y,15,5,70001,1,3,295.8748,339.4155
1,7,11,4,0,2,A,E,b,y,15,5,70001,1,3,496.1938,239.8939
1,7,11,4,0,2,A,E,b,y,15,5,71001,1,3,269.0805,104.6467
1,7,11,4,0,2,A,E,b,y,15,5,71001,1,3,174.6627,250.1013
1,7,11,4,0,2,A,E,b,y,15,5,71001,1,3,281.8397,290.9306
1,7,11,4,0,2,A,E,b,y,15,5,71001,1,3,362.2225,304.9657
1,7,11,4,0,2,A,E,b,y,15,5,72001,1,3,329.0486,76.5766
1,7,11,4,0,2,A,E,b,y,15,5,72001,1,3,381.3612,399.3836
1,7,11,4,0,2,A,E,b,y,15,5,72001,1,3,216.7679,200.3405
1,7,11,4,0,2,A,E,b,y,15,5,72001,1,3,164.4553,345.7951
1,7,11,4,0,2,A,E,b,y,15,5,73001,1,3,383.9131,77.8525
1,7,11,4,0,2,A,E,b,y,15,5,73001,1,3,617.4059,264.1364
1,7,11,4,0,2,A,E,b,y,15,5,73001,1,3,207.8365,205.4442
1,7,11,4,0,2,A,E,b,y,15,5,73001,1,3,168.2831,349.6228
1,7,11,4,0,2,A,E,b,y,15,5,74001,1,3,579.1284,227.1348
1,7,11,4,0,2,A,E,b,y,15,5,74001,1,3,200.181,193.9609
1,7,11,4,0,2,A,E,b,y,15,5,74001,1,3,182.3182,237.3421
1,7,11,4,0,2,A,E,b,y,15,5,74001,1,1,209.1124,237.3421
1,7,11,4,0,2,A,E,b,y,15,5,74001,1,3,179.7663,389.1762
1,7,11,4,0,2,A,E,b,y,15,5,75001,1,3,281.8397,90.6116
1,7,11,4,0,2,A,E,b,y,15,5,75001,1,3,195.0774,273.0678
1,7,11,4,0,2,A,E,b,y,15,5,75001,1,3,191.2496,410.8668
1,7,11,4,0,2,A,E,b,y,15,5,75001,1,3,580.4043,227.1348
1,7,11,4,0,2,A,E,b,y,15,5,76001,1,3,478.3309,104.6467
1,7,11,4,0,2,A,E,b,y,15,5,76001,1,3,572.7488,214.3756
1,7,11,4,0,2,A,E,b,y,15,5,76001,1,3,207.8365,162.063
1,7,11,4,0,2,A,E,b,y,15,5,76001,1,3,239.7344,474.6627
1,7,11,4,0,2,A,E,b,y,15,5,77001,1,3,267.8046,100.819
1,7,11,4,0,2,A,E,b,y,15,5,77001,1,3,466.8477,98.2671
1,7,11,4,0,2,A,E,b,y,15,5,77001,1,3,565.0933,219.4793
1,7,11,4,0,2,A,E,b,y,15,5,77001,1,3,408.1555,456.7998
1,7,11,4,0,2,A,E,b,y,15,5,78001,1,3,381.3612,42.1268
1,7,11,4,0,2,A,E,b,y,15,5,78001,1,3,267.8046,193.9609
1,7,11,4,0,2,A,E,b,y,15,5,78001,1,3,582.9561,220.7552
1,7,11,4,0,2,A,E,b,y,15,5,78001,1,1,631.441,200.3405
1,7,11,4,0,2,A,E,b,y,15,5,78001,1,3,410.7073,430.0056
1,7,11,4,0,2,A,E,b,y,15,5,79001,1,3,359.6707,99.5431
1,7,11,4,0,2,A,E,b,y,15,5,79001,1,3,433.6738,105.9226
1,7,11,4,0,2,A,E,b,y,15,5,79001,1,3,506.4011,121.2337
1,7,11,4,0,2,A,E,b,y,15,5,79001,1,3,436.2257,399.3836
1,7,11,4,0,2,A,E,b,y,15,5,80001,1,3,529.3676,213.0997
1,7,11,4,0,2,A,E,b,y,15,5,80001,1,3,566.3692,236.0662
1,7,11,4,0,2,A,E,b,y,15,5,80001,1,3,602.0949,252.6531
1,7,11,4,0,2,A,E,b,y,15,5,81001,1,3,450.2608,280.7233
1,7,11,4,0,2,A,E,b,y,15,5,81001,1,3,557.4378,252.6531
1,7,11,4,0,2,A,E,b,y,15,5,81001,1,3,589.3357,276.8955
1,7,11,4,0,2,A,E,b,y,15,5,82001,1,3,491.0901,306.2416
1,7,11,4,0,2,A,E,b,y,15,5,82001,1,3,577.8525,307.5175
1,7,11,4,0,2,A,E,b,y,15,5,82001,1,3,588.0598,278.1715
1,7,11,4,0,2,A,E,b,y,15,5,83001,1,3,514.0566,307.5175
1,7,11,4,0,2,A,E,b,y,15,5,83001,1,3,585.508,293.4825
1,7,11,4,0,2,A,E,b,y,15,5,83001,1,3,626.3373,283.2751
1,7,11,4,0,2,A,E,b,y,15,5,84001,1,3,489.8142,156.9593
1,7,11,4,0,2,A,E,b,y,15,5,84001,1,3,507.677,253.929
1,7,11,4,0,2,A,E,b,y,15,5,84001,1,3,602.0949,273.0678
1,7,11,4,0,2,A,E,b,y,15,5,84001,1,1,577.8525,334.3118
1,7,11,4,0,2,A,E,b,y,15,5,85001,1,3,294.5989,190.1332
1,7,11,4,0,2,A,E,b,y,15,5,85001,1,3,417.0869,233.5144
1,7,11,4,0,2,A,E,b,y,15,5,85001,1,3,600.819,281.9992
1,7,11,4,0,2,A,E,b,y,15,5,86001,1,3,276.736,234.7903
1,7,11,4,0,2,A,E,b,y,15,5,86001,1,3,344.3596,222.0311
1,7,11,4,0,2,A,E,b,y,15,5,86001,1,3,593.1635,275.6196
1,7,11,4,0,2,A,E,b,y,15,5,87001,1,3,248.6659,306.2416
1,7,11,4,0,2,A,E,b,y,15,5,87001,1,3,353.2911,211.8238
1,7,11,4,0,2,A,E,b,y,15,5,87001,1,3,595.7153,288.3788
1,7,11,4,0,2,A,E,b,y,15,5,88001,1,3,210.3884,313.8971
1,7,11,4,0,2,A,E,b,y,15,5,88001,1,3,352.0152,179.9258
1,7,11,4,0,2,A,E,b,y,15,5,88001,1,3,600.819,290.9306
1,7,11,4,0,2,A,E,b,y,15,5,89001,1,3,243.5622,160.7871
1,7,11,4,0,2,A,E,b,y,15,5,89001,1,3,336.7041,176.0981
1,7,11,4,0,2,A,E,b,y,15,5,89001,1,3,599.5431,301.138
1,7,11,4,0,2,A,E,b,y,15,5,90001,1,3,286.9434,139.0965
1,7,11,4,0,2,A,E,b,y,15,5,90001,1,3,386.4649,146.752
1,7,11,4,0,2,A,E,b,y,15,5,90001,1,3,540.8509,331.76
1,7,11,4,0,2,A,E,b,y,15,5,91001,1,3,279.2879,119.9577
1,7,11,4,0,2,A,E,b,y,15,5,91001,1,3,431.122,98.2671
1,7,11,4,0,2,A,E,b,y,15,5,91001,1,3,545.9545,329.2081
1,7,11,4,0,2,A,E,b,y,15,5,92001,1,3,423.4665,63.8174
1,7,11,4,0,2,A,E,b,y,15,5,92001,1,3,459.1922,121.2337
1,7,11,4,0,2,A,E,b,y,15,5,92001,1,3,552.3341,336.8636
1,7,11,4,0,2,A,E,b,y,15,5,93001,1,3,419.6388,68.9211
1,7,11,4,0,2,A,E,b,y,15,5,93001,1,3,465.5718,102.0949
1,7,11,4,0,2,A,E,b,y,15,5,93001,1,3,554.886,333.0359
1,7,11,4,0,2,A,E,b,y,15,5,94001,1,3,414.5351,70.197
1,7,11,4,0,2,A,E,b,y,15,5,94001,1,3,474.5032,112.3022
1,7,11,4,0,2,A,E,b,y,15,5,94001,1,3,530.6435,345.7951
1,7,11,4,0,2,A,E,b,y,15,5,94001,1,1,535.7472,413.4187
1,7,11,4,0,2,A,E,b,y,15,5,95001,1,2,355.8429,31.9195
1,7,11,4,0,2,A,E,b,y,15,5,95001,1,3,508.953,136.5447
1,7,11,4,0,2,A,E,b,y,15,5,95001,1,3,502.5734,371.3134
1,7,11,4,0,2,A,E,b,y,15,5,96001,1,3,461.744,90.6116
1,7,11,4,0,2,A,E,b,y,15,5,96001,1,3,506.4011,141.6483
1,7,11,4,0,2,A,E,b,y,15,5,96001,1,3,482.1587,373.8652
1,7,11,4,0,2,A,E,b,y,15,5,97001,1,3,485.9864,139.0965
1,7,11,4,0,2,A,E,b,y,15,5,97001,1,3,538.299,103.3708
1,7,11,4,0,2,A,E,b,y,15,5,97001,1,3,473.2273,394.2799
1,7,11,4,0,2,A,E,b,y,15,5,98001,1,3,529.3676,96.9912
1,7,11,4,0,2,A,E,b,y,15,5,98001,1,3,482.1587,150.5797
1,7,11,4,0,2,A,E,b,y,15,5,98001,1,3,477.055,403.2113
1,7,11,4,0,2,A,E,b,y,15,5,99001,1,3,455.3644,121.2337
1,7,11,4,0,2,A,E,b,y,15,5,99001,1,3,567.6451,183.7536
1,7,11,4,0,2,A,E,b,y,15,5,99001,1,3,488.5383,373.8652
1,7,11,4,0,2,A,E,b,y,15,5,100001,1,3,436.2257,114.8541
1,7,11,4,0,2,A,E,b,y,15,5,100001,1,3,480.8828,375.1411
1,7,11,4,0,2,A,E,b,y,15,5,100001,1,3,566.3692,373.8652
1,7,11,4,0,2,A,E,b,y,15,5,101001,1,3,441.3293,72.7488
1,7,11,4,0,2,A,E,b,y,15,5,101001,1,3,488.5383,363.6579
1,7,11,4,0,2,A,E,b,y,15,5,101001,1,3,542.1268,350.8987
1,7,11,4,0,2,A,E,b,y,15,5,102001,1,3,526.8158,170.9944
1,7,11,4,0,2,A,E,b,y,15,5,102001,1,3,483.4346,370.0375
1,7,11,4,0,2,A,E,b,y,15,5,102001,1,3,436.2257,382.7967
1,7,11,4,0,2,A,E,b,y,15,5,103001,1,3,557.4378,205.4442
1,7,11,4,0,2,A,E,b,y,15,5,103001,1,3,446.433,378.9689
1,7,11,4,0,2,A,E,b,y,15,5,103001,1,3,337.9801,427.4537
1,7,11,4,0,2,A,E,b,y,15,5,104001,1,3,551.0582,241.1699
1,7,11,4,0,2,A,E,b,y,15,5,104001,1,3,460.4681,371.3134
1,7,11,4,0,2,A,E,b,y,15,5,104001,1,3,233.3549,433.8333
1,7,11,4,0,2,A,E,b,y,15,5,105001,1,3,510.2289,265.4123
1,7,11,4,0,2,A,E,b,y,15,5,105001,1,3,456.6404,382.7967
1,7,11,4,0,2,A,E,b,y,15,5,105001,1,3,230.803,444.0407
1,7,11,4,0,2,A,E,b,y,15,5,106001,1,3,466.8477,301.138
1,7,11,4,0,2,A,E,b,y,15,5,106001,1,3,482.1587,381.5207
1,7,11,4,0,2,A,E,b,y,15,5,106001,1,3,262.701,509.1124
1,7,11,4,0,2,A,E,b,y,15,5,107001,1,3,464.2959,306.2416
1,7,11,4,0,2,A,E,b,y,15,5,107001,1,3,473.2273,399.3836
1,7,11,4,0,2,A,E,b,y,15,5,107001,1,3,263.9769,500.181
