dummy,month,day,period,view,station,fgeno,mgeno,fcol,mcol,nf,nm,frame,something,sex,x,y
1,6,30,3,3,1,C,F,r,g,15,5,1,1,3,341,96
1,6,30,3,3,1,C,F,r,g,15,5,1,1,3,457,552
1,6,30,3,3,1,C,F,r,g,15,5,1001,1,3,363,83
1,6,30,3,3,1,C,F,r,g,15,5,1001,1,3,491,574
1,6,30,3,3,1,C,F,r,g,15,5,1001,1,1,470,559
1,6,30,3,3,1,C,F,r,g,15,5,2001,1,3,549,557
1,6,30,3,3,1,C,F,r,g,15,5,2001,1,1,565,515
1,6,30,3,3,1,C,F,r,g,15,5,2001,1,3,316,73
1,6,30,3,3,1,C,F,r,g,15,5,3001,1,3,335,78
1,6,30,3,3,1,C,F,r,g,15,5,3001,1,3,585,498
1,6,30,3,3,1,C,F,r,g,15,5,3001,1,1,567,551
1,6,30,3,3,1,C,F,r,g,15,5,4001,1,3,320,103
1,6,30,3,3,1,C,F,r,g,15,5,4001,1,3,495,376
1,6,30,3,3,1,C,F,r,g,15,5,4001,1,1,129,302
1,6,30,3,3,1,C,F,r,g,15,5,5001,1,3,462,200
1,6,30,3,3,1,C,F,r,g,15,5,5001,1,3,470,420
1,6,30,3,3,1,C,F,r,g,15,5,5001,1,1,479,393
1,6,30,3,3,1,C,F,r,g,15,5,6001,1,3,477,206
1,6,30,3,3,1,C,F,r,g,15,5,6001,1,3,461,427
1,6,30,3,3,1,C,F,r,g,15,5,6001,1,1,474,385
1,6,30,3,3,1,C,F,r,g,15,5,7001,1,3,517,264
1,6,30,3,3,1,C,F,r,g,15,5,7001,1,1,124,380
1,6,30,3,3,1,C,F,r,g,15,5,8001,1,3,511,298
1,6,30,3,3,1,C,F,r,g,15,5,8001,1,3,464,422
1,6,30,3,3,1,C,F,r,g,15,5,8001,1,1,369,440
1,6,30,3,3,1,C,F,r,g,15,5,9001,1,3,517,307
1,6,30,3,3,1,C,F,r,g,15,5,9001,1,3,436,413
1,6,30,3,3,1,C,F,r,g,15,5,9001,1,1,406,366
1,6,30,3,3,1,C,F,r,g,15,5,10001,1,3,575,271
1,6,30,3,3,1,C,F,r,g,15,5,10001,1,3,487,323
1,6,30,3,3,1,C,F,r,g,15,5,10001,1,1,465,377
1,6,30,3,3,1,C,F,r,g,15,5,11001,1,3,542,207
1,6,30,3,3,1,C,F,r,g,15,5,11001,1,3,495,303
1,6,30,3,3,1,C,F,r,g,15,5,11001,1,1,684,438
1,6,30,3,3,1,C,F,r,g,15,5,12001,1,3,453,398
1,6,30,3,3,1,C,F,r,g,15,5,12001,1,3,418,221
1,6,30,3,3,1,C,F,r,g,15,5,12001,1,1,688,422
1,6,30,3,3,1,C,F,r,g,15,5,13001,1,1,688,395
1,6,30,3,3,1,C,F,r,g,15,5,13001,1,3,409,378
1,6,30,3,3,1,C,F,r,g,15,5,13001,1,3,321,422
1,6,30,3,3,1,C,F,r,g,15,5,14001,1,3,381,339
1,6,30,3,3,1,C,F,r,g,15,5,14001,1,3,313,395
1,6,30,3,3,1,C,F,r,g,15,5,14001,1,1,371,400
1,6,30,3,3,1,C,F,r,g,15,5,15001,1,3,265,268
1,6,30,3,3,1,C,F,r,g,15,5,15001,1,3,414,332
1,6,30,3,3,1,C,F,r,g,15,5,15001,1,1,384,362
1,6,30,3,3,1,C,F,r,g,15,5,16001,1,3,485,335
1,6,30,3,3,1,C,F,r,g,15,5,16001,1,3,348,362
1,6,30,3,3,1,C,F,r,g,15,5,16001,1,1,425,360
1,6,30,3,3,1,C,F,r,g,15,5,17001,1,3,482,324
1,6,30,3,3,1,C,F,r,g,15,5,17001,1,3,441,421
1,6,30,3,3,1,C,F,r,g,15,5,17001,1,1,487,368
1,6,30,3,3,1,C,F,r,g,15,5,18001,1,3,516,292
1,6,30,3,3,1,C,F,r,g,15,5,18001,1,3,448,435
1,6,30,3,3,1,C,F,r,g,15,5,18001,1,1,484,330
1,6,30,3,3,1,C,F,r,g,15,5,19001,1,1,545,248
1,6,30,3,3,1,C,F,r,g,15,5,19001,1,3,511,292
1,6,30,3,3,1,C,F,r,g,15,5,19001,1,3,516,393
1,6,30,3,3,1,C,F,r,g,15,5,20001,1,3,454,366
1,6,30,3,3,1,C,F,r,g,15,5,20001,1,3,468,528
1,6,30,3,3,1,C,F,r,g,15,5,20001,1,1,474,324
1,6,30,3,3,1,C,F,r,g,15,5,21001,1,3,446,457
1,6,30,3,3,1,C,F,r,g,15,5,21001,1,3,508,543
1,6,30,3,3,1,C,F,r,g,15,5,21001,1,1,518,481
1,6,30,3,3,1,C,F,r,g,15,5,22001,1,3,509,384
1,6,30,3,3,1,C,F,r,g,15,5,22001,1,3,515,543
1,6,30,3,3,1,C,F,r,g,15,5,22001,1,1,540,421
1,6,30,3,3,1,C,F,r,g,15,5,23001,1,3,567,484
1,6,30,3,3,1,C,F,r,g,15,5,23001,1,3,362,367
1,6,30,3,3,1,C,F,r,g,15,5,23001,1,1,385,525
1,6,30,3,3,1,C,F,r,g,15,5,24001,1,3,424,397
1,6,30,3,3,1,C,F,r,g,15,5,24001,1,1,401,351
1,6,30,3,3,1,C,F,r,g,15,5,24001,1,3,524,562
1,6,30,3,3,1,C,F,r,g,15,5,25001,1,1,313,326
1,6,30,3,3,1,C,F,r,g,15,5,25001,1,3,596,301
1,6,30,3,3,1,C,F,r,g,15,5,25001,1,3,645,301
1,6,30,3,3,1,C,F,r,g,15,5,26001,1,3,670,331
1,6,30,3,3,1,C,F,r,g,15,5,26001,1,3,648,270
1,6,30,3,3,1,C,F,r,g,15,5,26001,1,1,615,300
1,6,30,3,3,1,C,F,r,g,15,5,27001,1,3,716,271
1,6,30,3,3,1,C,F,r,g,15,5,27001,1,1,688,290
1,6,30,3,3,1,C,F,r,g,15,5,27001,1,3,350,535
1,6,30,3,3,1,C,F,r,g,15,5,28001,1,3,625,274
1,6,30,3,3,1,C,F,r,g,15,5,28001,1,1,368,276
1,6,30,3,3,1,C,F,r,g,15,5,28001,1,3,420,578
1,6,30,3,3,1,C,F,r,g,15,5,29001,1,3,614,295
1,6,30,3,3,1,C,F,r,g,15,5,29001,1,3,491,579
1,6,30,3,3,1,C,F,r,g,15,5,30001,1,3,619,317
1,6,30,3,3,1,C,F,r,g,15,5,30001,1,3,494,581
1,6,30,3,3,1,C,F,r,g,15,5,31001,1,3,620,330
1,6,30,3,3,1,C,F,r,g,15,5,31001,1,3,512,501
1,6,30,3,3,1,C,F,r,g,15,5,32001,1,3,515,399
1,6,30,3,3,1,C,F,r,g,15,5,32001,1,3,360,572
1,6,30,3,3,1,C,F,r,g,15,5,33001,1,3,598,359
1,6,30,3,3,1,C,F,r,g,15,5,33001,1,3,459,275
1,6,30,3,3,1,C,F,r,g,15,5,34001,1,3,485,318
1,6,30,3,3,1,C,F,r,g,15,5,35001,1,3,659,355
1,6,30,3,3,1,C,F,r,g,15,5,35001,1,3,570,516
1,6,30,3,3,1,C,F,r,g,15,5,36001,1,3,538,544
1,6,30,3,3,1,C,F,r,g,15,5,36001,1,3,490,558
1,6,30,3,3,1,C,F,r,g,15,5,37001,1,3,482,560
1,6,30,3,3,1,C,F,r,g,15,5,37001,1,3,438,505
1,6,30,3,3,1,C,F,r,g,15,5,38001,1,3,473,569
1,6,30,3,3,1,C,F,r,g,15,5,38001,1,3,254,367
1,6,30,3,3,1,C,F,r,g,15,5,39001,1,3,555,551
1,6,30,3,3,1,C,F,r,g,15,5,39001,1,3,493,564
1,6,30,3,3,1,C,F,r,g,15,5,40001,1,3,482,572
1,6,30,3,3,1,C,F,r,g,15,5,40001,1,3,454,569
1,6,30,3,3,1,C,F,r,g,15,5,41001,1,3,521,582
1,6,30,3,3,1,C,F,r,g,15,5,41001,1,3,450,550
1,6,30,3,3,1,C,F,r,g,15,5,42001,1,3,476,568
1,6,30,3,3,1,C,F,r,g,15,5,42001,1,3,431,556
1,6,30,3,3,1,C,F,r,g,15,5,43001,1,3,518,500
1,6,30,3,3,1,C,F,r,g,15,5,43001,1,3,508,568
1,6,30,3,3,1,C,F,r,g,15,5,44001,1,3,555,506
1,6,30,3,3,1,C,F,r,g,15,5,44001,1,3,490,503
1,6,30,3,3,1,C,F,r,g,15,5,45001,1,3,509,504
1,6,30,3,3,1,C,F,r,g,15,5,45001,1,3,442,560
1,6,30,3,3,1,C,F,r,g,15,5,46001,1,3,470,519
1,6,30,3,3,1,C,F,r,g,15,5,46001,1,3,318,455
1,6,30,3,3,1,C,F,r,g,15,5,47001,1,3,438,479
1,6,30,3,3,1,C,F,r,g,15,5,47001,1,3,316,459
1,6,30,3,3,1,C,F,r,g,15,5,48001,1,3,458,486
1,6,30,3,3,1,C,F,r,g,15,5,48001,1,3,321,468
1,6,30,3,3,1,C,F,r,g,15,5,49001,1,3,441,438
1,6,30,3,3,1,C,F,r,g,15,5,49001,1,3,323,457
1,6,30,3,3,1,C,F,r,g,15,5,50001,1,3,509,344
1,6,30,3,3,1,C,F,r,g,15,5,50001,1,3,272,358
1,6,30,3,3,1,C,F,r,g,15,5,51001,1,3,287,533
1,6,30,3,3,1,C,F,r,g,15,5,51001,1,3,297,468
1,6,30,3,3,1,C,F,r,g,15,5,52001,1,3,305,544
1,6,30,3,3,1,C,F,r,g,15,5,53001,1,3,289,548
1,6,30,3,3,1,C,F,r,g,15,5,53001,1,3,198,450
1,6,30,3,3,1,C,F,r,g,15,5,54001,1,3,387,497
1,6,30,3,3,1,C,F,r,g,15,5,54001,1,3,190,421
1,6,30,3,3,1,C,F,r,g,15,5,55001,1,3,459,477
1,6,30,3,3,1,C,F,r,g,15,5,55001,1,3,242,424
1,6,30,3,3,1,C,F,r,g,15,5,56001,1,3,443,219
1,6,30,3,3,1,C,F,r,g,15,5,56001,1,3,396,530
1,6,30,3,3,1,C,F,r,g,15,5,57001,1,3,255,308
1,6,30,3,3,1,C,F,r,g,15,5,57001,1,3,390,536
1,6,30,3,3,1,C,F,r,g,15,5,58001,1,3,240,335
1,6,30,3,3,1,C,F,r,g,15,5,58001,1,3,555,552
1,6,30,3,3,1,C,F,r,g,15,5,59001,1,3,614,273
1,6,30,3,3,1,C,F,r,g,15,5,59001,1,3,264,336
1,6,30,3,3,1,C,F,r,g,15,5,60001,1,3,282,320
1,6,30,3,3,1,C,F,r,g,15,5,60001,1,3,221,339
1,6,30,3,3,1,C,F,r,g,15,5,61001,1,3,244,403
1,6,30,3,3,1,C,F,r,g,15,5,61001,1,3,175,410
1,6,30,3,3,1,C,F,r,g,15,5,62001,1,3,414,496
1,6,30,3,3,1,C,F,r,g,15,5,62001,1,3,188,408
1,6,30,3,3,1,C,F,r,g,15,5,63001,1,3,525,388
1,6,30,3,3,1,C,F,r,g,15,5,63001,1,1,278,465
1,6,30,3,3,1,C,F,r,g,15,5,63001,1,3,161,412
1,6,30,3,3,1,C,F,r,g,15,5,64001,1,3,499,302
1,6,30,3,3,1,C,F,r,g,15,5,64001,1,1,335,335
1,6,30,3,3,1,C,F,r,g,15,5,64001,1,3,161,369
1,6,30,3,3,1,C,F,r,g,15,5,65001,1,3,505,280
1,6,30,3,3,1,C,F,r,g,15,5,65001,1,3,144,353
1,6,30,3,3,1,C,F,r,g,15,5,66001,1,3,442,486
1,6,30,3,3,1,C,F,r,g,15,5,66001,1,3,154,406
1,6,30,3,3,1,C,F,r,g,15,5,67001,1,3,709,383
1,6,30,3,3,1,C,F,r,g,15,5,67001,1,3,153,412
1,6,30,3,3,1,C,F,r,g,15,5,67001,1,1,367,313
1,6,30,3,3,1,C,F,r,g,15,5,68001,1,3,705,373
1,6,30,3,3,1,C,F,r,g,15,5,68001,1,1,668,411
1,6,30,3,3,1,C,F,r,g,15,5,68001,1,3,189,480
1,6,30,3,3,1,C,F,r,g,15,5,69001,1,3,551,533
1,6,30,3,3,1,C,F,r,g,15,5,69001,1,3,159,440
1,6,30,3,3,1,C,F,r,g,15,5,70001,1,3,486,574
1,6,30,3,3,1,C,F,r,g,15,5,70001,1,3,113,320
1,6,30,3,3,1,C,F,r,g,15,5,70001,1,1,522,542
1,6,30,3,3,1,C,F,r,g,15,5,71001,1,3,417,322
1,6,30,3,3,1,C,F,r,g,15,5,71001,1,3,213,482
1,6,30,3,3,1,C,F,r,g,15,5,72001,1,3,204,452
1,6,30,3,3,1,C,F,r,g,15,5,72001,1,3,157,414
1,6,30,3,3,1,C,F,r,g,15,5,73001,1,3,341,405
1,6,30,3,3,1,C,F,r,g,15,5,73001,1,3,364,360
1,6,30,3,3,1,C,F,r,g,15,5,74001,1,3,404,361
1,6,30,3,3,1,C,F,r,g,15,5,74001,1,3,319,413
1,6,30,3,3,1,C,F,r,g,15,5,75001,1,3,386,471
1,6,30,3,3,1,C,F,r,g,15,5,75001,1,3,322,408
1,6,30,3,3,1,C,F,r,g,15,5,76001,1,3,428,492
1,6,30,3,3,1,C,F,r,g,15,5,76001,1,3,379,382
1,6,30,3,3,1,C,F,r,g,15,5,77001,1,3,437,457
1,6,30,3,3,1,C,F,r,g,15,5,77001,1,3,475,319
1,6,30,3,3,1,C,F,r,g,15,5,78001,1,3,473,390
1,6,30,3,3,1,C,F,r,g,15,5,78001,1,3,488,319
1,6,30,3,3,1,C,F,r,g,15,5,79001,1,3,552,322
1,6,30,3,3,1,C,F,r,g,15,5,79001,1,3,444,412
1,6,30,3,3,1,C,F,r,g,15,5,80001,1,3,664,340
1,6,30,3,3,1,C,F,r,g,15,5,80001,1,3,460,397
1,6,30,3,3,1,C,F,r,g,15,5,81001,1,3,425,385
1,6,30,3,3,1,C,F,r,g,15,5,81001,1,3,676,346
1,6,30,3,3,1,C,F,r,g,15,5,82001,1,3,659,383
1,6,30,3,3,1,C,F,r,g,15,5,82001,1,3,446,353
1,6,30,3,3,1,C,F,r,g,15,5,83001,1,3,596,500
1,6,30,3,3,1,C,F,r,g,15,5,83001,1,3,363,357
1,6,30,3,3,1,C,F,r,g,15,5,84001,1,3,521,543
1,6,30,3,3,1,C,F,r,g,15,5,84001,1,3,326,305
1,6,30,3,3,1,C,F,r,g,15,5,85001,1,3,479,412
1,6,30,3,3,1,C,F,r,g,15,5,85001,1,3,329,294
1,6,30,3,3,1,C,F,r,g,15,5,86001,1,3,676,331
1,6,30,3,3,1,C,F,r,g,15,5,86001,1,3,298,314
1,6,30,3,3,1,C,F,r,g,15,5,86001,1,1,491,49
1,6,30,3,3,1,C,F,r,g,15,5,87001,1,3,485,427
1,6,30,3,3,1,C,F,r,g,15,5,87001,1,3,279,372
1,6,30,3,3,1,C,F,r,g,15,5,87001,1,1,258,322
1,6,30,3,3,1,C,F,r,g,15,5,88001,1,3,499,313
1,6,30,3,3,1,C,F,r,g,15,5,88001,1,3,365,373
1,6,30,3,3,1,C,F,r,g,15,5,88001,1,1,338,415
1,6,30,3,3,1,C,F,r,g,15,5,89001,1,3,653,429
1,6,30,3,3,1,C,F,r,g,15,5,89001,1,3,515,384
1,6,30,3,3,1,C,F,r,g,15,5,90001,1,3,523,493
1,6,30,3,3,1,C,F,r,g,15,5,90001,1,3,521,384
1,6,30,3,3,1,C,F,r,g,15,5,91001,1,3,505,398
1,6,30,3,3,1,C,F,r,g,15,5,91001,1,3,217,370
1,6,30,3,3,1,C,F,r,g,15,5,92001,1,3,590,310
1,6,30,3,3,1,C,F,r,g,15,5,92001,1,3,526,73
1,6,30,3,3,1,C,F,r,g,15,5,93001,1,3,513,392
1,6,30,3,3,1,C,F,r,g,15,5,93001,1,3,717,341
1,6,30,3,3,1,C,F,r,g,15,5,94001,1,3,603,353
1,6,30,3,3,1,C,F,r,g,15,5,94001,1,3,327,531
1,6,30,3,3,1,C,F,r,g,15,5,95001,1,3,474,318
1,6,30,3,3,1,C,F,r,g,15,5,95001,1,3,434,341
1,6,30,3,3,1,C,F,r,g,15,5,96001,1,3,477,381
1,6,30,3,3,1,C,F,r,g,15,5,96001,1,3,411,118
1,6,30,3,3,1,C,F,r,g,15,5,97001,1,3,357,370
1,6,30,3,3,1,C,F,r,g,15,5,97001,1,3,441,483
1,6,30,3,3,1,C,F,r,g,15,5,98001,1,3,605,349
1,6,30,3,3,1,C,F,r,g,15,5,98001,1,3,521,504
1,6,30,3,3,1,C,F,r,g,15,5,99001,1,3,476,286
1,6,30,3,3,1,C,F,r,g,15,5,99001,1,3,709,357
1,6,30,3,3,1,C,F,r,g,15,5,100001,1,3,695,360
1,6,30,3,3,1,C,F,r,g,15,5,100001,1,3,546,532
1,6,30,3,3,1,C,F,r,g,15,5,101001,1,3,553,527
1,6,30,3,3,1,C,F,r,g,15,5,101001,1,3,264,512
1,6,30,3,3,1,C,F,r,g,15,5,102001,1,3,398,331
1,6,30,3,3,1,C,F,r,g,15,5,102001,1,3,480,566
1,6,30,3,3,1,C,F,r,g,15,5,103001,1,3,544,338
1,6,30,3,3,1,C,F,r,g,15,5,103001,1,3,530,559
1,6,30,3,3,1,C,F,r,g,15,5,103001,1,1,491,575
1,6,30,3,3,1,C,F,r,g,15,5,104001,1,3,541,335
1,6,30,3,3,1,C,F,r,g,15,5,104001,1,1,494,127
1,6,30,3,3,1,C,F,r,g,15,5,104001,1,1,474,555
1,6,30,3,3,1,C,F,r,g,15,5,104001,1,3,516,522
1,6,30,3,3,1,C,F,r,g,15,5,105001,1,3,590,372
1,6,30,3,3,1,C,F,r,g,15,5,105001,1,1,601,400
1,6,30,3,3,1,C,F,r,g,15,5,105001,1,3,505,519
1,6,30,3,3,1,C,F,r,g,15,5,105001,1,1,545,556
1,6,30,3,3,1,C,F,r,g,15,5,106001,1,3,528,409
1,6,30,3,3,1,C,F,r,g,15,5,106001,1,3,511,527
1,6,30,3,3,1,C,F,r,g,15,5,107001,1,3,572,268
1,6,30,3,3,1,C,F,r,g,15,5,107001,1,3,471,488
1,6,30,3,3,1,C,F,r,g,15,5,107001,1,1,633,276
