dummy,month,day,period,view,station,fgeno,mgeno,fcol,mcol,nf,nm,frame,something,sex,x,y
1,6,30,3,1,1,C,F,r,g,15,5,1,1,3,547,241
1,6,30,3,1,1,C,F,r,g,15,5,1,1,3,417,157
1,6,30,3,1,1,C,F,r,g,15,5,1,1,3,228,62
1,6,30,3,1,1,C,F,r,g,15,5,1001,1,3,383,145
1,6,30,3,1,1,C,F,r,g,15,5,1001,1,3,229,64
1,6,30,3,1,1,C,F,r,g,15,5,2001,1,3,544,301
1,6,30,3,1,1,C,F,r,g,15,5,2001,1,3,321,167
1,6,30,3,1,1,C,F,r,g,15,5,2001,1,3,173,88
1,6,30,3,1,1,C,F,r,g,15,5,3001,1,3,550,314
1,6,30,3,1,1,C,F,r,g,15,5,3001,1,3,284,227
1,6,30,3,1,1,C,F,r,g,15,5,3001,1,3,101,308
1,6,30,3,1,1,C,F,r,g,15,5,4001,1,3,542,309
1,6,30,3,1,1,C,F,r,g,15,5,4001,1,3,393,173
1,6,30,3,1,1,C,F,r,g,15,5,4001,1,3,105,346
1,6,30,3,1,1,C,F,r,g,15,5,5001,1,3,547,238
1,6,30,3,1,1,C,F,r,g,15,5,5001,1,3,520,358
1,6,30,3,1,1,C,F,r,g,15,5,5001,1,3,105,342
1,6,30,3,1,1,C,F,r,g,15,5,6001,1,3,497,175
1,6,30,3,1,1,C,F,r,g,15,5,6001,1,3,545,331
1,6,30,3,1,1,C,F,r,g,15,5,6001,1,3,105,343
1,6,30,3,1,1,C,F,r,g,15,5,7001,1,3,525,145
1,6,30,3,1,1,C,F,r,g,15,5,7001,1,3,559,284
1,6,30,3,1,1,C,F,r,g,15,5,7001,1,3,102,348
1,6,30,3,1,1,C,F,r,g,15,5,8001,1,3,609,333
1,6,30,3,1,1,C,F,r,g,15,5,8001,1,3,228,402
1,6,30,3,1,1,C,F,r,g,15,5,8001,1,3,107,346
1,6,30,3,1,1,C,F,r,g,15,5,9001,1,3,604,337
1,6,30,3,1,1,C,F,r,g,15,5,9001,1,3,325,166
1,6,30,3,1,1,C,F,r,g,15,5,9001,1,3,101,350
1,6,30,3,1,1,C,F,r,g,15,5,10001,1,3,603,181
1,6,30,3,1,1,C,F,r,g,15,5,10001,1,3,604,348
1,6,30,3,1,1,C,F,r,g,15,5,10001,1,3,109,356
1,6,30,3,1,1,C,F,r,g,15,5,11001,1,3,572,465
1,6,30,3,1,1,C,F,r,g,15,5,11001,1,3,564,401
1,6,30,3,1,1,C,F,r,g,15,5,11001,1,3,162,380
1,6,30,3,1,1,C,F,r,g,15,5,12001,1,3,526,498
1,6,30,3,1,1,C,F,r,g,15,5,12001,1,3,458,503
1,6,30,3,1,1,C,F,r,g,15,5,12001,1,3,366,463
1,6,30,3,1,1,C,F,r,g,15,5,13001,1,3,465,424
1,6,30,3,1,1,C,F,r,g,15,5,13001,1,3,453,491
1,6,30,3,1,1,C,F,r,g,15,5,13001,1,3,446,515
1,6,30,3,1,1,C,F,r,g,15,5,14001,1,3,448,384
1,6,30,3,1,1,C,F,r,g,15,5,14001,1,3,431,498
1,6,30,3,1,1,C,F,r,g,15,5,14001,1,3,377,539
1,6,30,3,1,1,C,F,r,g,15,5,15001,1,3,445,385
1,6,30,3,1,1,C,F,r,g,15,5,15001,1,3,433,481
1,6,30,3,1,1,C,F,r,g,15,5,15001,1,3,339,533
1,6,30,3,1,1,C,F,r,g,15,5,16001,1,3,213,380
1,6,30,3,1,1,C,F,r,g,15,5,16001,1,3,405,454
1,6,30,3,1,1,C,F,r,g,15,5,16001,1,3,343,536
1,6,30,3,1,1,C,F,r,g,15,5,17001,1,3,385,378
1,6,30,3,1,1,C,F,r,g,15,5,17001,1,3,394,450
1,6,30,3,1,1,C,F,r,g,15,5,17001,1,3,317,528
1,6,30,3,1,1,C,F,r,g,15,5,18001,1,3,554,338
1,6,30,3,1,1,C,F,r,g,15,5,18001,1,3,363,452
1,6,30,3,1,1,C,F,r,g,15,5,18001,1,3,310,519
1,6,30,3,1,1,C,F,r,g,15,5,19001,1,3,598,261
1,6,30,3,1,1,C,F,r,g,15,5,19001,1,3,371,501
1,6,30,3,1,1,C,F,r,g,15,5,19001,1,3,291,512
1,6,30,3,1,1,C,F,r,g,15,5,20001,1,3,488,355
1,6,30,3,1,1,C,F,r,g,15,5,20001,1,3,358,499
1,6,30,3,1,1,C,F,r,g,15,5,20001,1,3,309,522
1,6,30,3,1,1,C,F,r,g,15,5,21001,1,3,492,355
1,6,30,3,1,1,C,F,r,g,15,5,21001,1,3,425,475
1,6,30,3,1,1,C,F,r,g,15,5,21001,1,3,397,525
1,6,30,3,1,1,C,F,r,g,15,5,22001,1,3,487,352
1,6,30,3,1,1,C,F,r,g,15,5,22001,1,3,441,514
1,6,30,3,1,1,C,F,r,g,15,5,22001,1,3,405,531
1,6,30,3,1,1,C,F,r,g,15,5,23001,1,3,475,354
1,6,30,3,1,1,C,F,r,g,15,5,23001,1,3,436,514
1,6,30,3,1,1,C,F,r,g,15,5,23001,1,3,404,529
1,6,30,3,1,1,C,F,r,g,15,5,24001,1,3,464,354
1,6,30,3,1,1,C,F,r,g,15,5,24001,1,3,429,504
1,6,30,3,1,1,C,F,r,g,15,5,24001,1,3,414,550
1,6,30,3,1,1,C,F,r,g,15,5,25001,1,3,384,554
1,6,30,3,1,1,C,F,r,g,15,5,25001,1,3,371,447
1,6,30,3,1,1,C,F,r,g,15,5,25001,1,3,311,448
1,6,30,3,1,1,C,F,r,g,15,5,26001,1,3,432,416
1,6,30,3,1,1,C,F,r,g,15,5,26001,1,3,409,451
1,6,30,3,1,1,C,F,r,g,15,5,26001,1,3,276,517
1,6,30,3,1,1,C,F,r,g,15,5,27001,1,3,555,464
1,6,30,3,1,1,C,F,r,g,15,5,27001,1,3,434,447
1,6,30,3,1,1,C,F,r,g,15,5,27001,1,3,270,517
1,6,30,3,1,1,C,F,r,g,15,5,28001,1,3,565,471
1,6,30,3,1,1,C,F,r,g,15,5,28001,1,3,392,466
1,6,30,3,1,1,C,F,r,g,15,5,28001,1,3,245,531
1,6,30,3,1,1,C,F,r,g,15,5,29001,1,3,583,453
1,6,30,3,1,1,C,F,r,g,15,5,29001,1,3,408,537
1,6,30,3,1,1,C,F,r,g,15,5,29001,1,3,306,530
1,6,30,3,1,1,C,F,r,g,15,5,30001,1,3,584,449
1,6,30,3,1,1,C,F,r,g,15,5,30001,1,3,525,470
1,6,30,3,1,1,C,F,r,g,15,5,30001,1,3,404,480
1,6,30,3,1,1,C,F,r,g,15,5,31001,1,3,544,331
1,6,30,3,1,1,C,F,r,g,15,5,31001,1,3,508,368
1,6,30,3,1,1,C,F,r,g,15,5,31001,1,3,394,422
1,6,30,3,1,1,C,F,r,g,15,5,32001,1,3,546,260
1,6,30,3,1,1,C,F,r,g,15,5,32001,1,3,435,373
1,6,30,3,1,1,C,F,r,g,15,5,32001,1,3,463,440
1,6,30,3,1,1,C,F,r,g,15,5,33001,1,3,543,259
1,6,30,3,1,1,C,F,r,g,15,5,33001,1,3,419,475
1,6,30,3,1,1,C,F,r,g,15,5,33001,1,3,200,312
1,6,30,3,1,1,C,F,r,g,15,5,34001,1,3,534,239
1,6,30,3,1,1,C,F,r,g,15,5,34001,1,3,415,476
1,6,30,3,1,1,C,F,r,g,15,5,34001,1,3,96,350
1,6,30,3,1,1,C,F,r,g,15,5,35001,1,3,462,171
1,6,30,3,1,1,C,F,r,g,15,5,35001,1,3,102,347
1,6,30,3,1,1,C,F,r,g,15,5,35001,1,3,380,448
1,6,30,3,1,1,C,F,r,g,15,5,36001,1,3,487,91
1,6,30,3,1,1,C,F,r,g,15,5,36001,1,3,348,453
1,6,30,3,1,1,C,F,r,g,15,5,36001,1,3,93,349
1,6,30,3,1,1,C,F,r,g,15,5,37001,1,3,514,163
1,6,30,3,1,1,C,F,r,g,15,5,37001,1,3,93,357
1,6,30,3,1,1,C,F,r,g,15,5,37001,1,3,329,394
1,6,30,3,1,1,C,F,r,g,15,5,38001,1,3,525,173
1,6,30,3,1,1,C,F,r,g,15,5,38001,1,3,376,442
1,6,30,3,1,1,C,F,r,g,15,5,38001,1,3,76,349
1,6,30,3,1,1,C,F,r,g,15,5,39001,1,3,524,168
1,6,30,3,1,1,C,F,r,g,15,5,39001,1,3,402,494
1,6,30,3,1,1,C,F,r,g,15,5,39001,1,3,131,401
1,6,30,3,1,1,C,F,r,g,15,5,40001,1,3,533,167
1,6,30,3,1,1,C,F,r,g,15,5,40001,1,3,243,143
1,6,30,3,1,1,C,F,r,g,15,5,40001,1,3,386,506
1,6,30,3,1,1,C,F,r,g,15,5,41001,1,3,524,177
1,6,30,3,1,1,C,F,r,g,15,5,41001,1,3,245,153
1,6,30,3,1,1,C,F,r,g,15,5,41001,1,3,353,520
1,6,30,3,1,1,C,F,r,g,15,5,42001,1,3,522,167
1,6,30,3,1,1,C,F,r,g,15,5,42001,1,3,312,168
1,6,30,3,1,1,C,F,r,g,15,5,42001,1,3,308,529
1,6,30,3,1,1,C,F,r,g,15,5,43001,1,3,530,169
1,6,30,3,1,1,C,F,r,g,15,5,43001,1,3,485,164
1,6,30,3,1,1,C,F,r,g,15,5,43001,1,3,300,537
1,6,30,3,1,1,C,F,r,g,15,5,44001,1,3,581,238
1,6,30,3,1,1,C,F,r,g,15,5,44001,1,3,496,176
1,6,30,3,1,1,C,F,r,g,15,5,44001,1,3,226,536
1,6,30,3,1,1,C,F,r,g,15,5,45001,1,3,558,224
1,6,30,3,1,1,C,F,r,g,15,5,45001,1,3,519,172
1,6,30,3,1,1,C,F,r,g,15,5,45001,1,3,193,507
1,6,30,3,1,1,C,F,r,g,15,5,46001,1,3,523,215
1,6,30,3,1,1,C,F,r,g,15,5,46001,1,3,463,201
1,6,30,3,1,1,C,F,r,g,15,5,46001,1,3,228,501
1,6,30,3,1,1,C,F,r,g,15,5,47001,1,3,505,166
1,6,30,3,1,1,C,F,r,g,15,5,47001,1,3,442,148
1,6,30,3,1,1,C,F,r,g,15,5,47001,1,3,230,496
1,6,30,3,1,1,C,F,r,g,15,5,48001,1,3,488,113
1,6,30,3,1,1,C,F,r,g,15,5,48001,1,3,531,379
1,6,30,3,1,1,C,F,r,g,15,5,48001,1,3,233,509
1,6,30,3,1,1,C,F,r,g,15,5,49001,1,3,448,141
1,6,30,3,1,1,C,F,r,g,15,5,49001,1,3,417,224
1,6,30,3,1,1,C,F,r,g,15,5,49001,1,3,283,517
1,6,30,3,1,1,C,F,r,g,15,5,50001,1,3,511,178
1,6,30,3,1,1,C,F,r,g,15,5,50001,1,3,282,187
1,6,30,3,1,1,C,F,r,g,15,5,50001,1,3,287,516
1,6,30,3,1,1,C,F,r,g,15,5,51001,1,3,523,151
1,6,30,3,1,1,C,F,r,g,15,5,51001,1,3,484,92
1,6,30,3,1,1,C,F,r,g,15,5,51001,1,3,353,453
1,6,30,3,1,1,C,F,r,g,15,5,52001,1,3,497,126
1,6,30,3,1,1,C,F,r,g,15,5,52001,1,3,532,155
1,6,30,3,1,1,C,F,r,g,15,5,52001,1,3,310,495
1,6,30,3,1,1,C,F,r,g,15,5,53001,1,3,417,228
1,6,30,3,1,1,C,F,r,g,15,5,53001,1,3,312,155
1,6,30,3,1,1,C,F,r,g,15,5,53001,1,3,282,551
1,6,30,3,1,1,C,F,r,g,15,5,54001,1,3,552,136
1,6,30,3,1,1,C,F,r,g,15,5,54001,1,3,501,142
1,6,30,3,1,1,C,F,r,g,15,5,54001,1,3,276,553
1,6,30,3,1,1,C,F,r,g,15,5,55001,1,3,521,133
1,6,30,3,1,1,C,F,r,g,15,5,55001,1,3,497,160
1,6,30,3,1,1,C,F,r,g,15,5,55001,1,3,268,541
1,6,30,3,1,1,C,F,r,g,15,5,56001,1,3,513,143
1,6,30,3,1,1,C,F,r,g,15,5,56001,1,3,299,142
1,6,30,3,1,1,C,F,r,g,15,5,56001,1,3,328,533
1,6,30,3,1,1,C,F,r,g,15,5,57001,1,3,516,150
1,6,30,3,1,1,C,F,r,g,15,5,57001,1,3,248,159
1,6,30,3,1,1,C,F,r,g,15,5,57001,1,3,350,548
1,6,30,3,1,1,C,F,r,g,15,5,58001,1,3,493,150
1,6,30,3,1,1,C,F,r,g,15,5,58001,1,3,259,167
1,6,30,3,1,1,C,F,r,g,15,5,58001,1,3,388,523
1,6,30,3,1,1,C,F,r,g,15,5,59001,1,3,541,147
1,6,30,3,1,1,C,F,r,g,15,5,59001,1,3,217,214
1,6,30,3,1,1,C,F,r,g,15,5,59001,1,3,403,544
1,6,30,3,1,1,C,F,r,g,15,5,60001,1,3,532,169
1,6,30,3,1,1,C,F,r,g,15,5,60001,1,3,229,217
1,6,30,3,1,1,C,F,r,g,15,5,60001,1,3,409,551
1,6,30,3,1,1,C,F,r,g,15,5,61001,1,3,500,205
1,6,30,3,1,1,C,F,r,g,15,5,61001,1,3,305,378
1,6,30,3,1,1,C,F,r,g,15,5,61001,1,3,416,552
1,6,30,3,1,1,C,F,r,g,15,5,62001,1,3,516,331
1,6,30,3,1,1,C,F,r,g,15,5,62001,1,3,285,422
1,6,30,3,1,1,C,F,r,g,15,5,62001,1,3,404,552
1,6,30,3,1,1,C,F,r,g,15,5,63001,1,3,553,230
1,6,30,3,1,1,C,F,r,g,15,5,63001,1,3,294,421
1,6,30,3,1,1,C,F,r,g,15,5,63001,1,3,418,543
1,6,30,3,1,1,C,F,r,g,15,5,64001,1,3,527,182
1,6,30,3,1,1,C,F,r,g,15,5,64001,1,3,354,470
1,6,30,3,1,1,C,F,r,g,15,5,64001,1,3,425,555
1,6,30,3,1,1,C,F,r,g,15,5,65001,1,3,526,189
1,6,30,3,1,1,C,F,r,g,15,5,65001,1,3,297,515
1,6,30,3,1,1,C,F,r,g,15,5,65001,1,3,422,557
1,6,30,3,1,1,C,F,r,g,15,5,66001,1,3,527,172
1,6,30,3,1,1,C,F,r,g,15,5,66001,1,3,427,560
1,6,30,3,1,1,C,F,r,g,15,5,66001,1,3,228,497
1,6,30,3,1,1,C,F,r,g,15,5,67001,1,3,516,164
1,6,30,3,1,1,C,F,r,g,15,5,67001,1,3,167,482
1,6,30,3,1,1,C,F,r,g,15,5,67001,1,3,422,556
1,6,30,3,1,1,C,F,r,g,15,5,68001,1,3,519,164
1,6,30,3,1,1,C,F,r,g,15,5,68001,1,3,343,401
1,6,30,3,1,1,C,F,r,g,15,5,68001,1,3,425,557
1,6,30,3,1,1,C,F,r,g,15,5,69001,1,3,471,151
1,6,30,3,1,1,C,F,r,g,15,5,69001,1,3,418,478
1,6,30,3,1,1,C,F,r,g,15,5,69001,1,3,449,548
1,6,30,3,1,1,C,F,r,g,15,5,70001,1,3,526,187
1,6,30,3,1,1,C,F,r,g,15,5,70001,1,3,539,464
1,6,30,3,1,1,C,F,r,g,15,5,70001,1,3,433,517
1,6,30,3,1,1,C,F,r,g,15,5,71001,1,3,498,172
1,6,30,3,1,1,C,F,r,g,15,5,71001,1,3,535,472
1,6,30,3,1,1,C,F,r,g,15,5,71001,1,3,428,517
1,6,30,3,1,1,C,F,r,g,15,5,72001,1,3,553,462
1,6,30,3,1,1,C,F,r,g,15,5,72001,1,3,423,492
1,6,30,3,1,1,C,F,r,g,15,5,72001,1,3,467,162
1,6,30,3,1,1,C,F,r,g,15,5,73001,1,3,472,170
1,6,30,3,1,1,C,F,r,g,15,5,73001,1,3,563,453
1,6,30,3,1,1,C,F,r,g,15,5,73001,1,3,417,557
1,6,30,3,1,1,C,F,r,g,15,5,74001,1,3,466,168
1,6,30,3,1,1,C,F,r,g,15,5,74001,1,3,553,462
1,6,30,3,1,1,C,F,r,g,15,5,74001,1,3,419,480
1,6,30,3,1,1,C,F,r,g,15,5,75001,1,3,425,159
1,6,30,3,1,1,C,F,r,g,15,5,75001,1,3,570,475
1,6,30,3,1,1,C,F,r,g,15,5,75001,1,3,421,481
1,6,30,3,1,1,C,F,r,g,15,5,76001,1,3,487,147
1,6,30,3,1,1,C,F,r,g,15,5,76001,1,3,533,370
1,6,30,3,1,1,C,F,r,g,15,5,76001,1,3,419,482
1,6,30,3,1,1,C,F,r,g,15,5,77001,1,3,518,177
1,6,30,3,1,1,C,F,r,g,15,5,77001,1,3,475,349
1,6,30,3,1,1,C,F,r,g,15,5,77001,1,3,422,473
1,6,30,3,1,1,C,F,r,g,15,5,78001,1,3,514,164
1,6,30,3,1,1,C,F,r,g,15,5,78001,1,3,436,366
1,6,30,3,1,1,C,F,r,g,15,5,78001,1,3,425,477
1,6,30,3,1,1,C,F,r,g,15,5,79001,1,3,518,178
1,6,30,3,1,1,C,F,r,g,15,5,79001,1,3,433,368
1,6,30,3,1,1,C,F,r,g,15,5,79001,1,3,426,470
1,6,30,3,1,1,C,F,r,g,15,5,80001,1,3,559,210
1,6,30,3,1,1,C,F,r,g,15,5,80001,1,3,402,383
1,6,30,3,1,1,C,F,r,g,15,5,80001,1,3,435,474
1,6,30,3,1,1,C,F,r,g,15,5,81001,1,3,521,157
1,6,30,3,1,1,C,F,r,g,15,5,81001,1,3,374,383
1,6,30,3,1,1,C,F,r,g,15,5,81001,1,3,420,474
1,6,30,3,1,1,C,F,r,g,15,5,82001,1,3,440,167
1,6,30,3,1,1,C,F,r,g,15,5,82001,1,3,378,381
1,6,30,3,1,1,C,F,r,g,15,5,82001,1,3,427,484
1,6,30,3,1,1,C,F,r,g,15,5,83001,1,3,462,177
1,6,30,3,1,1,C,F,r,g,15,5,83001,1,3,367,378
1,6,30,3,1,1,C,F,r,g,15,5,83001,1,3,424,514
1,6,30,3,1,1,C,F,r,g,15,5,84001,1,3,458,179
1,6,30,3,1,1,C,F,r,g,15,5,84001,1,3,332,354
1,6,30,3,1,1,C,F,r,g,15,5,84001,1,3,403,543
1,6,30,3,1,1,C,F,r,g,15,5,85001,1,3,448,175
1,6,30,3,1,1,C,F,r,g,15,5,85001,1,3,394,330
1,6,30,3,1,1,C,F,r,g,15,5,85001,1,3,415,493
1,6,30,3,1,1,C,F,r,g,15,5,86001,1,3,486,170
1,6,30,3,1,1,C,F,r,g,15,5,86001,1,3,461,361
1,6,30,3,1,1,C,F,r,g,15,5,86001,1,3,410,478
1,6,30,3,1,1,C,F,r,g,15,5,87001,1,3,476,182
1,6,30,3,1,1,C,F,r,g,15,5,87001,1,3,461,374
1,6,30,3,1,1,C,F,r,g,15,5,87001,1,3,348,407
1,6,30,3,1,1,C,F,r,g,15,5,88001,1,3,461,180
1,6,30,3,1,1,C,F,r,g,15,5,88001,1,3,447,357
1,6,30,3,1,1,C,F,r,g,15,5,88001,1,3,422,483
1,6,30,3,1,1,C,F,r,g,15,5,89001,1,3,464,194
1,6,30,3,1,1,C,F,r,g,15,5,89001,1,3,384,381
1,6,30,3,1,1,C,F,r,g,15,5,89001,1,3,426,490
1,6,30,3,1,1,C,F,r,g,15,5,90001,1,3,520,126
1,6,30,3,1,1,C,F,r,g,15,5,90001,1,3,337,395
1,6,30,3,1,1,C,F,r,g,15,5,90001,1,3,421,501
1,6,30,3,1,1,C,F,r,g,15,5,91001,1,3,453,211
1,6,30,3,1,1,C,F,r,g,15,5,91001,1,3,360,395
1,6,30,3,1,1,C,F,r,g,15,5,91001,1,3,433,514
1,6,30,3,1,1,C,F,r,g,15,5,92001,1,3,524,240
1,6,30,3,1,1,C,F,r,g,15,5,92001,1,3,374,339
1,6,30,3,1,1,C,F,r,g,15,5,92001,1,3,433,506
1,6,30,3,1,1,C,F,r,g,15,5,93001,1,3,475,226
1,6,30,3,1,1,C,F,r,g,15,5,93001,1,3,448,509
1,6,30,3,1,1,C,F,r,g,15,5,93001,1,3,436,545
1,6,30,3,1,1,C,F,r,g,15,5,94001,1,3,354,166
1,6,30,3,1,1,C,F,r,g,15,5,94001,1,3,449,511
1,6,30,3,1,1,C,F,r,g,15,5,94001,1,3,429,496
1,6,30,3,1,1,C,F,r,g,15,5,95001,1,3,278,178
1,6,30,3,1,1,C,F,r,g,15,5,95001,1,3,354,442
1,6,30,3,1,1,C,F,r,g,15,5,95001,1,3,409,554
1,6,30,3,1,1,C,F,r,g,15,5,96001,1,3,278,208
1,6,30,3,1,1,C,F,r,g,15,5,96001,1,3,349,397
1,6,30,3,1,1,C,F,r,g,15,5,96001,1,3,411,513
1,6,30,3,1,1,C,F,r,g,15,5,97001,1,3,261,204
1,6,30,3,1,1,C,F,r,g,15,5,97001,1,3,367,422
1,6,30,3,1,1,C,F,r,g,15,5,97001,1,3,409,509
1,6,30,3,1,1,C,F,r,g,15,5,98001,1,3,267,328
1,6,30,3,1,1,C,F,r,g,15,5,98001,1,3,360,432
1,6,30,3,1,1,C,F,r,g,15,5,98001,1,3,396,548
1,6,30,3,1,1,C,F,r,g,15,5,99001,1,3,368,339
1,6,30,3,1,1,C,F,r,g,15,5,99001,1,3,362,442
1,6,30,3,1,1,C,F,r,g,15,5,99001,1,3,351,540
1,6,30,3,1,1,C,F,r,g,15,5,100001,1,3,550,362
1,6,30,3,1,1,C,F,r,g,15,5,100001,1,3,408,475
1,6,30,3,1,1,C,F,r,g,15,5,100001,1,1,370,446
1,6,30,3,1,1,C,F,r,g,15,5,100001,1,3,351,544
1,6,30,3,1,1,C,F,r,g,15,5,101001,1,3,330,184
1,6,30,3,1,1,C,F,r,g,15,5,101001,1,3,406,478
1,6,30,3,1,1,C,F,r,g,15,5,101001,1,3,354,543
1,6,30,3,1,1,C,F,r,g,15,5,101001,1,1,531,518
1,6,30,3,1,1,C,F,r,g,15,5,102001,1,3,183,315
1,6,30,3,1,1,C,F,r,g,15,5,102001,1,3,437,486
1,6,30,3,1,1,C,F,r,g,15,5,102001,1,3,331,549
1,6,30,3,1,1,C,F,r,g,15,5,103001,1,3,212,364
1,6,30,3,1,1,C,F,r,g,15,5,103001,1,3,431,490
1,6,30,3,1,1,C,F,r,g,15,5,103001,1,3,344,537
1,6,30,3,1,1,C,F,r,g,15,5,104001,1,3,360,315
1,6,30,3,1,1,C,F,r,g,15,5,104001,1,3,317,548
1,6,30,3,1,1,C,F,r,g,15,5,104001,1,3,394,543
1,6,30,3,1,1,C,F,r,g,15,5,105001,1,3,552,248
1,6,30,3,1,1,C,F,r,g,15,5,105001,1,3,362,462
1,6,30,3,1,1,C,F,r,g,15,5,105001,1,3,314,537
1,6,30,3,1,1,C,F,r,g,15,5,106001,1,3,612,328
1,6,30,3,1,1,C,F,r,g,15,5,106001,1,3,376,423
1,6,30,3,1,1,C,F,r,g,15,5,106001,1,3,347,534
1,6,30,3,1,1,C,F,r,g,15,5,107001,1,3,582,371
1,6,30,3,1,1,C,F,r,g,15,5,107001,1,3,381,449
1,6,30,3,1,1,C,F,r,g,15,5,107001,1,3,441,533
