dummy,month,day,period,view,station,fgeno,mgeno,fcol,mcol,nf,nm,frame,something,sex,x,y
1,6,23,1,2,3,A,F,b,y,15,5,1,1,1,228.0591,238.4921
1,6,23,1,2,3,A,F,b,y,15,5,1,1,1,300.1063,73.1378
1,6,23,1,2,3,A,F,b,y,15,5,1,1,3,368.6102,213.689
1,6,23,1,2,3,A,F,b,y,15,5,1,1,1,676.878,237.311
1,6,23,1,2,3,A,F,b,y,15,5,1001,1,1,257.5866,142.8228
1,6,23,1,2,3,A,F,b,y,15,5,1001,1,1,169.0039,182.9803
1,6,23,1,2,3,A,F,b,y,15,5,1001,1,1,465.4606,94.3976
1,6,23,1,2,3,A,F,b,y,15,5,1001,1,3,306.0118,401.4843
1,6,23,1,2,3,A,F,b,y,15,5,2001,1,1,176.0906,329.437
1,6,23,1,2,3,A,F,b,y,15,5,2001,1,3,202.0748,225.5
1,6,23,1,2,3,A,F,b,y,15,5,2001,1,1,375.6969,161.7205
1,6,23,1,2,3,A,F,b,y,15,5,2001,1,1,617.8228,153.4528
1,6,23,1,2,3,A,F,b,y,15,5,3001,1,1,284.752,441.6417
1,6,23,1,2,3,A,F,b,y,15,5,3001,1,1,258.7677,96.7598
1,6,23,1,2,3,A,F,b,y,15,5,3001,1,3,368.6102,51.878
1,6,23,1,2,3,A,F,b,y,15,5,4001,1,1,336.7205,233.7677
1,6,23,1,2,3,A,F,b,y,15,5,4001,1,3,434.752,51.878
1,6,23,1,2,3,A,F,b,y,15,5,5001,1,1,458.374,58.9646
1,6,23,1,2,3,A,F,b,y,15,5,5001,1,3,444.2008,93.2165
1,6,23,1,2,3,A,F,b,y,15,5,6001,1,1,496.1693,401.4843
1,6,23,1,2,3,A,F,b,y,15,5,6001,1,3,555.2244,171.1693
1,6,23,1,2,3,A,F,b,y,15,5,7001,1,1,180.815,396.7598
1,6,23,1,2,3,A,F,b,y,15,5,7001,1,1,187.9016,342.4291
1,6,23,1,2,3,A,F,b,y,15,5,7001,1,3,368.6102,171.1693
1,6,23,1,2,3,A,F,b,y,15,5,8001,1,1,236.3268,389.6732
1,6,23,1,2,3,A,F,b,y,15,5,8001,1,1,186.7205,213.689
1,6,23,1,2,3,A,F,b,y,15,5,8001,1,1,269.3976,126.2874
1,6,23,1,2,3,A,F,b,y,15,5,8001,1,3,418.2165,316.4449
1,6,23,1,2,3,A,F,b,y,15,5,9001,1,1,407.5866,456.9961
1,6,23,1,2,3,A,F,b,y,15,5,9001,1,1,464.2795,440.4606
1,6,23,1,2,3,A,F,b,y,15,5,9001,1,1,402.8622,347.1535
1,6,23,1,2,3,A,F,b,y,15,5,9001,1,3,404.0433,389.6732
1,6,23,1,2,3,A,F,b,y,15,5,9001,1,1,477.2717,69.5945
1,6,23,1,2,3,A,F,b,y,15,5,10001,1,1,309.5551,92.0354
1,6,23,1,2,3,A,F,b,y,15,5,10001,1,1,578.8465,348.3346
1,6,23,1,2,3,A,F,b,y,15,5,10001,1,3,557.5866,310.5394
1,6,23,1,2,3,A,F,b,y,15,5,10001,1,3,535.1457,330.6181
1,6,23,1,2,3,A,F,b,y,15,5,11001,1,1,406.4055,440.4606
1,6,23,1,2,3,A,F,b,y,15,5,11001,1,3,415.8543,407.3898
1,6,23,1,2,3,A,F,b,y,15,5,11001,1,3,394.5945,361.3268
1,6,23,1,2,3,A,F,b,y,15,5,11001,1,1,630.815,149.9094
1,6,23,1,2,3,A,F,b,y,15,5,12001,1,3,166.6417,182.9803
1,6,23,1,2,3,A,F,b,y,15,5,12001,1,3,210.3425,197.1535
1,6,23,1,2,3,A,F,b,y,15,5,12001,1,1,616.6417,392.0354
1,6,23,1,2,3,A,F,b,y,15,5,13001,1,1,500.8937,49.5157
1,6,23,1,2,3,A,F,b,y,15,5,13001,1,1,421.7598,22.3504
1,6,23,1,2,3,A,F,b,y,15,5,14001,1,1,427.6654,136.9173
1,6,23,1,2,3,A,F,b,y,15,5,14001,1,1,367.4291,141.6417
1,6,23,1,2,3,A,F,b,y,15,5,14001,1,1,479.6339,53.0591
1,6,23,1,2,3,A,F,b,y,15,5,15001,1,1,419.3976,388.4921
1,6,23,1,2,3,A,F,b,y,15,5,15001,1,1,342.626,88.4921
1,6,23,1,2,3,A,F,b,y,15,5,16001,1,1,448.9252,136.9173
1,6,23,1,2,3,A,F,b,y,15,5,16001,1,1,378.0591,155.815
1,6,23,1,2,3,A,F,b,y,15,5,16001,1,1,256.4055,428.6496
1,6,23,1,2,3,A,F,b,y,15,5,17001,1,1,315.4606,68.4134
1,6,23,1,2,3,A,F,b,y,15,5,17001,1,1,349.7126,289.2795
1,6,23,1,2,3,A,F,b,y,15,5,17001,1,1,342.626,374.3189
1,6,23,1,2,3,A,F,b,y,15,5,18001,1,1,431.2087,80.2244
1,6,23,1,2,3,A,F,b,y,15,5,18001,1,1,485.5394,271.563
1,6,23,1,2,3,A,F,b,y,15,5,18001,1,1,454.8307,464.0827
1,6,23,1,2,3,A,F,b,y,15,5,19001,1,1,306.0118,105.0276
1,6,23,1,2,3,A,F,b,y,15,5,19001,1,1,353.2559,107.3898
1,6,23,1,2,3,A,F,b,y,15,5,19001,1,1,396.9567,231.4055
1,6,23,1,2,3,A,F,b,y,15,5,19001,1,3,271.7598,431.0118
1,6,23,1,2,3,A,F,b,y,15,5,20001,1,1,222.1535,297.5472
1,6,23,1,2,3,A,F,b,y,15,5,20001,1,1,393.4134,534.9488
1,6,23,1,2,3,A,F,b,y,15,5,20001,1,1,520.9724,301.0906
1,6,23,1,2,3,A,F,b,y,15,5,20001,1,3,603.6496,243.2165
1,6,23,1,2,3,A,F,b,y,15,5,21001,1,1,415.8543,397.9409
1,6,23,1,2,3,A,F,b,y,15,5,21001,1,1,237.5079,213.689
1,6,23,1,2,3,A,F,b,y,15,5,21001,1,1,190.2638,205.4213
1,6,23,1,2,3,A,F,b,y,15,5,21001,1,3,222.1535,172.3504
1,6,23,1,2,3,A,F,b,y,15,5,22001,1,1,581.2087,242.0354
1,6,23,1,2,3,A,F,b,y,15,5,22001,1,3,621.3661,258.5709
1,6,23,1,2,3,A,F,b,y,15,5,22001,1,1,691.0512,256.2087
1,6,23,1,2,3,A,F,b,y,15,5,23001,1,1,269.3976,382.5866
1,6,23,1,2,3,A,F,b,y,15,5,23001,1,1,183.1772,288.0984
1,6,23,1,2,3,A,F,b,y,15,5,23001,1,3,334.3583,373.1378
1,6,23,1,2,3,A,F,b,y,15,5,24001,1,1,220.9724,185.3425
1,6,23,1,2,3,A,F,b,y,15,5,24001,1,3,295.3819,152.2717
1,6,23,1,2,3,A,F,b,y,15,5,25001,1,3,243.4134,138.0984
1,6,23,1,2,3,A,F,b,y,15,5,28001,1,2,602.4685,392.0354
1,6,23,1,2,3,A,F,b,y,15,5,29001,1,2,229.2402,101.4843
1,6,23,1,2,3,A,F,b,y,15,5,30001,1,3,324.9094,540.8543
1,6,23,1,2,3,A,F,b,y,15,5,31001,1,3,425.3031,410.9331
1,6,23,1,2,3,A,F,b,y,15,5,32001,1,3,278.8465,253.8465
1,6,23,1,2,3,A,F,b,y,15,5,32001,1,1,287.1142,328.2559
1,6,23,1,2,3,A,F,b,y,15,5,34001,1,3,463.0984,323.5315
1,6,23,1,2,3,A,F,b,y,15,5,34001,1,1,526.878,266.8386
1,6,23,1,2,3,A,F,b,y,15,5,34001,1,1,411.1299,60.1457
1,6,23,1,2,3,A,F,b,y,15,5,34001,1,3,460.7362,140.4606
1,6,23,1,2,3,A,F,b,y,15,5,34001,1,3,481.9961,105.0276
1,6,23,1,2,3,A,F,b,y,15,5,35001,1,3,303.6496,81.4055
1,6,23,1,2,3,A,F,b,y,15,5,35001,1,1,334.3583,53.0591
1,6,23,1,2,3,A,F,b,y,15,5,35001,1,1,617.8228,288.0984
1,6,23,1,2,3,A,F,b,y,15,5,36001,1,3,459.5551,349.5157
1,6,23,1,2,3,A,F,b,y,15,5,36001,1,1,513.8858,351.878
1,6,23,1,2,3,A,F,b,y,15,5,36001,1,1,379.2402,521.9567
1,6,23,1,2,3,A,F,b,y,15,5,37001,1,3,472.5472,51.878
1,6,23,1,2,3,A,F,b,y,15,5,37001,1,1,467.8228,322.3504
1,6,23,1,2,3,A,F,b,y,15,5,37001,1,1,383.9646,542.0354
1,6,23,1,2,3,A,F,b,y,15,5,37001,1,3,563.4921,442.8228
1,6,23,1,2,3,A,F,b,y,15,5,37001,1,3,593.0197,403.8465
1,6,23,1,2,3,A,F,b,y,15,5,38001,1,1,413.4921,336.5236
1,6,23,1,2,3,A,F,b,y,15,5,38001,1,1,474.9094,316.4449
1,6,23,1,2,3,A,F,b,y,15,5,38001,1,1,401.6811,76.6811
1,6,23,1,2,3,A,F,b,y,15,5,38001,1,3,376.878,107.3898
1,6,23,1,2,3,A,F,b,y,15,5,38001,1,3,418.2165,83.7677
1,6,23,1,2,3,A,F,b,y,15,5,38001,1,3,422.9409,57.7835
1,6,23,1,2,3,A,F,b,y,15,5,39001,1,1,294.2008,80.2244
1,6,23,1,2,3,A,F,b,y,15,5,39001,1,1,452.4685,309.3583
1,6,23,1,2,3,A,F,b,y,15,5,39001,1,3,288.2953,40.0669
1,6,23,1,2,3,A,F,b,y,15,5,40001,1,1,417.0354,314.0827
1,6,23,1,2,3,A,F,b,y,15,5,40001,1,1,447.7441,471.1693
1,6,23,1,2,3,A,F,b,y,15,5,40001,1,3,509.1614,462.9016
1,6,23,1,2,3,A,F,b,y,15,5,40001,1,3,379.2402,309.3583
1,6,23,1,2,3,A,F,b,y,15,5,41001,1,1,517.4291,423.9252
1,6,23,1,2,3,A,F,b,y,15,5,41001,1,3,313.0984,234.9488
1,6,23,1,2,3,A,F,b,y,15,5,41001,1,3,492.626,477.0748
1,6,23,1,2,3,A,F,b,y,15,5,42001,1,1,406.4055,238.4921
1,6,23,1,2,3,A,F,b,y,15,5,42001,1,3,323.7283,203.0591
1,6,23,1,2,3,A,F,b,y,15,5,42001,1,1,415.8543,8.1772
1,6,23,1,2,3,A,F,b,y,15,5,43001,1,1,644.9882,181.7992
1,6,23,1,2,3,A,F,b,y,15,5,43001,1,3,381.6024,275.1063
1,6,23,1,2,3,A,F,b,y,15,5,44001,1,1,326.0906,154.6339
1,6,23,1,2,3,A,F,b,y,15,5,44001,1,3,321.3661,221.9567
1,6,23,1,2,3,A,F,b,y,15,5,45001,1,1,437.1142,331.7992
1,6,23,1,2,3,A,F,b,y,15,5,45001,1,3,411.1299,294.0039
1,6,23,1,2,3,A,F,b,y,15,5,46001,1,1,349.7126,164.0827
1,6,23,1,2,3,A,F,b,y,15,5,46001,1,1,301.2874,227.8622
1,6,23,1,2,3,A,F,b,y,15,5,46001,1,3,250.5,231.4055
1,6,23,1,2,3,A,F,b,y,15,5,47001,1,1,414.6732,253.8465
1,6,23,1,2,3,A,F,b,y,15,5,47001,1,1,382.7835,382.5866
1,6,23,1,2,3,A,F,b,y,15,5,47001,1,3,407.5866,290.4606
1,6,23,1,2,3,A,F,b,y,15,5,48001,1,1,259.9488,480.6181
1,6,23,1,2,3,A,F,b,y,15,5,48001,1,1,653.2559,258.5709
1,6,23,1,2,3,A,F,b,y,15,5,48001,1,3,616.6417,219.5945
1,6,23,1,2,3,A,F,b,y,15,5,49001,1,3,591.8386,266.8386
1,6,23,1,2,3,A,F,b,y,15,5,50001,1,3,340.2638,325.8937
1,6,23,1,2,3,A,F,b,y,15,5,50001,1,1,295.3819,362.5079
1,6,23,1,2,3,A,F,b,y,15,5,51001,1,3,679.2402,180.6181
1,6,23,1,2,3,A,F,b,y,15,5,51001,1,1,688.689,232.5866
1,6,23,1,2,3,A,F,b,y,15,5,52001,1,3,447.7441,282.1929
1,6,23,1,2,3,A,F,b,y,15,5,54001,1,3,386.3268,384.9488
1,6,23,1,2,3,A,F,b,y,15,5,54001,1,1,189.0827,110.9331
1,6,23,1,2,3,A,F,b,y,15,5,55001,1,1,471.3661,362.5079
1,6,23,1,2,3,A,F,b,y,15,5,55001,1,3,392.2323,25.8937
1,6,23,1,2,3,A,F,b,y,15,5,56001,1,3,608.374,315.2638
1,6,23,1,2,3,A,F,b,y,15,5,56001,1,1,657.9803,330.6181
1,6,23,1,2,3,A,F,b,y,15,5,57001,1,3,382.7835,128.6496
1,6,23,1,2,3,A,F,b,y,15,5,58001,1,3,362.7047,135.7362
1,6,23,1,2,3,A,F,b,y,15,5,59001,1,3,615.4606,310.5394
1,6,23,1,2,3,A,F,b,y,15,5,60001,1,3,409.9488,32.9803
1,6,23,1,2,3,A,F,b,y,15,5,61001,1,3,407.5866,380.2244
1,6,23,1,2,3,A,F,b,y,15,5,62001,1,3,241.0512,129.8307
1,6,23,1,2,3,A,F,b,y,15,5,63001,1,3,494.9882,291.6417
1,6,23,1,2,3,A,F,b,y,15,5,64001,1,3,570.5787,353.0591
1,6,23,1,2,3,A,F,b,y,15,5,65001,1,3,198.5315,223.1378
1,6,23,1,2,3,A,F,b,y,15,5,66001,1,3,611.9173,165.2638
1,6,23,1,2,3,A,F,b,y,15,5,68001,1,3,311.9173,47.1535
1,6,23,1,2,3,A,F,b,y,15,5,69001,1,3,484.3583,288.0984
1,6,23,1,2,3,A,F,b,y,15,5,70001,1,3,290.6575,210.1457
1,6,23,1,2,3,A,F,b,y,15,5,71001,1,3,426.4843,412.1142
1,6,23,1,2,3,A,F,b,y,15,5,71001,1,1,485.5394,180.6181
1,6,23,1,2,3,A,F,b,y,15,5,72001,1,1,391.0512,423.9252
1,6,23,1,2,3,A,F,b,y,15,5,72001,1,3,388.689,366.0512
1,6,23,1,2,3,A,F,b,y,15,5,73001,1,3,216.248,192.4291
1,6,23,1,2,3,A,F,b,y,15,5,74001,1,3,422.9409,140.4606
1,6,23,1,2,3,A,F,b,y,15,5,74001,1,1,471.3661,324.7126
1,6,23,1,2,3,A,F,b,y,15,5,75001,1,3,551.6811,243.2165
1,6,23,1,2,3,A,F,b,y,15,5,75001,1,1,595.3819,282.1929
1,6,23,1,2,3,A,F,b,y,15,5,76001,1,3,204.437,141.6417
1,6,23,1,2,3,A,F,b,y,15,5,76001,1,1,456.0118,440.4606
1,6,23,1,2,3,A,F,b,y,15,5,76001,1,1,593.0197,275.1063
1,6,23,1,2,3,A,F,b,y,15,5,77001,1,3,211.5236,283.374
1,6,23,1,2,3,A,F,b,y,15,5,77001,1,1,409.9488,198.3346
1,6,23,1,2,3,A,F,b,y,15,5,78001,1,3,576.4843,66.0512
1,6,23,1,2,3,A,F,b,y,15,5,79001,1,3,311.9173,226.6811
1,6,23,1,2,3,A,F,b,y,15,5,80001,1,3,205.6181,262.1142
1,6,23,1,2,3,A,F,b,y,15,5,81001,1,3,458.374,148.7283
1,6,23,1,2,3,A,F,b,y,15,5,82001,1,3,550.5,62.5079
1,6,23,1,2,3,A,F,b,y,15,5,82001,1,1,654.437,304.6339
1,6,23,1,2,3,A,F,b,y,15,5,83001,1,3,250.5,334.1614
1,6,23,1,2,3,A,F,b,y,15,5,83001,1,1,301.2874,418.0197
1,6,23,1,2,3,A,F,b,y,15,5,84001,1,3,217.4291,402.6654
1,6,23,1,2,3,A,F,b,y,15,5,85001,1,3,388.689,127.4685
1,6,23,1,2,3,A,F,b,y,15,5,85001,1,1,433.5709,82.5866
1,6,23,1,2,3,A,F,b,y,15,5,85001,1,2,556.4055,55.4213
1,6,23,1,2,3,A,F,b,y,15,5,86001,1,3,217.4291,335.3425
1,6,23,1,2,3,A,F,b,y,15,5,86001,1,1,341.4449,159.3583
1,6,23,1,2,3,A,F,b,y,15,5,86001,1,1,627.2717,444.0039
1,6,23,1,2,3,A,F,b,y,15,5,87001,1,3,284.752,76.6811
1,6,23,1,2,3,A,F,b,y,15,5,87001,1,1,401.6811,382.5866
1,6,23,1,2,3,A,F,b,y,15,5,87001,1,1,334.3583,418.0197
1,6,23,1,2,3,A,F,b,y,15,5,88001,1,3,369.7913,357.7835
1,6,23,1,2,3,A,F,b,y,15,5,88001,1,1,428.8465,366.0512
1,6,23,1,2,3,A,F,b,y,15,5,88001,1,1,628.4528,281.0118
1,6,23,1,2,3,A,F,b,y,15,5,89001,1,1,549.3189,440.4606
1,6,23,1,2,3,A,F,b,y,15,5,89001,1,3,339.0827,28.2559
1,6,23,1,2,3,A,F,b,y,15,5,90001,1,3,317.8228,395.5787
1,6,23,1,2,3,A,F,b,y,15,5,90001,1,1,389.8701,381.4055
1,6,23,1,2,3,A,F,b,y,15,5,90001,1,1,256.4055,537.311
1,6,23,1,2,3,A,F,b,y,15,5,91001,1,3,382.7835,272.7441
1,6,23,1,2,3,A,F,b,y,15,5,91001,1,1,379.2402,394.3976
1,6,23,1,2,3,A,F,b,y,15,5,91001,1,1,400.5,376.6811
1,6,23,1,2,3,A,F,b,y,15,5,91001,1,1,454.8307,234.9488
1,6,23,1,2,3,A,F,b,y,15,5,92001,1,1,453.6496,368.4134
1,6,23,1,2,3,A,F,b,y,15,5,92001,1,1,408.7677,284.5551
1,6,23,1,2,3,A,F,b,y,15,5,93001,1,1,427.6654,303.4528
1,6,23,1,2,3,A,F,b,y,15,5,94001,1,1,391.0512,224.3189
1,6,23,1,2,3,A,F,b,y,15,5,95001,1,1,418.2165,216.0512
1,6,23,1,2,3,A,F,b,y,15,5,96001,1,1,386.3268,283.374
1,6,23,1,2,3,A,F,b,y,15,5,97001,1,1,395.7756,380.2244
1,6,23,1,2,3,A,F,b,y,15,5,97001,1,1,293.0197,144.0039
1,6,23,1,2,3,A,F,b,y,15,5,98001,1,1,319.0039,433.374
1,6,23,1,2,3,A,F,b,y,15,5,98001,1,1,189.0827,275.1063
1,6,23,1,2,3,A,F,b,y,15,5,99001,1,1,306.0118,370.7756
1,6,23,1,2,3,A,F,b,y,15,5,99001,1,1,404.0433,422.7441
1,6,23,1,2,3,A,F,b,y,15,5,99001,1,1,434.752,348.3346
1,6,23,1,2,3,A,F,b,y,15,5,100001,1,1,296.563,375.5
1,6,23,1,2,3,A,F,b,y,15,5,100001,1,1,295.3819,273.9252
1,6,23,1,2,3,A,F,b,y,15,5,100001,1,1,452.4685,83.7677
1,6,23,1,2,3,A,F,b,y,15,5,101001,1,1,285.9331,102.6654
1,6,23,1,2,3,A,F,b,y,15,5,101001,1,1,346.1693,47.1535
1,6,23,1,2,3,A,F,b,y,15,5,101001,1,1,600.1063,410.9331
1,6,23,1,2,3,A,F,b,y,15,5,102001,1,1,355.6181,213.689
1,6,23,1,2,3,A,F,b,y,15,5,102001,1,1,376.878,81.4055
1,6,23,1,2,3,A,F,b,y,15,5,102001,1,1,297.7441,82.5866
1,6,23,1,2,3,A,F,b,y,15,5,103001,1,1,447.7441,304.6339
1,6,23,1,2,3,A,F,b,y,15,5,103001,1,1,200.8937,282.1929
1,6,23,1,2,3,A,F,b,y,15,5,103001,1,1,367.4291,66.0512
1,6,23,1,2,3,A,F,b,y,15,5,104001,1,1,380.4213,358.9646
1,6,23,1,2,3,A,F,b,y,15,5,104001,1,1,452.4685,392.0354
1,6,23,1,2,3,A,F,b,y,15,5,104001,1,1,326.0906,172.3504
1,6,23,1,2,3,A,F,b,y,15,5,104001,1,1,446.563,118.0197
1,6,23,1,2,3,A,F,b,y,15,5,104001,1,3,537.5079,42.4291
1,6,23,1,2,3,A,F,b,y,15,5,105001,1,3,267.0354,318.8071
1,6,23,1,2,3,A,F,b,y,15,5,105001,1,1,271.7598,371.9567
1,6,23,1,2,3,A,F,b,y,15,5,105001,1,1,447.7441,298.7283
1,6,23,1,2,3,A,F,b,y,15,5,105001,1,1,499.7126,259.752
1,6,23,1,2,3,A,F,b,y,15,5,105001,1,1,565.8543,318.8071
1,6,23,1,2,3,A,F,b,y,15,5,105001,1,1,541.0512,367.2323
1,6,23,1,2,3,A,F,b,y,15,5,105001,1,1,504.437,77.8622
1,6,23,1,2,3,A,F,b,y,15,5,106001,1,3,280.0276,89.6732
1,6,23,1,2,3,A,F,b,y,15,5,106001,1,1,231.6024,135.7362
1,6,23,1,2,3,A,F,b,y,15,5,106001,1,1,336.7205,368.4134
1,6,23,1,2,3,A,F,b,y,15,5,106001,1,1,413.4921,387.311
1,6,23,1,2,3,A,F,b,y,15,5,106001,1,1,481.9961,405.0276
1,6,23,1,2,3,A,F,b,y,15,5,106001,1,1,519.7913,309.3583
1,6,23,1,2,3,A,F,b,y,15,5,107001,1,1,497.3504,192.4291
1,6,23,1,2,3,A,F,b,y,15,5,107001,1,1,500.8937,277.4685
1,6,23,1,2,3,A,F,b,y,15,5,107001,1,1,421.7598,374.3189
1,6,23,1,2,3,A,F,b,y,15,5,107001,1,1,228.0591,399.122
1,6,23,1,2,3,A,F,b,y,15,5,107001,1,1,226.878,324.7126
