dummy,month,day,period,view,station,fgeno,mgeno,fcol,mcol,nf,nm,frame,something,sex,x,y
1,6,17,2,3,2,B,G,b,y,10,10,1,1,1,466.5413,382.3011
1,6,17,2,3,2,B,G,b,y,10,10,1,1,1,562.6013,343.2767
1,6,17,2,3,2,B,G,b,y,10,10,1,1,3,457.5356,68.6051
1,6,17,2,3,2,B,G,b,y,10,10,1001,1,3,435.0216,65.6032
1,6,17,2,3,2,B,G,b,y,10,10,1001,1,1,486.0535,88.1173
1,6,17,2,3,2,B,G,b,y,10,10,2001,1,3,352.47,127.1417
1,6,17,2,3,2,B,G,b,y,10,10,2001,1,1,358.4737,92.6201
1,6,17,2,3,2,B,G,b,y,10,10,2001,1,1,395.9972,113.6332
1,6,17,2,3,2,B,G,b,y,10,10,2001,1,1,555.0966,464.8527
1,6,17,2,3,2,B,G,b,y,10,10,3001,1,1,263.9146,202.1886
1,6,17,2,3,2,B,G,b,y,10,10,3001,1,3,239.8996,152.6576
1,6,17,2,3,2,B,G,b,y,10,10,3001,1,3,335.9597,119.637
1,6,17,2,3,2,B,G,b,y,10,10,3001,1,1,329.9559,95.622
1,6,17,2,3,2,B,G,b,y,10,10,4001,1,3,332.9578,121.1379
1,6,17,2,3,2,B,G,b,y,10,10,4001,1,1,284.9278,203.6895
1,6,17,2,3,2,B,G,b,y,10,10,4001,1,3,424.515,250.2186
1,6,17,2,3,2,B,G,b,y,10,10,4001,1,1,361.4756,473.8583
1,6,17,2,3,2,B,G,b,y,10,10,5001,1,1,341.9634,227.7045
1,6,17,2,3,2,B,G,b,y,10,10,5001,1,3,405.0028,266.7289
1,6,17,2,3,2,B,G,b,y,10,10,5001,1,3,492.0572,496.3724
1,6,17,2,3,2,B,G,b,y,10,10,5001,1,1,543.0891,461.8508
1,6,17,2,3,2,B,G,b,y,10,10,6001,1,1,226.3912,379.2992
1,6,17,2,3,2,B,G,b,y,10,10,6001,1,3,338.9615,121.1379
1,6,17,2,3,2,B,G,b,y,10,10,6001,1,1,615.1341,254.7214
1,6,17,2,3,2,B,G,b,y,10,10,6001,1,3,562.6013,407.8171
1,6,17,2,3,2,B,G,b,y,10,10,7001,1,3,441.0253,64.1023
1,6,17,2,3,2,B,G,b,y,10,10,7001,1,3,567.1041,221.7008
1,6,17,2,3,2,B,G,b,y,10,10,7001,1,1,412.5075,559.4118
1,6,17,2,3,2,B,G,b,y,10,10,7001,1,1,460.5375,590.9315
1,6,17,2,3,2,B,G,b,y,10,10,8001,1,3,337.4606,268.2298
1,6,17,2,3,2,B,G,b,y,10,10,8001,1,3,528.0797,130.1435
1,6,17,2,3,2,B,G,b,y,10,10,8001,1,3,577.6107,241.2129
1,6,17,2,3,2,B,G,b,y,10,10,9001,1,3,356.9728,140.6501
1,6,17,2,3,2,B,G,b,y,10,10,9001,1,3,430.5188,370.2936
1,6,17,2,3,2,B,G,b,y,10,10,9001,1,3,519.0741,323.7645
1,6,17,2,3,2,B,G,b,y,10,10,9001,1,1,556.5976,334.2711
1,6,17,2,3,2,B,G,b,y,10,10,10001,1,3,451.5319,145.1529
1,6,17,2,3,2,B,G,b,y,10,10,10001,1,3,447.0291,193.1829
1,6,17,2,3,2,B,G,b,y,10,10,10001,1,3,436.5225,520.3874
1,6,17,2,3,2,B,G,b,y,10,10,11001,1,3,370.4812,341.7758
1,6,17,2,3,2,B,G,b,y,10,10,11001,1,3,610.6313,263.727
1,6,17,2,3,2,B,G,b,y,10,10,11001,1,3,573.1079,425.8283
1,6,17,2,3,2,B,G,b,y,10,10,11001,1,1,607.6295,452.8452
1,6,17,2,3,2,B,G,b,y,10,10,12001,1,3,486.0535,298.2486
1,6,17,2,3,2,B,G,b,y,10,10,12001,1,3,444.0272,517.3856
1,6,17,2,3,2,B,G,b,y,10,10,12001,1,1,295.4343,508.3799
1,6,17,2,3,2,B,G,b,y,10,10,13001,1,3,397.4981,221.7008
1,6,17,2,3,2,B,G,b,y,10,10,13001,1,3,304.44,437.8358
1,6,17,2,3,2,B,G,b,y,10,10,13001,1,1,305.9409,541.4006
1,6,17,2,3,2,B,G,b,y,10,10,14001,1,3,337.4606,125.6407
1,6,17,2,3,2,B,G,b,y,10,10,14001,1,3,442.5263,404.8152
1,6,17,2,3,2,B,G,b,y,10,10,15001,1,3,480.0497,287.742
1,6,17,2,3,2,B,G,b,y,10,10,15001,1,1,262.4137,254.7214
1,6,17,2,3,2,B,G,b,y,10,10,15001,1,3,214.3837,235.2092
1,6,17,2,3,2,B,G,b,y,10,10,16001,1,3,610.6313,325.2655
1,6,17,2,3,2,B,G,b,y,10,10,16001,1,1,648.1548,298.2486
1,6,17,2,3,2,B,G,b,y,10,10,16001,1,3,483.0516,116.6351
1,6,17,2,3,2,B,G,b,y,10,10,16001,1,3,462.0385,67.1041
1,6,17,2,3,2,B,G,b,y,10,10,17001,1,3,289.4306,218.6989
1,6,17,2,3,2,B,G,b,y,10,10,17001,1,3,603.1266,233.7083
1,6,17,2,3,2,B,G,b,y,10,10,17001,1,3,531.0816,356.7852
1,6,17,2,3,2,B,G,b,y,10,10,17001,1,1,376.485,533.8959
1,6,17,2,3,2,B,G,b,y,10,10,18001,1,3,385.4906,343.2767
1,6,17,2,3,2,B,G,b,y,10,10,18001,1,1,432.0197,319.2617
1,6,17,2,3,2,B,G,b,y,10,10,18001,1,3,298.4362,199.1867
1,6,17,2,3,2,B,G,b,y,10,10,18001,1,3,486.0535,317.7608
1,6,17,2,3,2,B,G,b,y,10,10,18001,1,1,576.1098,397.3105
1,6,17,2,3,2,B,G,b,y,10,10,19001,1,1,468.0422,371.7946
1,6,17,2,3,2,B,G,b,y,10,10,19001,1,3,505.5657,370.2936
1,6,17,2,3,2,B,G,b,y,10,10,19001,1,3,480.0497,170.6689
1,6,17,2,3,2,B,G,b,y,10,10,19001,1,1,627.1417,166.166
1,6,17,2,3,2,B,G,b,y,10,10,20001,1,1,379.4869,235.2092
1,6,17,2,3,2,B,G,b,y,10,10,20001,1,3,406.5038,265.228
1,6,17,2,3,2,B,G,b,y,10,10,20001,1,3,562.6013,416.8227
1,6,17,2,3,2,B,G,b,y,10,10,21001,1,3,337.4606,125.6407
1,6,17,2,3,2,B,G,b,y,10,10,21001,1,3,374.9841,347.7795
1,6,17,2,3,2,B,G,b,y,10,10,22001,1,1,423.0141,74.6088
1,6,17,2,3,2,B,G,b,y,10,10,22001,1,3,435.0216,122.6388
1,6,17,2,3,2,B,G,b,y,10,10,22001,1,1,382.4887,134.6463
1,6,17,2,3,2,B,G,b,y,10,10,22001,1,3,377.9859,442.3386
1,6,17,2,3,2,B,G,b,y,10,10,23001,1,1,466.5413,148.1548
1,6,17,2,3,2,B,G,b,y,10,10,23001,1,3,510.0685,181.1754
1,6,17,2,3,2,B,G,b,y,10,10,23001,1,1,709.6932,295.2467
1,6,17,2,3,2,B,G,b,y,10,10,23001,1,1,211.3818,212.6951
1,6,17,2,3,2,B,G,b,y,10,10,24001,1,3,604.6276,217.1979
1,6,17,2,3,2,B,G,b,y,10,10,25001,1,1,642.151,266.7289
1,6,17,2,3,2,B,G,b,y,10,10,25001,1,3,538.5863,370.2936
1,6,17,2,3,2,B,G,b,y,10,10,25001,1,1,275.9221,478.3612
1,6,17,2,3,2,B,G,b,y,10,10,25001,1,1,250.4062,440.8377
1,6,17,2,3,2,B,G,b,y,10,10,26001,1,1,540.0872,313.258
1,6,17,2,3,2,B,G,b,y,10,10,26001,1,1,349.4681,463.3518
1,6,17,2,3,2,B,G,b,y,10,10,26001,1,3,301.4381,434.834
1,6,17,2,3,2,B,G,b,y,10,10,27001,1,3,212.8827,350.7814
1,6,17,2,3,2,B,G,b,y,10,10,27001,1,1,319.4493,527.8921
1,6,17,2,3,2,B,G,b,y,10,10,28001,1,1,212.8827,310.2561
1,6,17,2,3,2,B,G,b,y,10,10,30001,1,1,238.3987,185.6782
1,6,17,2,3,2,B,G,b,y,10,10,30001,1,1,286.4287,124.1398
1,6,17,2,3,2,B,G,b,y,10,10,31001,1,1,558.0985,104.6276
1,6,17,2,3,2,B,G,b,y,10,10,31001,1,1,179.8621,349.2805
1,6,17,2,3,2,B,G,b,y,10,10,32001,1,1,487.5544,55.0966
1,6,17,2,3,2,B,G,b,y,10,10,32001,1,1,178.3612,352.2824
1,6,17,2,3,2,B,G,b,y,10,10,33001,1,1,182.864,250.2186
1,6,17,2,3,2,B,G,b,y,10,10,33001,1,1,403.5019,58.0985
1,6,17,2,3,2,B,G,b,y,10,10,34001,1,1,655.6595,235.2092
1,6,17,2,3,2,B,G,b,y,10,10,34001,1,1,634.6463,341.7758
1,6,17,2,3,2,B,G,b,y,10,10,34001,1,1,658.6614,442.3386
1,6,17,2,3,2,B,G,b,y,10,10,36001,1,1,462.0385,440.8377
1,6,17,2,3,2,B,G,b,y,10,10,36001,1,3,526.5788,454.3462
1,6,17,2,3,2,B,G,b,y,10,10,37001,1,1,376.485,575.9221
1,6,17,2,3,2,B,G,b,y,10,10,38001,1,1,397.4981,86.6163
1,6,17,2,3,2,B,G,b,y,10,10,38001,1,1,465.0403,496.3724
1,6,17,2,3,2,B,G,b,y,10,10,39001,1,1,430.5188,458.849
1,6,17,2,3,2,B,G,b,y,10,10,39001,1,1,412.5075,416.8227
1,6,17,2,3,2,B,G,b,y,10,10,39001,1,1,382.4887,70.106
1,6,17,2,3,2,B,G,b,y,10,10,40001,1,1,588.1173,347.7795
1,6,17,2,3,2,B,G,b,y,10,10,41001,1,1,247.4043,403.3143
1,6,17,2,3,2,B,G,b,y,10,10,42001,1,1,335.9597,286.2411
1,6,17,2,3,2,B,G,b,y,10,10,43001,1,1,669.1679,395.8096
1,6,17,2,3,2,B,G,b,y,10,10,44001,1,1,579.1116,398.8114
1,6,17,2,3,2,B,G,b,y,10,10,44001,1,1,603.1266,436.3349
1,6,17,2,3,2,B,G,b,y,10,10,45001,1,1,448.53,368.7927
1,6,17,2,3,2,B,G,b,y,10,10,46001,1,1,505.5657,164.6651
1,6,17,2,3,2,B,G,b,y,10,10,47001,1,1,223.3893,196.1848
1,6,17,2,3,2,B,G,b,y,10,10,48001,1,1,409.5056,563.9146
1,6,17,2,3,2,B,G,b,y,10,10,49001,1,1,230.894,241.2129
1,6,17,2,3,2,B,G,b,y,10,10,49001,1,1,217.3856,316.2598
1,6,17,2,3,2,B,G,b,y,10,10,50001,1,1,504.0647,124.1398
1,6,17,2,3,2,B,G,b,y,10,10,50001,1,1,220.3874,437.8358
1,6,17,2,3,2,B,G,b,y,10,10,51001,1,1,281.9259,148.1548
1,6,17,2,3,2,B,G,b,y,10,10,51001,1,1,489.0553,136.1473
1,6,17,2,3,2,B,G,b,y,10,10,51001,1,3,323.9522,515.8846
1,6,17,2,3,2,B,G,b,y,10,10,52001,1,1,702.1886,235.2092
1,6,17,2,3,2,B,G,b,y,10,10,54001,1,1,325.4531,461.8508
1,6,17,2,3,2,B,G,b,y,10,10,55001,1,1,256.4099,146.6538
1,6,17,2,3,2,B,G,b,y,10,10,56001,1,1,329.9559,541.4006
1,6,17,2,3,2,B,G,b,y,10,10,57001,1,1,459.0366,67.1041
1,6,17,2,3,2,B,G,b,y,10,10,58001,1,1,310.4437,220.1998
1,6,17,2,3,2,B,G,b,y,10,10,58001,1,3,253.4081,422.8265
1,6,17,2,3,2,B,G,b,y,10,10,59001,1,1,453.0328,226.2036
1,6,17,2,3,2,B,G,b,y,10,10,59001,1,1,507.0666,247.2167
1,6,17,2,3,2,B,G,b,y,10,10,59001,1,3,463.5394,272.7326
1,6,17,2,3,2,B,G,b,y,10,10,60001,1,3,349.4681,428.8302
1,6,17,2,3,2,B,G,b,y,10,10,60001,1,1,325.4531,472.3574
1,6,17,2,3,2,B,G,b,y,10,10,61001,1,1,438.0235,482.864
1,6,17,2,3,2,B,G,b,y,10,10,61001,1,3,468.0422,457.348
1,6,17,2,3,2,B,G,b,y,10,10,61001,1,1,493.5582,487.3668
1,6,17,2,3,2,B,G,b,y,10,10,62001,1,1,304.44,217.1979
1,6,17,2,3,2,B,G,b,y,10,10,62001,1,1,374.9841,91.1191
1,6,17,2,3,2,B,G,b,y,10,10,62001,1,3,523.5769,91.1191
1,6,17,2,3,2,B,G,b,y,10,10,63001,1,1,597.1229,110.6313
1,6,17,2,3,2,B,G,b,y,10,10,63001,1,1,538.5863,89.6182
1,6,17,2,3,2,B,G,b,y,10,10,63001,1,1,197.8734,377.7983
1,6,17,2,3,2,B,G,b,y,10,10,64001,1,1,326.954,469.3555
1,6,17,2,3,2,B,G,b,y,10,10,64001,1,3,325.4531,416.8227
1,6,17,2,3,2,B,G,b,y,10,10,64001,1,1,444.0272,44.5901
1,6,17,2,3,2,B,G,b,y,10,10,65001,1,1,308.9428,433.333
1,6,17,2,3,2,B,G,b,y,10,10,65001,1,1,631.6445,371.7946
1,6,17,2,3,2,B,G,b,y,10,10,66001,1,1,185.8659,235.2092
1,6,17,2,3,2,B,G,b,y,10,10,67001,1,1,274.4212,136.1473
1,6,17,2,3,2,B,G,b,y,10,10,67001,1,1,400.5,547.4043
1,6,17,2,3,2,B,G,b,y,10,10,68001,1,1,284.9278,503.8771
1,6,17,2,3,2,B,G,b,y,10,10,68001,1,1,600.1248,109.1304
1,6,17,2,3,2,B,G,b,y,10,10,69001,1,1,552.0947,148.1548
1,6,17,2,3,2,B,G,b,y,10,10,69001,1,1,592.6201,158.6614
1,6,17,2,3,2,B,G,b,y,10,10,70001,1,1,253.4081,346.2786
1,6,17,2,3,2,B,G,b,y,10,10,71001,1,1,179.8621,304.2523
1,6,17,2,3,2,B,G,b,y,10,10,72001,1,1,281.9259,208.1923
1,6,17,2,3,2,B,G,b,y,10,10,73001,1,1,278.924,485.8659
1,6,17,2,3,2,B,G,b,y,10,10,73001,1,1,511.5694,98.6238
1,6,17,2,3,2,B,G,b,y,10,10,74001,1,1,670.6689,437.8358
1,6,17,2,3,2,B,G,b,y,10,10,75001,1,1,358.4737,448.3424
1,6,17,2,3,2,B,G,b,y,10,10,76001,1,1,176.8602,322.2636
1,6,17,2,3,2,B,G,b,y,10,10,77001,1,1,471.0441,544.4024
1,6,17,2,3,2,B,G,b,y,10,10,77001,1,1,525.0779,572.9203
1,6,17,2,3,2,B,G,b,y,10,10,78001,1,1,468.0422,100.1248
1,6,17,2,3,2,B,G,b,y,10,10,79001,1,1,220.3874,362.7889
1,6,17,2,3,2,B,G,b,y,10,10,80001,1,1,253.4081,133.1454
1,6,17,2,3,2,B,G,b,y,10,10,82001,1,1,432.0197,245.7158
1,6,17,2,3,2,B,G,b,y,10,10,83001,1,1,359.9747,517.3856
1,6,17,2,3,2,B,G,b,y,10,10,84001,1,1,502.5638,404.8152
1,6,17,2,3,2,B,G,b,y,10,10,85001,1,1,498.061,182.6764
1,6,17,2,3,2,B,G,b,y,10,10,87001,1,1,577.6107,163.1642
1,6,17,2,3,2,B,G,b,y,10,10,88001,1,1,184.3649,239.712
1,6,17,2,3,2,B,G,b,y,10,10,89001,1,1,543.0891,224.7026
1,6,17,2,3,2,B,G,b,y,10,10,90001,1,1,224.8902,331.2692
1,6,17,2,3,2,B,G,b,y,10,10,91001,1,1,206.879,334.2711
1,6,17,2,3,2,B,G,b,y,10,10,92001,1,1,392.9953,494.8715
1,6,17,2,3,2,B,G,b,y,10,10,93001,1,1,344.9653,254.7214
1,6,17,2,3,2,B,G,b,y,10,10,94001,1,1,259.4118,223.2017
1,6,17,2,3,2,B,G,b,y,10,10,95001,1,1,400.5,128.6426
1,6,17,2,3,2,B,G,b,y,10,10,96001,1,1,499.5619,283.2392
1,6,17,2,3,2,B,G,b,y,10,10,97001,1,1,191.8696,245.7158
1,6,17,2,3,2,B,G,b,y,10,10,98001,1,1,302.939,379.2992
1,6,17,2,3,2,B,G,b,y,10,10,99001,1,1,415.5094,326.7664
1,6,17,2,3,2,B,G,b,y,10,10,100001,1,1,287.9296,307.2542
1,6,17,2,3,2,B,G,b,y,10,10,101001,1,1,417.0103,340.2749
1,6,17,2,3,2,B,G,b,y,10,10,102001,1,1,471.0441,52.0947
1,6,17,2,3,2,B,G,b,y,10,10,103001,1,1,320.9503,455.8471
1,6,17,2,3,2,B,G,b,y,10,10,104001,1,1,313.4456,533.8959
1,6,17,2,3,2,B,G,b,y,10,10,105001,1,3,631.6445,200.6876
1,6,17,2,3,2,B,G,b,y,10,10,105001,1,1,714.1961,229.2054
1,6,17,2,3,2,B,G,b,y,10,10,106001,1,3,582.1135,403.3143
1,6,17,2,3,2,B,G,b,y,10,10,106001,1,1,577.6107,443.8396
1,6,17,2,3,2,B,G,b,y,10,10,106001,1,1,606.1285,430.3311
1,6,17,2,3,2,B,G,b,y,10,10,107001,1,3,430.5188,268.2298
1,6,17,2,3,2,B,G,b,y,10,10,107001,1,1,472.545,277.2355
