dummy,month,day,period,view,station,fgeno,mgeno,fcol,mcol,nf,nm,frame,something,sex,x,y
1,7,17,3,3,1,A,F,b,y,5,15,1,1,1,265,410
1,7,17,3,3,1,A,F,b,y,5,15,2001,1,1,261,120
1,7,17,3,3,1,A,F,b,y,5,15,2001,1,1,220,85
1,7,17,3,3,1,A,F,b,y,5,15,2001,1,1,326,426
1,7,17,3,3,1,A,F,b,y,5,15,3001,1,1,601,262
1,7,17,3,3,1,A,F,b,y,5,15,5001,1,1,438,478
1,7,17,3,3,1,A,F,b,y,5,15,6001,1,1,596,322
1,7,17,3,3,1,A,F,b,y,5,15,7001,1,1,341,403
1,7,17,3,3,1,A,F,b,y,5,15,8001,1,1,566,68
1,7,17,3,3,1,A,F,b,y,5,15,9001,1,1,293,111
1,7,17,3,3,1,A,F,b,y,5,15,9001,1,1,610,434
1,7,17,3,3,1,A,F,b,y,5,15,10001,1,1,201,290
1,7,17,3,3,1,A,F,b,y,5,15,11001,1,1,518,61
1,7,17,3,3,1,A,F,b,y,5,15,12001,1,1,152,282
1,7,17,3,3,1,A,F,b,y,5,15,13001,1,1,250,70
1,7,17,3,3,1,A,F,b,y,5,15,15001,1,1,206,254
1,7,17,3,3,1,A,F,b,y,5,15,16001,1,1,397,550
1,7,17,3,3,1,A,F,b,y,5,15,17001,1,1,438,78
1,7,17,3,3,1,A,F,b,y,5,15,18001,1,1,350,388
1,7,17,3,3,1,A,F,b,y,5,15,19001,1,1,676,147
1,7,17,3,3,1,A,F,b,y,5,15,20001,1,1,167,240
1,7,17,3,3,1,A,F,b,y,5,15,21001,1,1,245,364
1,7,17,3,3,1,A,F,b,y,5,15,22001,1,1,364,42
1,7,17,3,3,1,A,F,b,y,5,15,23001,1,1,520,528
1,7,17,3,3,1,A,F,b,y,5,15,25001,1,1,262,215
1,7,17,3,3,1,A,F,b,y,5,15,26001,1,1,298,525
1,7,17,3,3,1,A,F,b,y,5,15,27001,1,1,643,424
1,7,17,3,3,1,A,F,b,y,5,15,27001,1,1,364,20
1,7,17,3,3,1,A,F,b,y,5,15,29001,1,1,229,196
1,7,17,3,3,1,A,F,b,y,5,15,30001,1,1,287,55
1,7,17,3,3,1,A,F,b,y,5,15,31001,1,1,593,313
1,7,17,3,3,1,A,F,b,y,5,15,32001,1,1,450,305
1,7,17,3,3,1,A,F,b,y,5,15,33001,1,1,723,326
1,7,17,3,3,1,A,F,b,y,5,15,34001,1,1,508,51
1,7,17,3,3,1,A,F,b,y,5,15,35001,1,1,645,258
1,7,17,3,3,1,A,F,b,y,5,15,36001,1,1,531,28
1,7,17,3,3,1,A,F,b,y,5,15,37001,1,1,600,126
1,7,17,3,3,1,A,F,b,y,5,15,40001,1,1,522,213
1,7,17,3,3,1,A,F,b,y,5,15,41001,1,1,627,319
1,7,17,3,3,1,A,F,b,y,5,15,42001,1,1,478,459
1,7,17,3,3,1,A,F,b,y,5,15,43001,1,1,415,7
1,7,17,3,3,1,A,F,b,y,5,15,44001,1,1,296,61
1,7,17,3,3,1,A,F,b,y,5,15,45001,1,1,245,65
1,7,17,3,3,1,A,F,b,y,5,15,46001,1,1,353,350
1,7,17,3,3,1,A,F,b,y,5,15,47001,1,1,371,16
1,7,17,3,3,1,A,F,b,y,5,15,48001,1,1,337,319
1,7,17,3,3,1,A,F,b,y,5,15,49001,1,1,705,415
1,7,17,3,3,1,A,F,b,y,5,15,50001,1,1,584,505
1,7,17,3,3,1,A,F,b,y,5,15,51001,1,1,652,207
1,7,17,3,3,1,A,F,b,y,5,15,51001,1,1,575,515
1,7,17,3,3,1,A,F,b,y,5,15,52001,1,1,470,535
1,7,17,3,3,1,A,F,b,y,5,15,54001,1,1,599,220
1,7,17,3,3,1,A,F,b,y,5,15,55001,1,1,575,64
1,7,17,3,3,1,A,F,b,y,5,15,56001,1,1,503,92
1,7,17,3,3,1,A,F,b,y,5,15,56001,1,1,522,18
1,7,17,3,3,1,A,F,b,y,5,15,57001,1,1,623,488
1,7,17,3,3,1,A,F,b,y,5,15,58001,1,1,225,107
1,7,17,3,3,1,A,F,b,y,5,15,59001,1,1,457,58
1,7,17,3,3,1,A,F,b,y,5,15,60001,1,1,392,21
1,7,17,3,3,1,A,F,b,y,5,15,61001,1,1,702,415
1,7,17,3,3,1,A,F,b,y,5,15,63001,1,1,725,376
1,7,17,3,3,1,A,F,b,y,5,15,64001,1,1,654,172
1,7,17,3,3,1,A,F,b,y,5,15,65001,1,1,208,215
1,7,17,3,3,1,A,F,b,y,5,15,66001,1,1,229,110
1,7,17,3,3,1,A,F,b,y,5,15,67001,1,1,620,290
1,7,17,3,3,1,A,F,b,y,5,15,68001,1,1,380,508
1,7,17,3,3,1,A,F,b,y,5,15,69001,1,1,634,343
1,7,17,3,3,1,A,F,b,y,5,15,70001,1,1,590,413
1,7,17,3,3,1,A,F,b,y,5,15,71001,1,1,361,255
1,7,17,3,3,1,A,F,b,y,5,15,73001,1,1,671,425
1,7,17,3,3,1,A,F,b,y,5,15,74001,1,1,512,23
1,7,17,3,3,1,A,F,b,y,5,15,75001,1,1,693,364
1,7,17,3,3,1,A,F,b,y,5,15,76001,1,1,548,42
1,7,17,3,3,1,A,F,b,y,5,15,77001,1,1,349,403
1,7,17,3,3,1,A,F,b,y,5,15,78001,1,1,632,481
1,7,17,3,3,1,A,F,b,y,5,15,79001,1,1,588,174
1,7,17,3,3,1,A,F,b,y,5,15,80001,1,1,422,14
1,7,17,3,3,1,A,F,b,y,5,15,81001,1,1,438,14
1,7,17,3,3,1,A,F,b,y,5,15,82001,1,1,235,304
1,7,17,3,3,1,A,F,b,y,5,15,83001,1,1,522,59
1,7,17,3,3,1,A,F,b,y,5,15,85001,1,1,651,147
1,7,17,3,3,1,A,F,b,y,5,15,87001,1,1,654,121
1,7,17,3,3,1,A,F,b,y,5,15,88001,1,1,668,365
1,7,17,3,3,1,A,F,b,y,5,15,89001,1,1,703,295
1,7,17,3,3,1,A,F,b,y,5,15,90001,1,1,612,355
1,7,17,3,3,1,A,F,b,y,5,15,91001,1,1,637,461
1,7,17,3,3,1,A,F,b,y,5,15,93001,1,1,647,133
1,7,17,3,3,1,A,F,b,y,5,15,94001,1,1,605,79
1,7,17,3,3,1,A,F,b,y,5,15,95001,1,1,729,272
1,7,17,3,3,1,A,F,b,y,5,15,96001,1,1,266,195
1,7,17,3,3,1,A,F,b,y,5,15,97001,1,1,537,423
1,7,17,3,3,1,A,F,b,y,5,15,99001,1,1,184,183
1,7,17,3,3,1,A,F,b,y,5,15,99001,1,1,495,403
1,7,17,3,3,1,A,F,b,y,5,15,100001,1,1,445,483
1,7,17,3,3,1,A,F,b,y,5,15,101001,1,1,691,318
1,7,17,3,3,1,A,F,b,y,5,15,101001,1,1,223,245
1,7,17,3,3,1,A,F,b,y,5,15,102001,1,1,205,147
1,7,17,3,3,1,A,F,b,y,5,15,103001,1,1,519,43
1,7,17,3,3,1,A,F,b,y,5,15,104001,1,1,624,85
1,7,17,3,3,1,A,F,b,y,5,15,105001,1,1,344,506
1,7,17,3,3,1,A,F,b,y,5,15,106001,1,1,468,455
1,7,17,3,3,1,A,F,b,y,5,15,107001,1,1,555,74
