dummy,month,day,period,view,station,fgeno,mgeno,fcol,mcol,nf,nm,frame,something,sex,x,y
1,10,29,2,0,1,A,E,b,y,5,15,1,1,3,224,180
1,10,29,2,0,1,A,E,b,y,5,15,2001,1,1,326,547
1,10,29,2,0,1,A,E,b,y,5,15,10001,1,1,518,444
1,10,29,2,0,1,A,E,b,y,5,15,14001,1,3,185,364
1,10,29,2,0,1,A,E,b,y,5,15,15001,1,3,660,374
1,10,29,2,0,1,A,E,b,y,5,15,18001,1,3,140,338
1,10,29,2,0,1,A,E,b,y,5,15,19001,1,1,634,217
1,10,29,2,0,1,A,E,b,y,5,15,20001,1,1,276,538
1,10,29,2,0,1,A,E,b,y,5,15,21001,1,1,209,459
1,10,29,2,0,1,A,E,b,y,5,15,22001,1,1,326,108
1,10,29,2,0,1,A,E,b,y,5,15,23001,1,1,567,161
1,10,29,2,0,1,A,E,b,y,5,15,24001,1,1,545,499
1,10,29,2,0,1,A,E,b,y,5,15,25001,1,1,355,313
1,10,29,2,0,1,A,E,b,y,5,15,25001,1,3,642,340
1,10,29,2,0,1,A,E,b,y,5,15,26001,1,1,272,284
1,10,29,2,0,1,A,E,b,y,5,15,26001,1,1,228,330
1,10,29,2,0,1,A,E,b,y,5,15,27001,1,1,231,291
1,10,29,2,0,1,A,E,b,y,5,15,28001,1,1,328,416
1,10,29,2,0,1,A,E,b,y,5,15,29001,1,1,440,566
1,10,29,2,0,1,A,E,b,y,5,15,29001,1,1,417,538
1,10,29,2,0,1,A,E,b,y,5,15,30001,1,1,534,324
1,10,29,2,0,1,A,E,b,y,5,15,30001,1,1,337,346
1,10,29,2,0,1,A,E,b,y,5,15,31001,1,1,456,300
1,10,29,2,0,1,A,E,b,y,5,15,31001,1,1,214,363
1,10,29,2,0,1,A,E,b,y,5,15,32001,1,1,340,39
1,10,29,2,0,1,A,E,b,y,5,15,32001,1,1,312,31
1,10,29,2,0,1,A,E,b,y,5,15,33001,1,1,502,398
1,10,29,2,0,1,A,E,b,y,5,15,33001,1,1,184,417
1,10,29,2,0,1,A,E,b,y,5,15,34001,1,1,601,372
1,10,29,2,0,1,A,E,b,y,5,15,35001,1,1,380,71
1,10,29,2,0,1,A,E,b,y,5,15,36001,1,1,422,139
1,10,29,2,0,1,A,E,b,y,5,15,37001,1,1,483,450
1,10,29,2,0,1,A,E,b,y,5,15,38001,1,1,489,441
1,10,29,2,0,1,A,E,b,y,5,15,39001,1,1,228,259
1,10,29,2,0,1,A,E,b,y,5,15,39001,1,1,228,324
1,10,29,2,0,1,A,E,b,y,5,15,40001,1,3,552,467
1,10,29,2,0,1,A,E,b,y,5,15,40001,1,1,510,489
1,10,29,2,0,1,A,E,b,y,5,15,41001,1,3,556,422
1,10,29,2,0,1,A,E,b,y,5,15,41001,1,1,532,465
1,10,29,2,0,1,A,E,b,y,5,15,44001,1,3,525,196
1,10,29,2,0,1,A,E,b,y,5,15,50001,1,1,445,140
1,10,29,2,0,1,A,E,b,y,5,15,50001,1,3,379,288
1,10,29,2,0,1,A,E,b,y,5,15,51001,1,1,543,165
1,10,29,2,0,1,A,E,b,y,5,15,51001,1,3,547,267
1,10,29,2,0,1,A,E,b,y,5,15,52001,1,3,161,293
1,10,29,2,0,1,A,E,b,y,5,15,52001,1,1,408,461
1,10,29,2,0,1,A,E,b,y,5,15,53001,1,1,423,540
1,10,29,2,0,1,A,E,b,y,5,15,54001,1,1,429,538
1,10,29,2,0,1,A,E,b,y,5,15,55001,1,3,140,379
1,10,29,2,0,1,A,E,b,y,5,15,55001,1,1,231,495
1,10,29,2,0,1,A,E,b,y,5,15,56001,1,1,294,108
1,10,29,2,0,1,A,E,b,y,5,15,56001,1,1,227,494
1,10,29,2,0,1,A,E,b,y,5,15,57001,1,1,188,150
1,10,29,2,0,1,A,E,b,y,5,15,57001,1,1,151,185
1,10,29,2,0,1,A,E,b,y,5,15,58001,1,1,263,410
1,10,29,2,0,1,A,E,b,y,5,15,58001,1,1,183,136
1,10,29,2,0,1,A,E,b,y,5,15,59001,1,1,179,140
1,10,29,2,0,1,A,E,b,y,5,15,59001,1,1,635,308
1,10,29,2,0,1,A,E,b,y,5,15,60001,1,1,456,15
1,10,29,2,0,1,A,E,b,y,5,15,60001,1,1,170,141
1,10,29,2,0,1,A,E,b,y,5,15,61001,1,3,233,253
1,10,29,2,0,1,A,E,b,y,5,15,62001,1,1,356,293
1,10,29,2,0,1,A,E,b,y,5,15,62001,1,1,161,379
1,10,29,2,0,1,A,E,b,y,5,15,62001,1,3,372,414
1,10,29,2,0,1,A,E,b,y,5,15,63001,1,1,255,212
1,10,29,2,0,1,A,E,b,y,5,15,63001,1,1,200,180
1,10,29,2,0,1,A,E,b,y,5,15,63001,1,3,293,266
1,10,29,2,0,1,A,E,b,y,5,15,64001,1,3,586,96
1,10,29,2,0,1,A,E,b,y,5,15,64001,1,1,467,190
1,10,29,2,0,1,A,E,b,y,5,15,64001,1,1,207,184
1,10,29,2,0,1,A,E,b,y,5,15,65001,1,3,648,331
1,10,29,2,0,1,A,E,b,y,5,15,65001,1,1,660,284
1,10,29,2,0,1,A,E,b,y,5,15,65001,1,1,196,240
1,10,29,2,0,1,A,E,b,y,5,15,65001,1,1,214,213
1,10,29,2,0,1,A,E,b,y,5,15,66001,1,1,610,208
1,10,29,2,0,1,A,E,b,y,5,15,66001,1,1,528,202
1,10,29,2,0,1,A,E,b,y,5,15,66001,1,1,481,198
1,10,29,2,0,1,A,E,b,y,5,15,66001,1,3,457,432
1,10,29,2,0,1,A,E,b,y,5,15,67001,1,1,439,106
1,10,29,2,0,1,A,E,b,y,5,15,67001,1,1,414,346
1,10,29,2,0,1,A,E,b,y,5,15,67001,1,1,118,336
1,10,29,2,0,1,A,E,b,y,5,15,67001,1,3,144,310
1,10,29,2,0,1,A,E,b,y,5,15,68001,1,1,586,160
1,10,29,2,0,1,A,E,b,y,5,15,68001,1,1,499,546
1,10,29,2,0,1,A,E,b,y,5,15,68001,1,1,394,580
1,10,29,2,0,1,A,E,b,y,5,15,68001,1,3,452,553
1,10,29,2,0,1,A,E,b,y,5,15,69001,1,1,140,265
1,10,29,2,0,1,A,E,b,y,5,15,69001,1,1,442,321
1,10,29,2,0,1,A,E,b,y,5,15,70001,1,1,417,551
1,10,29,2,0,1,A,E,b,y,5,15,70001,1,1,531,60
1,10,29,2,0,1,A,E,b,y,5,15,70001,1,3,360,546
1,10,29,2,0,1,A,E,b,y,5,15,71001,1,1,457,105
1,10,29,2,0,1,A,E,b,y,5,15,71001,1,1,235,120
1,10,29,2,0,1,A,E,b,y,5,15,71001,1,1,298,184
1,10,29,2,0,1,A,E,b,y,5,15,71001,1,3,144,310
1,10,29,2,0,1,A,E,b,y,5,15,72001,1,1,254,215
1,10,29,2,0,1,A,E,b,y,5,15,72001,1,1,281,333
1,10,29,2,0,1,A,E,b,y,5,15,72001,1,1,307,389
1,10,29,2,0,1,A,E,b,y,5,15,72001,1,3,133,328
1,10,29,2,0,1,A,E,b,y,5,15,73001,1,1,235,139
1,10,29,2,0,1,A,E,b,y,5,15,73001,1,3,229,279
1,10,29,2,0,1,A,E,b,y,5,15,73001,1,1,273,472
1,10,29,2,0,1,A,E,b,y,5,15,74001,1,3,295,147
1,10,29,2,0,1,A,E,b,y,5,15,74001,1,1,217,175
1,10,29,2,0,1,A,E,b,y,5,15,74001,1,1,259,194
1,10,29,2,0,1,A,E,b,y,5,15,74001,1,3,263,450
1,10,29,2,0,1,A,E,b,y,5,15,75001,1,3,652,168
1,10,29,2,0,1,A,E,b,y,5,15,75001,1,3,422,125
1,10,29,2,0,1,A,E,b,y,5,15,75001,1,1,404,173
1,10,29,2,0,1,A,E,b,y,5,15,75001,1,1,217,98
1,10,29,2,0,1,A,E,b,y,5,15,76001,1,3,565,187
1,10,29,2,0,1,A,E,b,y,5,15,76001,1,1,363,59
1,10,29,2,0,1,A,E,b,y,5,15,76001,1,1,408,279
1,10,29,2,0,1,A,E,b,y,5,15,76001,1,3,357,301
1,10,29,2,0,1,A,E,b,y,5,15,77001,1,3,451,150
1,10,29,2,0,1,A,E,b,y,5,15,77001,1,3,633,284
1,10,29,2,0,1,A,E,b,y,5,15,77001,1,1,626,234
1,10,29,2,0,1,A,E,b,y,5,15,77001,1,1,660,189
1,10,29,2,0,1,A,E,b,y,5,15,78001,1,1,538,154
1,10,29,2,0,1,A,E,b,y,5,15,78001,1,3,581,233
1,10,29,2,0,1,A,E,b,y,5,15,78001,1,1,501,344
1,10,29,2,0,1,A,E,b,y,5,15,78001,1,3,503,387
1,10,29,2,0,1,A,E,b,y,5,15,79001,1,1,252,84
1,10,29,2,0,1,A,E,b,y,5,15,79001,1,1,158,262
1,10,29,2,0,1,A,E,b,y,5,15,79001,1,3,568,438
1,10,29,2,0,1,A,E,b,y,5,15,79001,1,3,269,500
1,10,29,2,0,1,A,E,b,y,5,15,80001,1,3,592,207
1,10,29,2,0,1,A,E,b,y,5,15,80001,1,1,219,186
1,10,29,2,0,1,A,E,b,y,5,15,80001,1,3,167,243
1,10,29,2,0,1,A,E,b,y,5,15,81001,1,1,534,225
1,10,29,2,0,1,A,E,b,y,5,15,81001,1,1,181,401
1,10,29,2,0,1,A,E,b,y,5,15,81001,1,3,330,247
1,10,29,2,0,1,A,E,b,y,5,15,82001,1,1,309,336
1,10,29,2,0,1,A,E,b,y,5,15,82001,1,1,340,421
1,10,29,2,0,1,A,E,b,y,5,15,82001,1,3,292,516
1,10,29,2,0,1,A,E,b,y,5,15,83001,1,1,366,47
1,10,29,2,0,1,A,E,b,y,5,15,83001,1,1,303,337
1,10,29,2,0,1,A,E,b,y,5,15,83001,1,3,189,236
1,10,29,2,0,1,A,E,b,y,5,15,84001,1,3,455,240
1,10,29,2,0,1,A,E,b,y,5,15,84001,1,1,446,307
1,10,29,2,0,1,A,E,b,y,5,15,84001,1,1,382,329
1,10,29,2,0,1,A,E,b,y,5,15,84001,1,1,307,340
1,10,29,2,0,1,A,E,b,y,5,15,85001,1,3,430,49
1,10,29,2,0,1,A,E,b,y,5,15,85001,1,1,132,323
1,10,29,2,0,1,A,E,b,y,5,15,86001,1,3,285,95
1,10,29,2,0,1,A,E,b,y,5,15,86001,1,1,265,70
1,10,29,2,0,1,A,E,b,y,5,15,86001,1,1,440,452
1,10,29,2,0,1,A,E,b,y,5,15,87001,1,3,195,251
1,10,29,2,0,1,A,E,b,y,5,15,87001,1,1,332,520
1,10,29,2,0,1,A,E,b,y,5,15,88001,1,3,496,297
1,10,29,2,0,1,A,E,b,y,5,15,88001,1,1,406,279
1,10,29,2,0,1,A,E,b,y,5,15,88001,1,1,168,292
1,10,29,2,0,1,A,E,b,y,5,15,88001,1,1,127,270
1,10,29,2,0,1,A,E,b,y,5,15,89001,1,1,644,125
1,10,29,2,0,1,A,E,b,y,5,15,89001,1,1,229,79
1,10,29,2,0,1,A,E,b,y,5,15,89001,1,1,177,207
1,10,29,2,0,1,A,E,b,y,5,15,89001,1,3,349,459
1,10,29,2,0,1,A,E,b,y,5,15,90001,1,3,521,90
1,10,29,2,0,1,A,E,b,y,5,15,90001,1,1,428,470
1,10,29,2,0,1,A,E,b,y,5,15,91001,1,3,462,219
1,10,29,2,0,1,A,E,b,y,5,15,91001,1,1,464,476
1,10,29,2,0,1,A,E,b,y,5,15,92001,1,3,414,332
1,10,29,2,0,1,A,E,b,y,5,15,92001,1,1,401,307
1,10,29,2,0,1,A,E,b,y,5,15,93001,1,1,372,432
1,10,29,2,0,1,A,E,b,y,5,15,93001,1,3,342,473
1,10,29,2,0,1,A,E,b,y,5,15,94001,1,1,400,491
1,10,29,2,0,1,A,E,b,y,5,15,94001,1,3,452,514
1,10,29,2,0,1,A,E,b,y,5,15,95001,1,3,524,254
1,10,29,2,0,1,A,E,b,y,5,15,95001,1,1,280,52
1,10,29,2,0,1,A,E,b,y,5,15,96001,1,3,568,166
1,10,29,2,0,1,A,E,b,y,5,15,96001,1,1,240,482
1,10,29,2,0,1,A,E,b,y,5,15,97001,1,1,382,110
1,10,29,2,0,1,A,E,b,y,5,15,97001,1,3,318,100
1,10,29,2,0,1,A,E,b,y,5,15,99001,1,1,121,287
1,10,29,2,0,1,A,E,b,y,5,15,100001,1,1,205,396
1,10,29,2,0,1,A,E,b,y,5,15,101001,1,1,223,384
1,10,29,2,0,1,A,E,b,y,5,15,102001,1,1,206,397
1,10,29,2,0,1,A,E,b,y,5,15,102001,1,3,197,372
1,10,29,2,0,1,A,E,b,y,5,15,103001,1,1,607,206
1,10,29,2,0,1,A,E,b,y,5,15,103001,1,1,256,80
1,10,29,2,0,1,A,E,b,y,5,15,103001,1,3,298,59
1,10,29,2,0,1,A,E,b,y,5,15,104001,1,3,606,132
1,10,29,2,0,1,A,E,b,y,5,15,104001,1,1,506,106
1,10,29,2,0,1,A,E,b,y,5,15,104001,1,1,522,445
1,10,29,2,0,1,A,E,b,y,5,15,105001,1,1,675,179
1,10,29,2,0,1,A,E,b,y,5,15,106001,1,1,413,295
1,10,29,2,0,1,A,E,b,y,5,15,106001,1,3,385,229
1,10,29,2,0,1,A,E,b,y,5,15,106001,1,3,175,294
1,10,29,2,0,1,A,E,b,y,5,15,106001,1,1,141,287
1,10,29,2,0,1,A,E,b,y,5,15,107001,1,1,453,243
1,10,29,2,0,1,A,E,b,y,5,15,107001,1,1,425,264
1,10,29,2,0,1,A,E,b,y,5,15,107001,1,3,407,234
1,10,29,2,0,1,A,E,b,y,5,15,107001,1,3,258,238
