dummy,month,day,period,view,station,fgeno,mgeno,fcol,mcol,nf,nm,frame,something,sex,x,y
1,7,16,4,3,2,C,G,g,r,5,15,1,1,1,372.8229,355.8542
1,7,16,4,3,2,C,G,g,r,5,15,1001,1,1,376.7768,342.6746
1,7,16,4,3,2,C,G,g,r,5,15,2001,1,1,287.1557,112.0321
1,7,16,4,3,2,C,G,g,r,5,15,3001,1,1,280.5659,130.4835
1,7,16,4,3,2,C,G,g,r,5,15,4001,1,1,277.93,131.8015
1,7,16,4,3,2,C,G,g,r,5,15,5001,1,1,268.7043,130.4835
1,7,16,4,3,2,C,G,g,r,5,15,6001,1,1,292.4275,121.2578
1,7,16,4,3,2,C,G,g,r,5,15,7001,1,1,442.6746,391.439
1,7,16,4,3,2,C,G,g,r,5,15,8001,1,1,436.0848,380.8954
1,7,16,4,3,2,C,G,g,r,5,15,9001,1,1,436.0848,379.5774
1,7,16,4,3,2,C,G,g,r,5,15,10001,1,1,450.5824,386.1672
1,7,16,4,3,2,C,G,g,r,5,15,11001,1,1,206.7603,205.6071
1,7,16,4,3,2,C,G,g,r,5,15,12001,1,1,205.4423,204.2891
1,7,16,4,3,2,C,G,g,r,5,15,13001,1,1,210.7142,210.8789
1,7,16,4,3,2,C,G,g,r,5,15,14001,1,1,219.9399,204.2891
1,7,16,4,3,2,C,G,g,r,5,15,15001,1,1,222.5758,199.0173
1,7,16,4,3,2,C,G,g,r,5,15,16001,1,1,221.2578,205.6071
1,7,16,4,3,2,C,G,g,r,5,15,17001,1,1,223.8937,196.3814
1,7,16,4,3,2,C,G,g,r,5,15,18001,1,1,230.4835,197.6993
1,7,16,4,3,2,C,G,g,r,5,15,19001,1,1,221.2578,195.0634
1,7,16,4,3,2,C,G,g,r,5,15,20001,1,1,219.9399,208.243
1,7,16,4,3,2,C,G,g,r,5,15,21001,1,1,206.7603,193.7455
1,7,16,4,3,2,C,G,g,r,5,15,22001,1,1,383.3666,69.8575
1,7,16,4,3,2,C,G,g,r,5,15,22001,1,1,440.0387,55.36
1,7,16,4,3,2,C,G,g,r,5,15,23001,1,1,516.4802,362.444
1,7,16,4,3,2,C,G,g,r,5,15,24001,1,1,150.0881,242.5099
1,7,16,4,3,2,C,G,g,r,5,15,25001,1,1,570.5165,141.0272
1,7,16,4,3,2,C,G,g,r,5,15,26001,1,1,247.617,75.1293
1,7,16,4,3,2,C,G,g,r,5,15,27001,1,1,208.0783,404.6186
1,7,16,4,3,2,C,G,g,r,5,15,28001,1,1,453.2183,452.0651
1,7,16,4,3,2,C,G,g,r,5,15,29001,1,1,455.8542,436.2496
1,7,16,4,3,2,C,G,g,r,5,15,30001,1,1,355.6895,238.556
1,7,16,4,3,2,C,G,g,r,5,15,31001,1,1,259.4786,115.986
1,7,16,4,3,2,C,G,g,r,5,15,31001,1,1,227.8476,98.8526
1,7,16,4,3,2,C,G,g,r,5,15,32001,1,1,288.4736,311.0437
1,7,16,4,3,2,C,G,g,r,5,15,33001,1,1,436.0848,292.5923
1,7,16,4,3,2,C,G,g,r,5,15,34001,1,1,488.8031,438.8855
1,7,16,4,3,2,C,G,g,r,5,15,35001,1,1,457.1722,347.9465
1,7,16,4,3,2,C,G,g,r,5,15,36001,1,1,391.2743,50.0881
1,7,16,4,3,2,C,G,g,r,5,15,37001,1,1,316.1507,442.8394
1,7,16,4,3,2,C,G,g,r,5,15,38001,1,1,247.617,126.5297
1,7,16,4,3,2,C,G,g,r,5,15,39001,1,1,93.416,296.5461
1,7,16,4,3,2,C,G,g,r,5,15,40001,1,1,478.2595,71.1755
1,7,16,4,3,2,C,G,g,r,5,15,41001,1,1,234.4374,100.1705
1,7,16,4,3,2,C,G,g,r,5,15,42001,1,1,471.6697,379.5774
1,7,16,4,3,2,C,G,g,r,5,15,43001,1,1,196.2166,143.6631
1,7,16,4,3,2,C,G,g,r,5,15,44001,1,1,159.3138,185.8377
1,7,16,4,3,2,C,G,g,r,5,15,45001,1,1,528.3418,355.8542
1,7,16,4,3,2,C,G,g,r,5,15,46001,1,1,425.5412,308.4077
1,7,16,4,3,2,C,G,g,r,5,15,47001,1,1,469.0338,79.0832
1,7,16,4,3,2,C,G,g,r,5,15,48001,1,1,110.5494,297.8641
1,7,16,4,3,2,C,G,g,r,5,15,49001,1,1,363.5972,458.6549
1,7,16,4,3,2,C,G,g,r,5,15,50001,1,1,379.4127,449.4292
1,7,16,4,3,2,C,G,g,r,5,15,51001,1,1,443.9926,371.6697
1,7,16,4,3,2,C,G,g,r,5,15,52001,1,1,189.6269,180.5659
1,7,16,4,3,2,C,G,g,r,5,15,53001,1,1,184.355,180.5659
1,7,16,4,3,2,C,G,g,r,5,15,54001,1,1,179.0832,170.0222
1,7,16,4,3,2,C,G,g,r,5,15,55001,1,1,200.1705,197.6993
1,7,16,4,3,2,C,G,g,r,5,15,56001,1,1,200.1705,341.3567
1,7,16,4,3,2,C,G,g,r,5,15,57001,1,1,219.9399,336.0848
1,7,16,4,3,2,C,G,g,r,5,15,58001,1,1,218.6219,345.3105
1,7,16,4,3,2,C,G,g,r,5,15,60001,1,1,287.1557,471.8344
1,7,16,4,3,2,C,G,g,r,5,15,61001,1,1,289.7916,117.304
1,7,16,4,3,2,C,G,g,r,5,15,62001,1,1,171.1755,156.8427
1,7,16,4,3,2,C,G,g,r,5,15,63001,1,1,581.0601,308.4077
1,7,16,4,3,2,C,G,g,r,5,15,64001,1,1,167.2216,401.9827
1,7,16,4,3,2,C,G,g,r,5,15,65001,1,1,176.4473,395.3929
1,7,16,4,3,2,C,G,g,r,5,15,66001,1,1,161.9498,300.5
1,7,16,4,3,2,C,G,g,r,5,15,67001,1,1,163.2677,311.0437
1,7,16,4,3,2,C,G,g,r,5,15,68001,1,1,151.4061,307.0898
1,7,16,4,3,2,C,G,g,r,5,15,69001,1,1,417.6334,98.8526
1,7,16,4,3,2,C,G,g,r,5,15,70001,1,1,219.9399,257.0074
1,7,16,4,3,2,C,G,g,r,5,15,71001,1,1,433.4489,384.8493
1,7,16,4,3,2,C,G,g,r,5,15,72001,1,1,443.9926,380.8954
1,7,16,4,3,2,C,G,g,r,5,15,73001,1,1,459.8081,378.2595
1,7,16,4,3,2,C,G,g,r,5,15,74001,1,1,256.8427,242.5099
1,7,16,4,3,2,C,G,g,r,5,15,74001,1,1,107.9135,249.0997
1,7,16,4,3,2,C,G,g,r,5,15,75001,1,1,92.098,292.5923
1,7,16,4,3,2,C,G,g,r,5,15,76001,1,1,596.8756,296.5461
1,7,16,4,3,2,C,G,g,r,5,15,77001,1,1,161.9498,200.3353
1,7,16,4,3,2,C,G,g,r,5,15,78001,1,1,445.3105,433.6137
1,7,16,4,3,2,C,G,g,r,5,15,79001,1,1,215.986,205.6071
1,7,16,4,3,2,C,G,g,r,5,15,79001,1,3,217.304,152.8888
1,7,16,4,3,2,C,G,g,r,5,15,80001,1,1,285.8377,305.7718
1,7,16,4,3,2,C,G,g,r,5,15,81001,1,1,275.2941,63.2677
1,7,16,4,3,2,C,G,g,r,5,15,82001,1,1,571.8344,166.0684
1,7,16,4,3,2,C,G,g,r,5,15,83001,1,1,548.1112,163.4325
1,7,16,4,3,2,C,G,g,r,5,15,84001,1,1,449.2644,471.8344
1,7,16,4,3,2,C,G,g,r,5,15,85001,1,1,218.6219,188.4736
1,7,16,4,3,2,C,G,g,r,5,15,86001,1,1,337.2381,461.2908
1,7,16,4,3,2,C,G,g,r,5,15,87001,1,1,326.6944,88.3089
1,7,16,4,3,2,C,G,g,r,5,15,88001,1,1,277.93,532.4605
1,7,16,4,3,2,C,G,g,r,5,15,89001,1,1,146.1343,144.9811
1,7,16,4,3,2,C,G,g,r,5,15,90001,1,1,421.5873,421.7521
1,7,16,4,3,2,C,G,g,r,5,15,91001,1,1,478.2595,64.5857
1,7,16,4,3,2,C,G,g,r,5,15,92001,1,1,305.6071,96.2166
1,7,16,4,3,2,C,G,g,r,5,15,93001,1,1,433.4489,417.7982
1,7,16,4,3,2,C,G,g,r,5,15,94001,1,1,433.4489,408.5725
1,7,16,4,3,2,C,G,g,r,5,15,95001,1,1,281.8839,448.1112
1,7,16,4,3,2,C,G,g,r,5,15,96001,1,1,177.7652,133.1194
1,7,16,4,3,2,C,G,g,r,5,15,97001,1,1,196.2166,191.1096
1,7,16,4,3,2,C,G,g,r,5,15,98001,1,1,205.4423,197.6993
1,7,16,4,3,2,C,G,g,r,5,15,99001,1,1,222.5758,97.5346
1,7,16,4,3,2,C,G,g,r,5,15,100001,1,1,229.1656,81.7191
1,7,16,4,3,2,C,G,g,r,5,15,101001,1,1,222.5758,94.8987
1,7,16,4,3,2,C,G,g,r,5,15,102001,1,1,221.2578,93.5807
1,7,16,4,3,2,C,G,g,r,5,15,103001,1,1,223.8937,85.673
1,7,16,4,3,2,C,G,g,r,5,15,104001,1,1,498.0288,262.2792
1,7,16,4,3,2,C,G,g,r,5,15,105001,1,1,507.2545,274.1409
1,7,16,4,3,2,C,G,g,r,5,15,106001,1,1,492.757,278.0947
1,7,16,4,3,2,C,G,g,r,5,15,107001,1,1,218.6219,106.7603
