dummy,month,day,period,view,station,fgeno,mgeno,fcol,mcol,nf,nm,frame,something,sex,x,y
1,7,16,4,0,2,C,G,g,r,5,15,1,1,1,301.6532,287.3204
1,7,16,4,0,2,C,G,g,r,5,15,1001,1,1,296.3814,282.0486
1,7,16,4,0,2,C,G,g,r,5,15,2001,1,1,318.7867,192.4275
1,7,16,4,0,2,C,G,g,r,5,15,3001,1,1,318.7867,192.4275
1,7,16,4,0,2,C,G,g,r,5,15,4001,1,1,313.5148,191.1096
1,7,16,4,0,2,C,G,g,r,5,15,5001,1,1,313.5148,191.1096
1,7,16,4,0,2,C,G,g,r,5,15,6001,1,1,425.5412,80.4012
1,7,16,4,0,2,C,G,g,r,5,15,7001,1,1,292.4275,337.4028
1,7,16,4,0,2,C,G,g,r,5,15,7001,1,1,395.2282,549.5939
1,7,16,4,0,2,C,G,g,r,5,15,8001,1,1,293.7455,200.3353
1,7,16,4,0,2,C,G,g,r,5,15,8001,1,1,382.0486,533.7784
1,7,16,4,0,2,C,G,g,r,5,15,10001,1,1,662.7735,125.2117
1,7,16,4,0,2,C,G,g,r,5,15,10001,1,1,693.0865,197.6993
1,7,16,4,0,2,C,G,g,r,5,15,11001,1,1,165.9036,271.5049
1,7,16,4,0,2,C,G,g,r,5,15,12001,1,1,563.9267,130.4835
1,7,16,4,0,2,C,G,g,r,5,15,12001,1,50,563.9267,130.4835
1,7,16,4,0,2,C,G,g,r,5,15,13001,1,1,314.8328,289.9563
1,7,16,4,0,2,C,G,g,r,5,15,14001,1,1,573.1524,279.4127
1,7,16,4,0,2,C,G,g,r,5,15,15001,1,1,310.8789,63.2677
1,7,16,4,0,2,C,G,g,r,5,15,16001,1,1,214.668,303.1359
1,7,16,4,0,2,C,G,g,r,5,15,17001,1,1,396.5461,404.6186
1,7,16,4,0,2,C,G,g,r,5,15,18001,1,1,405.7718,404.6186
1,7,16,4,0,2,C,G,g,r,5,15,19001,1,1,391.2743,400.6647
1,7,16,4,0,2,C,G,g,r,5,15,20001,1,1,430.813,487.6499
1,7,16,4,0,2,C,G,g,r,5,15,21001,1,1,440.0387,35.5906
1,7,16,4,0,2,C,G,g,r,5,15,22001,1,1,301.6532,171.3402
1,7,16,4,0,2,C,G,g,r,5,15,23001,1,1,322.7405,168.7043
1,7,16,4,0,2,C,G,g,r,5,15,24001,1,1,308.243,179.2479
1,7,16,4,0,2,C,G,g,r,5,15,25001,1,1,291.1096,177.93
1,7,16,4,0,2,C,G,g,r,5,15,26001,1,1,280.5659,287.3204
1,7,16,4,0,2,C,G,g,r,5,15,27001,1,1,345.1458,259.6433
1,7,16,4,0,2,C,G,g,r,5,15,28001,1,1,355.6895,254.3715
1,7,16,4,0,2,C,G,g,r,5,15,29001,1,1,350.4176,255.6895
1,7,16,4,0,2,C,G,g,r,5,15,30001,1,1,454.5362,51.4061
1,7,16,4,0,2,C,G,g,r,5,15,31001,1,1,459.8081,55.36
1,7,16,4,0,2,C,G,g,r,5,15,31001,1,3,559.9728,514.0091
1,7,16,4,0,2,C,G,g,r,5,15,32001,1,1,441.3567,51.4061
1,7,16,4,0,2,C,G,g,r,5,15,32001,1,3,524.388,477.1063
1,7,16,4,0,2,C,G,g,r,5,15,33001,1,1,417.6334,314.9975
1,7,16,4,0,2,C,G,g,r,5,15,33001,1,3,399.182,276.7768
1,7,16,4,0,2,C,G,g,r,5,15,34001,1,1,404.4539,271.5049
1,7,16,4,0,2,C,G,g,r,5,15,34001,1,3,375.4588,249.0997
1,7,16,4,0,2,C,G,g,r,5,15,35001,1,1,302.9712,210.8789
1,7,16,4,0,2,C,G,g,r,5,15,35001,1,3,372.8229,238.556
1,7,16,4,0,2,C,G,g,r,5,15,36001,1,1,371.5049,212.1969
1,7,16,4,0,2,C,G,g,r,5,15,36001,1,3,375.4588,150.2529
1,7,16,4,0,2,C,G,g,r,5,15,36001,1,1,476.9415,541.6862
1,7,16,4,0,2,C,G,g,r,5,15,37001,1,1,494.075,483.696
1,7,16,4,0,2,C,G,g,r,5,15,37001,1,1,371.5049,134.4374
1,7,16,4,0,2,C,G,g,r,5,15,37001,1,3,424.2232,117.304
1,7,16,4,0,2,C,G,g,r,5,15,38001,1,1,436.0848,541.6862
1,7,16,4,0,2,C,G,g,r,5,15,38001,1,3,662.7735,282.0486
1,7,16,4,0,2,C,G,g,r,5,15,39001,1,1,197.5346,429.6598
1,7,16,4,0,2,C,G,g,r,5,15,39001,1,3,614.0091,345.3105
1,7,16,4,0,2,C,G,g,r,5,15,39001,1,1,612.6911,304.4539
1,7,16,4,0,2,C,G,g,r,5,15,40001,1,1,231.8015,417.7982
1,7,16,4,0,2,C,G,g,r,5,15,40001,1,1,366.2331,192.4275
1,7,16,4,0,2,C,G,g,r,5,15,40001,1,3,475.6236,396.7109
1,7,16,4,0,2,C,G,g,r,5,15,41001,1,3,432.131,271.5049
1,7,16,4,0,2,C,G,g,r,5,15,41001,1,2,447.9465,25.047
1,7,16,4,0,2,C,G,g,r,5,15,42001,1,3,391.2743,199.0173
1,7,16,4,0,2,C,G,g,r,5,15,42001,1,1,403.1359,221.4226
1,7,16,4,0,2,C,G,g,r,5,15,43001,1,3,320.1046,76.4473
1,7,16,4,0,2,C,G,g,r,5,15,43001,1,1,457.1722,279.4127
1,7,16,4,0,2,C,G,g,r,5,15,44001,1,2,623.2348,309.7257
1,7,16,4,0,2,C,G,g,r,5,15,44001,1,3,660.1376,321.5873
1,7,16,4,0,2,C,G,g,r,5,15,45001,1,1,540.2035,430.9778
1,7,16,4,0,2,C,G,g,r,5,15,46001,1,1,308.243,117.304
1,7,16,4,0,2,C,G,g,r,5,15,47001,1,1,310.8789,129.1656
1,7,16,4,0,2,C,G,g,r,5,15,47001,1,1,558.6549,83.0371
1,7,16,4,0,2,C,G,g,r,5,15,48001,1,1,532.2957,60.6318
1,7,16,4,0,2,C,G,g,r,5,15,49001,1,1,450.5824,115.986
1,7,16,4,0,2,C,G,g,r,5,15,49001,1,1,524.388,93.5807
1,7,16,4,0,2,C,G,g,r,5,15,50001,1,1,421.5873,496.8756
1,7,16,4,0,2,C,G,g,r,5,15,51001,1,1,516.4802,72.4934
1,7,16,4,0,2,C,G,g,r,5,15,52001,1,1,442.6746,375.6236
1,7,16,4,0,2,C,G,g,r,5,15,53001,1,1,306.925,378.2595
1,7,16,4,0,2,C,G,g,r,5,15,54001,1,1,300.3353,366.3979
1,7,16,4,0,2,C,G,g,r,5,15,55001,1,1,304.2891,372.9876
1,7,16,4,0,2,C,G,g,r,5,15,56001,1,1,594.2397,212.1969
1,7,16,4,0,2,C,G,g,r,5,15,58001,1,1,399.182,75.1293
1,7,16,4,0,2,C,G,g,r,5,15,59001,1,1,408.4077,65.9036
1,7,16,4,0,2,C,G,g,r,5,15,61001,1,1,565.2446,64.5857
1,7,16,4,0,2,C,G,g,r,5,15,62001,1,1,272.6582,449.4292
1,7,16,4,0,2,C,G,g,r,5,15,63001,1,1,206.7603,297.8641
1,7,16,4,0,2,C,G,g,r,5,15,64001,1,1,206.7603,168.7043
1,7,16,4,0,2,C,G,g,r,5,15,65001,1,1,198.8526,168.7043
1,7,16,4,0,2,C,G,g,r,5,15,66001,1,1,272.6582,76.4473
1,7,16,4,0,2,C,G,g,r,5,15,67001,1,1,534.9316,303.1359
1,7,16,4,0,2,C,G,g,r,5,15,68001,1,1,218.6219,180.5659
1,7,16,4,0,2,C,G,g,r,5,15,69001,1,1,380.7306,59.3138
1,7,16,4,0,2,C,G,g,r,5,15,70001,1,1,388.6384,59.3138
1,7,16,4,0,2,C,G,g,r,5,15,71001,1,1,395.2282,56.6779
1,7,16,4,0,2,C,G,g,r,5,15,72001,1,1,628.5066,314.9975
1,7,16,4,0,2,C,G,g,r,5,15,72001,1,3,571.8344,322.9053
1,7,16,4,0,2,C,G,g,r,5,15,73001,1,1,349.0997,279.4127
1,7,16,4,0,2,C,G,g,r,5,15,73001,1,3,451.9003,65.9036
1,7,16,4,0,2,C,G,g,r,5,15,74001,1,1,209.3962,301.818
1,7,16,4,0,2,C,G,g,r,5,15,74001,1,3,270.0222,280.7306
1,7,16,4,0,2,C,G,g,r,5,15,75001,1,1,328.0124,336.0848
1,7,16,4,0,2,C,G,g,r,5,15,75001,1,3,437.4028,272.8229
1,7,16,4,0,2,C,G,g,r,5,15,76001,1,1,457.1722,60.6318
1,7,16,4,0,2,C,G,g,r,5,15,77001,1,1,595.5577,126.5297
1,7,16,4,0,2,C,G,g,r,5,15,78001,1,1,616.645,143.6631
1,7,16,4,0,2,C,G,g,r,5,15,79001,1,1,615.327,143.6631
1,7,16,4,0,2,C,G,g,r,5,15,80001,1,1,607.4193,147.617
1,7,16,4,0,2,C,G,g,r,5,15,81001,1,1,602.1474,144.9811
1,7,16,4,0,2,C,G,g,r,5,15,82001,1,1,617.9629,137.0733
1,7,16,4,0,2,C,G,g,r,5,15,83001,1,1,616.645,147.617
1,7,16,4,0,2,C,G,g,r,5,15,84001,1,1,620.5988,146.299
1,7,16,4,0,2,C,G,g,r,5,15,85001,1,1,616.645,154.2068
1,7,16,4,0,2,C,G,g,r,5,15,86001,1,1,611.3731,148.9349
1,7,16,4,0,2,C,G,g,r,5,15,87001,1,1,616.645,150.2529
1,7,16,4,0,2,C,G,g,r,5,15,88001,1,1,607.4193,150.2529
1,7,16,4,0,2,C,G,g,r,5,15,89001,1,1,610.0552,158.1606
1,7,16,4,0,2,C,G,g,r,5,15,90001,1,1,617.9629,312.3616
1,7,16,4,0,2,C,G,g,r,5,15,91001,1,1,529.6598,336.0848
1,7,16,4,0,2,C,G,g,r,5,15,92001,1,1,529.6598,324.2232
1,7,16,4,0,2,C,G,g,r,5,15,93001,1,1,529.6598,328.1771
1,7,16,4,0,2,C,G,g,r,5,15,94001,1,1,528.3418,321.5873
1,7,16,4,0,2,C,G,g,r,5,15,95001,1,1,528.3418,332.131
1,7,16,4,0,2,C,G,g,r,5,15,96001,1,1,534.9316,318.9514
1,7,16,4,0,2,C,G,g,r,5,15,97001,1,1,541.5214,328.1771
1,7,16,4,0,2,C,G,g,r,5,15,98001,1,1,536.2496,325.5412
1,7,16,4,0,2,C,G,g,r,5,15,99001,1,1,534.9316,326.8591
1,7,16,4,0,2,C,G,g,r,5,15,100001,1,1,536.2496,329.4951
1,7,16,4,0,2,C,G,g,r,5,15,101001,1,1,534.9316,320.2694
1,7,16,4,0,2,C,G,g,r,5,15,102001,1,1,538.8855,321.5873
1,7,16,4,0,2,C,G,g,r,5,15,103001,1,1,507.2545,271.5049
1,7,16,4,0,2,C,G,g,r,5,15,104001,1,1,507.2545,278.0947
1,7,16,4,0,2,C,G,g,r,5,15,105001,1,1,512.5264,267.5511
1,7,16,4,0,2,C,G,g,r,5,15,106001,1,1,505.9366,276.7768
1,7,16,4,0,2,C,G,g,r,5,15,107001,1,1,499.3468,276.7768
