dummy,month,day,period,view,station,fgeno,mgeno,fcol,mcol,nf,nm,frame,something,sex,x,y
1,6,19,1,1,3,A,G,r,g,10,10,1,1,3,564.1023,281.7383
1,6,19,1,1,3,A,G,r,g,10,10,2001,1,3,543.0891,484.3649
1,6,19,1,1,3,A,G,r,g,10,10,3001,1,1,193.3705,172.1698
1,6,19,1,1,3,A,G,r,g,10,10,4001,1,1,232.3949,508.3799
1,6,19,1,1,3,A,G,r,g,10,10,4001,1,3,167.8546,454.3462
1,6,19,1,1,3,A,G,r,g,10,10,5001,1,3,480.0497,518.8865
1,6,19,1,1,3,A,G,r,g,10,10,5001,1,1,525.0779,563.9146
1,6,19,1,1,3,A,G,r,g,10,10,6001,1,3,679.6745,332.7702
1,6,19,1,1,3,A,G,r,g,10,10,6001,1,1,670.6689,307.2542
1,6,19,1,1,3,A,G,r,g,10,10,9001,1,3,679.6745,400.3124
1,6,19,1,1,3,A,G,r,g,10,10,9001,1,1,152.8452,491.8696
1,6,19,1,1,3,A,G,r,g,10,10,10001,1,1,182.864,373.2955
1,6,19,1,1,3,A,G,r,g,10,10,10001,1,1,625.6407,430.3311
1,6,19,1,1,3,A,G,r,g,10,10,11001,1,1,412.5075,553.4081
1,6,19,1,1,3,A,G,r,g,10,10,11001,1,3,474.046,535.3968
1,6,19,1,1,3,A,G,r,g,10,10,12001,1,3,128.8302,247.2167
1,6,19,1,1,3,A,G,r,g,10,10,12001,1,1,453.0328,478.3612
1,6,19,1,1,3,A,G,r,g,10,10,13001,1,1,460.5375,170.6689
1,6,19,1,1,3,A,G,r,g,10,10,13001,1,3,588.1173,176.6726
1,6,19,1,1,3,A,G,r,g,10,10,14001,1,1,155.8471,206.6914
1,6,19,1,1,3,A,G,r,g,10,10,14001,1,1,502.5638,131.6445
1,6,19,1,1,3,A,G,r,g,10,10,14001,1,3,471.0441,103.1266
1,6,19,1,1,3,A,G,r,g,10,10,15001,1,1,586.6163,289.243
1,6,19,1,1,3,A,G,r,g,10,10,16001,1,1,272.9203,187.1792
1,6,19,1,1,3,A,G,r,g,10,10,16001,1,2,583.6144,130.1435
1,6,19,1,1,3,A,G,r,g,10,10,16001,1,3,658.6614,346.2786
1,6,19,1,1,3,A,G,r,g,10,10,17001,1,2,352.47,391.3068
1,6,19,1,1,3,A,G,r,g,10,10,17001,1,3,543.0891,307.2542
1,6,19,1,1,3,A,G,r,g,10,10,17001,1,1,582.1135,176.6726
1,6,19,1,1,3,A,G,r,g,10,10,18001,1,2,251.9071,136.1473
1,6,19,1,1,3,A,G,r,g,10,10,19001,1,1,385.4906,274.2336
1,6,19,1,1,3,A,G,r,g,10,10,20001,1,1,149.8433,269.7308
1,6,19,1,1,3,A,G,r,g,10,10,20001,1,1,383.9897,568.4174
1,6,19,1,1,3,A,G,r,g,10,10,21001,1,1,269.9184,227.7045
1,6,19,1,1,3,A,G,r,g,10,10,21001,1,3,496.56,86.6163
1,6,19,1,1,3,A,G,r,g,10,10,21001,1,1,483.0516,32.5826
1,6,19,1,1,3,A,G,r,g,10,10,22001,1,1,292.4325,350.7814
1,6,19,1,1,3,A,G,r,g,10,10,22001,1,3,532.5826,334.2711
1,6,19,1,1,3,A,G,r,g,10,10,22001,1,1,513.0704,130.1435
1,6,19,1,1,3,A,G,r,g,10,10,23001,1,1,414.0084,494.8715
1,6,19,1,1,3,A,G,r,g,10,10,23001,1,1,577.6107,358.2861
1,6,19,1,1,3,A,G,r,g,10,10,24001,1,1,265.4156,473.8583
1,6,19,1,1,3,A,G,r,g,10,10,24001,1,3,595.622,74.6088
1,6,19,1,1,3,A,G,r,g,10,10,25001,1,3,134.834,367.2917
1,6,19,1,1,3,A,G,r,g,10,10,26001,1,3,140.8377,368.7927
1,6,19,1,1,3,A,G,r,g,10,10,26001,1,1,603.1266,532.3949
1,6,19,1,1,3,A,G,r,g,10,10,27001,1,1,609.1304,365.7908
1,6,19,1,1,3,A,G,r,g,10,10,27001,1,1,648.1548,344.7777
1,6,19,1,1,3,A,G,r,g,10,10,27001,1,3,673.6707,316.2598
1,6,19,1,1,3,A,G,r,g,10,10,28001,1,1,493.5582,160.1623
1,6,19,1,1,3,A,G,r,g,10,10,28001,1,1,395.9972,97.1229
1,6,19,1,1,3,A,G,r,g,10,10,28001,1,1,211.3818,181.1754
1,6,19,1,1,3,A,G,r,g,10,10,28001,1,2,456.0347,197.6857
1,6,19,1,1,3,A,G,r,g,10,10,29001,1,1,379.4869,217.1979
1,6,19,1,1,3,A,G,r,g,10,10,29001,1,1,477.0478,461.8508
1,6,19,1,1,3,A,G,r,g,10,10,29001,1,3,541.5882,433.333
1,6,19,1,1,3,A,G,r,g,10,10,30001,1,1,510.0685,88.1173
1,6,19,1,1,3,A,G,r,g,10,10,30001,1,1,448.53,589.4306
1,6,19,1,1,3,A,G,r,g,10,10,31001,1,1,477.0478,44.5901
1,6,19,1,1,3,A,G,r,g,10,10,31001,1,1,131.8321,247.2167
1,6,19,1,1,3,A,G,r,g,10,10,31001,1,1,622.6388,431.8321
1,6,19,1,1,3,A,G,r,g,10,10,32001,1,1,376.485,524.8902
1,6,19,1,1,3,A,G,r,g,10,10,32001,1,1,167.8546,340.2749
1,6,19,1,1,3,A,G,r,g,10,10,32001,1,1,260.9128,211.1942
1,6,19,1,1,3,A,G,r,g,10,10,33001,1,1,546.091,500.8752
1,6,19,1,1,3,A,G,r,g,10,10,33001,1,1,511.5694,182.6764
1,6,19,1,1,3,A,G,r,g,10,10,33001,1,1,139.3368,242.7139
1,6,19,1,1,3,A,G,r,g,10,10,34001,1,1,182.864,277.2355
1,6,19,1,1,3,A,G,r,g,10,10,34001,1,1,555.0966,374.7964
1,6,19,1,1,3,A,G,r,g,10,10,35001,1,1,591.1191,337.273
1,6,19,1,1,3,A,G,r,g,10,10,35001,1,1,573.1079,113.6332
1,6,19,1,1,3,A,G,r,g,10,10,36001,1,1,355.4719,173.6707
1,6,19,1,1,3,A,G,r,g,10,10,36001,1,1,594.121,286.2411
1,6,19,1,1,3,A,G,r,g,10,10,37001,1,1,376.485,493.3705
1,6,19,1,1,3,A,G,r,g,10,10,37001,1,1,562.6013,541.4006
1,6,19,1,1,3,A,G,r,g,10,10,38001,1,1,451.5319,169.1679
1,6,19,1,1,3,A,G,r,g,10,10,39001,1,1,173.8583,494.8715
1,6,19,1,1,3,A,G,r,g,10,10,39001,1,1,262.4137,437.8358
1,6,19,1,1,3,A,G,r,g,10,10,39001,1,3,251.9071,376.2974
1,6,19,1,1,3,A,G,r,g,10,10,40001,1,1,251.9071,200.6876
1,6,19,1,1,3,A,G,r,g,10,10,40001,1,1,305.9409,170.6689
1,6,19,1,1,3,A,G,r,g,10,10,40001,1,3,226.3912,134.6463
1,6,19,1,1,3,A,G,r,g,10,10,41001,1,3,510.0685,494.8715
1,6,19,1,1,3,A,G,r,g,10,10,41001,1,1,528.0797,137.6482
1,6,19,1,1,3,A,G,r,g,10,10,42001,1,1,145.3405,329.7683
1,6,19,1,1,3,A,G,r,g,10,10,43001,1,1,475.5469,479.8621
1,6,19,1,1,3,A,G,r,g,10,10,43001,1,1,175.3593,467.8546
1,6,19,1,1,3,A,G,r,g,10,10,43001,1,3,215.8846,463.3518
1,6,19,1,1,3,A,G,r,g,10,10,44001,1,1,484.5525,67.1041
1,6,19,1,1,3,A,G,r,g,10,10,45001,1,1,624.1398,446.8415
1,6,19,1,1,3,A,G,r,g,10,10,46001,1,1,244.4024,394.3086
1,6,19,1,1,3,A,G,r,g,10,10,47001,1,1,314.9465,376.2974
1,6,19,1,1,3,A,G,r,g,10,10,47001,1,1,241.4006,370.2936
1,6,19,1,1,3,A,G,r,g,10,10,48001,1,1,299.9371,160.1623
1,6,19,1,1,3,A,G,r,g,10,10,49001,1,1,580.6126,157.1604
1,6,19,1,1,3,A,G,r,g,10,10,50001,1,1,317.9484,328.2674
1,6,19,1,1,3,A,G,r,g,10,10,51001,1,1,391.4944,581.9259
1,6,19,1,1,3,A,G,r,g,10,10,52001,1,1,514.5713,352.2824
1,6,19,1,1,3,A,G,r,g,10,10,52001,1,1,287.9296,563.9146
1,6,19,1,1,3,A,G,r,g,10,10,53001,1,1,442.5263,502.3762
1,6,19,1,1,3,A,G,r,g,10,10,53001,1,1,295.4343,440.8377
1,6,19,1,1,3,A,G,r,g,10,10,56001,1,1,624.1398,202.1886
1,6,19,1,1,3,A,G,r,g,10,10,57001,1,1,657.1604,194.6839
1,6,19,1,1,3,A,G,r,g,10,10,57001,1,1,499.5619,554.909
1,6,19,1,1,3,A,G,r,g,10,10,58001,1,1,450.031,314.7589
1,6,19,1,1,3,A,G,r,g,10,10,58001,1,1,481.5507,85.1154
1,6,19,1,1,3,A,G,r,g,10,10,59001,1,1,277.4231,553.4081
1,6,19,1,1,3,A,G,r,g,10,10,60001,1,1,221.8884,457.348
1,6,19,1,1,3,A,G,r,g,10,10,61001,1,1,229.3931,253.2205
1,6,19,1,1,3,A,G,r,g,10,10,62001,1,1,232.3949,385.303
1,6,19,1,1,3,A,G,r,g,10,10,63001,1,1,377.9859,422.8265
1,6,19,1,1,3,A,G,r,g,10,10,64001,1,1,627.1417,241.2129
1,6,19,1,1,3,A,G,r,g,10,10,65001,1,1,190.3687,344.7777
1,6,19,1,1,3,A,G,r,g,10,10,66001,1,1,502.5638,566.9165
1,6,19,1,1,3,A,G,r,g,10,10,67001,1,1,555.0966,166.166
1,6,19,1,1,3,A,G,r,g,10,10,68001,1,1,145.3405,200.6876
1,6,19,1,1,3,A,G,r,g,10,10,69001,1,1,408.0047,413.8208
1,6,19,1,1,3,A,G,r,g,10,10,69001,1,1,520.575,551.9071
1,6,19,1,1,3,A,G,r,g,10,10,70001,1,1,364.4775,503.8771
1,6,19,1,1,3,A,G,r,g,10,10,70001,1,1,427.5169,341.7758
1,6,19,1,1,3,A,G,r,g,10,10,70001,1,1,468.0422,118.136
1,6,19,1,1,3,A,G,r,g,10,10,71001,1,1,486.0535,509.8809
1,6,19,1,1,3,A,G,r,g,10,10,71001,1,1,296.9353,493.3705
1,6,19,1,1,3,A,G,r,g,10,10,71001,1,1,122.8265,260.7251
1,6,19,1,1,3,A,G,r,g,10,10,71001,1,1,358.4737,43.0891
1,6,19,1,1,3,A,G,r,g,10,10,72001,1,1,323.9522,266.7289
1,6,19,1,1,3,A,G,r,g,10,10,72001,1,1,367.4794,539.8996
1,6,19,1,1,3,A,G,r,g,10,10,72001,1,1,188.8677,475.3593
1,6,19,1,1,3,A,G,r,g,10,10,73001,1,1,380.9878,508.3799
1,6,19,1,1,3,A,G,r,g,10,10,73001,1,1,655.6595,470.8565
1,6,19,1,1,3,A,G,r,g,10,10,74001,1,1,597.1229,116.6351
1,6,19,1,1,3,A,G,r,g,10,10,75001,1,1,651.1567,434.834
1,6,19,1,1,3,A,G,r,g,10,10,76001,1,1,466.5413,493.3705
1,6,19,1,1,3,A,G,r,g,10,10,79001,1,3,181.363,490.3687
1,6,19,1,1,3,A,G,r,g,10,10,80001,1,3,130.3311,362.7889
1,6,19,1,1,3,A,G,r,g,10,10,80001,1,1,178.3612,458.849
1,6,19,1,1,3,A,G,r,g,10,10,81001,1,1,247.4043,469.3555
1,6,19,1,1,3,A,G,r,g,10,10,81001,1,1,260.9128,430.3311
1,6,19,1,1,3,A,G,r,g,10,10,81001,1,3,248.9053,407.8171
1,6,19,1,1,3,A,G,r,g,10,10,82001,1,3,564.1023,389.8058
1,6,19,1,1,3,A,G,r,g,10,10,82001,1,3,555.0966,323.7645
1,6,19,1,1,3,A,G,r,g,10,10,82001,1,1,531.0816,367.2917
1,6,19,1,1,3,A,G,r,g,10,10,83001,1,3,508.5675,523.3893
1,6,19,1,1,3,A,G,r,g,10,10,83001,1,1,534.0835,505.378
1,6,19,1,1,3,A,G,r,g,10,10,84001,1,1,541.5882,475.3593
1,6,19,1,1,3,A,G,r,g,10,10,84001,1,3,179.8621,325.2655
1,6,19,1,1,3,A,G,r,g,10,10,84001,1,3,103.3143,295.2467
1,6,19,1,1,3,A,G,r,g,10,10,85001,1,2,679.6745,313.258
1,6,19,1,1,3,A,G,r,g,10,10,91001,1,3,337.4606,563.9146
1,6,19,1,1,3,A,G,r,g,10,10,91001,1,3,565.6032,211.1942
1,6,19,1,1,3,A,G,r,g,10,10,92001,1,3,490.5563,118.136
1,6,19,1,1,3,A,G,r,g,10,10,93001,1,3,176.8602,200.6876
1,6,19,1,1,3,A,G,r,g,10,10,94001,1,3,365.9784,17.5732
1,6,19,1,1,3,A,G,r,g,10,10,95001,1,3,278.924,484.3649
1,6,19,1,1,3,A,G,r,g,10,10,95001,1,1,242.9015,454.3462
1,6,19,1,1,3,A,G,r,g,10,10,96001,1,1,316.4475,400.3124
1,6,19,1,1,3,A,G,r,g,10,10,96001,1,3,391.4944,76.1098
1,6,19,1,1,3,A,G,r,g,10,10,97001,1,3,293.9334,187.1792
1,6,19,1,1,3,A,G,r,g,10,10,98001,1,3,382.4887,559.4118
1,6,19,1,1,3,A,G,r,g,10,10,98001,1,1,364.4775,497.8734
1,6,19,1,1,3,A,G,r,g,10,10,99001,1,3,496.56,557.9109
1,6,19,1,1,3,A,G,r,g,10,10,99001,1,1,535.5844,526.3912
1,6,19,1,1,3,A,G,r,g,10,10,100001,1,1,423.0141,446.8415
1,6,19,1,1,3,A,G,r,g,10,10,100001,1,3,397.4981,496.3724
1,6,19,1,1,3,A,G,r,g,10,10,101001,1,1,541.5882,131.6445
1,6,19,1,1,3,A,G,r,g,10,10,101001,1,3,516.0722,128.6426
1,6,19,1,1,3,A,G,r,g,10,10,102001,1,1,130.3311,407.8171
1,6,19,1,1,3,A,G,r,g,10,10,102001,1,3,136.3349,359.7871
