dummy,month,day,period,view,station,fgeno,mgeno,fcol,mcol,nf,nm,frame,something,sex,x,y
1,6,19,1,2,3,A,G,r,g,10,10,1,1,1,397.688,129.674
1,6,19,1,2,3,A,G,r,g,10,10,1,1,1,555.1573,251.9938
1,6,19,1,2,3,A,G,r,g,10,10,1,1,1,252.8726,440.3946
1,6,19,1,2,3,A,G,r,g,10,10,1,1,3,206.4754,417.8989
1,6,19,1,2,3,A,G,r,g,10,10,1001,1,1,227.565,429.1467
1,6,19,1,2,3,A,G,r,g,10,10,1001,1,1,333.0132,379.9376
1,6,19,1,2,3,A,G,r,g,10,10,2001,1,1,198.0395,277.3014
1,6,19,1,2,3,A,G,r,g,10,10,2001,1,1,449.7091,101.5545
1,6,19,1,2,3,A,G,r,g,10,10,3001,1,1,213.5053,183.1011
1,6,19,1,2,3,A,G,r,g,10,10,3001,1,1,236.0009,102.9605
1,6,19,1,2,3,A,G,r,g,10,10,4001,1,1,230.377,180.2891
1,6,19,1,2,3,A,G,r,g,10,10,4001,1,1,569.217,292.7671
1,6,19,1,2,3,A,G,r,g,10,10,4001,1,3,559.3752,483.9798
1,6,19,1,2,3,A,G,r,g,10,10,5001,1,1,272.5562,330.7285
1,6,19,1,2,3,A,G,r,g,10,10,5001,1,1,264.1204,212.6265
1,6,19,1,2,3,A,G,r,g,10,10,5001,1,1,498.9183,281.5193
1,6,19,1,2,3,A,G,r,g,10,10,6001,1,1,228.971,453.0483
1,6,19,1,2,3,A,G,r,g,10,10,6001,1,1,206.4754,384.1555
1,6,19,1,2,3,A,G,r,g,10,10,6001,1,1,456.739,100.1485
1,6,19,1,2,3,A,G,r,g,10,10,7001,1,1,259.9025,443.2065
1,6,19,1,2,3,A,G,r,g,10,10,7001,1,1,306.2996,114.2083
1,6,19,1,2,3,A,G,r,g,10,10,7001,1,1,636.7039,183.1011
1,6,19,1,2,3,A,G,r,g,10,10,8001,1,1,251.4666,377.1257
1,6,19,1,2,3,A,G,r,g,10,10,8001,1,1,272.5562,444.6125
1,6,19,1,2,3,A,G,r,g,10,10,8001,1,1,324.5773,39.6916
1,6,19,1,2,3,A,G,r,g,10,10,9001,1,1,261.3084,441.8005
1,6,19,1,2,3,A,G,r,g,10,10,9001,1,1,127.7408,381.3436
1,6,19,1,2,3,A,G,r,g,10,10,9001,1,1,649.3576,242.152
1,6,19,1,2,3,A,G,r,g,10,10,10001,1,1,127.7408,268.8656
1,6,19,1,2,3,A,G,r,g,10,10,10001,1,1,210.6933,176.0712
1,6,19,1,2,3,A,G,r,g,10,10,10001,1,1,671.8533,334.9464
1,6,19,1,2,3,A,G,r,g,10,10,11001,1,1,221.9411,423.5228
1,6,19,1,2,3,A,G,r,g,10,10,11001,1,1,271.1503,306.8269
1,6,19,1,2,3,A,G,r,g,10,10,11001,1,1,588.9007,385.5615
1,6,19,1,2,3,A,G,r,g,10,10,12001,1,1,105.2452,357.442
1,6,19,1,2,3,A,G,r,g,10,10,12001,1,1,212.0993,412.275
1,6,19,1,2,3,A,G,r,g,10,10,12001,1,1,266.9323,482.5738
1,6,19,1,2,3,A,G,r,g,10,10,13001,1,1,234.5949,377.1257
1,6,19,1,2,3,A,G,r,g,10,10,14001,1,1,251.4666,420.7109
1,6,19,1,2,3,A,G,r,g,10,10,15001,1,1,262.7144,460.0782
1,6,19,1,2,3,A,G,r,g,10,10,16001,1,1,271.1503,468.5141
1,6,19,1,2,3,A,G,r,g,10,10,16001,1,1,254.2786,388.3735
1,6,19,1,2,3,A,G,r,g,10,10,17001,1,1,175.5439,413.681
1,6,19,1,2,3,A,G,r,g,10,10,17001,1,1,264.1204,412.275
1,6,19,1,2,3,A,G,r,g,10,10,17001,1,1,234.5949,194.3489
1,6,19,1,2,3,A,G,r,g,10,10,17001,1,1,186.7917,101.5545
1,6,19,1,2,3,A,G,r,g,10,10,18001,1,1,236.0009,413.681
1,6,19,1,2,3,A,G,r,g,10,10,18001,1,1,293.6459,424.9288
1,6,19,1,2,3,A,G,r,g,10,10,18001,1,1,358.3207,364.4719
1,6,19,1,2,3,A,G,r,g,10,10,18001,1,1,273.9622,177.4772
1,6,19,1,2,3,A,G,r,g,10,10,19001,1,1,207.8814,396.8093
1,6,19,1,2,3,A,G,r,g,10,10,19001,1,1,243.0308,431.9587
1,6,19,1,2,3,A,G,r,g,10,10,19001,1,1,241.6248,309.6388
1,6,19,1,2,3,A,G,r,g,10,10,19001,1,1,639.5158,273.0835
1,6,19,1,2,3,A,G,r,g,10,10,20001,1,1,226.1591,434.7707
1,6,19,1,2,3,A,G,r,g,10,10,20001,1,1,214.9112,385.5615
1,6,19,1,2,3,A,G,r,g,10,10,20001,1,1,352.6968,544.4367
1,6,19,1,2,3,A,G,r,g,10,10,20001,1,1,192.4156,152.1696
1,6,19,1,2,3,A,G,r,g,10,10,21001,1,1,193.8216,381.3436
1,6,19,1,2,3,A,G,r,g,10,10,21001,1,1,233.1889,453.0483
1,6,19,1,2,3,A,G,r,g,10,10,21001,1,1,318.9534,299.797
1,6,19,1,2,3,A,G,r,g,10,10,21001,1,1,657.7935,284.3313
1,6,19,1,2,3,A,G,r,g,10,10,22001,1,1,238.8128,401.0272
1,6,19,1,2,3,A,G,r,g,10,10,22001,1,1,288.022,219.6564
1,6,19,1,2,3,A,G,r,g,10,10,22001,1,1,607.1784,201.3787
1,6,19,1,2,3,A,G,r,g,10,10,22001,1,1,617.0202,140.9218
1,6,19,1,2,3,A,G,r,g,10,10,23001,1,1,228.971,381.3436
1,6,19,1,2,3,A,G,r,g,10,10,23001,1,1,214.9112,184.507
1,6,19,1,2,3,A,G,r,g,10,10,23001,1,1,299.2698,242.152
1,6,19,1,2,3,A,G,r,g,10,10,23001,1,1,283.804,138.1098
1,6,19,1,2,3,A,G,r,g,10,10,24001,1,1,237.4069,440.3946
1,6,19,1,2,3,A,G,r,g,10,10,24001,1,1,226.1591,374.3137
1,6,19,1,2,3,A,G,r,g,10,10,24001,1,1,228.971,296.9851
1,6,19,1,2,3,A,G,r,g,10,10,24001,1,1,196.6336,199.9728
1,6,19,1,2,3,A,G,r,g,10,10,24001,1,1,602.9605,195.7548
1,6,19,1,2,3,A,G,r,g,10,10,25001,1,1,254.2786,448.8304
1,6,19,1,2,3,A,G,r,g,10,10,25001,1,1,202.2575,384.1555
1,6,19,1,2,3,A,G,r,g,10,10,25001,1,3,226.1591,301.203
1,6,19,1,2,3,A,G,r,g,10,10,25001,1,1,210.6933,230.9042
1,6,19,1,2,3,A,G,r,g,10,10,25001,1,1,262.7144,254.8058
1,6,19,1,2,3,A,G,r,g,10,10,25001,1,1,278.1801,207.0026
1,6,19,1,2,3,A,G,r,g,10,10,25001,1,1,317.5475,192.9429
1,6,19,1,2,3,A,G,r,g,10,10,25001,1,1,611.3963,167.6353
1,6,19,1,2,3,A,G,r,g,10,10,26001,1,1,376.5984,53.7513
1,6,19,1,2,3,A,G,r,g,10,10,26001,1,1,221.9411,177.4772
1,6,19,1,2,3,A,G,r,g,10,10,26001,1,1,134.7707,320.8866
1,6,19,1,2,3,A,G,r,g,10,10,26001,1,1,202.2575,392.5914
1,6,19,1,2,3,A,G,r,g,10,10,26001,1,1,252.8726,382.7496
1,6,19,1,2,3,A,G,r,g,10,10,26001,1,1,276.7742,417.8989
1,6,19,1,2,3,A,G,r,g,10,10,26001,1,1,411.7478,541.6248
1,6,19,1,2,3,A,G,r,g,10,10,27001,1,1,138.9886,226.6863
1,6,19,1,2,3,A,G,r,g,10,10,27001,1,1,234.5949,214.0325
1,6,19,1,2,3,A,G,r,g,10,10,27001,1,1,280.9921,327.9165
1,6,19,1,2,3,A,G,r,g,10,10,27001,1,1,302.0817,275.8954
1,6,19,1,2,3,A,G,r,g,10,10,27001,1,1,373.7865,311.0448
1,6,19,1,2,3,A,G,r,g,10,10,27001,1,1,396.2821,253.3998
1,6,19,1,2,3,A,G,r,g,10,10,27001,1,1,393.4701,422.1169
1,6,19,1,2,3,A,G,r,g,10,10,28001,1,1,116.493,288.5492
1,6,19,1,2,3,A,G,r,g,10,10,28001,1,1,216.3172,357.442
1,6,19,1,2,3,A,G,r,g,10,10,28001,1,1,227.565,212.6265
1,6,19,1,2,3,A,G,r,g,10,10,28001,1,1,224.7531,150.7636
1,6,19,1,2,3,A,G,r,g,10,10,28001,1,1,437.0554,115.6142
1,6,19,1,2,3,A,G,r,g,10,10,28001,1,1,458.145,471.326
1,6,19,1,2,3,A,G,r,g,10,10,28001,1,1,399.094,540.2188
1,6,19,1,2,3,A,G,r,g,10,10,28001,1,1,323.1714,572.5562
1,6,19,1,2,3,A,G,r,g,10,10,28001,1,48,330.2012,576.7742
1,6,19,1,2,3,A,G,r,g,10,10,28001,1,48,430.0255,618.9534
1,6,19,1,2,3,A,G,r,g,10,10,29001,1,1,237.4069,448.8304
1,6,19,1,2,3,A,G,r,g,10,10,29001,1,1,192.4156,291.3612
1,6,19,1,2,3,A,G,r,g,10,10,29001,1,1,252.8726,181.6951
1,6,19,1,2,3,A,G,r,g,10,10,29001,1,3,290.8339,149.3576
1,6,19,1,2,3,A,G,r,g,10,10,29001,1,1,408.9359,281.5193
1,6,19,1,2,3,A,G,r,g,10,10,29001,1,1,434.2434,367.2838
1,6,19,1,2,3,A,G,r,g,10,10,29001,1,1,541.0975,350.4121
1,6,19,1,2,3,A,G,r,g,10,10,29001,1,1,600.1485,479.7619
1,6,19,1,2,3,A,G,r,g,10,10,29001,1,1,647.9517,312.4508
1,6,19,1,2,3,A,G,r,g,10,10,30001,1,1,243.0308,408.0571
1,6,19,1,2,3,A,G,r,g,10,10,30001,1,1,250.0606,375.7197
1,6,19,1,2,3,A,G,r,g,10,10,30001,1,1,250.0606,195.7548
1,6,19,1,2,3,A,G,r,g,10,10,30001,1,1,375.1924,298.391
1,6,19,1,2,3,A,G,r,g,10,10,30001,1,1,612.8023,212.6265
1,6,19,1,2,3,A,G,r,g,10,10,30001,1,1,618.4262,167.6353
1,6,19,1,2,3,A,G,r,g,10,10,30001,1,1,607.1784,368.6898
1,6,19,1,2,3,A,G,r,g,10,10,30001,1,3,557.9692,396.8093
1,6,19,1,2,3,A,G,r,g,10,10,30001,1,1,400.5,505.0694
1,6,19,1,2,3,A,G,r,g,10,10,31001,1,1,323.1714,527.565
1,6,19,1,2,3,A,G,r,g,10,10,31001,1,1,252.8726,462.8902
1,6,19,1,2,3,A,G,r,g,10,10,31001,1,1,175.5439,244.964
1,6,19,1,2,3,A,G,r,g,10,10,31001,1,1,193.8216,195.7548
1,6,19,1,2,3,A,G,r,g,10,10,31001,1,1,220.5351,143.7337
1,6,19,1,2,3,A,G,r,g,10,10,31001,1,1,317.5475,101.5545
1,6,19,1,2,3,A,G,r,g,10,10,31001,1,3,228.971,229.4982
1,6,19,1,2,3,A,G,r,g,10,10,31001,1,1,574.8409,356.036
1,6,19,1,2,3,A,G,r,g,10,10,31001,1,1,653.5756,249.1819
1,6,19,1,2,3,A,G,r,g,10,10,32001,1,1,295.0518,491.0097
1,6,19,1,2,3,A,G,r,g,10,10,32001,1,1,237.4069,377.1257
1,6,19,1,2,3,A,G,r,g,10,10,32001,1,1,258.4965,309.6388
1,6,19,1,2,3,A,G,r,g,10,10,32001,1,1,146.0185,260.4297
1,6,19,1,2,3,A,G,r,g,10,10,32001,1,1,283.804,192.9429
1,6,19,1,2,3,A,G,r,g,10,10,32001,1,1,458.145,281.5193
1,6,19,1,2,3,A,G,r,g,10,10,32001,1,1,444.0852,510.6933
1,6,19,1,2,3,A,G,r,g,10,10,32001,1,3,435.6494,444.6125
1,6,19,1,2,3,A,G,r,g,10,10,33001,1,1,205.0694,474.138
1,6,19,1,2,3,A,G,r,g,10,10,33001,1,1,205.0694,378.5316
1,6,19,1,2,3,A,G,r,g,10,10,33001,1,1,227.565,353.2241
1,6,19,1,2,3,A,G,r,g,10,10,33001,1,1,389.2522,391.1854
1,6,19,1,2,3,A,G,r,g,10,10,33001,1,1,303.4877,157.7935
1,6,19,1,2,3,A,G,r,g,10,10,33001,1,1,430.0255,171.8533
1,6,19,1,2,3,A,G,r,g,10,10,33001,1,1,581.8708,264.6476
1,6,19,1,2,3,A,G,r,g,10,10,33001,1,1,632.4859,243.558
1,6,19,1,2,3,A,G,r,g,10,10,33001,1,3,593.1186,316.6687
1,6,19,1,2,3,A,G,r,g,10,10,34001,1,1,220.5351,386.9675
1,6,19,1,2,3,A,G,r,g,10,10,34001,1,1,261.3084,319.4807
1,6,19,1,2,3,A,G,r,g,10,10,34001,1,2,137.5826,228.0923
1,6,19,1,2,3,A,G,r,g,10,10,34001,1,1,196.6336,204.1907
1,6,19,1,2,3,A,G,r,g,10,10,34001,1,1,273.9622,187.319
1,6,19,1,2,3,A,G,r,g,10,10,34001,1,1,219.1292,143.7337
1,6,19,1,2,3,A,G,r,g,10,10,34001,1,3,245.8427,80.4649
1,6,19,1,2,3,A,G,r,g,10,10,34001,1,1,496.1063,223.8743
1,6,19,1,2,3,A,G,r,g,10,10,34001,1,1,531.2557,169.0413
1,6,19,1,2,3,A,G,r,g,10,10,34001,1,3,434.2434,402.4332
1,6,19,1,2,3,A,G,r,g,10,10,35001,1,1,378.0044,492.4156
1,6,19,1,2,3,A,G,r,g,10,10,35001,1,1,209.2873,389.7794
1,6,19,1,2,3,A,G,r,g,10,10,35001,1,1,290.8339,333.5404
1,6,19,1,2,3,A,G,r,g,10,10,35001,1,1,293.6459,250.5879
1,6,19,1,2,3,A,G,r,g,10,10,35001,1,1,209.2873,180.2891
1,6,19,1,2,3,A,G,r,g,10,10,35001,1,1,306.2996,145.1397
1,6,19,1,2,3,A,G,r,g,10,10,35001,1,1,365.3506,159.1995
1,6,19,1,2,3,A,G,r,g,10,10,35001,1,3,574.8409,344.7882
1,6,19,1,2,3,A,G,r,g,10,10,35001,1,3,237.4069,436.1766
1,6,19,1,2,3,A,G,r,g,10,10,36001,1,1,251.4666,434.7707
1,6,19,1,2,3,A,G,r,g,10,10,36001,1,1,236.0009,382.7496
1,6,19,1,2,3,A,G,r,g,10,10,36001,1,1,262.7144,236.5281
1,6,19,1,2,3,A,G,r,g,10,10,36001,1,1,207.8814,174.6652
1,6,19,1,2,3,A,G,r,g,10,10,36001,1,1,238.8128,154.9815
1,6,19,1,2,3,A,G,r,g,10,10,36001,1,1,356.9148,205.5967
1,6,19,1,2,3,A,G,r,g,10,10,36001,1,3,441.2733,270.2715
1,6,19,1,2,3,A,G,r,g,10,10,36001,1,1,569.217,419.3049
1,6,19,1,2,3,A,G,r,g,10,10,37001,1,1,338.6371,569.7443
1,6,19,1,2,3,A,G,r,g,10,10,37001,1,1,351.2909,424.9288
1,6,19,1,2,3,A,G,r,g,10,10,37001,1,1,491.8884,450.2364
1,6,19,1,2,3,A,G,r,g,10,10,37001,1,1,557.9692,453.0483
1,6,19,1,2,3,A,G,r,g,10,10,37001,1,3,238.8128,378.5316
1,6,19,1,2,3,A,G,r,g,10,10,37001,1,1,212.0993,370.0958
1,6,19,1,2,3,A,G,r,g,10,10,37001,1,1,214.9112,185.913
1,6,19,1,2,3,A,G,r,g,10,10,37001,1,1,413.1538,166.2293
1,6,19,1,2,3,A,G,r,g,10,10,37001,1,1,358.3207,43.9095
1,6,19,1,2,3,A,G,r,g,10,10,38001,1,1,337.2311,266.0536
1,6,19,1,2,3,A,G,r,g,10,10,38001,1,2,228.971,199.9728
1,6,19,1,2,3,A,G,r,g,10,10,38001,1,1,178.3559,268.8656
1,6,19,1,2,3,A,G,r,g,10,10,38001,1,1,370.9745,50.9394
1,6,19,1,2,3,A,G,r,g,10,10,38001,1,1,639.5158,205.5967
1,6,19,1,2,3,A,G,r,g,10,10,38001,1,1,289.4279,416.493
1,6,19,1,2,3,A,G,r,g,10,10,38001,1,1,265.5264,457.2663
1,6,19,1,2,3,A,G,r,g,10,10,38001,1,1,380.8163,547.2487
1,6,19,1,2,3,A,G,r,g,10,10,39001,1,1,435.6494,520.5351
1,6,19,1,2,3,A,G,r,g,10,10,39001,1,1,240.2188,482.5738
1,6,19,1,2,3,A,G,r,g,10,10,39001,1,1,247.2487,427.7408
1,6,19,1,2,3,A,G,r,g,10,10,39001,1,1,198.0395,329.3225
1,6,19,1,2,3,A,G,r,g,10,10,39001,1,1,160.0782,214.0325
1,6,19,1,2,3,A,G,r,g,10,10,39001,1,1,202.2575,195.7548
1,6,19,1,2,3,A,G,r,g,10,10,39001,1,1,227.565,173.2592
1,6,19,1,2,3,A,G,r,g,10,10,39001,1,3,210.6933,118.4262
1,6,19,1,2,3,A,G,r,g,10,10,39001,1,1,614.2083,170.4473
1,6,19,1,2,3,A,G,r,g,10,10,39001,1,1,646.5457,289.9552
1,6,19,1,2,3,A,G,r,g,10,10,40001,1,1,445.4912,492.4156
1,6,19,1,2,3,A,G,r,g,10,10,40001,1,1,362.5387,264.6476
1,6,19,1,2,3,A,G,r,g,10,10,40001,1,1,356.9148,129.674
1,6,19,1,2,3,A,G,r,g,10,10,40001,1,1,264.1204,183.1011
1,6,19,1,2,3,A,G,r,g,10,10,40001,1,2,226.1591,219.6564
1,6,19,1,2,3,A,G,r,g,10,10,40001,1,1,182.5738,246.3699
1,6,19,1,2,3,A,G,r,g,10,10,40001,1,1,220.5351,159.1995
1,6,19,1,2,3,A,G,r,g,10,10,40001,1,1,612.8023,150.7636
1,6,19,1,2,3,A,G,r,g,10,10,40001,1,1,673.2592,296.9851
1,6,19,1,2,3,A,G,r,g,10,10,40001,1,3,656.3875,339.1643
1,6,19,1,2,3,A,G,r,g,10,10,41001,1,1,191.0097,184.507
1,6,19,1,2,3,A,G,r,g,10,10,41001,1,1,234.5949,201.3787
1,6,19,1,2,3,A,G,r,g,10,10,41001,1,1,233.1889,152.1696
1,6,19,1,2,3,A,G,r,g,10,10,41001,1,1,375.1924,190.1309
1,6,19,1,2,3,A,G,r,g,10,10,41001,1,1,614.2083,313.8568
1,6,19,1,2,3,A,G,r,g,10,10,41001,1,1,546.7214,88.9007
1,6,19,1,2,3,A,G,r,g,10,10,41001,1,1,477.8286,39.6916
1,6,19,1,2,3,A,G,r,g,10,10,41001,1,3,428.6195,69.217
1,6,19,1,2,3,A,G,r,g,10,10,41001,1,1,378.0044,74.8409
1,6,19,1,2,3,A,G,r,g,10,10,42001,1,1,193.8216,471.326
1,6,19,1,2,3,A,G,r,g,10,10,42001,1,1,160.0782,330.7285
1,6,19,1,2,3,A,G,r,g,10,10,42001,1,3,348.4789,339.1643
1,6,19,1,2,3,A,G,r,g,10,10,42001,1,1,356.9148,233.7162
1,6,19,1,2,3,A,G,r,g,10,10,42001,1,1,254.2786,202.7847
1,6,19,1,2,3,A,G,r,g,10,10,42001,1,1,213.5053,178.8831
1,6,19,1,2,3,A,G,r,g,10,10,42001,1,1,303.4877,139.5158
1,6,19,1,2,3,A,G,r,g,10,10,42001,1,1,472.2047,440.3946
1,6,19,1,2,3,A,G,r,g,10,10,42001,1,1,636.7039,249.1819
1,6,19,1,2,3,A,G,r,g,10,10,43001,1,1,621.2381,159.1995
1,6,19,1,2,3,A,G,r,g,10,10,43001,1,1,451.1151,143.7337
1,6,19,1,2,3,A,G,r,g,10,10,43001,1,1,221.9411,185.913
1,6,19,1,2,3,A,G,r,g,10,10,43001,1,1,154.4543,212.6265
1,6,19,1,2,3,A,G,r,g,10,10,43001,1,3,164.2961,270.2715
1,6,19,1,2,3,A,G,r,g,10,10,43001,1,1,255.6845,302.609
1,6,19,1,2,3,A,G,r,g,10,10,43001,1,1,220.5351,374.3137
1,6,19,1,2,3,A,G,r,g,10,10,43001,1,1,261.3084,447.4244
1,6,19,1,2,3,A,G,r,g,10,10,43001,1,1,344.261,475.5439
1,6,19,1,2,3,A,G,r,g,10,10,43001,1,2,469.3928,431.9587
1,6,19,1,2,3,A,G,r,g,10,10,44001,1,2,272.5562,474.138
1,6,19,1,2,3,A,G,r,g,10,10,44001,1,1,476.4227,430.5527
1,6,19,1,2,3,A,G,r,g,10,10,44001,1,1,302.0817,315.2627
1,6,19,1,2,3,A,G,r,g,10,10,44001,1,1,219.1292,208.4086
1,6,19,1,2,3,A,G,r,g,10,10,44001,1,1,285.21,157.7935
1,6,19,1,2,3,A,G,r,g,10,10,44001,1,1,359.7267,97.3366
1,6,19,1,2,3,A,G,r,g,10,10,44001,1,1,333.0132,34.0677
1,6,19,1,2,3,A,G,r,g,10,10,44001,1,3,383.6283,52.3453
1,6,19,1,2,3,A,G,r,g,10,10,44001,1,1,607.1784,219.6564
1,6,19,1,2,3,A,G,r,g,10,10,44001,1,1,645.1397,247.7759
1,6,19,1,2,3,A,G,r,g,10,10,45001,1,1,460.9569,544.4367
1,6,19,1,2,3,A,G,r,g,10,10,45001,1,1,548.1274,453.0483
1,6,19,1,2,3,A,G,r,g,10,10,45001,1,1,559.3752,299.797
1,6,19,1,2,3,A,G,r,g,10,10,45001,1,1,330.2012,454.4543
1,6,19,1,2,3,A,G,r,g,10,10,45001,1,1,347.0729,318.0747
1,6,19,1,2,3,A,G,r,g,10,10,45001,1,1,224.7531,388.3735
1,6,19,1,2,3,A,G,r,g,10,10,45001,1,2,207.8814,281.5193
1,6,19,1,2,3,A,G,r,g,10,10,45001,1,1,143.2065,230.9042
1,6,19,1,2,3,A,G,r,g,10,10,45001,1,1,112.275,194.3489
1,6,19,1,2,3,A,G,r,g,10,10,45001,1,3,254.2786,513.5053
1,6,19,1,2,3,A,G,r,g,10,10,46001,1,1,238.8128,462.8902
1,6,19,1,2,3,A,G,r,g,10,10,46001,1,1,299.2698,468.5141
1,6,19,1,2,3,A,G,r,g,10,10,46001,1,1,216.3172,398.2153
1,6,19,1,2,3,A,G,r,g,10,10,46001,1,1,230.377,358.848
1,6,19,1,2,3,A,G,r,g,10,10,46001,1,1,124.9288,244.964
1,6,19,1,2,3,A,G,r,g,10,10,46001,1,1,223.3471,205.5967
1,6,19,1,2,3,A,G,r,g,10,10,46001,1,1,226.1591,167.6353
1,6,19,1,2,3,A,G,r,g,10,10,46001,1,1,304.8937,90.3067
1,6,19,1,2,3,A,G,r,g,10,10,46001,1,3,271.1503,329.3225
1,6,19,1,2,3,A,G,r,g,10,10,47001,1,1,209.2873,388.3735
1,6,19,1,2,3,A,G,r,g,10,10,47001,1,1,196.6336,351.8181
1,6,19,1,2,3,A,G,r,g,10,10,47001,1,1,250.0606,251.9938
1,6,19,1,2,3,A,G,r,g,10,10,47001,1,2,130.5527,202.7847
1,6,19,1,2,3,A,G,r,g,10,10,47001,1,1,206.4754,184.507
1,6,19,1,2,3,A,G,r,g,10,10,47001,1,3,203.6634,149.3576
1,6,19,1,2,3,A,G,r,g,10,10,47001,1,1,191.0097,105.7724
1,6,19,1,2,3,A,G,r,g,10,10,47001,1,3,335.8251,42.5035
1,6,19,1,2,3,A,G,r,g,10,10,47001,1,1,559.3752,430.5527
1,6,19,1,2,3,A,G,r,g,10,10,48001,1,1,647.9517,401.0272
1,6,19,1,2,3,A,G,r,g,10,10,48001,1,1,622.6441,296.9851
1,6,19,1,2,3,A,G,r,g,10,10,48001,1,1,663.4174,257.6178
1,6,19,1,2,3,A,G,r,g,10,10,48001,1,3,684.507,285.7373
1,6,19,1,2,3,A,G,r,g,10,10,48001,1,1,532.6617,257.6178
1,6,19,1,2,3,A,G,r,g,10,10,48001,1,1,243.0308,391.1854
1,6,19,1,2,3,A,G,r,g,10,10,48001,1,1,282.3981,304.0149
1,6,19,1,2,3,A,G,r,g,10,10,48001,1,3,203.6634,305.4209
1,6,19,1,2,3,A,G,r,g,10,10,48001,1,1,146.0185,313.8568
1,6,19,1,2,3,A,G,r,g,10,10,48001,1,2,106.6511,235.1221
1,6,19,1,2,3,A,G,r,g,10,10,48001,1,1,205.0694,169.0413
1,6,19,1,2,3,A,G,r,g,10,10,49001,1,1,392.0641,557.0905
1,6,19,1,2,3,A,G,r,g,10,10,49001,1,1,451.1151,460.0782
1,6,19,1,2,3,A,G,r,g,10,10,49001,1,1,272.5562,375.7197
1,6,19,1,2,3,A,G,r,g,10,10,49001,1,1,167.1081,306.8269
1,6,19,1,2,3,A,G,r,g,10,10,49001,1,2,209.2873,180.2891
1,6,19,1,2,3,A,G,r,g,10,10,49001,1,1,245.8427,111.3963
1,6,19,1,2,3,A,G,r,g,10,10,49001,1,3,273.9622,142.3278
1,6,19,1,2,3,A,G,r,g,10,10,49001,1,1,333.0132,86.0888
1,6,19,1,2,3,A,G,r,g,10,10,49001,1,1,632.4859,309.6388
1,6,19,1,2,3,A,G,r,g,10,10,49001,1,1,629.674,259.0237
1,6,19,1,2,3,A,G,r,g,10,10,50001,1,1,195.2276,382.7496
1,6,19,1,2,3,A,G,r,g,10,10,50001,1,1,191.0097,287.1432
1,6,19,1,2,3,A,G,r,g,10,10,50001,1,1,214.9112,261.8357
1,6,19,1,2,3,A,G,r,g,10,10,50001,1,3,196.6336,218.2504
1,6,19,1,2,3,A,G,r,g,10,10,50001,1,1,283.804,274.4895
1,6,19,1,2,3,A,G,r,g,10,10,50001,1,2,265.5264,184.507
1,6,19,1,2,3,A,G,r,g,10,10,50001,1,3,286.616,221.0624
1,6,19,1,2,3,A,G,r,g,10,10,50001,1,1,411.7478,422.1169
1,6,19,1,2,3,A,G,r,g,10,10,50001,1,1,553.7513,301.203
1,6,19,1,2,3,A,G,r,g,10,10,50001,1,1,639.5158,315.2627
1,6,19,1,2,3,A,G,r,g,10,10,51001,1,1,250.0606,417.8989
1,6,19,1,2,3,A,G,r,g,10,10,51001,1,2,241.6248,351.8181
1,6,19,1,2,3,A,G,r,g,10,10,51001,1,3,167.1081,337.7583
1,6,19,1,2,3,A,G,r,g,10,10,51001,1,1,113.681,329.3225
1,6,19,1,2,3,A,G,r,g,10,10,51001,1,2,144.6125,239.3401
1,6,19,1,2,3,A,G,r,g,10,10,51001,1,1,227.565,232.3102
1,6,19,1,2,3,A,G,r,g,10,10,51001,1,3,278.1801,240.746
1,6,19,1,2,3,A,G,r,g,10,10,51001,1,1,292.2399,282.9253
1,6,19,1,2,3,A,G,r,g,10,10,51001,1,1,452.5211,242.152
1,6,19,1,2,3,A,G,r,g,10,10,51001,1,3,465.1749,102.9605
1,6,19,1,2,3,A,G,r,g,10,10,51001,1,1,553.7513,105.7724
1,6,19,1,2,3,A,G,r,g,10,10,51001,1,1,584.6828,502.2575
1,6,19,1,2,3,A,G,r,g,10,10,52001,1,1,240.2188,430.5527
1,6,19,1,2,3,A,G,r,g,10,10,52001,1,1,430.0255,385.5615
1,6,19,1,2,3,A,G,r,g,10,10,52001,1,3,421.5896,363.0659
1,6,19,1,2,3,A,G,r,g,10,10,52001,1,3,441.2733,334.9464
1,6,19,1,2,3,A,G,r,g,10,10,52001,1,1,259.9025,194.3489
1,6,19,1,2,3,A,G,r,g,10,10,52001,1,1,198.0395,169.0413
1,6,19,1,2,3,A,G,r,g,10,10,52001,1,2,154.4543,208.4086
1,6,19,1,2,3,A,G,r,g,10,10,52001,1,1,359.7267,122.6441
1,6,19,1,2,3,A,G,r,g,10,10,52001,1,1,385.0343,146.5457
1,6,19,1,2,3,A,G,r,g,10,10,52001,1,3,566.4051,108.5844
1,6,19,1,2,3,A,G,r,g,10,10,52001,1,1,643.7337,160.6054
1,6,19,1,2,3,A,G,r,g,10,10,53001,1,1,213.5053,149.3576
1,6,19,1,2,3,A,G,r,g,10,10,53001,1,1,236.0009,198.5668
1,6,19,1,2,3,A,G,r,g,10,10,53001,1,3,220.5351,233.7162
1,6,19,1,2,3,A,G,r,g,10,10,53001,1,1,269.7443,299.797
1,6,19,1,2,3,A,G,r,g,10,10,53001,1,1,327.3893,315.2627
1,6,19,1,2,3,A,G,r,g,10,10,53001,1,1,191.0097,401.0272
1,6,19,1,2,3,A,G,r,g,10,10,53001,1,1,473.6107,513.5053
1,6,19,1,2,3,A,G,r,g,10,10,53001,1,3,487.6705,482.5738
1,6,19,1,2,3,A,G,r,g,10,10,53001,1,1,564.9991,422.1169
1,6,19,1,2,3,A,G,r,g,10,10,53001,1,3,553.7513,87.4947
1,6,19,1,2,3,A,G,r,g,10,10,53001,1,2,584.6828,117.0202
1,6,19,1,2,3,A,G,r,g,10,10,54001,1,2,633.8919,183.1011
1,6,19,1,2,3,A,G,r,g,10,10,54001,1,1,427.2135,274.4895
1,6,19,1,2,3,A,G,r,g,10,10,54001,1,1,365.3506,195.7548
1,6,19,1,2,3,A,G,r,g,10,10,54001,1,1,233.1889,194.3489
1,6,19,1,2,3,A,G,r,g,10,10,54001,1,1,196.6336,183.1011
1,6,19,1,2,3,A,G,r,g,10,10,54001,1,1,175.5439,270.2715
1,6,19,1,2,3,A,G,r,g,10,10,54001,1,1,174.138,416.493
1,6,19,1,2,3,A,G,r,g,10,10,54001,1,3,206.4754,437.5826
1,6,19,1,2,3,A,G,r,g,10,10,54001,1,1,330.2012,573.9622
1,6,19,1,2,3,A,G,r,g,10,10,54001,1,3,467.9868,552.8726
1,6,19,1,2,3,A,G,r,g,10,10,55001,1,1,912.275,316.6687
1,6,19,1,2,3,A,G,r,g,10,10,55001,1,2,646.5457,287.1432
1,6,19,1,2,3,A,G,r,g,10,10,55001,1,1,611.3963,131.08
1,6,19,1,2,3,A,G,r,g,10,10,55001,1,1,435.6494,101.5545
1,6,19,1,2,3,A,G,r,g,10,10,55001,1,1,251.4666,240.746
1,6,19,1,2,3,A,G,r,g,10,10,55001,1,1,220.5351,174.6652
1,6,19,1,2,3,A,G,r,g,10,10,55001,1,3,489.0764,476.9499
1,6,19,1,2,3,A,G,r,g,10,10,55001,1,3,501.7302,513.5053
1,6,19,1,2,3,A,G,r,g,10,10,55001,1,1,541.0975,541.6248
1,6,19,1,2,3,A,G,r,g,10,10,55001,1,3,503.1362,547.2487
1,6,19,1,2,3,A,G,r,g,10,10,56001,1,1,548.1274,364.4719
1,6,19,1,2,3,A,G,r,g,10,10,56001,1,3,550.9394,424.9288
1,6,19,1,2,3,A,G,r,g,10,10,56001,1,2,619.8322,427.7408
1,6,19,1,2,3,A,G,r,g,10,10,56001,1,1,300.6757,316.6687
1,6,19,1,2,3,A,G,r,g,10,10,56001,1,1,230.377,219.6564
1,6,19,1,2,3,A,G,r,g,10,10,56001,1,1,202.2575,187.319
1,6,19,1,2,3,A,G,r,g,10,10,56001,1,3,265.5264,198.5668
1,6,19,1,2,3,A,G,r,g,10,10,57001,1,1,213.5053,434.7707
1,6,19,1,2,3,A,G,r,g,10,10,57001,1,1,160.0782,308.2329
1,6,19,1,2,3,A,G,r,g,10,10,57001,1,1,230.377,190.1309
1,6,19,1,2,3,A,G,r,g,10,10,57001,1,3,415.9657,273.0835
1,6,19,1,2,3,A,G,r,g,10,10,57001,1,3,580.4649,292.7671
1,6,19,1,2,3,A,G,r,g,10,10,57001,1,1,638.1098,392.5914
1,6,19,1,2,3,A,G,r,g,10,10,57001,1,2,605.7724,251.9938
1,6,19,1,2,3,A,G,r,g,10,10,58001,1,1,255.6845,440.3946
1,6,19,1,2,3,A,G,r,g,10,10,58001,1,3,169.92,180.2891
1,6,19,1,2,3,A,G,r,g,10,10,58001,1,1,280.9921,178.8831
1,6,19,1,2,3,A,G,r,g,10,10,58001,1,3,292.2399,128.268
1,6,19,1,2,3,A,G,r,g,10,10,58001,1,1,548.1274,467.1081
1,6,19,1,2,3,A,G,r,g,10,10,58001,1,1,659.1995,263.2417
1,6,19,1,2,3,A,G,r,g,10,10,59001,1,3,236.0009,433.3647
1,6,19,1,2,3,A,G,r,g,10,10,59001,1,1,165.7021,260.4297
1,6,19,1,2,3,A,G,r,g,10,10,59001,1,1,340.0431,39.6916
1,6,19,1,2,3,A,G,r,g,10,10,59001,1,1,451.1151,431.9587
1,6,19,1,2,3,A,G,r,g,10,10,59001,1,1,437.0554,566.9323
1,6,19,1,2,3,A,G,r,g,10,10,59001,1,3,518.6019,471.326
1,6,19,1,2,3,A,G,r,g,10,10,59001,1,1,536.8796,433.3647
1,6,19,1,2,3,A,G,r,g,10,10,59001,1,1,649.3576,201.3787
1,6,19,1,2,3,A,G,r,g,10,10,60001,1,1,307.7056,422.1169
1,6,19,1,2,3,A,G,r,g,10,10,60001,1,1,356.9148,372.9077
1,6,19,1,2,3,A,G,r,g,10,10,60001,1,1,206.4754,378.5316
1,6,19,1,2,3,A,G,r,g,10,10,60001,1,3,224.7531,364.4719
1,6,19,1,2,3,A,G,r,g,10,10,60001,1,1,213.5053,209.8146
1,6,19,1,2,3,A,G,r,g,10,10,60001,1,1,234.5949,163.4174
1,6,19,1,2,3,A,G,r,g,10,10,60001,1,3,302.0817,145.1397
1,6,19,1,2,3,A,G,r,g,10,10,60001,1,1,505.9482,64.9991
1,6,19,1,2,3,A,G,r,g,10,10,61001,1,1,292.2399,190.1309
1,6,19,1,2,3,A,G,r,g,10,10,61001,1,1,206.4754,163.4174
1,6,19,1,2,3,A,G,r,g,10,10,61001,1,1,123.5228,223.8743
1,6,19,1,2,3,A,G,r,g,10,10,61001,1,1,189.6037,363.0659
1,6,19,1,2,3,A,G,r,g,10,10,61001,1,1,321.7654,334.9464
1,6,19,1,2,3,A,G,r,g,10,10,61001,1,3,257.0905,458.6722
1,6,19,1,2,3,A,G,r,g,10,10,61001,1,1,252.8726,509.2873
1,6,19,1,2,3,A,G,r,g,10,10,61001,1,3,212.0993,506.4754
1,6,19,1,2,3,A,G,r,g,10,10,62001,1,1,151.6424,246.3699
1,6,19,1,2,3,A,G,r,g,10,10,62001,1,3,176.9499,162.0114
1,6,19,1,2,3,A,G,r,g,10,10,62001,1,1,303.4877,243.558
1,6,19,1,2,3,A,G,r,g,10,10,62001,1,1,387.8462,247.7759
1,6,19,1,2,3,A,G,r,g,10,10,62001,1,1,437.0554,67.8111
1,6,19,1,2,3,A,G,r,g,10,10,62001,1,3,397.688,76.2469
1,6,19,1,2,3,A,G,r,g,10,10,63001,1,1,268.3383,434.7707
1,6,19,1,2,3,A,G,r,g,10,10,63001,1,1,383.6283,232.3102
1,6,19,1,2,3,A,G,r,g,10,10,63001,1,3,325.9833,201.3787
1,6,19,1,2,3,A,G,r,g,10,10,63001,1,1,445.4912,64.9991
1,6,19,1,2,3,A,G,r,g,10,10,63001,1,3,484.8585,81.8708
1,6,19,1,2,3,A,G,r,g,10,10,63001,1,3,588.9007,95.9306
1,6,19,1,2,3,A,G,r,g,10,10,63001,1,1,590.3067,129.674
1,6,19,1,2,3,A,G,r,g,10,10,63001,1,1,626.862,237.9341
1,6,19,1,2,3,A,G,r,g,10,10,64001,1,1,387.8462,448.8304
1,6,19,1,2,3,A,G,r,g,10,10,64001,1,3,157.2663,230.9042
1,6,19,1,2,3,A,G,r,g,10,10,64001,1,3,463.7689,280.1134
1,6,19,1,2,3,A,G,r,g,10,10,64001,1,1,295.0518,136.7039
1,6,19,1,2,3,A,G,r,g,10,10,64001,1,1,273.9622,57.9692
1,6,19,1,2,3,A,G,r,g,10,10,64001,1,1,594.5246,135.2979
1,6,19,1,2,3,A,G,r,g,10,10,65001,1,1,236.0009,197.1608
1,6,19,1,2,3,A,G,r,g,10,10,65001,1,1,169.92,190.1309
1,6,19,1,2,3,A,G,r,g,10,10,65001,1,3,422.9956,114.2083
1,6,19,1,2,3,A,G,r,g,10,10,65001,1,3,448.3032,50.9394
1,6,19,1,2,3,A,G,r,g,10,10,65001,1,1,605.7724,149.3576
1,6,19,1,2,3,A,G,r,g,10,10,65001,1,1,652.1696,202.7847
1,6,19,1,2,3,A,G,r,g,10,10,66001,1,1,203.6634,447.4244
1,6,19,1,2,3,A,G,r,g,10,10,66001,1,3,192.4156,326.5105
1,6,19,1,2,3,A,G,r,g,10,10,66001,1,3,213.5053,361.6599
1,6,19,1,2,3,A,G,r,g,10,10,66001,1,3,307.7056,382.7496
1,6,19,1,2,3,A,G,r,g,10,10,66001,1,1,251.4666,232.3102
1,6,19,1,2,3,A,G,r,g,10,10,66001,1,1,609.9903,154.9815
1,6,19,1,2,3,A,G,r,g,10,10,67001,1,1,257.0905,406.6511
1,6,19,1,2,3,A,G,r,g,10,10,67001,1,1,210.6933,385.5615
1,6,19,1,2,3,A,G,r,g,10,10,67001,1,3,137.5826,309.6388
1,6,19,1,2,3,A,G,r,g,10,10,67001,1,1,236.0009,201.3787
1,6,19,1,2,3,A,G,r,g,10,10,67001,1,3,285.21,107.1784
1,6,19,1,2,3,A,G,r,g,10,10,67001,1,3,347.0729,50.9394
1,6,19,1,2,3,A,G,r,g,10,10,67001,1,1,624.0501,180.2891
1,6,19,1,2,3,A,G,r,g,10,10,68001,1,1,331.6072,500.8515
1,6,19,1,2,3,A,G,r,g,10,10,68001,1,1,245.8427,441.8005
1,6,19,1,2,3,A,G,r,g,10,10,68001,1,1,289.4279,320.8866
1,6,19,1,2,3,A,G,r,g,10,10,68001,1,3,600.1485,236.5281
1,6,19,1,2,3,A,G,r,g,10,10,68001,1,3,621.2381,185.913
1,6,19,1,2,3,A,G,r,g,10,10,68001,1,1,660.6054,233.7162
1,6,19,1,2,3,A,G,r,g,10,10,69001,1,1,258.4965,524.7531
1,6,19,1,2,3,A,G,r,g,10,10,69001,1,1,325.9833,491.0097
1,6,19,1,2,3,A,G,r,g,10,10,69001,1,1,248.6547,226.6863
1,6,19,1,2,3,A,G,r,g,10,10,69001,1,3,510.1661,350.4121
1,6,19,1,2,3,A,G,r,g,10,10,69001,1,3,514.384,176.0712
1,6,19,1,2,3,A,G,r,g,10,10,69001,1,1,638.1098,198.5668
1,6,19,1,2,3,A,G,r,g,10,10,70001,1,3,196.6336,399.6213
1,6,19,1,2,3,A,G,r,g,10,10,70001,1,3,328.7953,228.0923
1,6,19,1,2,3,A,G,r,g,10,10,70001,1,1,330.2012,325.1046
1,6,19,1,2,3,A,G,r,g,10,10,70001,1,1,209.2873,164.8234
1,6,19,1,2,3,A,G,r,g,10,10,70001,1,1,607.1784,302.609
1,6,19,1,2,3,A,G,r,g,10,10,71001,1,1,316.1415,226.6863
1,6,19,1,2,3,A,G,r,g,10,10,71001,1,3,266.9323,201.3787
1,6,19,1,2,3,A,G,r,g,10,10,71001,1,3,393.4701,341.9763
1,6,19,1,2,3,A,G,r,g,10,10,71001,1,1,645.1397,254.8058
1,6,19,1,2,3,A,G,r,g,10,10,72001,1,1,300.6757,156.3875
1,6,19,1,2,3,A,G,r,g,10,10,72001,1,3,333.0132,169.0413
1,6,19,1,2,3,A,G,r,g,10,10,72001,1,3,352.6968,218.2504
1,6,19,1,2,3,A,G,r,g,10,10,72001,1,1,622.6441,219.6564
1,6,19,1,2,3,A,G,r,g,10,10,72001,1,1,428.6195,579.5861
1,6,19,1,2,3,A,G,r,g,10,10,73001,1,1,629.674,176.0712
1,6,19,1,2,3,A,G,r,g,10,10,73001,1,3,657.7935,326.5105
1,6,19,1,2,3,A,G,r,g,10,10,74001,1,3,280.9921,86.0888
1,6,19,1,2,3,A,G,r,g,10,10,74001,1,1,385.0343,337.7583
1,6,19,1,2,3,A,G,r,g,10,10,74001,1,1,600.1485,160.6054
1,6,19,1,2,3,A,G,r,g,10,10,74001,1,3,643.7337,201.3787
1,6,19,1,2,3,A,G,r,g,10,10,75001,1,1,252.8726,424.9288
1,6,19,1,2,3,A,G,r,g,10,10,75001,1,1,268.3383,468.5141
1,6,19,1,2,3,A,G,r,g,10,10,75001,1,1,363.9446,547.2487
1,6,19,1,2,3,A,G,r,g,10,10,75001,1,1,619.8322,226.6863
1,6,19,1,2,3,A,G,r,g,10,10,75001,1,3,586.0888,171.8533
1,6,19,1,2,3,A,G,r,g,10,10,75001,1,3,631.08,163.4174
1,6,19,1,2,3,A,G,r,g,10,10,76001,1,1,325.9833,374.3137
1,6,19,1,2,3,A,G,r,g,10,10,76001,1,1,328.7953,329.3225
1,6,19,1,2,3,A,G,r,g,10,10,76001,1,1,327.3893,270.2715
1,6,19,1,2,3,A,G,r,g,10,10,76001,1,1,622.6441,178.8831
1,6,19,1,2,3,A,G,r,g,10,10,76001,1,3,618.4262,145.1397
1,6,19,1,2,3,A,G,r,g,10,10,76001,1,3,671.8533,185.913
1,6,19,1,2,3,A,G,r,g,10,10,76001,1,3,615.6142,108.5844
1,6,19,1,2,3,A,G,r,g,10,10,77001,1,1,328.7953,289.9552
1,6,19,1,2,3,A,G,r,g,10,10,77001,1,1,257.0905,429.1467
1,6,19,1,2,3,A,G,r,g,10,10,77001,1,1,189.6037,377.1257
1,6,19,1,2,3,A,G,r,g,10,10,77001,1,3,302.0817,368.6898
1,6,19,1,2,3,A,G,r,g,10,10,77001,1,1,224.7531,202.7847
1,6,19,1,2,3,A,G,r,g,10,10,77001,1,1,137.5826,318.0747
1,6,19,1,2,3,A,G,r,g,10,10,77001,1,3,129.1467,341.9763
1,6,19,1,2,3,A,G,r,g,10,10,77001,1,3,124.9288,364.4719
1,6,19,1,2,3,A,G,r,g,10,10,78001,1,1,252.8726,260.4297
1,6,19,1,2,3,A,G,r,g,10,10,78001,1,1,221.9411,191.5369
1,6,19,1,2,3,A,G,r,g,10,10,78001,1,1,396.2821,159.1995
1,6,19,1,2,3,A,G,r,g,10,10,78001,1,3,393.4701,235.1221
1,6,19,1,2,3,A,G,r,g,10,10,78001,1,1,535.4736,166.2293
1,6,19,1,2,3,A,G,r,g,10,10,78001,1,1,625.4561,183.1011
1,6,19,1,2,3,A,G,r,g,10,10,79001,1,1,279.5861,559.9025
1,6,19,1,2,3,A,G,r,g,10,10,79001,1,1,238.8128,379.9376
1,6,19,1,2,3,A,G,r,g,10,10,79001,1,1,216.3172,219.6564
1,6,19,1,2,3,A,G,r,g,10,10,79001,1,1,228.971,178.8831
1,6,19,1,2,3,A,G,r,g,10,10,79001,1,1,325.9833,67.8111
1,6,19,1,2,3,A,G,r,g,10,10,79001,1,3,241.6248,239.3401
1,6,19,1,2,3,A,G,r,g,10,10,79001,1,3,434.2434,98.7425
1,6,19,1,2,3,A,G,r,g,10,10,79001,1,1,638.1098,190.1309
1,6,19,1,2,3,A,G,r,g,10,10,80001,1,1,243.0308,514.9112
1,6,19,1,2,3,A,G,r,g,10,10,80001,1,3,268.3383,467.1081
1,6,19,1,2,3,A,G,r,g,10,10,80001,1,1,220.5351,378.5316
1,6,19,1,2,3,A,G,r,g,10,10,80001,1,1,244.4367,192.9429
1,6,19,1,2,3,A,G,r,g,10,10,80001,1,1,221.9411,180.2891
1,6,19,1,2,3,A,G,r,g,10,10,80001,1,3,248.6547,143.7337
1,6,19,1,2,3,A,G,r,g,10,10,80001,1,1,476.4227,564.1204
1,6,19,1,2,3,A,G,r,g,10,10,80001,1,1,660.6054,386.9675
1,6,19,1,2,3,A,G,r,g,10,10,81001,1,1,193.8216,351.8181
1,6,19,1,2,3,A,G,r,g,10,10,81001,1,1,283.804,354.6301
1,6,19,1,2,3,A,G,r,g,10,10,81001,1,3,477.8286,499.4455
1,6,19,1,2,3,A,G,r,g,10,10,81001,1,1,503.1362,454.4543
1,6,19,1,2,3,A,G,r,g,10,10,81001,1,1,619.8322,170.4473
1,6,19,1,2,3,A,G,r,g,10,10,82001,1,1,262.7144,434.7707
1,6,19,1,2,3,A,G,r,g,10,10,82001,1,1,347.0729,347.6002
1,6,19,1,2,3,A,G,r,g,10,10,82001,1,1,228.971,230.9042
1,6,19,1,2,3,A,G,r,g,10,10,82001,1,1,331.6072,162.0114
1,6,19,1,2,3,A,G,r,g,10,10,83001,1,1,137.5826,399.6213
1,6,19,1,2,3,A,G,r,g,10,10,83001,1,1,233.1889,413.681
1,6,19,1,2,3,A,G,r,g,10,10,83001,1,1,285.21,356.036
1,6,19,1,2,3,A,G,r,g,10,10,83001,1,1,500.3243,268.8656
1,6,19,1,2,3,A,G,r,g,10,10,84001,1,1,240.2188,440.3946
1,6,19,1,2,3,A,G,r,g,10,10,84001,1,1,237.4069,386.9675
1,6,19,1,2,3,A,G,r,g,10,10,84001,1,1,234.5949,221.0624
1,6,19,1,2,3,A,G,r,g,10,10,84001,1,1,607.1784,159.1995
1,6,19,1,2,3,A,G,r,g,10,10,85001,1,1,258.4965,492.4156
1,6,19,1,2,3,A,G,r,g,10,10,85001,1,1,233.1889,372.9077
1,6,19,1,2,3,A,G,r,g,10,10,85001,1,1,621.2381,358.848
1,6,19,1,2,3,A,G,r,g,10,10,85001,1,1,647.9517,191.5369
1,6,19,1,2,3,A,G,r,g,10,10,86001,1,1,421.5896,502.2575
1,6,19,1,2,3,A,G,r,g,10,10,86001,1,1,209.2873,423.5228
1,6,19,1,2,3,A,G,r,g,10,10,86001,1,1,642.3278,316.6687
1,6,19,1,2,3,A,G,r,g,10,10,86001,1,1,635.2979,225.2803
1,6,19,1,2,3,A,G,r,g,10,10,87001,1,1,660.6054,257.6178
1,6,19,1,2,3,A,G,r,g,10,10,87001,1,1,600.1485,124.0501
1,6,19,1,2,3,A,G,r,g,10,10,87001,1,1,248.6547,455.8603
1,6,19,1,2,3,A,G,r,g,10,10,87001,1,1,231.783,406.6511
1,6,19,1,2,3,A,G,r,g,10,10,88001,1,1,313.3295,479.7619
1,6,19,1,2,3,A,G,r,g,10,10,88001,1,1,247.2487,198.5668
1,6,19,1,2,3,A,G,r,g,10,10,88001,1,1,209.2873,138.1098
1,6,19,1,2,3,A,G,r,g,10,10,88001,1,1,595.9306,228.0923
1,6,19,1,2,3,A,G,r,g,10,10,88001,1,1,638.1098,209.8146
1,6,19,1,2,3,A,G,r,g,10,10,89001,1,1,257.0905,218.2504
1,6,19,1,2,3,A,G,r,g,10,10,89001,1,1,192.4156,191.5369
1,6,19,1,2,3,A,G,r,g,10,10,89001,1,1,486.2645,323.6986
1,6,19,1,2,3,A,G,r,g,10,10,89001,1,1,635.2979,289.9552
1,6,19,1,2,3,A,G,r,g,10,10,89001,1,1,631.08,169.0413
1,6,19,1,2,3,A,G,r,g,10,10,90001,1,1,486.2645,540.2188
1,6,19,1,2,3,A,G,r,g,10,10,90001,1,1,359.7267,347.6002
1,6,19,1,2,3,A,G,r,g,10,10,90001,1,1,241.6248,271.6775
1,6,19,1,2,3,A,G,r,g,10,10,90001,1,1,212.0993,183.1011
1,6,19,1,2,3,A,G,r,g,10,10,90001,1,1,626.862,163.4174
1,6,19,1,2,3,A,G,r,g,10,10,91001,1,1,257.0905,431.9587
1,6,19,1,2,3,A,G,r,g,10,10,91001,1,1,214.9112,370.0958
1,6,19,1,2,3,A,G,r,g,10,10,91001,1,1,212.0993,202.7847
1,6,19,1,2,3,A,G,r,g,10,10,91001,1,1,527.0378,361.6599
1,6,19,1,2,3,A,G,r,g,10,10,91001,1,1,653.5756,319.4807
1,6,19,1,2,3,A,G,r,g,10,10,91001,1,3,642.3278,360.254
1,6,19,1,2,3,A,G,r,g,10,10,91001,1,1,611.3963,142.3278
1,6,19,1,2,3,A,G,r,g,10,10,92001,1,1,238.8128,437.5826
1,6,19,1,2,3,A,G,r,g,10,10,92001,1,1,200.8515,415.087
1,6,19,1,2,3,A,G,r,g,10,10,92001,1,1,214.9112,221.0624
1,6,19,1,2,3,A,G,r,g,10,10,92001,1,1,217.7232,149.3576
1,6,19,1,2,3,A,G,r,g,10,10,92001,1,1,517.196,98.7425
1,6,19,1,2,3,A,G,r,g,10,10,92001,1,1,631.08,250.5879
1,6,19,1,2,3,A,G,r,g,10,10,93001,1,3,354.1028,382.7496
1,6,19,1,2,3,A,G,r,g,10,10,93001,1,1,324.5773,336.3524
1,6,19,1,2,3,A,G,r,g,10,10,93001,1,1,288.022,284.3313
1,6,19,1,2,3,A,G,r,g,10,10,93001,1,1,310.5176,247.7759
1,6,19,1,2,3,A,G,r,g,10,10,93001,1,1,213.5053,195.7548
1,6,19,1,2,3,A,G,r,g,10,10,93001,1,1,528.4438,351.8181
1,6,19,1,2,3,A,G,r,g,10,10,93001,1,1,617.0202,214.0325
1,6,19,1,2,3,A,G,r,g,10,10,94001,1,1,202.2575,398.2153
1,6,19,1,2,3,A,G,r,g,10,10,94001,1,1,209.2873,240.746
1,6,19,1,2,3,A,G,r,g,10,10,94001,1,1,199.4455,177.4772
1,6,19,1,2,3,A,G,r,g,10,10,94001,1,1,615.6142,126.862
1,6,19,1,2,3,A,G,r,g,10,10,94001,1,1,643.7337,259.0237
1,6,19,1,2,3,A,G,r,g,10,10,95001,1,1,209.2873,190.1309
1,6,19,1,2,3,A,G,r,g,10,10,95001,1,1,240.2188,95.9306
1,6,19,1,2,3,A,G,r,g,10,10,95001,1,1,397.688,171.8533
1,6,19,1,2,3,A,G,r,g,10,10,95001,1,3,445.4912,152.1696
1,6,19,1,2,3,A,G,r,g,10,10,95001,1,1,624.0501,412.275
1,6,19,1,2,3,A,G,r,g,10,10,95001,1,1,654.9815,446.0185
1,6,19,1,2,3,A,G,r,g,10,10,96001,1,1,262.7144,431.9587
1,6,19,1,2,3,A,G,r,g,10,10,96001,1,1,243.0308,388.3735
1,6,19,1,2,3,A,G,r,g,10,10,96001,1,1,223.3471,205.5967
1,6,19,1,2,3,A,G,r,g,10,10,96001,1,3,401.906,301.203
1,6,19,1,2,3,A,G,r,g,10,10,96001,1,1,618.4262,246.3699
1,6,19,1,2,3,A,G,r,g,10,10,97001,1,1,325.9833,465.7021
1,6,19,1,2,3,A,G,r,g,10,10,97001,1,3,427.2135,586.616
1,6,19,1,2,3,A,G,r,g,10,10,97001,1,1,262.7144,453.0483
1,6,19,1,2,3,A,G,r,g,10,10,97001,1,1,258.4965,395.4033
1,6,19,1,2,3,A,G,r,g,10,10,97001,1,3,342.855,281.5193
1,6,19,1,2,3,A,G,r,g,10,10,97001,1,1,240.2188,184.507
1,6,19,1,2,3,A,G,r,g,10,10,97001,1,1,280.9921,131.08
1,6,19,1,2,3,A,G,r,g,10,10,98001,1,1,203.6634,367.2838
1,6,19,1,2,3,A,G,r,g,10,10,98001,1,1,261.3084,250.5879
1,6,19,1,2,3,A,G,r,g,10,10,98001,1,1,248.6547,173.2592
1,6,19,1,2,3,A,G,r,g,10,10,98001,1,1,198.0395,187.319
1,6,19,1,2,3,A,G,r,g,10,10,98001,1,1,349.8849,94.5246
1,6,19,1,2,3,A,G,r,g,10,10,98001,1,1,356.9148,35.4736
1,6,19,1,2,3,A,G,r,g,10,10,98001,1,3,318.9534,209.8146
1,6,19,1,2,3,A,G,r,g,10,10,98001,1,3,456.739,451.6424
1,6,19,1,2,3,A,G,r,g,10,10,99001,1,1,161.4842,164.8234
1,6,19,1,2,3,A,G,r,g,10,10,99001,1,1,217.7232,178.8831
1,6,19,1,2,3,A,G,r,g,10,10,99001,1,1,247.2487,281.5193
1,6,19,1,2,3,A,G,r,g,10,10,99001,1,3,438.4613,284.3313
1,6,19,1,2,3,A,G,r,g,10,10,99001,1,1,482.0466,280.1134
1,6,19,1,2,3,A,G,r,g,10,10,99001,1,2,602.9605,122.6441
1,6,19,1,2,3,A,G,r,g,10,10,99001,1,3,372.3805,468.5141
1,6,19,1,2,3,A,G,r,g,10,10,99001,1,1,389.2522,499.4455
1,6,19,1,2,3,A,G,r,g,10,10,100001,1,1,202.2575,157.7935
1,6,19,1,2,3,A,G,r,g,10,10,100001,1,1,221.9411,202.7847
1,6,19,1,2,3,A,G,r,g,10,10,100001,1,1,359.7267,298.391
1,6,19,1,2,3,A,G,r,g,10,10,100001,1,1,411.7478,295.5791
1,6,19,1,2,3,A,G,r,g,10,10,100001,1,1,331.6072,444.6125
1,6,19,1,2,3,A,G,r,g,10,10,100001,1,1,247.2487,438.9886
1,6,19,1,2,3,A,G,r,g,10,10,100001,1,3,271.1503,398.2153
1,6,19,1,2,3,A,G,r,g,10,10,100001,1,3,293.6459,430.5527
1,6,19,1,2,3,A,G,r,g,10,10,101001,1,3,342.855,48.1274
1,6,19,1,2,3,A,G,r,g,10,10,101001,1,1,355.5088,57.9692
1,6,19,1,2,3,A,G,r,g,10,10,101001,1,1,220.5351,156.3875
1,6,19,1,2,3,A,G,r,g,10,10,101001,1,1,282.3981,208.4086
1,6,19,1,2,3,A,G,r,g,10,10,101001,1,1,210.6933,246.3699
1,6,19,1,2,3,A,G,r,g,10,10,101001,1,1,268.3383,304.0149
1,6,19,1,2,3,A,G,r,g,10,10,101001,1,3,324.5773,289.9552
1,6,19,1,2,3,A,G,r,g,10,10,101001,1,1,271.1503,422.1169
1,6,19,1,2,3,A,G,r,g,10,10,102001,1,1,207.8814,250.5879
1,6,19,1,2,3,A,G,r,g,10,10,102001,1,1,233.1889,221.0624
1,6,19,1,2,3,A,G,r,g,10,10,102001,1,1,247.2487,162.0114
1,6,19,1,2,3,A,G,r,g,10,10,102001,1,1,344.261,409.4631
1,6,19,1,2,3,A,G,r,g,10,10,102001,1,3,591.7127,339.1643
1,6,19,1,2,3,A,G,r,g,10,10,102001,1,3,643.7337,298.391
1,6,19,1,2,3,A,G,r,g,10,10,102001,1,1,638.1098,239.3401
1,6,19,1,2,3,A,G,r,g,10,10,102001,1,1,643.7337,188.725
1,6,19,1,2,3,A,G,r,g,10,10,103001,1,3,262.7144,536.0009
1,6,19,1,2,3,A,G,r,g,10,10,103001,1,1,276.7742,492.4156
1,6,19,1,2,3,A,G,r,g,10,10,103001,1,1,247.2487,438.9886
1,6,19,1,2,3,A,G,r,g,10,10,103001,1,1,508.7601,519.1292
1,6,19,1,2,3,A,G,r,g,10,10,103001,1,1,299.2698,357.442
1,6,19,1,2,3,A,G,r,g,10,10,103001,1,3,311.9236,318.0747
1,6,19,1,2,3,A,G,r,g,10,10,103001,1,2,140.3946,221.0624
1,6,19,1,2,3,A,G,r,g,10,10,103001,1,1,368.1626,52.3453
1,6,19,1,2,3,A,G,r,g,10,10,104001,1,1,178.3559,476.9499
1,6,19,1,2,3,A,G,r,g,10,10,104001,1,1,244.4367,427.7408
1,6,19,1,2,3,A,G,r,g,10,10,104001,1,1,198.0395,386.9675
1,6,19,1,2,3,A,G,r,g,10,10,104001,1,1,306.2996,327.9165
1,6,19,1,2,3,A,G,r,g,10,10,104001,1,1,555.1573,319.4807
1,6,19,1,2,3,A,G,r,g,10,10,104001,1,3,275.3682,67.8111
1,6,19,1,2,3,A,G,r,g,10,10,104001,1,3,207.8814,56.5633
1,6,19,1,2,3,A,G,r,g,10,10,105001,1,1,157.2663,235.1221
1,6,19,1,2,3,A,G,r,g,10,10,105001,1,1,198.0395,215.4385
1,6,19,1,2,3,A,G,r,g,10,10,105001,1,1,238.8128,157.7935
1,6,19,1,2,3,A,G,r,g,10,10,105001,1,1,265.5264,36.8796
1,6,19,1,2,3,A,G,r,g,10,10,105001,1,2,320.3594,64.9991
1,6,19,1,2,3,A,G,r,g,10,10,105001,1,1,383.6283,90.3067
1,6,19,1,2,3,A,G,r,g,10,10,105001,1,3,386.4402,140.9218
1,6,19,1,2,3,A,G,r,g,10,10,105001,1,1,262.7144,427.7408
1,6,19,1,2,3,A,G,r,g,10,10,105001,1,1,250.0606,541.6248
1,6,19,1,2,3,A,G,r,g,10,10,106001,1,1,202.2575,183.1011
1,6,19,1,2,3,A,G,r,g,10,10,106001,1,1,269.7443,228.0923
1,6,19,1,2,3,A,G,r,g,10,10,106001,1,1,231.783,402.4332
1,6,19,1,2,3,A,G,r,g,10,10,106001,1,3,172.732,441.8005
1,6,19,1,2,3,A,G,r,g,10,10,106001,1,3,202.2575,468.5141
1,6,19,1,2,3,A,G,r,g,10,10,106001,1,1,193.8216,491.0097
1,6,19,1,2,3,A,G,r,g,10,10,106001,1,1,462.3629,565.5264
1,6,19,1,2,3,A,G,r,g,10,10,107001,1,1,191.0097,109.9903
1,6,19,1,2,3,A,G,r,g,10,10,107001,1,1,334.4192,156.3875
1,6,19,1,2,3,A,G,r,g,10,10,107001,1,3,349.8849,111.3963
1,6,19,1,2,3,A,G,r,g,10,10,107001,1,1,456.739,230.9042
1,6,19,1,2,3,A,G,r,g,10,10,107001,1,1,583.2768,500.8515
1,6,19,1,2,3,A,G,r,g,10,10,107001,1,1,314.7355,330.7285
1,6,19,1,2,3,A,G,r,g,10,10,107001,1,1,195.2276,382.7496
1,6,19,1,2,3,A,G,r,g,10,10,107001,1,3,199.4455,319.4807
1,6,19,1,2,3,A,G,r,g,10,10,107001,1,1,175.5439,282.9253
