dummy,month,day,period,view,station,fgeno,mgeno,fcol,mcol,nf,nm,frame,something,sex,x,y
1,6,18,1,0,3,A,G,b,y,10,10,1,1,3,420.0122,58.0985
1,6,18,1,0,3,A,G,b,y,10,10,1,1,3,202.3762,203.6895
1,6,18,1,0,3,A,G,b,y,10,10,1,1,1,178.3612,278.7364
1,6,18,1,0,3,A,G,b,y,10,10,1,1,1,319.4493,331.2692
1,6,18,1,0,3,A,G,b,y,10,10,1,1,1,505.5657,413.8208
1,6,18,1,0,3,A,G,b,y,10,10,1,1,3,495.0591,442.3386
1,6,18,1,0,3,A,G,b,y,10,10,1,1,3,313.4456,532.3949
1,6,18,1,0,3,A,G,b,y,10,10,1,1,1,328.455,547.4043
1,6,18,1,0,3,A,G,b,y,10,10,1,1,1,250.4062,473.8583
1,6,18,1,0,3,A,G,b,y,10,10,1001,1,3,185.8659,266.7289
1,6,18,1,0,3,A,G,b,y,10,10,1001,1,1,185.8659,308.7552
1,6,18,1,0,3,A,G,b,y,10,10,1001,1,1,253.4081,476.8602
1,6,18,1,0,3,A,G,b,y,10,10,1001,1,1,356.9728,388.3049
1,6,18,1,0,3,A,G,b,y,10,10,1001,1,1,567.1041,422.8265
1,6,18,1,0,3,A,G,b,y,10,10,1001,1,2,559.5994,463.3518
1,6,18,1,0,3,A,G,b,y,10,10,1001,1,3,544.5901,284.7402
1,6,18,1,0,3,A,G,b,y,10,10,1001,1,3,382.4887,562.4137
1,6,18,1,0,3,A,G,b,y,10,10,1001,1,1,395.9972,526.3912
1,6,18,1,0,3,A,G,b,y,10,10,2001,1,3,241.4006,239.712
1,6,18,1,0,3,A,G,b,y,10,10,2001,1,1,184.3649,284.7402
1,6,18,1,0,3,A,G,b,y,10,10,2001,1,3,190.3687,319.2617
1,6,18,1,0,3,A,G,b,y,10,10,2001,1,1,193.3705,382.3011
1,6,18,1,0,3,A,G,b,y,10,10,2001,1,1,328.455,368.7927
1,6,18,1,0,3,A,G,b,y,10,10,2001,1,1,475.5469,238.2111
1,6,18,1,0,3,A,G,b,y,10,10,2001,1,1,546.091,437.8358
1,6,18,1,0,3,A,G,b,y,10,10,2001,1,1,498.061,440.8377
1,6,18,1,0,3,A,G,b,y,10,10,2001,1,3,475.5469,470.8565
1,6,18,1,0,3,A,G,b,y,10,10,2001,1,3,531.0816,470.8565
1,6,18,1,0,3,A,G,b,y,10,10,3001,1,1,212.8827,191.682
1,6,18,1,0,3,A,G,b,y,10,10,3001,1,3,176.8602,206.6914
1,6,18,1,0,3,A,G,b,y,10,10,3001,1,1,185.8659,248.7176
1,6,18,1,0,3,A,G,b,y,10,10,3001,1,1,175.3593,338.7739
1,6,18,1,0,3,A,G,b,y,10,10,3001,1,1,325.4531,364.2899
1,6,18,1,0,3,A,G,b,y,10,10,3001,1,3,370.4812,346.2786
1,6,18,1,0,3,A,G,b,y,10,10,3001,1,3,469.5432,424.3274
1,6,18,1,0,3,A,G,b,y,10,10,3001,1,1,507.0666,452.8452
1,6,18,1,0,3,A,G,b,y,10,10,3001,1,1,564.1023,397.3105
1,6,18,1,0,3,A,G,b,y,10,10,3001,1,3,576.1098,436.3349
1,6,18,1,0,3,A,G,b,y,10,10,4001,1,3,376.485,40.0872
1,6,18,1,0,3,A,G,b,y,10,10,4001,1,1,359.9747,64.1023
1,6,18,1,0,3,A,G,b,y,10,10,4001,1,1,169.3555,281.7383
1,6,18,1,0,3,A,G,b,y,10,10,4001,1,1,179.8621,326.7664
1,6,18,1,0,3,A,G,b,y,10,10,4001,1,1,328.455,364.2899
1,6,18,1,0,3,A,G,b,y,10,10,4001,1,3,409.5056,451.3443
1,6,18,1,0,3,A,G,b,y,10,10,4001,1,3,552.0947,397.3105
1,6,18,1,0,3,A,G,b,y,10,10,4001,1,1,520.575,425.8283
1,6,18,1,0,3,A,G,b,y,10,10,4001,1,1,540.0872,482.864
1,6,18,1,0,3,A,G,b,y,10,10,4001,1,3,601.6257,517.3856
1,6,18,1,0,3,A,G,b,y,10,10,5001,1,1,173.8583,304.2523
1,6,18,1,0,3,A,G,b,y,10,10,5001,1,1,208.3799,290.7439
1,6,18,1,0,3,A,G,b,y,10,10,5001,1,1,316.4475,367.2917
1,6,18,1,0,3,A,G,b,y,10,10,5001,1,3,417.0103,404.8152
1,6,18,1,0,3,A,G,b,y,10,10,5001,1,1,475.5469,433.333
1,6,18,1,0,3,A,G,b,y,10,10,5001,1,1,555.0966,433.333
1,6,18,1,0,3,A,G,b,y,10,10,5001,1,3,582.1135,412.3199
1,6,18,1,0,3,A,G,b,y,10,10,6001,1,3,176.8602,383.8021
1,6,18,1,0,3,A,G,b,y,10,10,6001,1,1,190.3687,340.2749
1,6,18,1,0,3,A,G,b,y,10,10,6001,1,1,166.3537,308.7552
1,6,18,1,0,3,A,G,b,y,10,10,6001,1,1,335.9597,371.7946
1,6,18,1,0,3,A,G,b,y,10,10,6001,1,1,502.5638,494.8715
1,6,18,1,0,3,A,G,b,y,10,10,6001,1,1,607.6295,463.3518
1,6,18,1,0,3,A,G,b,y,10,10,6001,1,3,633.1454,436.3349
1,6,18,1,0,3,A,G,b,y,10,10,7001,1,1,185.8659,268.2298
1,6,18,1,0,3,A,G,b,y,10,10,7001,1,1,199.3743,382.3011
1,6,18,1,0,3,A,G,b,y,10,10,7001,1,3,269.9184,494.8715
1,6,18,1,0,3,A,G,b,y,10,10,7001,1,1,341.9634,376.2974
1,6,18,1,0,3,A,G,b,y,10,10,7001,1,1,487.5544,467.8546
1,6,18,1,0,3,A,G,b,y,10,10,7001,1,1,522.076,467.8546
1,6,18,1,0,3,A,G,b,y,10,10,7001,1,3,501.0629,424.3274
1,6,18,1,0,3,A,G,b,y,10,10,7001,1,3,568.6051,448.3424
1,6,18,1,0,3,A,G,b,y,10,10,7001,1,3,568.6051,487.3668
1,6,18,1,0,3,A,G,b,y,10,10,8001,1,3,199.3743,235.2092
1,6,18,1,0,3,A,G,b,y,10,10,8001,1,1,181.363,293.7458
1,6,18,1,0,3,A,G,b,y,10,10,8001,1,1,187.3668,344.7777
1,6,18,1,0,3,A,G,b,y,10,10,8001,1,1,319.4493,361.288
1,6,18,1,0,3,A,G,b,y,10,10,8001,1,1,507.0666,463.3518
1,6,18,1,0,3,A,G,b,y,10,10,8001,1,1,567.1041,461.8508
1,6,18,1,0,3,A,G,b,y,10,10,8001,1,3,553.5957,430.3311
1,6,18,1,0,3,A,G,b,y,10,10,8001,1,3,429.0178,530.894
1,6,18,1,0,3,A,G,b,y,10,10,9001,1,3,436.5225,523.3893
1,6,18,1,0,3,A,G,b,y,10,10,9001,1,2,585.1154,493.3705
1,6,18,1,0,3,A,G,b,y,10,10,9001,1,1,561.1004,496.3724
1,6,18,1,0,3,A,G,b,y,10,10,9001,1,1,519.0741,472.3574
1,6,18,1,0,3,A,G,b,y,10,10,9001,1,1,322.4512,374.7964
1,6,18,1,0,3,A,G,b,y,10,10,9001,1,1,176.8602,338.7739
1,6,18,1,0,3,A,G,b,y,10,10,9001,1,1,182.864,308.7552
1,6,18,1,0,3,A,G,b,y,10,10,9001,1,3,184.3649,374.7964
1,6,18,1,0,3,A,G,b,y,10,10,10001,1,1,164.8527,316.2598
1,6,18,1,0,3,A,G,b,y,10,10,10001,1,1,190.3687,359.7871
1,6,18,1,0,3,A,G,b,y,10,10,10001,1,1,331.4568,361.288
1,6,18,1,0,3,A,G,b,y,10,10,10001,1,3,301.4381,316.2598
1,6,18,1,0,3,A,G,b,y,10,10,10001,1,3,380.9878,521.8884
1,6,18,1,0,3,A,G,b,y,10,10,10001,1,3,355.4719,487.3668
1,6,18,1,0,3,A,G,b,y,10,10,10001,1,1,520.575,481.363
1,6,18,1,0,3,A,G,b,y,10,10,10001,1,3,528.0797,344.7777
1,6,18,1,0,3,A,G,b,y,10,10,10001,1,1,543.0891,310.2561
1,6,18,1,0,3,A,G,b,y,10,10,11001,1,1,194.8715,353.7833
1,6,18,1,0,3,A,G,b,y,10,10,11001,1,1,172.3574,311.757
1,6,18,1,0,3,A,G,b,y,10,10,11001,1,1,307.4418,373.2955
1,6,18,1,0,3,A,G,b,y,10,10,11001,1,3,307.4418,328.2674
1,6,18,1,0,3,A,G,b,y,10,10,11001,1,1,517.5732,475.3593
1,6,18,1,0,3,A,G,b,y,10,10,11001,1,1,567.1041,308.7552
1,6,18,1,0,3,A,G,b,y,10,10,11001,1,3,541.5882,313.258
1,6,18,1,0,3,A,G,b,y,10,10,11001,1,3,510.0685,200.6876
1,6,18,1,0,3,A,G,b,y,10,10,12001,1,3,610.6313,203.6895
1,6,18,1,0,3,A,G,b,y,10,10,12001,1,3,603.1266,407.8171
1,6,18,1,0,3,A,G,b,y,10,10,12001,1,1,576.1098,385.303
1,6,18,1,0,3,A,G,b,y,10,10,12001,1,1,526.5788,469.3555
1,6,18,1,0,3,A,G,b,y,10,10,12001,1,1,328.455,344.7777
1,6,18,1,0,3,A,G,b,y,10,10,12001,1,3,161.8508,341.7758
1,6,18,1,0,3,A,G,b,y,10,10,12001,1,1,182.864,311.757
1,6,18,1,0,3,A,G,b,y,10,10,12001,1,3,205.378,277.2355
1,6,18,1,0,3,A,G,b,y,10,10,12001,1,1,190.3687,239.712
1,6,18,1,0,3,A,G,b,y,10,10,13001,1,3,251.9071,188.6801
1,6,18,1,0,3,A,G,b,y,10,10,13001,1,3,229.3931,286.2411
1,6,18,1,0,3,A,G,b,y,10,10,13001,1,1,178.3612,301.2505
1,6,18,1,0,3,A,G,b,y,10,10,13001,1,1,181.363,232.2073
1,6,18,1,0,3,A,G,b,y,10,10,13001,1,1,349.4681,419.8246
1,6,18,1,0,3,A,G,b,y,10,10,13001,1,1,499.5619,473.8583
1,6,18,1,0,3,A,G,b,y,10,10,13001,1,1,520.575,328.2674
1,6,18,1,0,3,A,G,b,y,10,10,13001,1,3,547.5919,365.7908
1,6,18,1,0,3,A,G,b,y,10,10,14001,1,3,708.1923,224.7026
1,6,18,1,0,3,A,G,b,y,10,10,14001,1,3,564.1023,361.288
1,6,18,1,0,3,A,G,b,y,10,10,14001,1,3,483.0516,353.7833
1,6,18,1,0,3,A,G,b,y,10,10,14001,1,1,502.5638,463.3518
1,6,18,1,0,3,A,G,b,y,10,10,14001,1,1,540.0872,343.2767
1,6,18,1,0,3,A,G,b,y,10,10,14001,1,1,190.3687,349.2805
1,6,18,1,0,3,A,G,b,y,10,10,14001,1,1,175.3593,295.2467
1,6,18,1,0,3,A,G,b,y,10,10,14001,1,1,190.3687,269.7308
1,6,18,1,0,3,A,G,b,y,10,10,15001,1,3,358.4737,13.0704
1,6,18,1,0,3,A,G,b,y,10,10,15001,1,3,561.1004,371.7946
1,6,18,1,0,3,A,G,b,y,10,10,15001,1,1,532.5826,344.7777
1,6,18,1,0,3,A,G,b,y,10,10,15001,1,1,519.0741,484.3649
1,6,18,1,0,3,A,G,b,y,10,10,15001,1,1,185.8659,307.2542
1,6,18,1,0,3,A,G,b,y,10,10,15001,1,1,203.8771,236.7101
1,6,18,1,0,3,A,G,b,y,10,10,15001,1,1,166.3537,263.727
1,6,18,1,0,3,A,G,b,y,10,10,16001,1,3,552.0947,235.2092
1,6,18,1,0,3,A,G,b,y,10,10,16001,1,3,371.9822,262.2261
1,6,18,1,0,3,A,G,b,y,10,10,16001,1,3,528.0797,391.3068
1,6,18,1,0,3,A,G,b,y,10,10,16001,1,3,447.0291,416.8227
1,6,18,1,0,3,A,G,b,y,10,10,16001,1,1,526.5788,344.7777
1,6,18,1,0,3,A,G,b,y,10,10,16001,1,1,523.5769,470.8565
1,6,18,1,0,3,A,G,b,y,10,10,16001,1,3,457.5356,545.9034
1,6,18,1,0,3,A,G,b,y,10,10,16001,1,1,211.3818,287.742
1,6,18,1,0,3,A,G,b,y,10,10,16001,1,1,176.8602,317.7608
1,6,18,1,0,3,A,G,b,y,10,10,16001,1,1,176.8602,272.7326
1,6,18,1,0,3,A,G,b,y,10,10,17001,1,3,549.0929,356.7852
1,6,18,1,0,3,A,G,b,y,10,10,17001,1,3,487.5544,296.7477
1,6,18,1,0,3,A,G,b,y,10,10,17001,1,1,544.5901,278.7364
1,6,18,1,0,3,A,G,b,y,10,10,17001,1,1,442.5263,301.2505
1,6,18,1,0,3,A,G,b,y,10,10,17001,1,1,501.0629,464.8527
1,6,18,1,0,3,A,G,b,y,10,10,17001,1,3,205.378,409.318
1,6,18,1,0,3,A,G,b,y,10,10,17001,1,1,184.3649,341.7758
1,6,18,1,0,3,A,G,b,y,10,10,17001,1,1,176.8602,304.2523
1,6,18,1,0,3,A,G,b,y,10,10,18001,1,1,184.3649,352.2824
1,6,18,1,0,3,A,G,b,y,10,10,18001,1,1,191.8696,301.2505
1,6,18,1,0,3,A,G,b,y,10,10,18001,1,3,212.8827,337.273
1,6,18,1,0,3,A,G,b,y,10,10,18001,1,1,540.0872,127.1417
1,6,18,1,0,3,A,G,b,y,10,10,18001,1,1,550.5938,307.2542
1,6,18,1,0,3,A,G,b,y,10,10,18001,1,3,523.5769,314.7589
1,6,18,1,0,3,A,G,b,y,10,10,18001,1,3,508.5675,367.2917
1,6,18,1,0,3,A,G,b,y,10,10,18001,1,3,484.5525,512.8827
1,6,18,1,0,3,A,G,b,y,10,10,18001,1,1,490.5563,466.3537
1,6,18,1,0,3,A,G,b,y,10,10,19001,1,1,543.0891,136.1473
1,6,18,1,0,3,A,G,b,y,10,10,19001,1,3,200.8752,179.6745
1,6,18,1,0,3,A,G,b,y,10,10,19001,1,3,218.8865,308.7552
1,6,18,1,0,3,A,G,b,y,10,10,19001,1,1,184.3649,278.7364
1,6,18,1,0,3,A,G,b,y,10,10,19001,1,1,173.8583,344.7777
1,6,18,1,0,3,A,G,b,y,10,10,19001,1,3,415.5094,388.3049
1,6,18,1,0,3,A,G,b,y,10,10,19001,1,3,532.5826,424.3274
1,6,18,1,0,3,A,G,b,y,10,10,19001,1,1,522.076,362.7889
1,6,18,1,0,3,A,G,b,y,10,10,19001,1,3,541.5882,389.8058
1,6,18,1,0,3,A,G,b,y,10,10,19001,1,3,645.1529,431.8321
1,6,18,1,0,3,A,G,b,y,10,10,19001,1,1,492.0572,457.348
1,6,18,1,0,3,A,G,b,y,10,10,20001,1,1,579.1116,139.1492
1,6,18,1,0,3,A,G,b,y,10,10,20001,1,1,555.0966,115.1341
1,6,18,1,0,3,A,G,b,y,10,10,20001,1,3,191.8696,158.6614
1,6,18,1,0,3,A,G,b,y,10,10,20001,1,1,188.8677,245.7158
1,6,18,1,0,3,A,G,b,y,10,10,20001,1,3,226.3912,304.2523
1,6,18,1,0,3,A,G,b,y,10,10,20001,1,1,167.8546,329.7683
1,6,18,1,0,3,A,G,b,y,10,10,20001,1,1,459.0366,328.2674
1,6,18,1,0,3,A,G,b,y,10,10,20001,1,3,502.5638,389.8058
1,6,18,1,0,3,A,G,b,y,10,10,20001,1,3,371.9822,449.8433
1,6,18,1,0,3,A,G,b,y,10,10,20001,1,1,504.0647,482.864
1,6,18,1,0,3,A,G,b,y,10,10,21001,1,1,535.5844,149.6557
1,6,18,1,0,3,A,G,b,y,10,10,21001,1,1,559.5994,119.637
1,6,18,1,0,3,A,G,b,y,10,10,21001,1,3,604.6276,163.1642
1,6,18,1,0,3,A,G,b,y,10,10,21001,1,3,696.1848,386.8039
1,6,18,1,0,3,A,G,b,y,10,10,21001,1,1,421.5131,343.2767
1,6,18,1,0,3,A,G,b,y,10,10,21001,1,1,493.5582,476.8602
1,6,18,1,0,3,A,G,b,y,10,10,21001,1,3,352.47,364.2899
1,6,18,1,0,3,A,G,b,y,10,10,21001,1,1,182.864,344.7777
1,6,18,1,0,3,A,G,b,y,10,10,21001,1,1,176.8602,262.2261
1,6,18,1,0,3,A,G,b,y,10,10,22001,1,1,583.6144,184.1773
1,6,18,1,0,3,A,G,b,y,10,10,22001,1,1,541.5882,152.6576
1,6,18,1,0,3,A,G,b,y,10,10,22001,1,3,429.0178,277.2355
1,6,18,1,0,3,A,G,b,y,10,10,22001,1,1,421.5131,331.2692
1,6,18,1,0,3,A,G,b,y,10,10,22001,1,1,499.5619,457.348
1,6,18,1,0,3,A,G,b,y,10,10,22001,1,1,172.3574,337.273
1,6,18,1,0,3,A,G,b,y,10,10,22001,1,1,170.8565,289.243
1,6,18,1,0,3,A,G,b,y,10,10,23001,1,1,597.1229,175.1717
1,6,18,1,0,3,A,G,b,y,10,10,23001,1,1,540.0872,148.1548
1,6,18,1,0,3,A,G,b,y,10,10,23001,1,1,389.9934,355.2842
1,6,18,1,0,3,A,G,b,y,10,10,23001,1,1,179.8621,308.7552
1,6,18,1,0,3,A,G,b,y,10,10,23001,1,1,164.8527,343.2767
1,6,18,1,0,3,A,G,b,y,10,10,23001,1,1,263.9146,481.363
1,6,18,1,0,3,A,G,b,y,10,10,24001,1,1,561.1004,119.637
1,6,18,1,0,3,A,G,b,y,10,10,24001,1,1,598.6238,190.1811
1,6,18,1,0,3,A,G,b,y,10,10,24001,1,1,325.4531,313.258
1,6,18,1,0,3,A,G,b,y,10,10,24001,1,1,220.3874,338.7739
1,6,18,1,0,3,A,G,b,y,10,10,24001,1,1,191.8696,301.2505
1,6,18,1,0,3,A,G,b,y,10,10,24001,1,3,239.8996,455.8471
1,6,18,1,0,3,A,G,b,y,10,10,24001,1,3,341.9634,353.7833
1,6,18,1,0,3,A,G,b,y,10,10,24001,1,1,511.5694,451.3443
1,6,18,1,0,3,A,G,b,y,10,10,25001,1,1,597.1229,187.1792
1,6,18,1,0,3,A,G,b,y,10,10,25001,1,1,540.0872,149.6557
1,6,18,1,0,3,A,G,b,y,10,10,25001,1,3,502.5638,257.7233
1,6,18,1,0,3,A,G,b,y,10,10,25001,1,3,483.0516,395.8096
1,6,18,1,0,3,A,G,b,y,10,10,25001,1,1,438.0235,404.8152
1,6,18,1,0,3,A,G,b,y,10,10,25001,1,1,514.5713,467.8546
1,6,18,1,0,3,A,G,b,y,10,10,25001,1,3,272.9203,494.8715
1,6,18,1,0,3,A,G,b,y,10,10,25001,1,1,202.3762,355.2842
1,6,18,1,0,3,A,G,b,y,10,10,25001,1,1,188.8677,304.2523
1,6,18,1,0,3,A,G,b,y,10,10,26001,1,1,595.622,338.7739
1,6,18,1,0,3,A,G,b,y,10,10,26001,1,3,631.6445,268.2298
1,6,18,1,0,3,A,G,b,y,10,10,26001,1,1,610.6313,190.1811
1,6,18,1,0,3,A,G,b,y,10,10,26001,1,1,556.5976,157.1604
1,6,18,1,0,3,A,G,b,y,10,10,26001,1,1,382.4887,140.6501
1,6,18,1,0,3,A,G,b,y,10,10,26001,1,3,343.4644,188.6801
1,6,18,1,0,3,A,G,b,y,10,10,26001,1,1,200.8752,307.2542
1,6,18,1,0,3,A,G,b,y,10,10,26001,1,1,202.3762,400.3124
1,6,18,1,0,3,A,G,b,y,10,10,26001,1,3,317.9484,520.3874
1,6,18,1,0,3,A,G,b,y,10,10,27001,1,1,606.1285,188.6801
1,6,18,1,0,3,A,G,b,y,10,10,27001,1,1,546.091,151.1567
1,6,18,1,0,3,A,G,b,y,10,10,27001,1,3,594.121,136.1473
1,6,18,1,0,3,A,G,b,y,10,10,27001,1,3,313.4456,133.1454
1,6,18,1,0,3,A,G,b,y,10,10,27001,1,3,208.3799,284.7402
1,6,18,1,0,3,A,G,b,y,10,10,27001,1,1,185.8659,262.2261
1,6,18,1,0,3,A,G,b,y,10,10,27001,1,1,178.3612,313.258
1,6,18,1,0,3,A,G,b,y,10,10,27001,1,1,181.363,334.2711
1,6,18,1,0,3,A,G,b,y,10,10,27001,1,1,188.8677,377.7983
1,6,18,1,0,3,A,G,b,y,10,10,27001,1,3,326.954,530.894
1,6,18,1,0,3,A,G,b,y,10,10,28001,1,1,616.6351,187.1792
1,6,18,1,0,3,A,G,b,y,10,10,28001,1,1,561.1004,160.1623
1,6,18,1,0,3,A,G,b,y,10,10,28001,1,3,486.0535,302.7514
1,6,18,1,0,3,A,G,b,y,10,10,28001,1,1,371.9822,379.2992
1,6,18,1,0,3,A,G,b,y,10,10,28001,1,1,242.9015,403.3143
1,6,18,1,0,3,A,G,b,y,10,10,28001,1,1,191.8696,349.2805
1,6,18,1,0,3,A,G,b,y,10,10,28001,1,1,187.3668,298.2486
1,6,18,1,0,3,A,G,b,y,10,10,28001,1,3,311.9447,541.4006
1,6,18,1,0,3,A,G,b,y,10,10,29001,1,1,550.5938,139.1492
1,6,18,1,0,3,A,G,b,y,10,10,29001,1,1,607.6295,191.682
1,6,18,1,0,3,A,G,b,y,10,10,29001,1,1,376.485,106.1285
1,6,18,1,0,3,A,G,b,y,10,10,29001,1,1,182.864,290.7439
1,6,18,1,0,3,A,G,b,y,10,10,29001,1,1,173.8583,323.7645
1,6,18,1,0,3,A,G,b,y,10,10,29001,1,1,262.4137,458.849
1,6,18,1,0,3,A,G,b,y,10,10,29001,1,3,382.4887,452.8452
1,6,18,1,0,3,A,G,b,y,10,10,29001,1,3,340.4625,530.894
1,6,18,1,0,3,A,G,b,y,10,10,30001,1,1,597.1229,191.682
1,6,18,1,0,3,A,G,b,y,10,10,30001,1,1,579.1116,163.1642
1,6,18,1,0,3,A,G,b,y,10,10,30001,1,1,564.1023,113.6332
1,6,18,1,0,3,A,G,b,y,10,10,30001,1,1,184.3649,296.7477
1,6,18,1,0,3,A,G,b,y,10,10,30001,1,1,176.8602,343.2767
1,6,18,1,0,3,A,G,b,y,10,10,30001,1,3,247.4043,277.2355
1,6,18,1,0,3,A,G,b,y,10,10,30001,1,1,283.4268,382.3011
1,6,18,1,0,3,A,G,b,y,10,10,30001,1,3,328.455,413.8208
1,6,18,1,0,3,A,G,b,y,10,10,30001,1,3,329.9559,530.894
1,6,18,1,0,3,A,G,b,y,10,10,31001,1,3,645.1529,461.8508
1,6,18,1,0,3,A,G,b,y,10,10,31001,1,1,573.1079,209.6932
1,6,18,1,0,3,A,G,b,y,10,10,31001,1,1,540.0872,155.6595
1,6,18,1,0,3,A,G,b,y,10,10,31001,1,1,544.5901,104.6276
1,6,18,1,0,3,A,G,b,y,10,10,31001,1,3,568.6051,118.136
1,6,18,1,0,3,A,G,b,y,10,10,31001,1,3,310.4437,524.8902
1,6,18,1,0,3,A,G,b,y,10,10,31001,1,1,307.4418,356.7852
1,6,18,1,0,3,A,G,b,y,10,10,31001,1,1,194.8715,328.2674
1,6,18,1,0,3,A,G,b,y,10,10,31001,1,1,184.3649,308.7552
1,6,18,1,0,3,A,G,b,y,10,10,31001,1,3,211.3818,278.7364
1,6,18,1,0,3,A,G,b,y,10,10,32001,1,3,301.4381,523.3893
1,6,18,1,0,3,A,G,b,y,10,10,32001,1,1,338.9615,365.7908
1,6,18,1,0,3,A,G,b,y,10,10,32001,1,1,205.378,352.2824
1,6,18,1,0,3,A,G,b,y,10,10,32001,1,1,176.8602,304.2523
1,6,18,1,0,3,A,G,b,y,10,10,32001,1,1,187.3668,268.2298
1,6,18,1,0,3,A,G,b,y,10,10,32001,1,3,400.5,215.697
1,6,18,1,0,3,A,G,b,y,10,10,32001,1,1,564.1023,191.682
1,6,18,1,0,3,A,G,b,y,10,10,32001,1,1,544.5901,164.6651
1,6,18,1,0,3,A,G,b,y,10,10,32001,1,3,715.697,244.2148
1,6,18,1,0,3,A,G,b,y,10,10,33001,1,1,187.3668,326.7664
1,6,18,1,0,3,A,G,b,y,10,10,33001,1,1,178.3612,269.7308
1,6,18,1,0,3,A,G,b,y,10,10,33001,1,1,326.954,371.7946
1,6,18,1,0,3,A,G,b,y,10,10,33001,1,1,313.4456,521.8884
1,6,18,1,0,3,A,G,b,y,10,10,33001,1,3,272.9203,494.8715
1,6,18,1,0,3,A,G,b,y,10,10,33001,1,3,646.6538,449.8433
1,6,18,1,0,3,A,G,b,y,10,10,33001,1,1,580.6126,209.6932
1,6,18,1,0,3,A,G,b,y,10,10,33001,1,1,525.0779,173.6707
1,6,18,1,0,3,A,G,b,y,10,10,34001,1,1,571.6069,146.6538
1,6,18,1,0,3,A,G,b,y,10,10,34001,1,1,547.5919,172.1698
1,6,18,1,0,3,A,G,b,y,10,10,34001,1,1,355.4719,220.1998
1,6,18,1,0,3,A,G,b,y,10,10,34001,1,1,311.9447,370.2936
1,6,18,1,0,3,A,G,b,y,10,10,34001,1,1,182.864,334.2711
1,6,18,1,0,3,A,G,b,y,10,10,34001,1,1,181.363,268.2298
1,6,18,1,0,3,A,G,b,y,10,10,34001,1,3,265.4156,209.6932
1,6,18,1,0,3,A,G,b,y,10,10,34001,1,2,154.3462,299.7495
1,6,18,1,0,3,A,G,b,y,10,10,34001,1,3,266.9165,473.8583
1,6,18,1,0,3,A,G,b,y,10,10,34001,1,3,295.4343,542.9015
1,6,18,1,0,3,A,G,b,y,10,10,35001,1,1,553.5957,166.166
1,6,18,1,0,3,A,G,b,y,10,10,35001,1,1,564.1023,124.1398
1,6,18,1,0,3,A,G,b,y,10,10,35001,1,1,555.0966,74.6088
1,6,18,1,0,3,A,G,b,y,10,10,35001,1,1,281.9259,110.6313
1,6,18,1,0,3,A,G,b,y,10,10,35001,1,3,307.4418,76.1098
1,6,18,1,0,3,A,G,b,y,10,10,35001,1,3,259.4118,115.1341
1,6,18,1,0,3,A,G,b,y,10,10,35001,1,1,341.9634,361.288
1,6,18,1,0,3,A,G,b,y,10,10,35001,1,1,187.3668,326.7664
1,6,18,1,0,3,A,G,b,y,10,10,35001,1,1,169.3555,284.7402
1,6,18,1,0,3,A,G,b,y,10,10,35001,1,3,340.4625,544.4024
1,6,18,1,0,3,A,G,b,y,10,10,36001,1,3,646.6538,98.6238
1,6,18,1,0,3,A,G,b,y,10,10,36001,1,1,550.5938,118.136
1,6,18,1,0,3,A,G,b,y,10,10,36001,1,1,555.0966,161.6632
1,6,18,1,0,3,A,G,b,y,10,10,36001,1,1,514.5713,206.6914
1,6,18,1,0,3,A,G,b,y,10,10,36001,1,1,565.6032,385.303
1,6,18,1,0,3,A,G,b,y,10,10,36001,1,3,519.0741,379.2992
1,6,18,1,0,3,A,G,b,y,10,10,36001,1,3,405.0028,365.7908
1,6,18,1,0,3,A,G,b,y,10,10,36001,1,3,376.485,335.772
1,6,18,1,0,3,A,G,b,y,10,10,36001,1,1,364.4775,394.3086
1,6,18,1,0,3,A,G,b,y,10,10,36001,1,1,187.3668,334.2711
1,6,18,1,0,3,A,G,b,y,10,10,36001,1,1,167.8546,286.2411
1,6,18,1,0,3,A,G,b,y,10,10,37001,1,3,615.1341,40.0872
1,6,18,1,0,3,A,G,b,y,10,10,37001,1,1,567.1041,127.1417
1,6,18,1,0,3,A,G,b,y,10,10,37001,1,1,529.5807,161.6632
1,6,18,1,0,3,A,G,b,y,10,10,37001,1,1,642.151,362.7889
1,6,18,1,0,3,A,G,b,y,10,10,37001,1,3,472.545,323.7645
1,6,18,1,0,3,A,G,b,y,10,10,37001,1,3,432.0197,355.2842
1,6,18,1,0,3,A,G,b,y,10,10,37001,1,3,475.5469,526.3912
1,6,18,1,0,3,A,G,b,y,10,10,37001,1,3,403.5019,523.3893
1,6,18,1,0,3,A,G,b,y,10,10,37001,1,1,481.5507,487.3668
1,6,18,1,0,3,A,G,b,y,10,10,37001,1,1,331.4568,364.2899
1,6,18,1,0,3,A,G,b,y,10,10,37001,1,1,185.8659,325.2655
1,6,18,1,0,3,A,G,b,y,10,10,37001,1,1,173.8583,265.228
1,6,18,1,0,3,A,G,b,y,10,10,38001,1,3,594.121,89.6182
1,6,18,1,0,3,A,G,b,y,10,10,38001,1,1,574.6088,125.6407
1,6,18,1,0,3,A,G,b,y,10,10,38001,1,1,535.5844,166.166
1,6,18,1,0,3,A,G,b,y,10,10,38001,1,1,660.1623,218.6989
1,6,18,1,0,3,A,G,b,y,10,10,38001,1,3,681.1754,265.228
1,6,18,1,0,3,A,G,b,y,10,10,38001,1,1,651.1567,362.7889
1,6,18,1,0,3,A,G,b,y,10,10,38001,1,1,343.4644,361.288
1,6,18,1,0,3,A,G,b,y,10,10,38001,1,3,268.4174,380.8002
1,6,18,1,0,3,A,G,b,y,10,10,38001,1,1,187.3668,325.2655
1,6,18,1,0,3,A,G,b,y,10,10,38001,1,1,178.3612,284.7402
1,6,18,1,0,3,A,G,b,y,10,10,38001,1,3,217.3856,211.1942
1,6,18,1,0,3,A,G,b,y,10,10,39001,1,1,553.5957,118.136
1,6,18,1,0,3,A,G,b,y,10,10,39001,1,1,546.091,158.6614
1,6,18,1,0,3,A,G,b,y,10,10,39001,1,1,640.6501,343.2767
1,6,18,1,0,3,A,G,b,y,10,10,39001,1,1,337.4606,373.2955
1,6,18,1,0,3,A,G,b,y,10,10,39001,1,1,176.8602,317.7608
1,6,18,1,0,3,A,G,b,y,10,10,39001,1,1,175.3593,274.2336
1,6,18,1,0,3,A,G,b,y,10,10,39001,1,3,175.3593,212.6951
1,6,18,1,0,3,A,G,b,y,10,10,39001,1,3,302.939,328.2674
1,6,18,1,0,3,A,G,b,y,10,10,40001,1,2,544.5901,98.6238
1,6,18,1,0,3,A,G,b,y,10,10,40001,1,1,553.5957,157.1604
1,6,18,1,0,3,A,G,b,y,10,10,40001,1,1,627.1417,397.3105
1,6,18,1,0,3,A,G,b,y,10,10,40001,1,3,540.0872,326.7664
1,6,18,1,0,3,A,G,b,y,10,10,40001,1,3,411.0066,379.2992
1,6,18,1,0,3,A,G,b,y,10,10,40001,1,1,362.9765,361.288
1,6,18,1,0,3,A,G,b,y,10,10,40001,1,1,182.864,326.7664
1,6,18,1,0,3,A,G,b,y,10,10,40001,1,1,175.3593,274.2336
1,6,18,1,0,3,A,G,b,y,10,10,40001,1,3,217.3856,346.2786
1,6,18,1,0,3,A,G,b,y,10,10,41001,1,1,553.5957,148.1548
1,6,18,1,0,3,A,G,b,y,10,10,41001,1,1,543.0891,205.1904
1,6,18,1,0,3,A,G,b,y,10,10,41001,1,3,365.9784,173.6707
1,6,18,1,0,3,A,G,b,y,10,10,41001,1,3,555.0966,422.8265
1,6,18,1,0,3,A,G,b,y,10,10,41001,1,1,535.5844,458.849
1,6,18,1,0,3,A,G,b,y,10,10,41001,1,1,365.9784,362.7889
1,6,18,1,0,3,A,G,b,y,10,10,41001,1,3,286.4287,430.3311
1,6,18,1,0,3,A,G,b,y,10,10,41001,1,1,187.3668,310.2561
1,6,18,1,0,3,A,G,b,y,10,10,41001,1,1,169.3555,266.7289
1,6,18,1,0,3,A,G,b,y,10,10,41001,1,1,158.849,226.2036
1,6,18,1,0,3,A,G,b,y,10,10,42001,1,3,697.6857,194.6839
1,6,18,1,0,3,A,G,b,y,10,10,42001,1,1,537.0854,211.1942
1,6,18,1,0,3,A,G,b,y,10,10,42001,1,1,519.0741,466.3537
1,6,18,1,0,3,A,G,b,y,10,10,42001,1,1,332.9578,385.303
1,6,18,1,0,3,A,G,b,y,10,10,42001,1,1,341.9634,344.7777
1,6,18,1,0,3,A,G,b,y,10,10,42001,1,1,184.3649,352.2824
1,6,18,1,0,3,A,G,b,y,10,10,42001,1,1,182.864,295.2467
1,6,18,1,0,3,A,G,b,y,10,10,43001,1,1,184.3649,298.2486
1,6,18,1,0,3,A,G,b,y,10,10,43001,1,1,169.3555,337.273
1,6,18,1,0,3,A,G,b,y,10,10,43001,1,1,314.9465,319.2617
1,6,18,1,0,3,A,G,b,y,10,10,43001,1,1,307.4418,368.7927
1,6,18,1,0,3,A,G,b,y,10,10,43001,1,3,335.9597,365.7908
1,6,18,1,0,3,A,G,b,y,10,10,43001,1,1,496.56,463.3518
1,6,18,1,0,3,A,G,b,y,10,10,43001,1,1,531.0816,166.166
1,6,18,1,0,3,A,G,b,y,10,10,43001,1,1,412.5075,92.6201
1,6,18,1,0,3,A,G,b,y,10,10,44001,1,1,187.3668,299.7495
1,6,18,1,0,3,A,G,b,y,10,10,44001,1,1,184.3649,352.2824
1,6,18,1,0,3,A,G,b,y,10,10,44001,1,1,212.8827,331.2692
1,6,18,1,0,3,A,G,b,y,10,10,44001,1,3,221.8884,415.3218
1,6,18,1,0,3,A,G,b,y,10,10,44001,1,3,244.4024,325.2655
1,6,18,1,0,3,A,G,b,y,10,10,44001,1,1,304.44,361.288
1,6,18,1,0,3,A,G,b,y,10,10,44001,1,1,505.5657,475.3593
1,6,18,1,0,3,A,G,b,y,10,10,44001,1,1,583.6144,311.757
1,6,18,1,0,3,A,G,b,y,10,10,44001,1,1,571.6069,178.1735
1,6,18,1,0,3,A,G,b,y,10,10,45001,1,1,561.1004,136.1473
1,6,18,1,0,3,A,G,b,y,10,10,45001,1,1,519.0741,476.8602
1,6,18,1,0,3,A,G,b,y,10,10,45001,1,1,359.9747,385.303
1,6,18,1,0,3,A,G,b,y,10,10,45001,1,1,316.4475,361.288
1,6,18,1,0,3,A,G,b,y,10,10,45001,1,1,196.3724,341.7758
1,6,18,1,0,3,A,G,b,y,10,10,45001,1,1,164.8527,358.2861
1,6,18,1,0,3,A,G,b,y,10,10,45001,1,1,173.8583,296.7477
1,6,18,1,0,3,A,G,b,y,10,10,45001,1,3,145.3405,314.7589
1,6,18,1,0,3,A,G,b,y,10,10,45001,1,3,239.8996,202.1886
1,6,18,1,0,3,A,G,b,y,10,10,46001,1,1,552.0947,154.1585
1,6,18,1,0,3,A,G,b,y,10,10,46001,1,1,499.5619,475.3593
1,6,18,1,0,3,A,G,b,y,10,10,46001,1,1,373.4831,374.7964
1,6,18,1,0,3,A,G,b,y,10,10,46001,1,1,308.9428,347.7795
1,6,18,1,0,3,A,G,b,y,10,10,46001,1,1,176.8602,347.7795
1,6,18,1,0,3,A,G,b,y,10,10,46001,1,3,176.8602,304.2523
1,6,18,1,0,3,A,G,b,y,10,10,46001,1,3,218.8865,305.7533
1,6,18,1,0,3,A,G,b,y,10,10,47001,1,1,544.5901,139.1492
1,6,18,1,0,3,A,G,b,y,10,10,47001,1,1,520.575,485.8659
1,6,18,1,0,3,A,G,b,y,10,10,47001,1,1,299.9371,392.8077
1,6,18,1,0,3,A,G,b,y,10,10,47001,1,1,316.4475,347.7795
1,6,18,1,0,3,A,G,b,y,10,10,47001,1,1,155.8471,329.7683
1,6,18,1,0,3,A,G,b,y,10,10,47001,1,1,193.3705,287.742
1,6,18,1,0,3,A,G,b,y,10,10,48001,1,1,167.8546,337.273
1,6,18,1,0,3,A,G,b,y,10,10,48001,1,1,184.3649,292.2448
1,6,18,1,0,3,A,G,b,y,10,10,48001,1,3,253.4081,320.7627
1,6,18,1,0,3,A,G,b,y,10,10,48001,1,1,316.4475,388.3049
1,6,18,1,0,3,A,G,b,y,10,10,48001,1,1,338.9615,368.7927
1,6,18,1,0,3,A,G,b,y,10,10,48001,1,1,490.5563,154.1585
1,6,18,1,0,3,A,G,b,y,10,10,48001,1,3,498.061,199.1867
1,6,18,1,0,3,A,G,b,y,10,10,48001,1,1,523.5769,469.3555
1,6,18,1,0,3,A,G,b,y,10,10,48001,1,3,615.1341,461.8508
1,6,18,1,0,3,A,G,b,y,10,10,48001,1,3,630.1435,515.8846
1,6,18,1,0,3,A,G,b,y,10,10,49001,1,1,170.8565,331.2692
1,6,18,1,0,3,A,G,b,y,10,10,49001,1,1,182.864,308.7552
1,6,18,1,0,3,A,G,b,y,10,10,49001,1,1,492.0572,202.1886
1,6,18,1,0,3,A,G,b,y,10,10,49001,1,1,546.091,166.166
1,6,18,1,0,3,A,G,b,y,10,10,49001,1,1,340.4625,379.2992
1,6,18,1,0,3,A,G,b,y,10,10,49001,1,1,534.0835,478.3612
1,6,18,1,0,3,A,G,b,y,10,10,49001,1,3,374.9841,455.8471
1,6,18,1,0,3,A,G,b,y,10,10,49001,1,3,382.4887,412.3199
1,6,18,1,0,3,A,G,b,y,10,10,49001,1,3,415.5094,440.8377
1,6,18,1,0,3,A,G,b,y,10,10,50001,1,1,161.8508,314.7589
1,6,18,1,0,3,A,G,b,y,10,10,50001,1,1,182.864,332.7702
1,6,18,1,0,3,A,G,b,y,10,10,50001,1,3,214.3837,209.6932
1,6,18,1,0,3,A,G,b,y,10,10,50001,1,1,325.4531,359.7871
1,6,18,1,0,3,A,G,b,y,10,10,50001,1,3,370.4812,424.3274
1,6,18,1,0,3,A,G,b,y,10,10,50001,1,1,519.0741,461.8508
1,6,18,1,0,3,A,G,b,y,10,10,50001,1,1,550.5938,206.6914
1,6,18,1,0,3,A,G,b,y,10,10,50001,1,1,531.0816,160.1623
1,6,18,1,0,3,A,G,b,y,10,10,50001,1,3,577.6107,172.1698
1,6,18,1,0,3,A,G,b,y,10,10,50001,1,3,645.1529,214.1961
1,6,18,1,0,3,A,G,b,y,10,10,51001,1,1,173.8583,290.7439
1,6,18,1,0,3,A,G,b,y,10,10,51001,1,1,173.8583,329.7683
1,6,18,1,0,3,A,G,b,y,10,10,51001,1,3,221.8884,346.2786
1,6,18,1,0,3,A,G,b,y,10,10,51001,1,1,320.9503,346.2786
1,6,18,1,0,3,A,G,b,y,10,10,51001,1,3,468.0422,401.8133
1,6,18,1,0,3,A,G,b,y,10,10,51001,1,1,505.5657,463.3518
1,6,18,1,0,3,A,G,b,y,10,10,51001,1,1,565.6032,154.1585
1,6,18,1,0,3,A,G,b,y,10,10,51001,1,1,547.5919,107.6295
1,6,18,1,0,3,A,G,b,y,10,10,51001,1,3,616.6351,148.1548
1,6,18,1,0,3,A,G,b,y,10,10,51001,1,3,631.6445,163.1642
1,6,18,1,0,3,A,G,b,y,10,10,52001,1,1,197.8734,349.2805
1,6,18,1,0,3,A,G,b,y,10,10,52001,1,1,182.864,293.7458
1,6,18,1,0,3,A,G,b,y,10,10,52001,1,1,322.4512,343.2767
1,6,18,1,0,3,A,G,b,y,10,10,52001,1,1,534.0835,484.3649
1,6,18,1,0,3,A,G,b,y,10,10,52001,1,1,543.0891,122.6388
1,6,18,1,0,3,A,G,b,y,10,10,52001,1,2,546.091,89.6182
1,6,18,1,0,3,A,G,b,y,10,10,52001,1,3,490.5563,139.1492
1,6,18,1,0,3,A,G,b,y,10,10,52001,1,3,391.4944,130.1435
1,6,18,1,0,3,A,G,b,y,10,10,53001,1,1,561.1004,148.1548
1,6,18,1,0,3,A,G,b,y,10,10,53001,1,1,553.5957,470.8565
1,6,18,1,0,3,A,G,b,y,10,10,53001,1,1,525.0779,500.8752
1,6,18,1,0,3,A,G,b,y,10,10,53001,1,3,367.4794,346.2786
1,6,18,1,0,3,A,G,b,y,10,10,53001,1,1,320.9503,346.2786
1,6,18,1,0,3,A,G,b,y,10,10,53001,1,1,176.8602,332.7702
1,6,18,1,0,3,A,G,b,y,10,10,53001,1,1,196.3724,266.7289
1,6,18,1,0,3,A,G,b,y,10,10,53001,1,3,227.8921,248.7176
1,6,18,1,0,3,A,G,b,y,10,10,53001,1,3,221.8884,157.1604
1,6,18,1,0,3,A,G,b,y,10,10,53001,1,3,157.348,269.7308
1,6,18,1,0,3,A,G,b,y,10,10,54001,1,1,537.0854,166.166
1,6,18,1,0,3,A,G,b,y,10,10,54001,1,3,504.0647,349.2805
1,6,18,1,0,3,A,G,b,y,10,10,54001,1,1,546.091,458.849
1,6,18,1,0,3,A,G,b,y,10,10,54001,1,1,522.076,490.3687
1,6,18,1,0,3,A,G,b,y,10,10,54001,1,1,349.4681,370.2936
1,6,18,1,0,3,A,G,b,y,10,10,54001,1,3,302.939,314.7589
1,6,18,1,0,3,A,G,b,y,10,10,54001,1,1,209.8809,368.7927
1,6,18,1,0,3,A,G,b,y,10,10,54001,1,1,182.864,325.2655
1,6,18,1,0,3,A,G,b,y,10,10,54001,1,1,176.8602,299.7495
1,6,18,1,0,3,A,G,b,y,10,10,55001,1,1,538.5863,158.6614
1,6,18,1,0,3,A,G,b,y,10,10,55001,1,1,187.3668,295.2467
1,6,18,1,0,3,A,G,b,y,10,10,55001,1,1,169.3555,329.7683
1,6,18,1,0,3,A,G,b,y,10,10,55001,1,1,182.864,361.288
1,6,18,1,0,3,A,G,b,y,10,10,55001,1,3,299.9371,364.2899
1,6,18,1,0,3,A,G,b,y,10,10,55001,1,1,356.9728,365.7908
1,6,18,1,0,3,A,G,b,y,10,10,55001,1,3,397.4981,376.2974
1,6,18,1,0,3,A,G,b,y,10,10,55001,1,3,313.4456,458.849
1,6,18,1,0,3,A,G,b,y,10,10,55001,1,3,415.5094,532.3949
1,6,18,1,0,3,A,G,b,y,10,10,55001,1,1,502.5638,472.3574
1,6,18,1,0,3,A,G,b,y,10,10,55001,1,1,546.091,460.3499
1,6,18,1,0,3,A,G,b,y,10,10,56001,1,3,561.1004,44.5901
1,6,18,1,0,3,A,G,b,y,10,10,56001,1,1,538.5863,154.1585
1,6,18,1,0,3,A,G,b,y,10,10,56001,1,1,275.9221,167.667
1,6,18,1,0,3,A,G,b,y,10,10,56001,1,3,245.9034,173.6707
1,6,18,1,0,3,A,G,b,y,10,10,56001,1,1,188.8677,256.2223
1,6,18,1,0,3,A,G,b,y,10,10,56001,1,1,184.3649,316.2598
1,6,18,1,0,3,A,G,b,y,10,10,56001,1,3,277.4231,314.7589
1,6,18,1,0,3,A,G,b,y,10,10,56001,1,3,275.9221,358.2861
1,6,18,1,0,3,A,G,b,y,10,10,56001,1,1,325.4531,350.7814
1,6,18,1,0,3,A,G,b,y,10,10,56001,1,3,507.0666,326.7664
1,6,18,1,0,3,A,G,b,y,10,10,56001,1,1,540.0872,430.3311
1,6,18,1,0,3,A,G,b,y,10,10,56001,1,1,519.0741,482.864
1,6,18,1,0,3,A,G,b,y,10,10,56001,1,3,501.0629,569.9184
1,6,18,1,0,3,A,G,b,y,10,10,57001,1,1,547.5919,158.6614
1,6,18,1,0,3,A,G,b,y,10,10,57001,1,3,439.5244,131.6445
1,6,18,1,0,3,A,G,b,y,10,10,57001,1,1,191.8696,250.2186
1,6,18,1,0,3,A,G,b,y,10,10,57001,1,1,182.864,352.2824
1,6,18,1,0,3,A,G,b,y,10,10,57001,1,1,325.4531,376.2974
1,6,18,1,0,3,A,G,b,y,10,10,57001,1,3,356.9728,395.8096
1,6,18,1,0,3,A,G,b,y,10,10,57001,1,1,492.0572,464.8527
1,6,18,1,0,3,A,G,b,y,10,10,57001,1,1,526.5788,476.8602
1,6,18,1,0,3,A,G,b,y,10,10,57001,1,3,528.0797,553.4081
1,6,18,1,0,3,A,G,b,y,10,10,58001,1,1,538.5863,154.1585
1,6,18,1,0,3,A,G,b,y,10,10,58001,1,3,564.1023,106.1285
1,6,18,1,0,3,A,G,b,y,10,10,58001,1,3,227.8921,265.228
1,6,18,1,0,3,A,G,b,y,10,10,58001,1,1,193.3705,305.7533
1,6,18,1,0,3,A,G,b,y,10,10,58001,1,1,190.3687,370.2936
1,6,18,1,0,3,A,G,b,y,10,10,58001,1,1,344.9653,371.7946
1,6,18,1,0,3,A,G,b,y,10,10,58001,1,1,505.5657,473.8583
1,6,18,1,0,3,A,G,b,y,10,10,58001,1,1,504.0647,449.8433
1,6,18,1,0,3,A,G,b,y,10,10,59001,1,1,552.0947,158.6614
1,6,18,1,0,3,A,G,b,y,10,10,59001,1,3,411.0066,166.166
1,6,18,1,0,3,A,G,b,y,10,10,59001,1,3,418.5113,107.6295
1,6,18,1,0,3,A,G,b,y,10,10,59001,1,3,316.4475,344.7777
1,6,18,1,0,3,A,G,b,y,10,10,59001,1,3,250.4062,322.2636
1,6,18,1,0,3,A,G,b,y,10,10,59001,1,3,200.8752,343.2767
1,6,18,1,0,3,A,G,b,y,10,10,59001,1,1,179.8621,299.7495
1,6,18,1,0,3,A,G,b,y,10,10,59001,1,1,220.3874,427.3293
1,6,18,1,0,3,A,G,b,y,10,10,59001,1,1,338.9615,368.7927
1,6,18,1,0,3,A,G,b,y,10,10,59001,1,1,526.5788,448.3424
1,6,18,1,0,3,A,G,b,y,10,10,59001,1,1,522.076,496.3724
1,6,18,1,0,3,A,G,b,y,10,10,60001,1,1,547.5919,152.6576
1,6,18,1,0,3,A,G,b,y,10,10,60001,1,3,526.5788,103.1266
1,6,18,1,0,3,A,G,b,y,10,10,60001,1,3,275.9221,113.6332
1,6,18,1,0,3,A,G,b,y,10,10,60001,1,3,226.3912,314.7589
1,6,18,1,0,3,A,G,b,y,10,10,60001,1,3,185.8659,284.7402
1,6,18,1,0,3,A,G,b,y,10,10,60001,1,1,175.3593,241.2129
1,6,18,1,0,3,A,G,b,y,10,10,60001,1,1,322.4512,353.7833
1,6,18,1,0,3,A,G,b,y,10,10,60001,1,1,507.0666,493.3705
1,6,18,1,0,3,A,G,b,y,10,10,60001,1,1,549.0929,475.3593
1,6,18,1,0,3,A,G,b,y,10,10,60001,1,3,520.575,535.3968
1,6,18,1,0,3,A,G,b,y,10,10,61001,1,1,514.5713,191.682
1,6,18,1,0,3,A,G,b,y,10,10,61001,1,3,516.0722,307.2542
1,6,18,1,0,3,A,G,b,y,10,10,61001,1,1,505.5657,476.8602
1,6,18,1,0,3,A,G,b,y,10,10,61001,1,1,352.47,424.3274
1,6,18,1,0,3,A,G,b,y,10,10,61001,1,1,358.4737,380.8002
1,6,18,1,0,3,A,G,b,y,10,10,61001,1,3,245.9034,341.7758
1,6,18,1,0,3,A,G,b,y,10,10,61001,1,3,248.9053,253.2205
1,6,18,1,0,3,A,G,b,y,10,10,61001,1,1,202.3762,257.7233
1,6,18,1,0,3,A,G,b,y,10,10,61001,1,1,187.3668,202.1886
1,6,18,1,0,3,A,G,b,y,10,10,62001,1,1,549.0929,167.667
1,6,18,1,0,3,A,G,b,y,10,10,62001,1,3,487.5544,170.6689
1,6,18,1,0,3,A,G,b,y,10,10,62001,1,3,406.5038,230.7064
1,6,18,1,0,3,A,G,b,y,10,10,62001,1,1,504.0647,461.8508
1,6,18,1,0,3,A,G,b,y,10,10,62001,1,1,344.9653,371.7946
1,6,18,1,0,3,A,G,b,y,10,10,62001,1,1,325.4531,379.2992
1,6,18,1,0,3,A,G,b,y,10,10,62001,1,3,287.9296,500.8752
1,6,18,1,0,3,A,G,b,y,10,10,62001,1,3,215.8846,376.2974
1,6,18,1,0,3,A,G,b,y,10,10,62001,1,1,185.8659,307.2542
1,6,18,1,0,3,A,G,b,y,10,10,62001,1,1,182.864,260.7251
1,6,18,1,0,3,A,G,b,y,10,10,63001,1,3,501.0629,28.0797
1,6,18,1,0,3,A,G,b,y,10,10,63001,1,1,543.0891,181.1754
1,6,18,1,0,3,A,G,b,y,10,10,63001,1,3,645.1529,284.7402
1,6,18,1,0,3,A,G,b,y,10,10,63001,1,1,523.5769,478.3612
1,6,18,1,0,3,A,G,b,y,10,10,63001,1,1,331.4568,380.8002
1,6,18,1,0,3,A,G,b,y,10,10,63001,1,1,304.44,380.8002
1,6,18,1,0,3,A,G,b,y,10,10,63001,1,1,260.9128,485.8659
1,6,18,1,0,3,A,G,b,y,10,10,63001,1,1,187.3668,268.2298
1,6,18,1,0,3,A,G,b,y,10,10,64001,1,3,420.0122,58.0985
1,6,18,1,0,3,A,G,b,y,10,10,64001,1,3,359.9747,188.6801
1,6,18,1,0,3,A,G,b,y,10,10,64001,1,1,517.5732,155.6595
1,6,18,1,0,3,A,G,b,y,10,10,64001,1,1,450.031,298.2486
1,6,18,1,0,3,A,G,b,y,10,10,64001,1,1,450.031,403.3143
1,6,18,1,0,3,A,G,b,y,10,10,64001,1,1,310.4437,379.2992
1,6,18,1,0,3,A,G,b,y,10,10,64001,1,1,178.3612,274.2336
1,6,18,1,0,3,A,G,b,y,10,10,64001,1,1,311.9447,535.3968
1,6,18,1,0,3,A,G,b,y,10,10,65001,1,3,346.4662,29.5807
1,6,18,1,0,3,A,G,b,y,10,10,65001,1,3,483.0516,229.2054
1,6,18,1,0,3,A,G,b,y,10,10,65001,1,1,541.5882,149.6557
1,6,18,1,0,3,A,G,b,y,10,10,65001,1,1,332.9578,307.2542
1,6,18,1,0,3,A,G,b,y,10,10,65001,1,1,337.4606,347.7795
1,6,18,1,0,3,A,G,b,y,10,10,65001,1,1,311.9447,379.2992
1,6,18,1,0,3,A,G,b,y,10,10,65001,1,1,278.924,508.3799
1,6,18,1,0,3,A,G,b,y,10,10,65001,1,1,181.363,286.2411
1,6,18,1,0,3,A,G,b,y,10,10,66001,1,1,549.0929,151.1567
1,6,18,1,0,3,A,G,b,y,10,10,66001,1,3,591.1191,217.1979
1,6,18,1,0,3,A,G,b,y,10,10,66001,1,3,269.9184,269.7308
1,6,18,1,0,3,A,G,b,y,10,10,66001,1,1,361.4756,340.2749
1,6,18,1,0,3,A,G,b,y,10,10,66001,1,1,361.4756,394.3086
1,6,18,1,0,3,A,G,b,y,10,10,66001,1,1,287.9296,373.2955
1,6,18,1,0,3,A,G,b,y,10,10,66001,1,1,187.3668,398.8114
1,6,18,1,0,3,A,G,b,y,10,10,66001,1,3,199.3743,424.3274
1,6,18,1,0,3,A,G,b,y,10,10,66001,1,3,197.8734,344.7777
1,6,18,1,0,3,A,G,b,y,10,10,66001,1,1,163.3518,298.2486
1,6,18,1,0,3,A,G,b,y,10,10,67001,1,1,562.6013,151.1567
1,6,18,1,0,3,A,G,b,y,10,10,67001,1,3,636.1473,343.2767
1,6,18,1,0,3,A,G,b,y,10,10,67001,1,3,555.0966,386.8039
1,6,18,1,0,3,A,G,b,y,10,10,67001,1,1,462.0385,421.3255
1,6,18,1,0,3,A,G,b,y,10,10,67001,1,1,341.9634,352.2824
1,6,18,1,0,3,A,G,b,y,10,10,67001,1,1,310.4437,365.7908
1,6,18,1,0,3,A,G,b,y,10,10,67001,1,3,367.4794,284.7402
1,6,18,1,0,3,A,G,b,y,10,10,67001,1,1,193.3705,355.2842
1,6,18,1,0,3,A,G,b,y,10,10,67001,1,1,176.8602,295.2467
1,6,18,1,0,3,A,G,b,y,10,10,68001,1,1,561.1004,167.667
1,6,18,1,0,3,A,G,b,y,10,10,68001,1,1,496.56,482.864
1,6,18,1,0,3,A,G,b,y,10,10,68001,1,1,299.9371,383.8021
1,6,18,1,0,3,A,G,b,y,10,10,68001,1,1,319.4493,332.7702
1,6,18,1,0,3,A,G,b,y,10,10,68001,1,1,185.8659,355.2842
1,6,18,1,0,3,A,G,b,y,10,10,68001,1,1,215.8846,316.2598
1,6,18,1,0,3,A,G,b,y,10,10,68001,1,3,362.9765,46.091
1,6,18,1,0,3,A,G,b,y,10,10,69001,1,3,340.4625,56.5976
1,6,18,1,0,3,A,G,b,y,10,10,69001,1,1,537.0854,148.1548
1,6,18,1,0,3,A,G,b,y,10,10,69001,1,1,511.5694,481.363
1,6,18,1,0,3,A,G,b,y,10,10,69001,1,1,326.954,350.7814
1,6,18,1,0,3,A,G,b,y,10,10,69001,1,1,244.4024,383.8021
1,6,18,1,0,3,A,G,b,y,10,10,69001,1,1,188.8677,349.2805
1,6,18,1,0,3,A,G,b,y,10,10,69001,1,1,190.3687,293.7458
1,6,18,1,0,3,A,G,b,y,10,10,70001,1,1,562.6013,145.1529
1,6,18,1,0,3,A,G,b,y,10,10,70001,1,1,335.9597,353.7833
1,6,18,1,0,3,A,G,b,y,10,10,70001,1,1,505.5657,482.864
1,6,18,1,0,3,A,G,b,y,10,10,70001,1,1,193.3705,389.8058
1,6,18,1,0,3,A,G,b,y,10,10,70001,1,1,184.3649,329.7683
1,6,18,1,0,3,A,G,b,y,10,10,70001,1,1,190.3687,262.2261
1,6,18,1,0,3,A,G,b,y,10,10,70001,1,3,184.3649,187.1792
1,6,18,1,0,3,A,G,b,y,10,10,71001,1,1,526.5788,151.1567
1,6,18,1,0,3,A,G,b,y,10,10,71001,1,3,621.1379,356.7852
1,6,18,1,0,3,A,G,b,y,10,10,71001,1,1,570.106,458.849
1,6,18,1,0,3,A,G,b,y,10,10,71001,1,1,325.4531,367.2917
1,6,18,1,0,3,A,G,b,y,10,10,71001,1,3,371.9822,332.7702
1,6,18,1,0,3,A,G,b,y,10,10,71001,1,1,226.3912,305.7533
1,6,18,1,0,3,A,G,b,y,10,10,71001,1,1,176.8602,301.2505
1,6,18,1,0,3,A,G,b,y,10,10,71001,1,1,182.864,361.288
1,6,18,1,0,3,A,G,b,y,10,10,72001,1,1,561.1004,163.1642
1,6,18,1,0,3,A,G,b,y,10,10,72001,1,3,465.0403,247.2167
1,6,18,1,0,3,A,G,b,y,10,10,72001,1,1,468.0422,320.7627
1,6,18,1,0,3,A,G,b,y,10,10,72001,1,1,373.4831,377.7983
1,6,18,1,0,3,A,G,b,y,10,10,72001,1,1,322.4512,370.2936
1,6,18,1,0,3,A,G,b,y,10,10,72001,1,3,370.4812,517.3856
1,6,18,1,0,3,A,G,b,y,10,10,72001,1,1,190.3687,356.7852
1,6,18,1,0,3,A,G,b,y,10,10,72001,1,1,169.3555,313.258
1,6,18,1,0,3,A,G,b,y,10,10,72001,1,3,175.3593,247.2167
1,6,18,1,0,3,A,G,b,y,10,10,73001,1,3,516.0722,176.6726
1,6,18,1,0,3,A,G,b,y,10,10,73001,1,3,166.3537,218.6989
1,6,18,1,0,3,A,G,b,y,10,10,73001,1,1,475.5469,310.2561
1,6,18,1,0,3,A,G,b,y,10,10,73001,1,1,340.4625,385.303
1,6,18,1,0,3,A,G,b,y,10,10,73001,1,1,320.9503,398.8114
1,6,18,1,0,3,A,G,b,y,10,10,73001,1,1,310.4437,355.2842
1,6,18,1,0,3,A,G,b,y,10,10,73001,1,1,184.3649,356.7852
1,6,18,1,0,3,A,G,b,y,10,10,73001,1,1,181.363,314.7589
1,6,18,1,0,3,A,G,b,y,10,10,74001,1,3,319.4493,323.7645
1,6,18,1,0,3,A,G,b,y,10,10,74001,1,1,340.4625,359.7871
1,6,18,1,0,3,A,G,b,y,10,10,74001,1,1,365.9784,377.7983
1,6,18,1,0,3,A,G,b,y,10,10,74001,1,1,456.0347,304.2523
1,6,18,1,0,3,A,G,b,y,10,10,74001,1,1,182.864,337.273
1,6,18,1,0,3,A,G,b,y,10,10,74001,1,1,164.8527,304.2523
1,6,18,1,0,3,A,G,b,y,10,10,74001,1,1,176.8602,254.7214
1,6,18,1,0,3,A,G,b,y,10,10,75001,1,3,495.0591,98.6238
1,6,18,1,0,3,A,G,b,y,10,10,75001,1,1,435.0216,239.712
1,6,18,1,0,3,A,G,b,y,10,10,75001,1,1,374.9841,389.8058
1,6,18,1,0,3,A,G,b,y,10,10,75001,1,1,340.4625,361.288
1,6,18,1,0,3,A,G,b,y,10,10,75001,1,1,182.864,329.7683
1,6,18,1,0,3,A,G,b,y,10,10,75001,1,1,182.864,280.2373
1,6,18,1,0,3,A,G,b,y,10,10,75001,1,1,191.8696,218.6989
1,6,18,1,0,3,A,G,b,y,10,10,76001,1,1,456.0347,277.2355
1,6,18,1,0,3,A,G,b,y,10,10,76001,1,1,356.9728,400.3124
1,6,18,1,0,3,A,G,b,y,10,10,76001,1,1,332.9578,358.2861
1,6,18,1,0,3,A,G,b,y,10,10,76001,1,1,200.8752,332.7702
1,6,18,1,0,3,A,G,b,y,10,10,76001,1,1,184.3649,281.7383
1,6,18,1,0,3,A,G,b,y,10,10,76001,1,1,181.363,247.2167
1,6,18,1,0,3,A,G,b,y,10,10,76001,1,3,397.4981,487.3668
1,6,18,1,0,3,A,G,b,y,10,10,77001,1,1,465.0403,292.2448
1,6,18,1,0,3,A,G,b,y,10,10,77001,1,1,350.969,407.8171
1,6,18,1,0,3,A,G,b,y,10,10,77001,1,1,304.44,355.2842
1,6,18,1,0,3,A,G,b,y,10,10,77001,1,1,187.3668,344.7777
1,6,18,1,0,3,A,G,b,y,10,10,77001,1,1,178.3612,272.7326
1,6,18,1,0,3,A,G,b,y,10,10,77001,1,1,190.3687,227.7045
1,6,18,1,0,3,A,G,b,y,10,10,77001,1,3,218.8865,179.6745
1,6,18,1,0,3,A,G,b,y,10,10,78001,1,1,412.5075,533.8959
1,6,18,1,0,3,A,G,b,y,10,10,78001,1,1,248.9053,478.3612
1,6,18,1,0,3,A,G,b,y,10,10,78001,1,1,346.4662,419.8246
1,6,18,1,0,3,A,G,b,y,10,10,78001,1,1,320.9503,347.7795
1,6,18,1,0,3,A,G,b,y,10,10,78001,1,1,208.3799,335.772
1,6,18,1,0,3,A,G,b,y,10,10,78001,1,1,175.3593,311.757
1,6,18,1,0,3,A,G,b,y,10,10,78001,1,1,173.8583,268.2298
1,6,18,1,0,3,A,G,b,y,10,10,78001,1,3,304.44,286.2411
1,6,18,1,0,3,A,G,b,y,10,10,79001,1,1,546.091,439.3368
1,6,18,1,0,3,A,G,b,y,10,10,79001,1,1,355.4719,416.8227
1,6,18,1,0,3,A,G,b,y,10,10,79001,1,1,356.9728,353.7833
1,6,18,1,0,3,A,G,b,y,10,10,79001,1,1,293.9334,370.2936
1,6,18,1,0,3,A,G,b,y,10,10,79001,1,1,187.3668,344.7777
1,6,18,1,0,3,A,G,b,y,10,10,79001,1,1,179.8621,287.742
1,6,18,1,0,3,A,G,b,y,10,10,79001,1,1,175.3593,257.7233
1,6,18,1,0,3,A,G,b,y,10,10,79001,1,3,328.455,52.0947
1,6,18,1,0,3,A,G,b,y,10,10,80001,1,1,505.5657,427.3293
1,6,18,1,0,3,A,G,b,y,10,10,80001,1,1,379.4869,368.7927
1,6,18,1,0,3,A,G,b,y,10,10,80001,1,1,358.4737,421.3255
1,6,18,1,0,3,A,G,b,y,10,10,80001,1,1,328.455,388.3049
1,6,18,1,0,3,A,G,b,y,10,10,80001,1,1,197.8734,386.8039
1,6,18,1,0,3,A,G,b,y,10,10,80001,1,1,202.3762,287.742
1,6,18,1,0,3,A,G,b,y,10,10,80001,1,1,181.363,263.727
1,6,18,1,0,3,A,G,b,y,10,10,80001,1,3,287.9296,164.6651
1,6,18,1,0,3,A,G,b,y,10,10,80001,1,3,355.4719,287.742
1,6,18,1,0,3,A,G,b,y,10,10,80001,1,3,492.0572,238.2111
1,6,18,1,0,3,A,G,b,y,10,10,81001,1,1,380.9878,268.2298
1,6,18,1,0,3,A,G,b,y,10,10,81001,1,1,371.9822,365.7908
1,6,18,1,0,3,A,G,b,y,10,10,81001,1,1,349.4681,424.3274
1,6,18,1,0,3,A,G,b,y,10,10,81001,1,1,215.8846,323.7645
1,6,18,1,0,3,A,G,b,y,10,10,81001,1,1,178.3612,292.2448
1,6,18,1,0,3,A,G,b,y,10,10,81001,1,1,160.3499,317.7608
1,6,18,1,0,3,A,G,b,y,10,10,81001,1,1,343.4644,547.4043
1,6,18,1,0,3,A,G,b,y,10,10,81001,1,3,377.9859,532.3949
1,6,18,1,0,3,A,G,b,y,10,10,82001,1,1,352.47,92.6201
1,6,18,1,0,3,A,G,b,y,10,10,82001,1,3,308.9428,71.6069
1,6,18,1,0,3,A,G,b,y,10,10,82001,1,3,358.4737,154.1585
1,6,18,1,0,3,A,G,b,y,10,10,82001,1,1,367.4794,218.6989
1,6,18,1,0,3,A,G,b,y,10,10,82001,1,1,379.4869,374.7964
1,6,18,1,0,3,A,G,b,y,10,10,82001,1,1,352.47,418.3236
1,6,18,1,0,3,A,G,b,y,10,10,82001,1,1,200.8752,422.8265
1,6,18,1,0,3,A,G,b,y,10,10,82001,1,1,181.363,281.7383
1,6,18,1,0,3,A,G,b,y,10,10,82001,1,1,178.3612,245.7158
1,6,18,1,0,3,A,G,b,y,10,10,83001,1,1,678.1735,206.6914
1,6,18,1,0,3,A,G,b,y,10,10,83001,1,3,699.1867,238.2111
1,6,18,1,0,3,A,G,b,y,10,10,83001,1,3,717.1979,206.6914
1,6,18,1,0,3,A,G,b,y,10,10,83001,1,1,370.4812,365.7908
1,6,18,1,0,3,A,G,b,y,10,10,83001,1,1,334.4587,362.7889
1,6,18,1,0,3,A,G,b,y,10,10,83001,1,1,338.9615,415.3218
1,6,18,1,0,3,A,G,b,y,10,10,83001,1,1,208.3799,326.7664
1,6,18,1,0,3,A,G,b,y,10,10,83001,1,1,137.8358,329.7683
1,6,18,1,0,3,A,G,b,y,10,10,83001,1,1,172.3574,278.7364
1,6,18,1,0,3,A,G,b,y,10,10,84001,1,1,670.6689,359.7871
1,6,18,1,0,3,A,G,b,y,10,10,84001,1,3,627.1417,344.7777
1,6,18,1,0,3,A,G,b,y,10,10,84001,1,1,361.4756,361.288
1,6,18,1,0,3,A,G,b,y,10,10,84001,1,1,322.4512,410.8189
1,6,18,1,0,3,A,G,b,y,10,10,84001,1,1,305.9409,377.7983
1,6,18,1,0,3,A,G,b,y,10,10,84001,1,3,295.4343,326.7664
1,6,18,1,0,3,A,G,b,y,10,10,84001,1,1,173.8583,304.2523
1,6,18,1,0,3,A,G,b,y,10,10,84001,1,1,179.8621,274.2336
1,6,18,1,0,3,A,G,b,y,10,10,84001,1,1,197.8734,205.1904
1,6,18,1,0,3,A,G,b,y,10,10,85001,1,1,386.9916,385.303
1,6,18,1,0,3,A,G,b,y,10,10,85001,1,1,314.9465,374.7964
1,6,18,1,0,3,A,G,b,y,10,10,85001,1,1,302.939,412.3199
1,6,18,1,0,3,A,G,b,y,10,10,85001,1,1,190.3687,377.7983
1,6,18,1,0,3,A,G,b,y,10,10,85001,1,1,175.3593,331.2692
1,6,18,1,0,3,A,G,b,y,10,10,85001,1,1,194.8715,194.6839
1,6,18,1,0,3,A,G,b,y,10,10,85001,1,3,287.9296,353.7833
1,6,18,1,0,3,A,G,b,y,10,10,86001,1,1,251.9071,454.3462
1,6,18,1,0,3,A,G,b,y,10,10,86001,1,1,208.3799,383.8021
1,6,18,1,0,3,A,G,b,y,10,10,86001,1,1,331.4568,380.8002
1,6,18,1,0,3,A,G,b,y,10,10,86001,1,1,359.9747,412.3199
1,6,18,1,0,3,A,G,b,y,10,10,86001,1,1,374.9841,362.7889
1,6,18,1,0,3,A,G,b,y,10,10,86001,1,1,193.3705,191.682
1,6,18,1,0,3,A,G,b,y,10,10,86001,1,3,242.9015,143.652
1,6,18,1,0,3,A,G,b,y,10,10,86001,1,1,507.0666,100.1248
1,6,18,1,0,3,A,G,b,y,10,10,86001,1,3,534.0835,35.5844
1,6,18,1,0,3,A,G,b,y,10,10,87001,1,3,250.4062,164.6651
1,6,18,1,0,3,A,G,b,y,10,10,87001,1,1,188.8677,220.1998
1,6,18,1,0,3,A,G,b,y,10,10,87001,1,1,194.8715,281.7383
1,6,18,1,0,3,A,G,b,y,10,10,87001,1,1,193.3705,326.7664
1,6,18,1,0,3,A,G,b,y,10,10,87001,1,1,199.3743,385.303
1,6,18,1,0,3,A,G,b,y,10,10,87001,1,1,331.4568,391.3068
1,6,18,1,0,3,A,G,b,y,10,10,87001,1,1,367.4794,362.7889
1,6,18,1,0,3,A,G,b,y,10,10,87001,1,1,573.1079,442.3386
1,6,18,1,0,3,A,G,b,y,10,10,87001,1,3,559.5994,415.3218
1,6,18,1,0,3,A,G,b,y,10,10,87001,1,3,582.1135,389.8058
1,6,18,1,0,3,A,G,b,y,10,10,87001,1,3,616.6351,428.8302
1,6,18,1,0,3,A,G,b,y,10,10,88001,1,3,499.5619,121.1379
1,6,18,1,0,3,A,G,b,y,10,10,88001,1,3,445.5281,418.3236
1,6,18,1,0,3,A,G,b,y,10,10,88001,1,2,373.4831,425.8283
1,6,18,1,0,3,A,G,b,y,10,10,88001,1,1,374.9841,367.2917
1,6,18,1,0,3,A,G,b,y,10,10,88001,1,1,197.8734,367.2917
1,6,18,1,0,3,A,G,b,y,10,10,88001,1,1,190.3687,299.7495
1,6,18,1,0,3,A,G,b,y,10,10,88001,1,1,176.8602,271.2317
1,6,18,1,0,3,A,G,b,y,10,10,88001,1,1,209.8809,247.2167
1,6,18,1,0,3,A,G,b,y,10,10,89001,1,1,179.8621,338.7739
1,6,18,1,0,3,A,G,b,y,10,10,89001,1,1,182.864,316.2598
1,6,18,1,0,3,A,G,b,y,10,10,89001,1,1,182.864,268.2298
1,6,18,1,0,3,A,G,b,y,10,10,89001,1,1,214.3837,281.7383
1,6,18,1,0,3,A,G,b,y,10,10,89001,1,1,346.4662,419.8246
1,6,18,1,0,3,A,G,b,y,10,10,89001,1,1,362.9765,383.8021
1,6,18,1,0,3,A,G,b,y,10,10,89001,1,3,323.9522,394.3086
1,6,18,1,0,3,A,G,b,y,10,10,89001,1,3,751.7195,286.2411
1,6,18,1,0,3,A,G,b,y,10,10,90001,1,1,196.3724,392.8077
1,6,18,1,0,3,A,G,b,y,10,10,90001,1,1,166.3537,362.7889
1,6,18,1,0,3,A,G,b,y,10,10,90001,1,1,173.8583,319.2617
1,6,18,1,0,3,A,G,b,y,10,10,90001,1,1,190.3687,266.7289
1,6,18,1,0,3,A,G,b,y,10,10,90001,1,1,332.9578,361.288
1,6,18,1,0,3,A,G,b,y,10,10,90001,1,1,358.4737,371.7946
1,6,18,1,0,3,A,G,b,y,10,10,90001,1,3,290.9315,274.2336
1,6,18,1,0,3,A,G,b,y,10,10,90001,1,3,241.4006,206.6914
1,6,18,1,0,3,A,G,b,y,10,10,90001,1,3,380.9878,56.5976
1,6,18,1,0,3,A,G,b,y,10,10,90001,1,3,507.0666,370.2936
1,6,18,1,0,3,A,G,b,y,10,10,91001,1,1,175.3593,350.7814
1,6,18,1,0,3,A,G,b,y,10,10,91001,1,1,163.3518,296.7477
1,6,18,1,0,3,A,G,b,y,10,10,91001,1,1,193.3705,271.2317
1,6,18,1,0,3,A,G,b,y,10,10,91001,1,1,199.3743,302.7514
1,6,18,1,0,3,A,G,b,y,10,10,91001,1,3,199.3743,149.6557
1,6,18,1,0,3,A,G,b,y,10,10,91001,1,3,326.954,311.757
1,6,18,1,0,3,A,G,b,y,10,10,91001,1,3,398.9991,265.228
1,6,18,1,0,3,A,G,b,y,10,10,91001,1,1,367.4794,361.288
1,6,18,1,0,3,A,G,b,y,10,10,91001,1,1,343.4644,391.3068
1,6,18,1,0,3,A,G,b,y,10,10,91001,1,3,389.9934,485.8659
1,6,18,1,0,3,A,G,b,y,10,10,91001,1,3,696.1848,320.7627
1,6,18,1,0,3,A,G,b,y,10,10,92001,1,3,260.9128,484.3649
1,6,18,1,0,3,A,G,b,y,10,10,92001,1,3,313.4456,446.8415
1,6,18,1,0,3,A,G,b,y,10,10,92001,1,3,299.9371,410.8189
1,6,18,1,0,3,A,G,b,y,10,10,92001,1,1,329.9559,367.2917
1,6,18,1,0,3,A,G,b,y,10,10,92001,1,1,368.9803,403.3143
1,6,18,1,0,3,A,G,b,y,10,10,92001,1,1,176.8602,353.7833
1,6,18,1,0,3,A,G,b,y,10,10,92001,1,1,193.3705,305.7533
1,6,18,1,0,3,A,G,b,y,10,10,92001,1,1,161.8508,298.2486
1,6,18,1,0,3,A,G,b,y,10,10,92001,1,1,176.8602,272.7326
1,6,18,1,0,3,A,G,b,y,10,10,93001,1,1,350.969,404.8152
1,6,18,1,0,3,A,G,b,y,10,10,93001,1,1,365.9784,344.7777
1,6,18,1,0,3,A,G,b,y,10,10,93001,1,3,262.4137,370.2936
1,6,18,1,0,3,A,G,b,y,10,10,93001,1,1,221.8884,334.2711
1,6,18,1,0,3,A,G,b,y,10,10,93001,1,1,191.8696,310.2561
1,6,18,1,0,3,A,G,b,y,10,10,93001,1,1,163.3518,284.7402
1,6,18,1,0,3,A,G,b,y,10,10,93001,1,1,182.864,260.7251
1,6,18,1,0,3,A,G,b,y,10,10,94001,1,1,352.47,398.8114
1,6,18,1,0,3,A,G,b,y,10,10,94001,1,1,386.9916,358.2861
1,6,18,1,0,3,A,G,b,y,10,10,94001,1,1,206.879,355.2842
1,6,18,1,0,3,A,G,b,y,10,10,94001,1,1,208.3799,322.2636
1,6,18,1,0,3,A,G,b,y,10,10,94001,1,1,166.3537,296.7477
1,6,18,1,0,3,A,G,b,y,10,10,94001,1,1,185.8659,265.228
1,6,18,1,0,3,A,G,b,y,10,10,95001,1,1,329.9559,413.8208
1,6,18,1,0,3,A,G,b,y,10,10,95001,1,1,328.455,362.7889
1,6,18,1,0,3,A,G,b,y,10,10,95001,1,1,182.864,347.7795
1,6,18,1,0,3,A,G,b,y,10,10,95001,1,1,190.3687,319.2617
1,6,18,1,0,3,A,G,b,y,10,10,95001,1,1,173.8583,271.2317
1,6,18,1,0,3,A,G,b,y,10,10,95001,1,1,191.8696,230.7064
1,6,18,1,0,3,A,G,b,y,10,10,95001,1,3,206.879,169.1679
1,6,18,1,0,3,A,G,b,y,10,10,95001,1,3,676.6726,92.6201
1,6,18,1,0,3,A,G,b,y,10,10,96001,1,3,421.5131,170.6689
1,6,18,1,0,3,A,G,b,y,10,10,96001,1,1,368.9803,380.8002
1,6,18,1,0,3,A,G,b,y,10,10,96001,1,1,226.3912,323.7645
1,6,18,1,0,3,A,G,b,y,10,10,96001,1,1,181.363,355.2842
1,6,18,1,0,3,A,G,b,y,10,10,96001,1,1,188.8677,298.2486
1,6,18,1,0,3,A,G,b,y,10,10,96001,1,1,178.3612,262.2261
1,6,18,1,0,3,A,G,b,y,10,10,96001,1,1,185.8659,190.1811
1,6,18,1,0,3,A,G,b,y,10,10,96001,1,3,209.8809,229.2054
1,6,18,1,0,3,A,G,b,y,10,10,97001,1,1,424.515,391.3068
1,6,18,1,0,3,A,G,b,y,10,10,97001,1,1,353.9709,373.2955
1,6,18,1,0,3,A,G,b,y,10,10,97001,1,3,308.9428,364.2899
1,6,18,1,0,3,A,G,b,y,10,10,97001,1,1,208.3799,350.7814
1,6,18,1,0,3,A,G,b,y,10,10,97001,1,1,215.8846,286.2411
1,6,18,1,0,3,A,G,b,y,10,10,97001,1,1,179.8621,298.2486
1,6,18,1,0,3,A,G,b,y,10,10,97001,1,1,184.3649,227.7045
1,6,18,1,0,3,A,G,b,y,10,10,97001,1,3,169.3555,193.1829
1,6,18,1,0,3,A,G,b,y,10,10,98001,1,3,263.9146,484.3649
1,6,18,1,0,3,A,G,b,y,10,10,98001,1,1,417.0103,391.3068
1,6,18,1,0,3,A,G,b,y,10,10,98001,1,1,344.9653,380.8002
1,6,18,1,0,3,A,G,b,y,10,10,98001,1,1,221.8884,313.258
1,6,18,1,0,3,A,G,b,y,10,10,98001,1,1,182.864,314.7589
1,6,18,1,0,3,A,G,b,y,10,10,98001,1,1,139.3368,314.7589
1,6,18,1,0,3,A,G,b,y,10,10,98001,1,1,181.363,241.2129
1,6,18,1,0,3,A,G,b,y,10,10,99001,1,1,435.0216,392.8077
1,6,18,1,0,3,A,G,b,y,10,10,99001,1,1,361.4756,379.2992
1,6,18,1,0,3,A,G,b,y,10,10,99001,1,3,254.909,502.3762
1,6,18,1,0,3,A,G,b,y,10,10,99001,1,3,262.4137,373.2955
1,6,18,1,0,3,A,G,b,y,10,10,99001,1,1,181.363,380.8002
1,6,18,1,0,3,A,G,b,y,10,10,99001,1,1,172.3574,314.7589
1,6,18,1,0,3,A,G,b,y,10,10,99001,1,1,217.3856,263.727
1,6,18,1,0,3,A,G,b,y,10,10,99001,1,1,175.3593,257.7233
1,6,18,1,0,3,A,G,b,y,10,10,100001,1,3,304.44,539.8996
1,6,18,1,0,3,A,G,b,y,10,10,100001,1,3,541.5882,440.8377
1,6,18,1,0,3,A,G,b,y,10,10,100001,1,1,408.0047,440.8377
1,6,18,1,0,3,A,G,b,y,10,10,100001,1,1,423.0141,386.8039
1,6,18,1,0,3,A,G,b,y,10,10,100001,1,1,173.8583,364.2899
1,6,18,1,0,3,A,G,b,y,10,10,100001,1,1,179.8621,299.7495
1,6,18,1,0,3,A,G,b,y,10,10,100001,1,1,179.8621,260.7251
1,6,18,1,0,3,A,G,b,y,10,10,100001,1,1,221.8884,278.7364
1,6,18,1,0,3,A,G,b,y,10,10,100001,1,3,214.3837,182.6764
1,6,18,1,0,3,A,G,b,y,10,10,101001,1,1,173.8583,358.2861
1,6,18,1,0,3,A,G,b,y,10,10,101001,1,1,182.864,302.7514
1,6,18,1,0,3,A,G,b,y,10,10,101001,1,1,169.3555,263.727
1,6,18,1,0,3,A,G,b,y,10,10,101001,1,1,194.8715,239.712
1,6,18,1,0,3,A,G,b,y,10,10,101001,1,1,364.4775,376.2974
1,6,18,1,0,3,A,G,b,y,10,10,101001,1,3,341.9634,322.2636
1,6,18,1,0,3,A,G,b,y,10,10,101001,1,1,481.5507,410.8189
1,6,18,1,0,3,A,G,b,y,10,10,101001,1,3,493.5582,472.3574
1,6,18,1,0,3,A,G,b,y,10,10,101001,1,3,637.6482,337.273
1,6,18,1,0,3,A,G,b,y,10,10,102001,1,3,230.894,77.6107
1,6,18,1,0,3,A,G,b,y,10,10,102001,1,1,194.8715,233.7083
1,6,18,1,0,3,A,G,b,y,10,10,102001,1,1,166.3537,292.2448
1,6,18,1,0,3,A,G,b,y,10,10,102001,1,1,190.3687,292.2448
1,6,18,1,0,3,A,G,b,y,10,10,102001,1,1,196.3724,368.7927
1,6,18,1,0,3,A,G,b,y,10,10,102001,1,1,353.9709,377.7983
1,6,18,1,0,3,A,G,b,y,10,10,102001,1,3,326.954,359.7871
1,6,18,1,0,3,A,G,b,y,10,10,102001,1,1,514.5713,350.7814
1,6,18,1,0,3,A,G,b,y,10,10,102001,1,3,570.106,452.8452
1,6,18,1,0,3,A,G,b,y,10,10,103001,1,3,600.1248,301.2505
1,6,18,1,0,3,A,G,b,y,10,10,103001,1,1,523.5769,355.2842
1,6,18,1,0,3,A,G,b,y,10,10,103001,1,1,356.9728,364.2899
1,6,18,1,0,3,A,G,b,y,10,10,103001,1,3,200.8752,391.3068
1,6,18,1,0,3,A,G,b,y,10,10,103001,1,1,206.879,311.757
1,6,18,1,0,3,A,G,b,y,10,10,103001,1,1,164.8527,295.2467
1,6,18,1,0,3,A,G,b,y,10,10,103001,1,1,196.3724,278.7364
1,6,18,1,0,3,A,G,b,y,10,10,103001,1,1,206.879,247.2167
1,6,18,1,0,3,A,G,b,y,10,10,104001,1,1,199.3743,350.7814
1,6,18,1,0,3,A,G,b,y,10,10,104001,1,1,190.3687,311.757
1,6,18,1,0,3,A,G,b,y,10,10,104001,1,1,187.3668,274.2336
1,6,18,1,0,3,A,G,b,y,10,10,104001,1,1,179.8621,239.712
1,6,18,1,0,3,A,G,b,y,10,10,104001,1,3,260.9128,326.7664
1,6,18,1,0,3,A,G,b,y,10,10,104001,1,1,355.4719,362.7889
1,6,18,1,0,3,A,G,b,y,10,10,104001,1,3,415.5094,332.7702
1,6,18,1,0,3,A,G,b,y,10,10,104001,1,1,529.5807,341.7758
1,6,18,1,0,3,A,G,b,y,10,10,105001,1,3,305.9409,119.637
1,6,18,1,0,3,A,G,b,y,10,10,105001,1,1,193.3705,236.7101
1,6,18,1,0,3,A,G,b,y,10,10,105001,1,1,164.8527,260.7251
1,6,18,1,0,3,A,G,b,y,10,10,105001,1,1,194.8715,292.2448
1,6,18,1,0,3,A,G,b,y,10,10,105001,1,1,187.3668,343.2767
1,6,18,1,0,3,A,G,b,y,10,10,105001,1,1,353.9709,385.303
1,6,18,1,0,3,A,G,b,y,10,10,105001,1,1,525.0779,353.7833
1,6,18,1,0,3,A,G,b,y,10,10,105001,1,3,540.0872,440.8377
1,6,18,1,0,3,A,G,b,y,10,10,106001,1,1,517.5732,355.2842
1,6,18,1,0,3,A,G,b,y,10,10,106001,1,1,361.4756,403.3143
1,6,18,1,0,3,A,G,b,y,10,10,106001,1,1,187.3668,355.2842
1,6,18,1,0,3,A,G,b,y,10,10,106001,1,1,176.8602,311.757
1,6,18,1,0,3,A,G,b,y,10,10,106001,1,1,193.3705,280.2373
1,6,18,1,0,3,A,G,b,y,10,10,106001,1,1,167.8546,254.7214
1,6,18,1,0,3,A,G,b,y,10,10,106001,1,1,181.363,241.2129
1,6,18,1,0,3,A,G,b,y,10,10,107001,1,1,541.5882,370.2936
1,6,18,1,0,3,A,G,b,y,10,10,107001,1,3,585.1154,268.2298
1,6,18,1,0,3,A,G,b,y,10,10,107001,1,1,368.9803,388.3049
1,6,18,1,0,3,A,G,b,y,10,10,107001,1,1,302.939,358.2861
1,6,18,1,0,3,A,G,b,y,10,10,107001,1,3,287.9296,314.7589
1,6,18,1,0,3,A,G,b,y,10,10,107001,1,1,193.3705,388.3049
1,6,18,1,0,3,A,G,b,y,10,10,107001,1,1,169.3555,316.2598
1,6,18,1,0,3,A,G,b,y,10,10,107001,1,1,194.8715,277.2355
1,6,18,1,0,3,A,G,b,y,10,10,107001,1,1,191.8696,226.2036
