dummy,month,day,period,view,station,fgeno,mgeno,fcol,mcol,nf,nm,frame,something,sex,x,y
1,6,20,4,0,2,B,F,r,g,10,10,1,1,3,501.0629,61.1004
1,6,20,4,0,2,B,F,r,g,10,10,1,1,3,486.0535,34.0835
1,6,20,4,0,2,B,F,r,g,10,10,1,1,3,486.0535,77.6107
1,6,20,4,0,2,B,F,r,g,10,10,1,1,3,465.0403,67.1041
1,6,20,4,0,2,B,F,r,g,10,10,1,1,3,456.0347,50.5938
1,6,20,4,0,2,B,F,r,g,10,10,1,1,3,442.5263,38.5863
1,6,20,4,0,2,B,F,r,g,10,10,1,1,3,471.0441,35.5844
1,6,20,4,0,2,B,F,r,g,10,10,1,1,1,460.5375,112.1323
1,6,20,4,0,2,B,F,r,g,10,10,1001,1,1,439.5244,109.1304
1,6,20,4,0,2,B,F,r,g,10,10,1001,1,3,466.5413,83.6144
1,6,20,4,0,2,B,F,r,g,10,10,1001,1,3,478.5488,55.0966
1,6,20,4,0,2,B,F,r,g,10,10,1001,1,3,487.5544,55.0966
1,6,20,4,0,2,B,F,r,g,10,10,1001,1,3,481.5507,40.0872
1,6,20,4,0,2,B,F,r,g,10,10,1001,1,3,454.5338,37.0854
1,6,20,4,0,2,B,F,r,g,10,10,1001,1,3,402.0009,43.0891
1,6,20,4,0,2,B,F,r,g,10,10,1001,1,1,251.9071,268.2298
1,6,20,4,0,2,B,F,r,g,10,10,2001,1,1,549.0929,146.6538
1,6,20,4,0,2,B,F,r,g,10,10,2001,1,1,565.6032,74.6088
1,6,20,4,0,2,B,F,r,g,10,10,2001,1,3,493.5582,79.1116
1,6,20,4,0,2,B,F,r,g,10,10,2001,1,3,501.0629,52.0947
1,6,20,4,0,2,B,F,r,g,10,10,2001,1,3,484.5525,50.5938
1,6,20,4,0,2,B,F,r,g,10,10,2001,1,3,432.0197,52.0947
1,6,20,4,0,2,B,F,r,g,10,10,2001,1,3,441.0253,31.0816
1,6,20,4,0,2,B,F,r,g,10,10,2001,1,3,374.9841,70.106
1,6,20,4,0,2,B,F,r,g,10,10,3001,1,3,468.0422,113.6332
1,6,20,4,0,2,B,F,r,g,10,10,3001,1,3,433.5206,86.6163
1,6,20,4,0,2,B,F,r,g,10,10,3001,1,3,389.9934,58.0985
1,6,20,4,0,2,B,F,r,g,10,10,3001,1,3,438.0235,46.091
1,6,20,4,0,2,B,F,r,g,10,10,3001,1,3,463.5394,37.0854
1,6,20,4,0,2,B,F,r,g,10,10,3001,1,3,495.0591,43.0891
1,6,20,4,0,2,B,F,r,g,10,10,3001,1,1,501.0629,199.1867
1,6,20,4,0,2,B,F,r,g,10,10,4001,1,3,421.5131,64.1023
1,6,20,4,0,2,B,F,r,g,10,10,4001,1,3,457.5356,41.5882
1,6,20,4,0,2,B,F,r,g,10,10,4001,1,3,475.5469,34.0835
1,6,20,4,0,2,B,F,r,g,10,10,4001,1,3,501.0629,41.5882
1,6,20,4,0,2,B,F,r,g,10,10,4001,1,3,477.0478,46.091
1,6,20,4,0,2,B,F,r,g,10,10,4001,1,3,496.56,62.6013
1,6,20,4,0,2,B,F,r,g,10,10,4001,1,1,484.5525,485.8659
1,6,20,4,0,2,B,F,r,g,10,10,5001,1,3,538.5863,61.1004
1,6,20,4,0,2,B,F,r,g,10,10,5001,1,3,484.5525,35.5844
1,6,20,4,0,2,B,F,r,g,10,10,5001,1,3,474.046,44.5901
1,6,20,4,0,2,B,F,r,g,10,10,5001,1,3,442.5263,61.1004
1,6,20,4,0,2,B,F,r,g,10,10,5001,1,3,411.0066,83.6144
1,6,20,4,0,2,B,F,r,g,10,10,5001,1,3,391.4944,68.6051
1,6,20,4,0,2,B,F,r,g,10,10,5001,1,1,211.3818,271.2317
1,6,20,4,0,2,B,F,r,g,10,10,5001,1,1,241.4006,302.7514
1,6,20,4,0,2,B,F,r,g,10,10,6001,1,3,438.0235,139.1492
1,6,20,4,0,2,B,F,r,g,10,10,6001,1,3,492.0572,118.136
1,6,20,4,0,2,B,F,r,g,10,10,6001,1,3,471.0441,47.5919
1,6,20,4,0,2,B,F,r,g,10,10,6001,1,3,448.53,38.5863
1,6,20,4,0,2,B,F,r,g,10,10,6001,1,3,468.0422,35.5844
1,6,20,4,0,2,B,F,r,g,10,10,6001,1,3,496.56,50.5938
1,6,20,4,0,2,B,F,r,g,10,10,6001,1,3,510.0685,31.0816
1,6,20,4,0,2,B,F,r,g,10,10,6001,1,3,537.0854,49.0929
1,6,20,4,0,2,B,F,r,g,10,10,6001,1,1,685.6782,346.2786
1,6,20,4,0,2,B,F,r,g,10,10,7001,1,1,682.6764,310.2561
1,6,20,4,0,2,B,F,r,g,10,10,7001,1,1,388.4925,161.6632
1,6,20,4,0,2,B,F,r,g,10,10,7001,1,3,432.0197,154.1585
1,6,20,4,0,2,B,F,r,g,10,10,7001,1,1,439.5244,74.6088
1,6,20,4,0,2,B,F,r,g,10,10,7001,1,3,460.5375,100.1248
1,6,20,4,0,2,B,F,r,g,10,10,7001,1,3,471.0441,53.5957
1,6,20,4,0,2,B,F,r,g,10,10,7001,1,3,447.0291,47.5919
1,6,20,4,0,2,B,F,r,g,10,10,7001,1,3,454.5338,25.0779
1,6,20,4,0,2,B,F,r,g,10,10,7001,1,3,469.5432,34.0835
1,6,20,4,0,2,B,F,r,g,10,10,7001,1,3,498.061,55.0966
1,6,20,4,0,2,B,F,r,g,10,10,7001,1,1,496.56,29.5807
1,6,20,4,0,2,B,F,r,g,10,10,8001,1,3,477.0478,59.5994
1,6,20,4,0,2,B,F,r,g,10,10,8001,1,3,451.5319,44.5901
1,6,20,4,0,2,B,F,r,g,10,10,8001,1,1,411.0066,50.5938
1,6,20,4,0,2,B,F,r,g,10,10,8001,1,3,499.5619,49.0929
1,6,20,4,0,2,B,F,r,g,10,10,8001,1,1,625.6407,127.1417
1,6,20,4,0,2,B,F,r,g,10,10,9001,1,3,499.5619,50.5938
1,6,20,4,0,2,B,F,r,g,10,10,9001,1,3,477.0478,46.091
1,6,20,4,0,2,B,F,r,g,10,10,9001,1,3,424.515,46.091
1,6,20,4,0,2,B,F,r,g,10,10,9001,1,3,436.5225,26.5788
1,6,20,4,0,2,B,F,r,g,10,10,10001,1,3,465.0403,226.2036
1,6,20,4,0,2,B,F,r,g,10,10,10001,1,3,459.0366,34.0835
1,6,20,4,0,2,B,F,r,g,10,10,10001,1,3,468.0422,47.5919
1,6,20,4,0,2,B,F,r,g,10,10,10001,1,3,493.5582,49.0929
1,6,20,4,0,2,B,F,r,g,10,10,11001,1,3,383.9897,55.0966
1,6,20,4,0,2,B,F,r,g,10,10,11001,1,3,460.5375,43.0891
1,6,20,4,0,2,B,F,r,g,10,10,11001,1,3,474.046,47.5919
1,6,20,4,0,2,B,F,r,g,10,10,11001,1,3,487.5544,47.5919
1,6,20,4,0,2,B,F,r,g,10,10,12001,1,3,465.0403,35.5844
1,6,20,4,0,2,B,F,r,g,10,10,12001,1,3,474.046,49.0929
1,6,20,4,0,2,B,F,r,g,10,10,12001,1,3,486.0535,49.0929
1,6,20,4,0,2,B,F,r,g,10,10,12001,1,3,350.969,47.5919
1,6,20,4,0,2,B,F,r,g,10,10,12001,1,1,326.954,71.6069
1,6,20,4,0,2,B,F,r,g,10,10,13001,1,3,296.9353,86.6163
1,6,20,4,0,2,B,F,r,g,10,10,13001,1,3,338.9615,47.5919
1,6,20,4,0,2,B,F,r,g,10,10,13001,1,3,462.0385,38.5863
1,6,20,4,0,2,B,F,r,g,10,10,13001,1,3,472.545,53.5957
1,6,20,4,0,2,B,F,r,g,10,10,13001,1,3,496.56,41.5882
1,6,20,4,0,2,B,F,r,g,10,10,14001,1,3,438.0235,65.6032
1,6,20,4,0,2,B,F,r,g,10,10,14001,1,3,454.5338,34.0835
1,6,20,4,0,2,B,F,r,g,10,10,14001,1,3,475.5469,49.0929
1,6,20,4,0,2,B,F,r,g,10,10,14001,1,3,489.0553,49.0929
1,6,20,4,0,2,B,F,r,g,10,10,15001,1,3,451.5319,53.5957
1,6,20,4,0,2,B,F,r,g,10,10,15001,1,3,469.5432,34.0835
1,6,20,4,0,2,B,F,r,g,10,10,15001,1,3,483.0516,56.5976
1,6,20,4,0,2,B,F,r,g,10,10,15001,1,3,505.5657,47.5919
1,6,20,4,0,2,B,F,r,g,10,10,15001,1,1,260.9128,149.6557
1,6,20,4,0,2,B,F,r,g,10,10,15001,1,1,347.9672,488.8677
1,6,20,4,0,2,B,F,r,g,10,10,15001,1,3,699.1867,250.2186
1,6,20,4,0,2,B,F,r,g,10,10,16001,1,3,334.4587,308.7552
1,6,20,4,0,2,B,F,r,g,10,10,16001,1,1,271.4193,320.7627
1,6,20,4,0,2,B,F,r,g,10,10,16001,1,3,406.5038,59.5994
1,6,20,4,0,2,B,F,r,g,10,10,16001,1,3,451.5319,61.1004
1,6,20,4,0,2,B,F,r,g,10,10,16001,1,3,487.5544,67.1041
1,6,20,4,0,2,B,F,r,g,10,10,16001,1,3,499.5619,49.0929
1,6,20,4,0,2,B,F,r,g,10,10,16001,1,3,697.6857,241.2129
1,6,20,4,0,2,B,F,r,g,10,10,17001,1,1,224.8902,316.2598
1,6,20,4,0,2,B,F,r,g,10,10,17001,1,3,392.9953,109.1304
1,6,20,4,0,2,B,F,r,g,10,10,17001,1,3,480.0497,59.5994
1,6,20,4,0,2,B,F,r,g,10,10,17001,1,3,496.56,56.5976
1,6,20,4,0,2,B,F,r,g,10,10,17001,1,3,483.0516,17.5732
1,6,20,4,0,2,B,F,r,g,10,10,17001,1,3,699.1867,247.2167
1,6,20,4,0,2,B,F,r,g,10,10,17001,1,1,628.6426,482.864
1,6,20,4,0,2,B,F,r,g,10,10,18001,1,3,493.5582,47.5919
1,6,20,4,0,2,B,F,r,g,10,10,18001,1,3,532.5826,50.5938
1,6,20,4,0,2,B,F,r,g,10,10,18001,1,3,471.0441,29.5807
1,6,20,4,0,2,B,F,r,g,10,10,18001,1,3,424.515,56.5976
1,6,20,4,0,2,B,F,r,g,10,10,18001,1,3,223.3893,238.2111
1,6,20,4,0,2,B,F,r,g,10,10,18001,1,1,206.879,200.6876
1,6,20,4,0,2,B,F,r,g,10,10,18001,1,3,699.1867,242.7139
1,6,20,4,0,2,B,F,r,g,10,10,19001,1,3,456.0347,44.5901
1,6,20,4,0,2,B,F,r,g,10,10,19001,1,3,486.0535,47.5919
1,6,20,4,0,2,B,F,r,g,10,10,19001,1,3,490.5563,71.6069
1,6,20,4,0,2,B,F,r,g,10,10,19001,1,3,516.0722,53.5957
1,6,20,4,0,2,B,F,r,g,10,10,19001,1,3,700.6876,248.7176
1,6,20,4,0,2,B,F,r,g,10,10,20001,1,3,489.0553,58.0985
1,6,20,4,0,2,B,F,r,g,10,10,20001,1,3,499.5619,49.0929
1,6,20,4,0,2,B,F,r,g,10,10,20001,1,3,469.5432,50.5938
1,6,20,4,0,2,B,F,r,g,10,10,20001,1,1,465.0403,50.5938
1,6,20,4,0,2,B,F,r,g,10,10,20001,1,1,230.894,400.3124
1,6,20,4,0,2,B,F,r,g,10,10,20001,1,3,691.682,262.2261
1,6,20,4,0,2,B,F,r,g,10,10,21001,1,3,463.5394,46.091
1,6,20,4,0,2,B,F,r,g,10,10,21001,1,3,480.0497,41.5882
1,6,20,4,0,2,B,F,r,g,10,10,21001,1,3,504.0647,41.5882
1,6,20,4,0,2,B,F,r,g,10,10,21001,1,3,508.5675,64.1023
1,6,20,4,0,2,B,F,r,g,10,10,21001,1,3,534.0835,71.6069
1,6,20,4,0,2,B,F,r,g,10,10,21001,1,1,651.1567,143.652
1,6,20,4,0,2,B,F,r,g,10,10,21001,1,3,666.166,155.6595
1,6,20,4,0,2,B,F,r,g,10,10,22001,1,3,499.5619,61.1004
1,6,20,4,0,2,B,F,r,g,10,10,22001,1,3,477.0478,58.0985
1,6,20,4,0,2,B,F,r,g,10,10,22001,1,3,457.5356,53.5957
1,6,20,4,0,2,B,F,r,g,10,10,22001,1,3,495.0591,37.0854
1,6,20,4,0,2,B,F,r,g,10,10,22001,1,3,532.5826,62.6013
1,6,20,4,0,2,B,F,r,g,10,10,22001,1,3,552.0947,145.1529
1,6,20,4,0,2,B,F,r,g,10,10,22001,1,1,445.5281,86.6163
1,6,20,4,0,2,B,F,r,g,10,10,23001,1,1,483.0516,98.6238
1,6,20,4,0,2,B,F,r,g,10,10,23001,1,3,504.0647,67.1041
1,6,20,4,0,2,B,F,r,g,10,10,23001,1,3,472.545,62.6013
1,6,20,4,0,2,B,F,r,g,10,10,23001,1,3,483.0516,43.0891
1,6,20,4,0,2,B,F,r,g,10,10,23001,1,3,444.0272,43.0891
1,6,20,4,0,2,B,F,r,g,10,10,23001,1,3,432.0197,62.6013
1,6,20,4,0,2,B,F,r,g,10,10,24001,1,3,504.0647,137.6482
1,6,20,4,0,2,B,F,r,g,10,10,24001,1,1,493.5582,91.1191
1,6,20,4,0,2,B,F,r,g,10,10,24001,1,3,477.0478,62.6013
1,6,20,4,0,2,B,F,r,g,10,10,24001,1,3,465.0403,50.5938
1,6,20,4,0,2,B,F,r,g,10,10,24001,1,3,484.5525,40.0872
1,6,20,4,0,2,B,F,r,g,10,10,24001,1,3,508.5675,49.0929
1,6,20,4,0,2,B,F,r,g,10,10,24001,1,3,415.5094,52.0947
1,6,20,4,0,2,B,F,r,g,10,10,24001,1,1,383.9897,82.1135
1,6,20,4,0,2,B,F,r,g,10,10,25001,1,3,456.0347,77.6107
1,6,20,4,0,2,B,F,r,g,10,10,25001,1,1,433.5206,65.6032
1,6,20,4,0,2,B,F,r,g,10,10,25001,1,3,462.0385,44.5901
1,6,20,4,0,2,B,F,r,g,10,10,25001,1,3,481.5507,62.6013
1,6,20,4,0,2,B,F,r,g,10,10,25001,1,3,499.5619,55.0966
1,6,20,4,0,2,B,F,r,g,10,10,25001,1,1,565.6032,97.1229
1,6,20,4,0,2,B,F,r,g,10,10,25001,1,3,663.1642,145.1529
1,6,20,4,0,2,B,F,r,g,10,10,26001,1,1,582.1135,166.166
1,6,20,4,0,2,B,F,r,g,10,10,26001,1,3,627.1417,160.1623
1,6,20,4,0,2,B,F,r,g,10,10,26001,1,3,496.56,50.5938
1,6,20,4,0,2,B,F,r,g,10,10,26001,1,3,481.5507,37.0854
1,6,20,4,0,2,B,F,r,g,10,10,26001,1,3,474.046,64.1023
1,6,20,4,0,2,B,F,r,g,10,10,26001,1,3,453.0328,44.5901
1,6,20,4,0,2,B,F,r,g,10,10,26001,1,3,436.5225,41.5882
1,6,20,4,0,2,B,F,r,g,10,10,26001,1,1,408.0047,65.6032
1,6,20,4,0,2,B,F,r,g,10,10,27001,1,1,379.4869,77.6107
1,6,20,4,0,2,B,F,r,g,10,10,27001,1,3,424.515,65.6032
1,6,20,4,0,2,B,F,r,g,10,10,27001,1,3,445.5281,41.5882
1,6,20,4,0,2,B,F,r,g,10,10,27001,1,3,465.0403,46.091
1,6,20,4,0,2,B,F,r,g,10,10,27001,1,3,484.5525,71.6069
1,6,20,4,0,2,B,F,r,g,10,10,27001,1,3,490.5563,44.5901
1,6,20,4,0,2,B,F,r,g,10,10,27001,1,3,516.0722,65.6032
1,6,20,4,0,2,B,F,r,g,10,10,27001,1,1,220.3874,238.2111
1,6,20,4,0,2,B,F,r,g,10,10,28001,1,3,344.9653,439.3368
1,6,20,4,0,2,B,F,r,g,10,10,28001,1,3,471.0441,68.6051
1,6,20,4,0,2,B,F,r,g,10,10,28001,1,3,493.5582,70.106
1,6,20,4,0,2,B,F,r,g,10,10,28001,1,3,472.545,35.5844
1,6,20,4,0,2,B,F,r,g,10,10,28001,1,3,520.575,41.5882
1,6,20,4,0,2,B,F,r,g,10,10,28001,1,3,445.5281,49.0929
1,6,20,4,0,2,B,F,r,g,10,10,29001,1,3,493.5582,46.091
1,6,20,4,0,2,B,F,r,g,10,10,29001,1,3,453.0328,41.5882
1,6,20,4,0,2,B,F,r,g,10,10,29001,1,3,421.5131,50.5938
1,6,20,4,0,2,B,F,r,g,10,10,29001,1,3,438.0235,77.6107
1,6,20,4,0,2,B,F,r,g,10,10,29001,1,3,480.0497,113.6332
1,6,20,4,0,2,B,F,r,g,10,10,29001,1,1,520.575,167.667
1,6,20,4,0,2,B,F,r,g,10,10,29001,1,3,380.9878,457.348
1,6,20,4,0,2,B,F,r,g,10,10,30001,1,3,379.4869,464.8527
1,6,20,4,0,2,B,F,r,g,10,10,30001,1,1,362.9765,428.8302
1,6,20,4,0,2,B,F,r,g,10,10,30001,1,3,459.0366,106.1285
1,6,20,4,0,2,B,F,r,g,10,10,30001,1,3,490.5563,41.5882
1,6,20,4,0,2,B,F,r,g,10,10,30001,1,3,451.5319,35.5844
1,6,20,4,0,2,B,F,r,g,10,10,30001,1,3,421.5131,52.0947
1,6,20,4,0,2,B,F,r,g,10,10,30001,1,3,400.5,44.5901
1,6,20,4,0,2,B,F,r,g,10,10,31001,1,3,397.4981,476.8602
1,6,20,4,0,2,B,F,r,g,10,10,31001,1,1,546.091,265.228
1,6,20,4,0,2,B,F,r,g,10,10,31001,1,3,385.4906,128.6426
1,6,20,4,0,2,B,F,r,g,10,10,31001,1,3,349.4681,68.6051
1,6,20,4,0,2,B,F,r,g,10,10,31001,1,1,412.5075,38.5863
1,6,20,4,0,2,B,F,r,g,10,10,31001,1,3,451.5319,40.0872
1,6,20,4,0,2,B,F,r,g,10,10,31001,1,3,480.0497,47.5919
1,6,20,4,0,2,B,F,r,g,10,10,31001,1,1,486.0535,49.0929
1,6,20,4,0,2,B,F,r,g,10,10,32001,1,3,397.4981,488.8677
1,6,20,4,0,2,B,F,r,g,10,10,32001,1,3,432.0197,53.5957
1,6,20,4,0,2,B,F,r,g,10,10,32001,1,3,468.0422,40.0872
1,6,20,4,0,2,B,F,r,g,10,10,32001,1,3,466.5413,53.5957
1,6,20,4,0,2,B,F,r,g,10,10,32001,1,3,490.5563,49.0929
1,6,20,4,0,2,B,F,r,g,10,10,33001,1,1,367.4794,182.6764
1,6,20,4,0,2,B,F,r,g,10,10,33001,1,1,382.4887,161.6632
1,6,20,4,0,2,B,F,r,g,10,10,33001,1,3,328.455,152.6576
1,6,20,4,0,2,B,F,r,g,10,10,33001,1,1,463.5394,115.1341
1,6,20,4,0,2,B,F,r,g,10,10,33001,1,3,471.0441,61.1004
1,6,20,4,0,2,B,F,r,g,10,10,33001,1,3,490.5563,53.5957
1,6,20,4,0,2,B,F,r,g,10,10,33001,1,3,471.0441,37.0854
1,6,20,4,0,2,B,F,r,g,10,10,33001,1,3,454.5338,40.0872
1,6,20,4,0,2,B,F,r,g,10,10,34001,1,1,256.4099,248.7176
1,6,20,4,0,2,B,F,r,g,10,10,34001,1,1,191.8696,334.2711
1,6,20,4,0,2,B,F,r,g,10,10,34001,1,3,480.0497,52.0947
1,6,20,4,0,2,B,F,r,g,10,10,34001,1,3,463.5394,35.5844
1,6,20,4,0,2,B,F,r,g,10,10,34001,1,3,502.5638,43.0891
1,6,20,4,0,2,B,F,r,g,10,10,34001,1,3,697.6857,200.6876
1,6,20,4,0,2,B,F,r,g,10,10,35001,1,1,475.5469,440.8377
1,6,20,4,0,2,B,F,r,g,10,10,35001,1,3,465.0403,46.091
1,6,20,4,0,2,B,F,r,g,10,10,35001,1,3,439.5244,44.5901
1,6,20,4,0,2,B,F,r,g,10,10,35001,1,3,496.56,59.5994
1,6,20,4,0,2,B,F,r,g,10,10,35001,1,3,474.046,59.5994
1,6,20,4,0,2,B,F,r,g,10,10,36001,1,3,489.0553,43.0891
1,6,20,4,0,2,B,F,r,g,10,10,36001,1,3,471.0441,58.0985
1,6,20,4,0,2,B,F,r,g,10,10,36001,1,3,468.0422,43.0891
1,6,20,4,0,2,B,F,r,g,10,10,36001,1,3,444.0272,38.5863
1,6,20,4,0,2,B,F,r,g,10,10,36001,1,1,525.0779,85.1154
1,6,20,4,0,2,B,F,r,g,10,10,36001,1,1,673.6707,178.1735
1,6,20,4,0,2,B,F,r,g,10,10,37001,1,3,477.0478,59.5994
1,6,20,4,0,2,B,F,r,g,10,10,37001,1,3,463.5394,43.0891
1,6,20,4,0,2,B,F,r,g,10,10,37001,1,3,451.5319,32.5826
1,6,20,4,0,2,B,F,r,g,10,10,37001,1,3,501.0629,52.0947
1,6,20,4,0,2,B,F,r,g,10,10,37001,1,1,453.0328,94.121
1,6,20,4,0,2,B,F,r,g,10,10,38001,1,3,493.5582,47.5919
1,6,20,4,0,2,B,F,r,g,10,10,38001,1,3,472.545,55.0966
1,6,20,4,0,2,B,F,r,g,10,10,38001,1,3,465.0403,43.0891
1,6,20,4,0,2,B,F,r,g,10,10,39001,1,3,498.061,40.0872
1,6,20,4,0,2,B,F,r,g,10,10,39001,1,3,481.5507,46.091
1,6,20,4,0,2,B,F,r,g,10,10,39001,1,3,457.5356,40.0872
1,6,20,4,0,2,B,F,r,g,10,10,39001,1,3,391.4944,44.5901
1,6,20,4,0,2,B,F,r,g,10,10,39001,1,1,462.0385,82.1135
1,6,20,4,0,2,B,F,r,g,10,10,39001,1,1,429.0178,353.7833
1,6,20,4,0,2,B,F,r,g,10,10,40001,1,3,442.5263,35.5844
1,6,20,4,0,2,B,F,r,g,10,10,40001,1,3,475.5469,44.5901
1,6,20,4,0,2,B,F,r,g,10,10,40001,1,3,484.5525,49.0929
1,6,20,4,0,2,B,F,r,g,10,10,40001,1,3,507.0666,55.0966
1,6,20,4,0,2,B,F,r,g,10,10,40001,1,1,236.8977,281.7383
1,6,20,4,0,2,B,F,r,g,10,10,41001,1,3,502.5638,49.0929
1,6,20,4,0,2,B,F,r,g,10,10,41001,1,3,468.0422,50.5938
1,6,20,4,0,2,B,F,r,g,10,10,41001,1,3,456.0347,43.0891
1,6,20,4,0,2,B,F,r,g,10,10,41001,1,3,448.53,32.5826
1,6,20,4,0,2,B,F,r,g,10,10,41001,1,3,487.5544,32.5826
1,6,20,4,0,2,B,F,r,g,10,10,42001,1,3,489.0553,35.5844
1,6,20,4,0,2,B,F,r,g,10,10,42001,1,3,453.0328,35.5844
1,6,20,4,0,2,B,F,r,g,10,10,42001,1,3,468.0422,46.091
1,6,20,4,0,2,B,F,r,g,10,10,42001,1,3,480.0497,67.1041
1,6,20,4,0,2,B,F,r,g,10,10,42001,1,3,499.5619,74.6088
1,6,20,4,0,2,B,F,r,g,10,10,42001,1,1,507.0666,521.8884
1,6,20,4,0,2,B,F,r,g,10,10,43001,1,3,496.56,46.091
1,6,20,4,0,2,B,F,r,g,10,10,43001,1,3,489.0553,73.1079
1,6,20,4,0,2,B,F,r,g,10,10,43001,1,3,474.046,59.5994
1,6,20,4,0,2,B,F,r,g,10,10,43001,1,3,466.5413,47.5919
1,6,20,4,0,2,B,F,r,g,10,10,43001,1,3,444.0272,43.0891
1,6,20,4,0,2,B,F,r,g,10,10,43001,1,1,313.4456,119.637
1,6,20,4,0,2,B,F,r,g,10,10,44001,1,3,435.0216,44.5901
1,6,20,4,0,2,B,F,r,g,10,10,44001,1,3,462.0385,50.5938
1,6,20,4,0,2,B,F,r,g,10,10,44001,1,3,475.5469,64.1023
1,6,20,4,0,2,B,F,r,g,10,10,44001,1,3,486.0535,64.1023
1,6,20,4,0,2,B,F,r,g,10,10,44001,1,3,498.061,29.5807
1,6,20,4,0,2,B,F,r,g,10,10,44001,1,1,660.1623,146.6538
1,6,20,4,0,2,B,F,r,g,10,10,44001,1,1,188.8677,302.7514
1,6,20,4,0,2,B,F,r,g,10,10,45001,1,3,490.5563,44.5901
1,6,20,4,0,2,B,F,r,g,10,10,45001,1,3,498.061,70.106
1,6,20,4,0,2,B,F,r,g,10,10,45001,1,3,465.0403,55.0966
1,6,20,4,0,2,B,F,r,g,10,10,45001,1,3,462.0385,47.5919
1,6,20,4,0,2,B,F,r,g,10,10,45001,1,3,430.5188,41.5882
1,6,20,4,0,2,B,F,r,g,10,10,45001,1,1,690.1811,239.712
1,6,20,4,0,2,B,F,r,g,10,10,46001,1,3,465.0403,49.0929
1,6,20,4,0,2,B,F,r,g,10,10,46001,1,3,445.5281,38.5863
1,6,20,4,0,2,B,F,r,g,10,10,46001,1,3,483.0516,55.0966
1,6,20,4,0,2,B,F,r,g,10,10,46001,1,3,520.575,58.0985
1,6,20,4,0,2,B,F,r,g,10,10,46001,1,1,453.0328,184.1773
1,6,20,4,0,2,B,F,r,g,10,10,47001,1,3,511.5694,86.6163
1,6,20,4,0,2,B,F,r,g,10,10,47001,1,3,502.5638,38.5863
1,6,20,4,0,2,B,F,r,g,10,10,47001,1,3,474.046,44.5901
1,6,20,4,0,2,B,F,r,g,10,10,47001,1,3,456.0347,46.091
1,6,20,4,0,2,B,F,r,g,10,10,47001,1,3,430.5188,40.0872
1,6,20,4,0,2,B,F,r,g,10,10,47001,1,1,429.0178,83.6144
1,6,20,4,0,2,B,F,r,g,10,10,48001,1,3,475.5469,46.091
1,6,20,4,0,2,B,F,r,g,10,10,48001,1,3,448.53,46.091
1,6,20,4,0,2,B,F,r,g,10,10,48001,1,3,433.5206,38.5863
1,6,20,4,0,2,B,F,r,g,10,10,48001,1,3,517.5732,61.1004
1,6,20,4,0,2,B,F,r,g,10,10,49001,1,3,501.0629,50.5938
1,6,20,4,0,2,B,F,r,g,10,10,49001,1,3,466.5413,89.6182
1,6,20,4,0,2,B,F,r,g,10,10,49001,1,3,460.5375,56.5976
1,6,20,4,0,2,B,F,r,g,10,10,49001,1,1,427.5169,82.1135
1,6,20,4,0,2,B,F,r,g,10,10,49001,1,3,427.5169,46.091
1,6,20,4,0,2,B,F,r,g,10,10,49001,1,3,405.0028,65.6032
1,6,20,4,0,2,B,F,r,g,10,10,49001,1,1,374.9841,100.1248
1,6,20,4,0,2,B,F,r,g,10,10,49001,1,3,439.5244,139.1492
1,6,20,4,0,2,B,F,r,g,10,10,50001,1,3,292.4325,271.2317
1,6,20,4,0,2,B,F,r,g,10,10,50001,1,3,430.5188,77.6107
1,6,20,4,0,2,B,F,r,g,10,10,50001,1,3,436.5225,47.5919
1,6,20,4,0,2,B,F,r,g,10,10,50001,1,3,469.5432,40.0872
1,6,20,4,0,2,B,F,r,g,10,10,50001,1,3,444.0272,80.6126
1,6,20,4,0,2,B,F,r,g,10,10,50001,1,1,493.5582,100.1248
1,6,20,4,0,2,B,F,r,g,10,10,50001,1,1,501.0629,74.6088
1,6,20,4,0,2,B,F,r,g,10,10,50001,1,3,499.5619,34.0835
1,6,20,4,0,2,B,F,r,g,10,10,50001,1,1,607.6295,160.1623
1,6,20,4,0,2,B,F,r,g,10,10,51001,1,3,496.56,46.091
1,6,20,4,0,2,B,F,r,g,10,10,51001,1,3,471.0441,44.5901
1,6,20,4,0,2,B,F,r,g,10,10,51001,1,3,435.0216,52.0947
1,6,20,4,0,2,B,F,r,g,10,10,51001,1,3,471.0441,77.6107
1,6,20,4,0,2,B,F,r,g,10,10,51001,1,3,266.9165,269.7308
1,6,20,4,0,2,B,F,r,g,10,10,51001,1,1,574.6088,61.1004
1,6,20,4,0,2,B,F,r,g,10,10,51001,1,1,693.1829,370.2936
1,6,20,4,0,2,B,F,r,g,10,10,52001,1,3,498.061,41.5882
1,6,20,4,0,2,B,F,r,g,10,10,52001,1,3,450.031,41.5882
1,6,20,4,0,2,B,F,r,g,10,10,52001,1,3,405.0028,65.6032
1,6,20,4,0,2,B,F,r,g,10,10,52001,1,3,432.0197,91.1191
1,6,20,4,0,2,B,F,r,g,10,10,52001,1,1,487.5544,115.1341
1,6,20,4,0,2,B,F,r,g,10,10,52001,1,3,477.0478,67.1041
1,6,20,4,0,2,B,F,r,g,10,10,52001,1,1,541.5882,205.1904
1,6,20,4,0,2,B,F,r,g,10,10,52001,1,3,277.4231,337.273
1,6,20,4,0,2,B,F,r,g,10,10,53001,1,3,487.5544,49.0929
1,6,20,4,0,2,B,F,r,g,10,10,53001,1,3,490.5563,82.1135
1,6,20,4,0,2,B,F,r,g,10,10,53001,1,3,469.5432,49.0929
1,6,20,4,0,2,B,F,r,g,10,10,53001,1,3,441.0253,58.0985
1,6,20,4,0,2,B,F,r,g,10,10,53001,1,3,486.0535,125.6407
1,6,20,4,0,2,B,F,r,g,10,10,53001,1,1,570.106,287.742
1,6,20,4,0,2,B,F,r,g,10,10,53001,1,3,589.6182,340.2749
1,6,20,4,0,2,B,F,r,g,10,10,54001,1,3,490.5563,55.0966
1,6,20,4,0,2,B,F,r,g,10,10,54001,1,3,466.5413,41.5882
1,6,20,4,0,2,B,F,r,g,10,10,54001,1,1,421.5131,97.1229
1,6,20,4,0,2,B,F,r,g,10,10,54001,1,1,386.9916,77.6107
1,6,20,4,0,2,B,F,r,g,10,10,54001,1,3,432.0197,55.0966
1,6,20,4,0,2,B,F,r,g,10,10,54001,1,1,433.5206,134.6463
1,6,20,4,0,2,B,F,r,g,10,10,54001,1,3,546.091,206.6914
1,6,20,4,0,2,B,F,r,g,10,10,54001,1,3,513.0704,343.2767
1,6,20,4,0,2,B,F,r,g,10,10,55001,1,3,492.0572,49.0929
1,6,20,4,0,2,B,F,r,g,10,10,55001,1,3,436.5225,34.0835
1,6,20,4,0,2,B,F,r,g,10,10,55001,1,3,436.5225,62.6013
1,6,20,4,0,2,B,F,r,g,10,10,55001,1,3,463.5394,70.106
1,6,20,4,0,2,B,F,r,g,10,10,55001,1,1,447.0291,122.6388
1,6,20,4,0,2,B,F,r,g,10,10,55001,1,1,374.9841,103.1266
1,6,20,4,0,2,B,F,r,g,10,10,55001,1,3,323.9522,109.1304
1,6,20,4,0,2,B,F,r,g,10,10,55001,1,3,649.6557,139.1492
1,6,20,4,0,2,B,F,r,g,10,10,55001,1,1,619.637,355.2842
1,6,20,4,0,2,B,F,r,g,10,10,56001,1,3,489.0553,59.5994
1,6,20,4,0,2,B,F,r,g,10,10,56001,1,3,454.5338,38.5863
1,6,20,4,0,2,B,F,r,g,10,10,56001,1,3,517.5732,56.5976
1,6,20,4,0,2,B,F,r,g,10,10,56001,1,3,550.5938,58.0985
1,6,20,4,0,2,B,F,r,g,10,10,56001,1,1,433.5206,55.0966
1,6,20,4,0,2,B,F,r,g,10,10,56001,1,1,308.9428,212.6951
1,6,20,4,0,2,B,F,r,g,10,10,56001,1,1,224.8902,175.1717
1,6,20,4,0,2,B,F,r,g,10,10,56001,1,3,675.1717,179.6745
1,6,20,4,0,2,B,F,r,g,10,10,57001,1,3,504.0647,41.5882
1,6,20,4,0,2,B,F,r,g,10,10,57001,1,3,486.0535,64.1023
1,6,20,4,0,2,B,F,r,g,10,10,57001,1,3,448.53,49.0929
1,6,20,4,0,2,B,F,r,g,10,10,57001,1,3,391.4944,47.5919
1,6,20,4,0,2,B,F,r,g,10,10,57001,1,3,507.0666,109.1304
1,6,20,4,0,2,B,F,r,g,10,10,57001,1,1,380.9878,338.7739
1,6,20,4,0,2,B,F,r,g,10,10,57001,1,1,445.5281,365.7908
1,6,20,4,0,2,B,F,r,g,10,10,58001,1,3,359.9747,43.0891
1,6,20,4,0,2,B,F,r,g,10,10,58001,1,3,486.0535,52.0947
1,6,20,4,0,2,B,F,r,g,10,10,58001,1,3,501.0629,40.0872
1,6,20,4,0,2,B,F,r,g,10,10,58001,1,3,486.0535,38.5863
1,6,20,4,0,2,B,F,r,g,10,10,59001,1,3,359.9747,43.0891
1,6,20,4,0,2,B,F,r,g,10,10,59001,1,3,442.5263,70.106
1,6,20,4,0,2,B,F,r,g,10,10,59001,1,3,468.0422,43.0891
1,6,20,4,0,2,B,F,r,g,10,10,59001,1,3,496.56,46.091
1,6,20,4,0,2,B,F,r,g,10,10,59001,1,3,556.5976,119.637
1,6,20,4,0,2,B,F,r,g,10,10,59001,1,1,314.9465,221.7008
1,6,20,4,0,2,B,F,r,g,10,10,60001,1,1,460.5375,86.6163
1,6,20,4,0,2,B,F,r,g,10,10,60001,1,3,471.0441,52.0947
1,6,20,4,0,2,B,F,r,g,10,10,60001,1,3,477.0478,34.0835
1,6,20,4,0,2,B,F,r,g,10,10,60001,1,3,502.5638,52.0947
1,6,20,4,0,2,B,F,r,g,10,10,60001,1,1,552.0947,70.106
1,6,20,4,0,2,B,F,r,g,10,10,60001,1,3,505.5657,128.6426
1,6,20,4,0,2,B,F,r,g,10,10,60001,1,3,565.6032,149.6557
1,6,20,4,0,2,B,F,r,g,10,10,60001,1,1,248.9053,371.7946
1,6,20,4,0,2,B,F,r,g,10,10,61001,1,3,432.0197,49.0929
1,6,20,4,0,2,B,F,r,g,10,10,61001,1,3,465.0403,44.5901
1,6,20,4,0,2,B,F,r,g,10,10,61001,1,3,474.046,23.5769
1,6,20,4,0,2,B,F,r,g,10,10,61001,1,3,495.0591,55.0966
1,6,20,4,0,2,B,F,r,g,10,10,62001,1,3,438.0235,121.1379
1,6,20,4,0,2,B,F,r,g,10,10,62001,1,3,466.5413,43.0891
1,6,20,4,0,2,B,F,r,g,10,10,62001,1,3,475.5469,29.5807
1,6,20,4,0,2,B,F,r,g,10,10,62001,1,3,493.5582,61.1004
1,6,20,4,0,2,B,F,r,g,10,10,62001,1,1,553.5957,517.3856
1,6,20,4,0,2,B,F,r,g,10,10,63001,1,3,459.0366,47.5919
1,6,20,4,0,2,B,F,r,g,10,10,63001,1,3,474.046,35.5844
1,6,20,4,0,2,B,F,r,g,10,10,63001,1,3,501.0629,55.0966
1,6,20,4,0,2,B,F,r,g,10,10,63001,1,1,562.6013,170.6689
1,6,20,4,0,2,B,F,r,g,10,10,64001,1,3,478.5488,76.1098
1,6,20,4,0,2,B,F,r,g,10,10,64001,1,3,475.5469,40.0872
1,6,20,4,0,2,B,F,r,g,10,10,64001,1,3,460.5375,43.0891
1,6,20,4,0,2,B,F,r,g,10,10,64001,1,3,298.4362,107.6295
1,6,20,4,0,2,B,F,r,g,10,10,65001,1,3,468.0422,50.5938
1,6,20,4,0,2,B,F,r,g,10,10,65001,1,3,477.0478,34.0835
1,6,20,4,0,2,B,F,r,g,10,10,65001,1,3,496.56,53.5957
1,6,20,4,0,2,B,F,r,g,10,10,65001,1,3,253.4081,157.1604
1,6,20,4,0,2,B,F,r,g,10,10,65001,1,1,256.4099,347.7795
1,6,20,4,0,2,B,F,r,g,10,10,66001,1,1,286.4287,124.1398
1,6,20,4,0,2,B,F,r,g,10,10,66001,1,3,432.0197,35.5844
1,6,20,4,0,2,B,F,r,g,10,10,66001,1,3,471.0441,43.0891
1,6,20,4,0,2,B,F,r,g,10,10,66001,1,3,484.5525,71.6069
1,6,20,4,0,2,B,F,r,g,10,10,67001,1,3,469.5432,44.5901
1,6,20,4,0,2,B,F,r,g,10,10,67001,1,3,486.0535,40.0872
1,6,20,4,0,2,B,F,r,g,10,10,67001,1,3,508.5675,65.6032
1,6,20,4,0,2,B,F,r,g,10,10,67001,1,3,454.5338,94.121
1,6,20,4,0,2,B,F,r,g,10,10,68001,1,3,493.5582,62.6013
1,6,20,4,0,2,B,F,r,g,10,10,68001,1,3,472.545,31.0816
1,6,20,4,0,2,B,F,r,g,10,10,68001,1,3,451.5319,56.5976
1,6,20,4,0,2,B,F,r,g,10,10,68001,1,1,415.5094,64.1023
1,6,20,4,0,2,B,F,r,g,10,10,68001,1,3,361.4756,71.6069
1,6,20,4,0,2,B,F,r,g,10,10,68001,1,1,483.0516,121.1379
1,6,20,4,0,2,B,F,r,g,10,10,69001,1,3,394.4962,106.1285
1,6,20,4,0,2,B,F,r,g,10,10,69001,1,1,432.0197,82.1135
1,6,20,4,0,2,B,F,r,g,10,10,69001,1,1,444.0272,55.0966
1,6,20,4,0,2,B,F,r,g,10,10,69001,1,3,474.046,34.0835
1,6,20,4,0,2,B,F,r,g,10,10,69001,1,3,489.0553,46.091
1,6,20,4,0,2,B,F,r,g,10,10,69001,1,3,469.5432,68.6051
1,6,20,4,0,2,B,F,r,g,10,10,69001,1,3,453.0328,91.1191
1,6,20,4,0,2,B,F,r,g,10,10,70001,1,3,388.4925,103.1266
1,6,20,4,0,2,B,F,r,g,10,10,70001,1,3,442.5263,49.0929
1,6,20,4,0,2,B,F,r,g,10,10,70001,1,3,474.046,41.5882
1,6,20,4,0,2,B,F,r,g,10,10,70001,1,3,496.56,47.5919
1,6,20,4,0,2,B,F,r,g,10,10,70001,1,3,468.0422,64.1023
1,6,20,4,0,2,B,F,r,g,10,10,70001,1,1,239.8996,332.7702
1,6,20,4,0,2,B,F,r,g,10,10,71001,1,3,424.515,115.1341
1,6,20,4,0,2,B,F,r,g,10,10,71001,1,3,355.4719,73.1079
1,6,20,4,0,2,B,F,r,g,10,10,71001,1,1,283.4268,122.6388
1,6,20,4,0,2,B,F,r,g,10,10,71001,1,3,448.53,83.6144
1,6,20,4,0,2,B,F,r,g,10,10,71001,1,3,441.0253,43.0891
1,6,20,4,0,2,B,F,r,g,10,10,71001,1,3,463.5394,55.0966
1,6,20,4,0,2,B,F,r,g,10,10,71001,1,3,541.5882,64.1023
1,6,20,4,0,2,B,F,r,g,10,10,72001,1,3,588.1173,88.1173
1,6,20,4,0,2,B,F,r,g,10,10,72001,1,3,466.5413,28.0797
1,6,20,4,0,2,B,F,r,g,10,10,72001,1,3,475.5469,59.5994
1,6,20,4,0,2,B,F,r,g,10,10,72001,1,3,394.4962,38.5863
1,6,20,4,0,2,B,F,r,g,10,10,72001,1,3,412.5075,104.6276
1,6,20,4,0,2,B,F,r,g,10,10,72001,1,3,304.44,89.6182
1,6,20,4,0,2,B,F,r,g,10,10,72001,1,1,214.3837,364.2899
1,6,20,4,0,2,B,F,r,g,10,10,73001,1,3,307.4418,94.121
1,6,20,4,0,2,B,F,r,g,10,10,73001,1,3,412.5075,100.1248
1,6,20,4,0,2,B,F,r,g,10,10,73001,1,3,429.0178,37.0854
1,6,20,4,0,2,B,F,r,g,10,10,73001,1,3,444.0272,62.6013
1,6,20,4,0,2,B,F,r,g,10,10,73001,1,3,498.061,37.0854
1,6,20,4,0,2,B,F,r,g,10,10,73001,1,1,395.9972,160.1623
1,6,20,4,0,2,B,F,r,g,10,10,73001,1,3,609.1304,92.6201
1,6,20,4,0,2,B,F,r,g,10,10,73001,1,1,380.9878,457.348
1,6,20,4,0,2,B,F,r,g,10,10,74001,1,3,220.3874,191.682
1,6,20,4,0,2,B,F,r,g,10,10,74001,1,3,301.4381,85.1154
1,6,20,4,0,2,B,F,r,g,10,10,74001,1,3,409.5056,106.1285
1,6,20,4,0,2,B,F,r,g,10,10,74001,1,3,457.5356,61.1004
1,6,20,4,0,2,B,F,r,g,10,10,74001,1,3,505.5657,50.5938
1,6,20,4,0,2,B,F,r,g,10,10,74001,1,3,604.6276,88.1173
1,6,20,4,0,2,B,F,r,g,10,10,74001,1,1,699.1867,332.7702
1,6,20,4,0,2,B,F,r,g,10,10,75001,1,3,266.9165,349.2805
1,6,20,4,0,2,B,F,r,g,10,10,75001,1,1,263.9146,169.1679
1,6,20,4,0,2,B,F,r,g,10,10,75001,1,3,266.9165,137.6482
1,6,20,4,0,2,B,F,r,g,10,10,75001,1,3,299.9371,136.1473
1,6,20,4,0,2,B,F,r,g,10,10,75001,1,3,414.0084,106.1285
1,6,20,4,0,2,B,F,r,g,10,10,75001,1,3,442.5263,49.0929
1,6,20,4,0,2,B,F,r,g,10,10,75001,1,1,487.5544,71.6069
1,6,20,4,0,2,B,F,r,g,10,10,75001,1,1,532.5826,83.6144
1,6,20,4,0,2,B,F,r,g,10,10,75001,1,3,610.6313,91.1191
1,6,20,4,0,2,B,F,r,g,10,10,76001,1,3,313.4456,133.1454
1,6,20,4,0,2,B,F,r,g,10,10,76001,1,3,427.5169,98.6238
1,6,20,4,0,2,B,F,r,g,10,10,76001,1,3,433.5206,49.0929
1,6,20,4,0,2,B,F,r,g,10,10,76001,1,3,490.5563,43.0891
1,6,20,4,0,2,B,F,r,g,10,10,76001,1,3,621.1379,97.1229
1,6,20,4,0,2,B,F,r,g,10,10,76001,1,1,660.1623,107.6295
1,6,20,4,0,2,B,F,r,g,10,10,77001,1,3,304.44,140.6501
1,6,20,4,0,2,B,F,r,g,10,10,77001,1,3,371.9822,82.1135
1,6,20,4,0,2,B,F,r,g,10,10,77001,1,3,447.0291,68.6051
1,6,20,4,0,2,B,F,r,g,10,10,77001,1,3,499.5619,44.5901
1,6,20,4,0,2,B,F,r,g,10,10,77001,1,3,631.6445,113.6332
1,6,20,4,0,2,B,F,r,g,10,10,78001,1,3,305.9409,127.1417
1,6,20,4,0,2,B,F,r,g,10,10,78001,1,1,353.9709,202.1886
1,6,20,4,0,2,B,F,r,g,10,10,78001,1,3,414.0084,59.5994
1,6,20,4,0,2,B,F,r,g,10,10,78001,1,3,607.6295,127.1417
1,6,20,4,0,2,B,F,r,g,10,10,78001,1,3,634.6463,122.6388
1,6,20,4,0,2,B,F,r,g,10,10,79001,1,3,302.939,353.7833
1,6,20,4,0,2,B,F,r,g,10,10,79001,1,3,319.4493,119.637
1,6,20,4,0,2,B,F,r,g,10,10,79001,1,3,415.5094,64.1023
1,6,20,4,0,2,B,F,r,g,10,10,79001,1,3,624.1398,146.6538
1,6,20,4,0,2,B,F,r,g,10,10,79001,1,1,616.6351,121.1379
1,6,20,4,0,2,B,F,r,g,10,10,79001,1,3,661.6632,145.1529
1,6,20,4,0,2,B,F,r,g,10,10,80001,1,3,313.4456,113.6332
1,6,20,4,0,2,B,F,r,g,10,10,80001,1,3,386.9916,124.1398
1,6,20,4,0,2,B,F,r,g,10,10,80001,1,3,409.5056,74.6088
1,6,20,4,0,2,B,F,r,g,10,10,80001,1,1,463.5394,64.1023
1,6,20,4,0,2,B,F,r,g,10,10,80001,1,3,628.6426,158.6614
1,6,20,4,0,2,B,F,r,g,10,10,80001,1,3,657.1604,158.6614
1,6,20,4,0,2,B,F,r,g,10,10,81001,1,3,313.4456,125.6407
1,6,20,4,0,2,B,F,r,g,10,10,81001,1,3,368.9803,67.1041
1,6,20,4,0,2,B,F,r,g,10,10,81001,1,3,397.4981,50.5938
1,6,20,4,0,2,B,F,r,g,10,10,81001,1,1,423.0141,71.6069
1,6,20,4,0,2,B,F,r,g,10,10,81001,1,3,625.6407,160.1623
1,6,20,4,0,2,B,F,r,g,10,10,81001,1,3,664.6651,160.1623
1,6,20,4,0,2,B,F,r,g,10,10,82001,1,3,319.4493,154.1585
1,6,20,4,0,2,B,F,r,g,10,10,82001,1,3,377.9859,62.6013
1,6,20,4,0,2,B,F,r,g,10,10,82001,1,3,423.0141,70.106
1,6,20,4,0,2,B,F,r,g,10,10,82001,1,3,631.6445,157.1604
1,6,20,4,0,2,B,F,r,g,10,10,82001,1,3,658.6614,155.6595
1,6,20,4,0,2,B,F,r,g,10,10,82001,1,1,657.1604,199.1867
1,6,20,4,0,2,B,F,r,g,10,10,83001,1,3,304.44,181.1754
1,6,20,4,0,2,B,F,r,g,10,10,83001,1,1,283.4268,130.1435
1,6,20,4,0,2,B,F,r,g,10,10,83001,1,3,221.8884,274.2336
1,6,20,4,0,2,B,F,r,g,10,10,83001,1,1,424.515,58.0985
1,6,20,4,0,2,B,F,r,g,10,10,83001,1,3,519.0741,79.1116
1,6,20,4,0,2,B,F,r,g,10,10,83001,1,3,616.6351,181.1754
1,6,20,4,0,2,B,F,r,g,10,10,83001,1,3,664.6651,149.6557
1,6,20,4,0,2,B,F,r,g,10,10,84001,1,3,211.3818,314.7589
1,6,20,4,0,2,B,F,r,g,10,10,84001,1,3,334.4587,175.1717
1,6,20,4,0,2,B,F,r,g,10,10,84001,1,1,565.6032,118.136
1,6,20,4,0,2,B,F,r,g,10,10,84001,1,3,610.6313,94.121
1,6,20,4,0,2,B,F,r,g,10,10,84001,1,3,615.1341,194.6839
1,6,20,4,0,2,B,F,r,g,10,10,84001,1,3,673.6707,143.652
1,6,20,4,0,2,B,F,r,g,10,10,85001,1,3,414.0084,478.3612
1,6,20,4,0,2,B,F,r,g,10,10,85001,1,3,337.4606,176.6726
1,6,20,4,0,2,B,F,r,g,10,10,85001,1,1,562.6013,97.1229
1,6,20,4,0,2,B,F,r,g,10,10,85001,1,3,615.1341,97.1229
1,6,20,4,0,2,B,F,r,g,10,10,85001,1,3,609.1304,208.1923
1,6,20,4,0,2,B,F,r,g,10,10,85001,1,3,658.6614,148.1548
1,6,20,4,0,2,B,F,r,g,10,10,86001,1,3,340.4625,167.667
1,6,20,4,0,2,B,F,r,g,10,10,86001,1,3,556.5976,140.6501
1,6,20,4,0,2,B,F,r,g,10,10,86001,1,3,622.6388,100.1248
1,6,20,4,0,2,B,F,r,g,10,10,86001,1,3,600.1248,205.1904
1,6,20,4,0,2,B,F,r,g,10,10,86001,1,3,666.166,154.1585
1,6,20,4,0,2,B,F,r,g,10,10,86001,1,1,663.1642,253.2205
1,6,20,4,0,2,B,F,r,g,10,10,87001,1,3,305.9409,169.1679
1,6,20,4,0,2,B,F,r,g,10,10,87001,1,1,442.5263,190.1811
1,6,20,4,0,2,B,F,r,g,10,10,87001,1,3,576.1098,166.166
1,6,20,4,0,2,B,F,r,g,10,10,87001,1,3,604.6276,200.6876
1,6,20,4,0,2,B,F,r,g,10,10,87001,1,3,661.6632,148.1548
1,6,20,4,0,2,B,F,r,g,10,10,87001,1,3,618.136,103.1266
1,6,20,4,0,2,B,F,r,g,10,10,88001,1,1,325.4531,187.1792
1,6,20,4,0,2,B,F,r,g,10,10,88001,1,3,224.8902,191.682
1,6,20,4,0,2,B,F,r,g,10,10,88001,1,3,573.1079,167.667
1,6,20,4,0,2,B,F,r,g,10,10,88001,1,3,577.6107,212.6951
1,6,20,4,0,2,B,F,r,g,10,10,88001,1,3,649.6557,137.6482
1,6,20,4,0,2,B,F,r,g,10,10,88001,1,3,615.1341,100.1248
1,6,20,4,0,2,B,F,r,g,10,10,89001,1,3,229.3931,274.2336
1,6,20,4,0,2,B,F,r,g,10,10,89001,1,1,403.5019,53.5957
1,6,20,4,0,2,B,F,r,g,10,10,89001,1,3,574.6088,157.1604
1,6,20,4,0,2,B,F,r,g,10,10,89001,1,3,571.6069,215.697
1,6,20,4,0,2,B,F,r,g,10,10,89001,1,3,636.1473,115.1341
1,6,20,4,0,2,B,F,r,g,10,10,89001,1,3,651.1567,142.151
1,6,20,4,0,2,B,F,r,g,10,10,90001,1,3,227.8921,283.2392
1,6,20,4,0,2,B,F,r,g,10,10,90001,1,1,544.5901,158.6614
1,6,20,4,0,2,B,F,r,g,10,10,90001,1,3,598.6238,164.6651
1,6,20,4,0,2,B,F,r,g,10,10,90001,1,3,549.0929,211.1942
1,6,20,4,0,2,B,F,r,g,10,10,90001,1,3,649.6557,140.6501
1,6,20,4,0,2,B,F,r,g,10,10,90001,1,3,643.652,118.136
1,6,20,4,0,2,B,F,r,g,10,10,91001,1,3,657.1604,146.6538
1,6,20,4,0,2,B,F,r,g,10,10,91001,1,3,670.6689,178.1735
1,6,20,4,0,2,B,F,r,g,10,10,91001,1,1,613.6332,209.6932
1,6,20,4,0,2,B,F,r,g,10,10,91001,1,3,553.5957,215.697
1,6,20,4,0,2,B,F,r,g,10,10,91001,1,3,423.0141,76.1098
1,6,20,4,0,2,B,F,r,g,10,10,91001,1,3,245.9034,296.7477
1,6,20,4,0,2,B,F,r,g,10,10,92001,1,3,248.9053,299.7495
1,6,20,4,0,2,B,F,r,g,10,10,92001,1,1,206.879,283.2392
1,6,20,4,0,2,B,F,r,g,10,10,92001,1,1,368.9803,68.6051
1,6,20,4,0,2,B,F,r,g,10,10,92001,1,3,423.0141,46.091
1,6,20,4,0,2,B,F,r,g,10,10,92001,1,1,492.0572,64.1023
1,6,20,4,0,2,B,F,r,g,10,10,92001,1,3,537.0854,211.1942
1,6,20,4,0,2,B,F,r,g,10,10,92001,1,3,643.652,128.6426
1,6,20,4,0,2,B,F,r,g,10,10,92001,1,3,657.1604,160.1623
1,6,20,4,0,2,B,F,r,g,10,10,93001,1,3,245.9034,287.742
1,6,20,4,0,2,B,F,r,g,10,10,93001,1,3,356.9728,148.1548
1,6,20,4,0,2,B,F,r,g,10,10,93001,1,1,495.0591,65.6032
1,6,20,4,0,2,B,F,r,g,10,10,93001,1,3,484.5525,25.0779
1,6,20,4,0,2,B,F,r,g,10,10,93001,1,3,544.5901,208.1923
1,6,20,4,0,2,B,F,r,g,10,10,93001,1,3,631.6445,182.6764
1,6,20,4,0,2,B,F,r,g,10,10,93001,1,3,666.166,148.1548
1,6,20,4,0,2,B,F,r,g,10,10,93001,1,3,679.6745,175.1717
1,6,20,4,0,2,B,F,r,g,10,10,93001,1,1,631.6445,211.1942
1,6,20,4,0,2,B,F,r,g,10,10,93001,1,1,636.1473,239.712
1,6,20,4,0,2,B,F,r,g,10,10,94001,1,3,266.9165,307.2542
1,6,20,4,0,2,B,F,r,g,10,10,94001,1,3,272.9203,142.151
1,6,20,4,0,2,B,F,r,g,10,10,94001,1,3,395.9972,179.6745
1,6,20,4,0,2,B,F,r,g,10,10,94001,1,3,406.5038,49.0929
1,6,20,4,0,2,B,F,r,g,10,10,94001,1,1,573.1079,94.121
1,6,20,4,0,2,B,F,r,g,10,10,94001,1,3,544.5901,196.1848
1,6,20,4,0,2,B,F,r,g,10,10,94001,1,3,643.652,131.6445
1,6,20,4,0,2,B,F,r,g,10,10,94001,1,3,660.1623,158.6614
1,6,20,4,0,2,B,F,r,g,10,10,94001,1,1,654.1585,212.6951
1,6,20,4,0,2,B,F,r,g,10,10,94001,1,3,690.1811,226.2036
1,6,20,4,0,2,B,F,r,g,10,10,95001,1,3,269.9184,319.2617
1,6,20,4,0,2,B,F,r,g,10,10,95001,1,1,320.9503,475.3593
1,6,20,4,0,2,B,F,r,g,10,10,95001,1,1,388.4925,484.3649
1,6,20,4,0,2,B,F,r,g,10,10,95001,1,1,346.4662,88.1173
1,6,20,4,0,2,B,F,r,g,10,10,95001,1,3,426.0159,76.1098
1,6,20,4,0,2,B,F,r,g,10,10,95001,1,3,469.5432,47.5919
1,6,20,4,0,2,B,F,r,g,10,10,95001,1,3,543.0891,203.6895
1,6,20,4,0,2,B,F,r,g,10,10,95001,1,3,625.6407,113.6332
1,6,20,4,0,2,B,F,r,g,10,10,95001,1,3,655.6595,161.6632
1,6,20,4,0,2,B,F,r,g,10,10,96001,1,3,274.4212,320.7627
1,6,20,4,0,2,B,F,r,g,10,10,96001,1,1,391.4944,314.7589
1,6,20,4,0,2,B,F,r,g,10,10,96001,1,3,432.0197,74.6088
1,6,20,4,0,2,B,F,r,g,10,10,96001,1,3,486.0535,89.6182
1,6,20,4,0,2,B,F,r,g,10,10,96001,1,3,532.5826,205.1904
1,6,20,4,0,2,B,F,r,g,10,10,96001,1,1,600.1248,187.1792
1,6,20,4,0,2,B,F,r,g,10,10,96001,1,3,636.1473,125.6407
1,6,20,4,0,2,B,F,r,g,10,10,96001,1,3,655.6595,148.1548
1,6,20,4,0,2,B,F,r,g,10,10,96001,1,1,615.1341,94.121
1,6,20,4,0,2,B,F,r,g,10,10,96001,1,3,559.5994,116.6351
1,6,20,4,0,2,B,F,r,g,10,10,97001,1,3,301.4381,326.7664
1,6,20,4,0,2,B,F,r,g,10,10,97001,1,3,205.378,290.7439
1,6,20,4,0,2,B,F,r,g,10,10,97001,1,3,380.9878,49.0929
1,6,20,4,0,2,B,F,r,g,10,10,97001,1,3,510.0685,47.5919
1,6,20,4,0,2,B,F,r,g,10,10,97001,1,3,639.1492,125.6407
1,6,20,4,0,2,B,F,r,g,10,10,97001,1,3,655.6595,155.6595
1,6,20,4,0,2,B,F,r,g,10,10,97001,1,3,667.667,157.1604
1,6,20,4,0,2,B,F,r,g,10,10,97001,1,1,649.6557,179.6745
1,6,20,4,0,2,B,F,r,g,10,10,97001,1,1,622.6388,175.1717
1,6,20,4,0,2,B,F,r,g,10,10,98001,1,3,251.9071,293.7458
1,6,20,4,0,2,B,F,r,g,10,10,98001,1,3,409.5056,220.1998
1,6,20,4,0,2,B,F,r,g,10,10,98001,1,1,311.9447,119.637
1,6,20,4,0,2,B,F,r,g,10,10,98001,1,1,382.4887,70.106
1,6,20,4,0,2,B,F,r,g,10,10,98001,1,3,448.53,40.0872
1,6,20,4,0,2,B,F,r,g,10,10,98001,1,3,466.5413,59.5994
1,6,20,4,0,2,B,F,r,g,10,10,98001,1,1,595.622,86.6163
1,6,20,4,0,2,B,F,r,g,10,10,98001,1,3,634.6463,109.1304
1,6,20,4,0,2,B,F,r,g,10,10,98001,1,3,649.6557,130.1435
1,6,20,4,0,2,B,F,r,g,10,10,98001,1,1,633.1454,176.6726
1,6,20,4,0,2,B,F,r,g,10,10,98001,1,3,679.6745,184.1773
1,6,20,4,0,2,B,F,r,g,10,10,99001,1,3,280.425,338.7739
1,6,20,4,0,2,B,F,r,g,10,10,99001,1,3,370.4812,253.2205
1,6,20,4,0,2,B,F,r,g,10,10,99001,1,3,346.4662,67.1041
1,6,20,4,0,2,B,F,r,g,10,10,99001,1,3,438.0235,47.5919
1,6,20,4,0,2,B,F,r,g,10,10,99001,1,3,480.0497,40.0872
1,6,20,4,0,2,B,F,r,g,10,10,99001,1,1,484.5525,142.151
1,6,20,4,0,2,B,F,r,g,10,10,99001,1,3,645.1529,130.1435
1,6,20,4,0,2,B,F,r,g,10,10,99001,1,3,658.6614,155.6595
1,6,20,4,0,2,B,F,r,g,10,10,99001,1,3,685.6782,173.6707
1,6,20,4,0,2,B,F,r,g,10,10,100001,1,3,235.3968,337.273
1,6,20,4,0,2,B,F,r,g,10,10,100001,1,3,212.8827,205.1904
1,6,20,4,0,2,B,F,r,g,10,10,100001,1,1,352.47,112.1323
1,6,20,4,0,2,B,F,r,g,10,10,100001,1,3,352.47,71.6069
1,6,20,4,0,2,B,F,r,g,10,10,100001,1,3,475.5469,125.6407
1,6,20,4,0,2,B,F,r,g,10,10,100001,1,1,370.4812,77.6107
1,6,20,4,0,2,B,F,r,g,10,10,100001,1,3,621.1379,106.1285
1,6,20,4,0,2,B,F,r,g,10,10,100001,1,3,657.1604,136.1473
1,6,20,4,0,2,B,F,r,g,10,10,101001,1,3,280.425,325.2655
1,6,20,4,0,2,B,F,r,g,10,10,101001,1,3,405.0028,325.2655
1,6,20,4,0,2,B,F,r,g,10,10,101001,1,1,430.5188,548.9053
1,6,20,4,0,2,B,F,r,g,10,10,101001,1,3,337.4606,79.1116
1,6,20,4,0,2,B,F,r,g,10,10,101001,1,1,326.954,106.1285
1,6,20,4,0,2,B,F,r,g,10,10,101001,1,3,453.0328,157.1604
1,6,20,4,0,2,B,F,r,g,10,10,101001,1,3,624.1398,103.1266
1,6,20,4,0,2,B,F,r,g,10,10,101001,1,3,648.1548,157.1604
1,6,20,4,0,2,B,F,r,g,10,10,101001,1,3,670.6689,158.6614
1,6,20,4,0,2,B,F,r,g,10,10,102001,1,3,508.5675,281.7383
1,6,20,4,0,2,B,F,r,g,10,10,102001,1,3,655.6595,151.1567
1,6,20,4,0,2,B,F,r,g,10,10,102001,1,3,640.6501,122.6388
1,6,20,4,0,2,B,F,r,g,10,10,102001,1,1,561.1004,77.6107
1,6,20,4,0,2,B,F,r,g,10,10,102001,1,3,451.5319,55.0966
1,6,20,4,0,2,B,F,r,g,10,10,102001,1,3,370.4812,130.1435
1,6,20,4,0,2,B,F,r,g,10,10,102001,1,3,215.8846,221.7008
1,6,20,4,0,2,B,F,r,g,10,10,102001,1,1,565.6032,520.3874
1,6,20,4,0,2,B,F,r,g,10,10,103001,1,3,429.0178,350.7814
1,6,20,4,0,2,B,F,r,g,10,10,103001,1,3,301.4381,410.8189
1,6,20,4,0,2,B,F,r,g,10,10,103001,1,3,358.4737,245.7158
1,6,20,4,0,2,B,F,r,g,10,10,103001,1,3,377.9859,58.0985
1,6,20,4,0,2,B,F,r,g,10,10,103001,1,3,643.652,122.6388
1,6,20,4,0,2,B,F,r,g,10,10,103001,1,3,652.6576,149.6557
1,6,20,4,0,2,B,F,r,g,10,10,103001,1,1,552.0947,526.3912
1,6,20,4,0,2,B,F,r,g,10,10,104001,1,3,320.9503,442.3386
1,6,20,4,0,2,B,F,r,g,10,10,104001,1,1,212.8827,286.2411
1,6,20,4,0,2,B,F,r,g,10,10,104001,1,3,254.909,217.1979
1,6,20,4,0,2,B,F,r,g,10,10,104001,1,3,296.9353,116.6351
1,6,20,4,0,2,B,F,r,g,10,10,104001,1,3,389.9934,203.6895
1,6,20,4,0,2,B,F,r,g,10,10,104001,1,1,600.1248,103.1266
1,6,20,4,0,2,B,F,r,g,10,10,104001,1,3,640.6501,125.6407
1,6,20,4,0,2,B,F,r,g,10,10,104001,1,3,654.1585,154.1585
1,6,20,4,0,2,B,F,r,g,10,10,104001,1,1,682.6764,196.1848
1,6,20,4,0,2,B,F,r,g,10,10,105001,1,3,317.9484,433.333
1,6,20,4,0,2,B,F,r,g,10,10,105001,1,3,293.9334,248.7176
1,6,20,4,0,2,B,F,r,g,10,10,105001,1,3,202.3762,247.2167
1,6,20,4,0,2,B,F,r,g,10,10,105001,1,3,552.0947,197.6857
1,6,20,4,0,2,B,F,r,g,10,10,105001,1,1,528.0797,157.1604
1,6,20,4,0,2,B,F,r,g,10,10,105001,1,3,658.6614,157.1604
1,6,20,4,0,2,B,F,r,g,10,10,105001,1,3,654.1585,130.1435
1,6,20,4,0,2,B,F,r,g,10,10,106001,1,3,389.9934,419.8246
1,6,20,4,0,2,B,F,r,g,10,10,106001,1,3,391.4944,308.7552
1,6,20,4,0,2,B,F,r,g,10,10,106001,1,1,414.0084,281.7383
1,6,20,4,0,2,B,F,r,g,10,10,106001,1,3,251.9071,224.7026
1,6,20,4,0,2,B,F,r,g,10,10,106001,1,3,227.8921,380.8002
1,6,20,4,0,2,B,F,r,g,10,10,106001,1,3,654.1585,140.6501
1,6,20,4,0,2,B,F,r,g,10,10,106001,1,3,655.6595,157.1604
1,6,20,4,0,2,B,F,r,g,10,10,107001,1,3,233.8959,380.8002
1,6,20,4,0,2,B,F,r,g,10,10,107001,1,3,221.8884,292.2448
1,6,20,4,0,2,B,F,r,g,10,10,107001,1,3,313.4456,145.1529
1,6,20,4,0,2,B,F,r,g,10,10,107001,1,1,379.4869,218.6989
1,6,20,4,0,2,B,F,r,g,10,10,107001,1,3,475.5469,142.151
1,6,20,4,0,2,B,F,r,g,10,10,107001,1,3,631.6445,101.6257
1,6,20,4,0,2,B,F,r,g,10,10,107001,1,3,643.652,143.652
1,6,20,4,0,2,B,F,r,g,10,10,107001,1,3,660.1623,136.1473
